{
    "Oid": "E3CAD1C3-E7B0-4AB2-88CE-1E23B182323C",
    "Name": "DetailView_Detail_Link_ListView_Detail",
    "ID_Model": "78E87ADE-8C67-4787-B172-B747019BF50A",
    "DataSource": null,
    "Comment": null,
    "ID_DetailView": "4DBD0D34-0FA8-4492-AEE2-4BCE01C5B549",
    "Model": "DetailView_Detail_Link",
    "PrimaryKey": "Oid",
    "Caption": "Control Links",
    "Details": [
        {
            "ID_PropertyType": 1,
            "Precision": null,
            "$DataSource": null,
            "DisplayProperty": null,
            "Oid": "0265DCB4-86E5-40B8-9C12-1CD7695E9A1D",
            "Code": null,
            "Name": "Code",
            "IsActive": true,
            "Comment": null,
            "Caption": null,
            "ID_ModelProperty": "E12D90AE-4D2F-4DD9-8AA8-222642E42A43",
            "ID_ListView": "E3CAD1C3-E7B0-4AB2-88CE-1E23B182323C",
            "ID_CreatedBy": 1,
            "ID_LastModifiedBy": 1,
            "DateCreated": "2018-06-18T17:59:03.000Z",
            "DateModified": null,
            "DataSource": null,
            "Format": null,
            "Width": null,
            "Fixed": null,
            "VisibleIndex": 200,
            "IsAllowEdit": null,
            "ID_ControlType": null,
            "ID_ColumnAlignment": null,
            "IsVisible": false,
            "FixedPosition": null,
            "IsRequired": null,
            "ID_SummaryType": null,
            "IsAddModelClass": null,
            "GroupIndex": null,
            "IsFilter": null,
            "ID_FilterControlType": null,
            "ID_PropertyModel": null,
            "PropertyModel": null,
            "SummaryType": null
        },
        {
            "ID_PropertyType": 1,
            "Precision": null,
            "$DataSource": null,
            "DisplayProperty": null,
            "Oid": "70E0C759-39BA-487E-A54B-53C5C7F011F7",
            "Code": null,
            "Name": "Name",
            "IsActive": true,
            "Comment": null,
            "Caption": "Property Name",
            "ID_ModelProperty": "53EC2888-245F-4AFA-B81E-E95D91DD8738",
            "ID_ListView": "E3CAD1C3-E7B0-4AB2-88CE-1E23B182323C",
            "ID_CreatedBy": 1,
            "ID_LastModifiedBy": 1,
            "DateCreated": "2018-06-18T17:59:03.000Z",
            "DateModified": null,
            "DataSource": null,
            "Format": null,
            "Width": "338",
            "Fixed": null,
            "VisibleIndex": 100,
            "IsAllowEdit": null,
            "ID_ControlType": null,
            "ID_ColumnAlignment": null,
            "IsVisible": true,
            "FixedPosition": null,
            "IsRequired": null,
            "ID_SummaryType": null,
            "IsAddModelClass": null,
            "GroupIndex": null,
            "IsFilter": null,
            "ID_FilterControlType": null,
            "ID_PropertyModel": null,
            "PropertyModel": null,
            "SummaryType": null
        },
        {
            "ID_PropertyType": 2,
            "Precision": null,
            "$DataSource": null,
            "DisplayProperty": "CreatedBy",
            "Oid": "0C97C41D-CB84-42B1-B87A-589F8168D3A0",
            "Code": null,
            "Name": "ID_CreatedBy",
            "IsActive": true,
            "Comment": null,
            "Caption": "Created By",
            "ID_ModelProperty": "76BF35A2-2900-428F-9E3A-68ED03C7F538",
            "ID_ListView": "E3CAD1C3-E7B0-4AB2-88CE-1E23B182323C",
            "ID_CreatedBy": 1,
            "ID_LastModifiedBy": 1,
            "DateCreated": "2018-06-18T17:59:03.000Z",
            "DateModified": null,
            "DataSource": null,
            "Format": null,
            "Width": null,
            "Fixed": null,
            "VisibleIndex": 800,
            "IsAllowEdit": null,
            "ID_ControlType": null,
            "ID_ColumnAlignment": null,
            "IsVisible": false,
            "FixedPosition": null,
            "IsRequired": null,
            "ID_SummaryType": null,
            "IsAddModelClass": null,
            "GroupIndex": null,
            "IsFilter": null,
            "ID_FilterControlType": null,
            "ID_PropertyModel": null,
            "PropertyModel": null,
            "SummaryType": null
        },
        {
            "ID_PropertyType": 5,
            "Precision": null,
            "$DataSource": null,
            "DisplayProperty": null,
            "Oid": "C13AD4F0-95E1-469A-BFAE-7A79BB8CC645",
            "Code": null,
            "Name": "DateCreated",
            "IsActive": true,
            "Comment": null,
            "Caption": "Date Created",
            "ID_ModelProperty": "EF13263A-CEB8-486D-9039-F25A0A6938FC",
            "ID_ListView": "E3CAD1C3-E7B0-4AB2-88CE-1E23B182323C",
            "ID_CreatedBy": 1,
            "ID_LastModifiedBy": 1,
            "DateCreated": "2018-06-18T17:59:03.000Z",
            "DateModified": null,
            "DataSource": null,
            "Format": null,
            "Width": null,
            "Fixed": null,
            "VisibleIndex": 600,
            "IsAllowEdit": null,
            "ID_ControlType": null,
            "ID_ColumnAlignment": null,
            "IsVisible": false,
            "FixedPosition": null,
            "IsRequired": null,
            "ID_SummaryType": null,
            "IsAddModelClass": null,
            "GroupIndex": null,
            "IsFilter": null,
            "ID_FilterControlType": null,
            "ID_PropertyModel": null,
            "PropertyModel": null,
            "SummaryType": null
        },
        {
            "ID_PropertyType": 1,
            "Precision": null,
            "$DataSource": null,
            "DisplayProperty": null,
            "Oid": "A6AC3E45-08A9-47DD-A5FE-96D3EDA0A32A",
            "Code": null,
            "Name": "Oid",
            "IsActive": true,
            "Comment": null,
            "Caption": null,
            "ID_ModelProperty": "F1C42948-B8CD-48B3-B87A-103490724CF0",
            "ID_ListView": "E3CAD1C3-E7B0-4AB2-88CE-1E23B182323C",
            "ID_CreatedBy": 1,
            "ID_LastModifiedBy": 1,
            "DateCreated": "2018-06-18T17:59:03.000Z",
            "DateModified": null,
            "DataSource": null,
            "Format": null,
            "Width": "101",
            "Fixed": true,
            "VisibleIndex": 1100,
            "IsAllowEdit": null,
            "ID_ControlType": null,
            "ID_ColumnAlignment": null,
            "IsVisible": true,
            "FixedPosition": "left",
            "IsRequired": null,
            "ID_SummaryType": null,
            "IsAddModelClass": null,
            "GroupIndex": null,
            "IsFilter": null,
            "ID_FilterControlType": null,
            "ID_PropertyModel": null,
            "PropertyModel": null,
            "SummaryType": null
        },
        {
            "ID_PropertyType": 1,
            "Precision": null,
            "$DataSource": null,
            "DisplayProperty": null,
            "Oid": "D3A411C4-7ED7-40D2-B2D9-9FF033EFAC90",
            "Code": null,
            "Name": "Comment",
            "IsActive": true,
            "Comment": null,
            "Caption": null,
            "ID_ModelProperty": "F24ADCEB-0515-4240-9FF0-7E12BE5B7602",
            "ID_ListView": "E3CAD1C3-E7B0-4AB2-88CE-1E23B182323C",
            "ID_CreatedBy": 1,
            "ID_LastModifiedBy": 1,
            "DateCreated": "2018-06-18T17:59:03.000Z",
            "DateModified": null,
            "DataSource": null,
            "Format": null,
            "Width": "295",
            "Fixed": null,
            "VisibleIndex": 500,
            "IsAllowEdit": null,
            "ID_ControlType": null,
            "ID_ColumnAlignment": null,
            "IsVisible": true,
            "FixedPosition": null,
            "IsRequired": null,
            "ID_SummaryType": null,
            "IsAddModelClass": null,
            "GroupIndex": null,
            "IsFilter": null,
            "ID_FilterControlType": null,
            "ID_PropertyModel": null,
            "PropertyModel": null,
            "SummaryType": null
        },
        {
            "ID_PropertyType": 2,
            "Precision": null,
            "$DataSource": null,
            "DisplayProperty": "LastModifiedBy",
            "Oid": "8DF4C575-E50C-463F-B156-C32296991B87",
            "Code": null,
            "Name": "ID_LastModifiedBy",
            "IsActive": true,
            "Comment": null,
            "Caption": "Last Modified By",
            "ID_ModelProperty": "45C47BCB-95E9-48DB-8D64-4BB736D31E8A",
            "ID_ListView": "E3CAD1C3-E7B0-4AB2-88CE-1E23B182323C",
            "ID_CreatedBy": 1,
            "ID_LastModifiedBy": 1,
            "DateCreated": "2018-06-18T17:59:03.000Z",
            "DateModified": null,
            "DataSource": null,
            "Format": null,
            "Width": null,
            "Fixed": null,
            "VisibleIndex": 1000,
            "IsAllowEdit": null,
            "ID_ControlType": null,
            "ID_ColumnAlignment": null,
            "IsVisible": false,
            "FixedPosition": null,
            "IsRequired": null,
            "ID_SummaryType": null,
            "IsAddModelClass": null,
            "GroupIndex": null,
            "IsFilter": null,
            "ID_FilterControlType": null,
            "ID_PropertyModel": null,
            "PropertyModel": null,
            "SummaryType": null
        },
        {
            "ID_PropertyType": 5,
            "Precision": null,
            "$DataSource": null,
            "DisplayProperty": null,
            "Oid": "5BC1832F-8C66-49EC-A77A-C4D88D83F750",
            "Code": null,
            "Name": "DateModified",
            "IsActive": true,
            "Comment": null,
            "Caption": "Date Modified",
            "ID_ModelProperty": "9D2A6F69-20B4-4593-A56A-7F905A8C0F19",
            "ID_ListView": "E3CAD1C3-E7B0-4AB2-88CE-1E23B182323C",
            "ID_CreatedBy": 1,
            "ID_LastModifiedBy": 1,
            "DateCreated": "2018-06-18T17:59:03.000Z",
            "DateModified": null,
            "DataSource": null,
            "Format": null,
            "Width": null,
            "Fixed": null,
            "VisibleIndex": 700,
            "IsAllowEdit": null,
            "ID_ControlType": null,
            "ID_ColumnAlignment": null,
            "IsVisible": false,
            "FixedPosition": null,
            "IsRequired": null,
            "ID_SummaryType": null,
            "IsAddModelClass": null,
            "GroupIndex": null,
            "IsFilter": null,
            "ID_FilterControlType": null,
            "ID_PropertyModel": null,
            "PropertyModel": null,
            "SummaryType": null
        },
        {
            "ID_PropertyType": 4,
            "Precision": null,
            "$DataSource": null,
            "DisplayProperty": null,
            "Oid": "A866ED16-18B1-41D0-9796-CF65490F490E",
            "Code": null,
            "Name": "IsActive",
            "IsActive": true,
            "Comment": null,
            "Caption": "Active",
            "ID_ModelProperty": "C4D9383A-6523-4CD7-8616-319B5DFE2555",
            "ID_ListView": "E3CAD1C3-E7B0-4AB2-88CE-1E23B182323C",
            "ID_CreatedBy": 1,
            "ID_LastModifiedBy": 1,
            "DateCreated": "2018-06-18T17:59:03.000Z",
            "DateModified": null,
            "DataSource": null,
            "Format": null,
            "Width": "138",
            "Fixed": null,
            "VisibleIndex": 400,
            "IsAllowEdit": true,
            "ID_ControlType": null,
            "ID_ColumnAlignment": null,
            "IsVisible": true,
            "FixedPosition": null,
            "IsRequired": null,
            "ID_SummaryType": null,
            "IsAddModelClass": null,
            "GroupIndex": null,
            "IsFilter": null,
            "ID_FilterControlType": null,
            "ID_PropertyModel": null,
            "PropertyModel": null,
            "SummaryType": null
        },
        {
            "ID_PropertyType": 1,
            "Precision": null,
            "$DataSource": null,
            "DisplayProperty": null,
            "Oid": "62E297C0-99B4-4EB2-8536-D4D32552B441",
            "Code": null,
            "Name": "ID_DetailView_Detail",
            "IsActive": true,
            "Comment": null,
            "Caption": null,
            "ID_ModelProperty": "9A237A97-EE84-4243-8B90-EFCC724D2D86",
            "ID_ListView": "E3CAD1C3-E7B0-4AB2-88CE-1E23B182323C",
            "ID_CreatedBy": 1,
            "ID_LastModifiedBy": 1,
            "DateCreated": "2018-06-18T17:59:03.000Z",
            "DateModified": null,
            "DataSource": null,
            "Format": null,
            "Width": null,
            "Fixed": null,
            "VisibleIndex": 900,
            "IsAllowEdit": null,
            "ID_ControlType": null,
            "ID_ColumnAlignment": null,
            "IsVisible": false,
            "FixedPosition": null,
            "IsRequired": null,
            "ID_SummaryType": null,
            "IsAddModelClass": null,
            "GroupIndex": null,
            "IsFilter": null,
            "ID_FilterControlType": null,
            "ID_PropertyModel": null,
            "PropertyModel": null,
            "SummaryType": null
        },
        {
            "ID_PropertyType": 8,
            "Precision": null,
            "$DataSource": null,
            "DisplayProperty": "ControlLink",
            "Oid": "2C9D73C9-070D-4D01-B05F-1308E06716AD",
            "Code": null,
            "Name": "ID_DetailView_Detail_Link",
            "IsActive": true,
            "Comment": null,
            "Caption": "Control Link",
            "ID_ModelProperty": "E3B30344-4C19-4301-B495-87620DDF9AB5",
            "ID_ListView": "E3CAD1C3-E7B0-4AB2-88CE-1E23B182323C",
            "ID_CreatedBy": 1,
            "ID_LastModifiedBy": 1,
            "DateCreated": "2018-06-18T18:18:32.857Z",
            "DateModified": null,
            "DataSource": null,
            "Format": null,
            "Width": "156",
            "Fixed": null,
            "VisibleIndex": 0,
            "IsAllowEdit": null,
            "ID_ControlType": null,
            "ID_ColumnAlignment": null,
            "IsVisible": true,
            "FixedPosition": null,
            "IsRequired": null,
            "ID_SummaryType": null,
            "IsAddModelClass": null,
            "GroupIndex": null,
            "IsFilter": null,
            "ID_FilterControlType": null,
            "ID_PropertyModel": null,
            "PropertyModel": null,
            "SummaryType": null
        },
        {
            "ID_PropertyType": 4,
            "Precision": null,
            "$DataSource": null,
            "DisplayProperty": null,
            "Oid": "6B057213-C274-4A56-B298-7B57E459DD2C",
            "Code": null,
            "Name": "IsRequired",
            "IsActive": true,
            "Comment": null,
            "Caption": "Required",
            "ID_ModelProperty": "86DDA6C8-11DE-42F8-A64A-2EA830F689F4",
            "ID_ListView": "E3CAD1C3-E7B0-4AB2-88CE-1E23B182323C",
            "ID_CreatedBy": 1,
            "ID_LastModifiedBy": 1,
            "DateCreated": "2018-06-23T09:28:39.053Z",
            "DateModified": null,
            "DataSource": null,
            "Format": null,
            "Width": "164",
            "Fixed": null,
            "VisibleIndex": 300,
            "IsAllowEdit": true,
            "ID_ControlType": null,
            "ID_ColumnAlignment": null,
            "IsVisible": true,
            "FixedPosition": null,
            "IsRequired": null,
            "ID_SummaryType": null,
            "IsAddModelClass": null,
            "GroupIndex": null,
            "IsFilter": null,
            "ID_FilterControlType": null,
            "ID_PropertyModel": null,
            "PropertyModel": null,
            "SummaryType": null
        }
    ]
}