{
    "Oid": "9DDD8950-5B2A-42C0-A412-9387586A7680",
    "Name": "PaymentTransaction_ListView",
    "ID_Model": "8F4B8EE4-ADE5-4DFC-BA71-0C55DDAF4DAB",
    "DataSource": "SELECT * FROM dbo.vPaymentTransaction",
    "Comment": null,
    "ID_DetailView": "DE46FD9D-B2FC-4AF9-BD60-9B058A717CCF",
    "Model": "PaymentTransaction",
    "PrimaryKey": "ID",
    "Caption": "Payment Transaction",
    "Details": [
        {
            "ID_PropertyType": 5,
            "Precision": null,
            "$DataSource": null,
            "DisplayProperty": null,
            "Oid": "B234420E-8DFC-4CF6-82AC-0B33FAB2AC01",
            "Code": null,
            "Name": "DateCreated",
            "IsActive": true,
            "Comment": null,
            "Caption": "Date Created",
            "ID_ModelProperty": "9C3DE301-BBE3-44F4-99C0-AC4FE07698F0",
            "ID_ListView": "9DDD8950-5B2A-42C0-A412-9387586A7680",
            "ID_CreatedBy": 1,
            "ID_LastModifiedBy": 1,
            "DateCreated": "2020-12-17T13:41:54.187Z",
            "DateModified": null,
            "DataSource": null,
            "Format": null,
            "Width": "150",
            "Fixed": null,
            "VisibleIndex": 60,
            "IsAllowEdit": null,
            "ID_ControlType": null,
            "ID_ColumnAlignment": null,
            "IsVisible": true,
            "FixedPosition": null,
            "IsRequired": null,
            "ID_SummaryType": null,
            "IsAddModelClass": null,
            "GroupIndex": 0,
            "IsFilter": null,
            "ID_FilterControlType": null,
            "ID_PropertyModel": null,
            "PropertyModel": null,
            "SummaryType": null
        },
        {
            "ID_PropertyType": 2,
            "Precision": null,
            "$DataSource": null,
            "DisplayProperty": "CreatedBy",
            "Oid": "70285A9B-8B8B-4017-9982-13BC6ACEE8A7",
            "Code": null,
            "Name": "ID_CreatedBy",
            "IsActive": true,
            "Comment": null,
            "Caption": "Created By",
            "ID_ModelProperty": "1A104092-21C6-48DF-A549-B0B729151B63",
            "ID_ListView": "9DDD8950-5B2A-42C0-A412-9387586A7680",
            "ID_CreatedBy": 1,
            "ID_LastModifiedBy": 1,
            "DateCreated": "2020-12-17T13:41:54.187Z",
            "DateModified": null,
            "DataSource": null,
            "Format": null,
            "Width": "150",
            "Fixed": null,
            "VisibleIndex": 70,
            "IsAllowEdit": null,
            "ID_ControlType": null,
            "ID_ColumnAlignment": null,
            "IsVisible": true,
            "FixedPosition": null,
            "IsRequired": null,
            "ID_SummaryType": null,
            "IsAddModelClass": null,
            "GroupIndex": 0,
            "IsFilter": null,
            "ID_FilterControlType": null,
            "ID_PropertyModel": null,
            "PropertyModel": null,
            "SummaryType": null
        },
        {
            "ID_PropertyType": 1,
            "Precision": null,
            "$DataSource": null,
            "DisplayProperty": null,
            "Oid": "3384FDDA-3CAD-43E7-B4C1-74887BF615F2",
            "Code": null,
            "Name": "Comment",
            "IsActive": true,
            "Comment": null,
            "Caption": null,
            "ID_ModelProperty": "DEBA8F8F-E5DA-4064-BC03-9F7D1A017DE6",
            "ID_ListView": "9DDD8950-5B2A-42C0-A412-9387586A7680",
            "ID_CreatedBy": 1,
            "ID_LastModifiedBy": 1,
            "DateCreated": "2020-12-17T13:41:54.187Z",
            "DateModified": null,
            "DataSource": null,
            "Format": null,
            "Width": "150",
            "Fixed": null,
            "VisibleIndex": 100,
            "IsAllowEdit": null,
            "ID_ControlType": null,
            "ID_ColumnAlignment": null,
            "IsVisible": false,
            "FixedPosition": null,
            "IsRequired": null,
            "ID_SummaryType": null,
            "IsAddModelClass": null,
            "GroupIndex": 0,
            "IsFilter": null,
            "ID_FilterControlType": null,
            "ID_PropertyModel": null,
            "PropertyModel": null,
            "SummaryType": null
        },
        {
            "ID_PropertyType": 5,
            "Precision": null,
            "$DataSource": null,
            "DisplayProperty": null,
            "Oid": "B58CD2BB-1476-4DF7-BAD6-A05EFA9BAC73",
            "Code": null,
            "Name": "DateModified",
            "IsActive": true,
            "Comment": null,
            "Caption": "Date Modified",
            "ID_ModelProperty": "0AA258D6-8BAE-4AD1-92A9-16B9B45C5CFF",
            "ID_ListView": "9DDD8950-5B2A-42C0-A412-9387586A7680",
            "ID_CreatedBy": 1,
            "ID_LastModifiedBy": 1,
            "DateCreated": "2020-12-17T13:41:54.187Z",
            "DateModified": null,
            "DataSource": null,
            "Format": null,
            "Width": "150",
            "Fixed": null,
            "VisibleIndex": 80,
            "IsAllowEdit": null,
            "ID_ControlType": null,
            "ID_ColumnAlignment": null,
            "IsVisible": true,
            "FixedPosition": null,
            "IsRequired": null,
            "ID_SummaryType": null,
            "IsAddModelClass": null,
            "GroupIndex": 0,
            "IsFilter": null,
            "ID_FilterControlType": null,
            "ID_PropertyModel": null,
            "PropertyModel": null,
            "SummaryType": null
        },
        {
            "ID_PropertyType": 1,
            "Precision": null,
            "$DataSource": null,
            "DisplayProperty": null,
            "Oid": "DEEC240A-87EB-4778-B12C-BB8E23DB7D18",
            "Code": null,
            "Name": "Code",
            "IsActive": true,
            "Comment": null,
            "Caption": null,
            "ID_ModelProperty": "DD2619FE-191C-4CBC-94F7-4D6CAB86AD9F",
            "ID_ListView": "9DDD8950-5B2A-42C0-A412-9387586A7680",
            "ID_CreatedBy": 1,
            "ID_LastModifiedBy": 1,
            "DateCreated": "2020-12-17T13:41:54.187Z",
            "DateModified": null,
            "DataSource": null,
            "Format": null,
            "Width": "88",
            "Fixed": null,
            "VisibleIndex": 20,
            "IsAllowEdit": null,
            "ID_ControlType": null,
            "ID_ColumnAlignment": null,
            "IsVisible": true,
            "FixedPosition": null,
            "IsRequired": null,
            "ID_SummaryType": null,
            "IsAddModelClass": null,
            "GroupIndex": 0,
            "IsFilter": null,
            "ID_FilterControlType": null,
            "ID_PropertyModel": null,
            "PropertyModel": null,
            "SummaryType": null
        },
        {
            "ID_PropertyType": 2,
            "Precision": null,
            "$DataSource": null,
            "DisplayProperty": "LastModifiedBy",
            "Oid": "A21B823C-F97A-41E3-A48A-E1E71F6BA11D",
            "Code": null,
            "Name": "ID_LastModifiedBy",
            "IsActive": true,
            "Comment": null,
            "Caption": "Last Modified By",
            "ID_ModelProperty": "5AABA874-21AA-4E91-A9E5-F1E33A9B2256",
            "ID_ListView": "9DDD8950-5B2A-42C0-A412-9387586A7680",
            "ID_CreatedBy": 1,
            "ID_LastModifiedBy": 1,
            "DateCreated": "2020-12-17T13:41:54.187Z",
            "DateModified": null,
            "DataSource": null,
            "Format": null,
            "Width": "150",
            "Fixed": null,
            "VisibleIndex": 90,
            "IsAllowEdit": null,
            "ID_ControlType": null,
            "ID_ColumnAlignment": null,
            "IsVisible": true,
            "FixedPosition": null,
            "IsRequired": null,
            "ID_SummaryType": null,
            "IsAddModelClass": null,
            "GroupIndex": 0,
            "IsFilter": null,
            "ID_FilterControlType": null,
            "ID_PropertyModel": null,
            "PropertyModel": null,
            "SummaryType": null
        },
        {
            "ID_PropertyType": 2,
            "Precision": null,
            "$DataSource": null,
            "DisplayProperty": null,
            "Oid": "1DDF08DF-37BB-41CB-B48E-F9335850A3B9",
            "Code": null,
            "Name": "ID",
            "IsActive": true,
            "Comment": null,
            "Caption": null,
            "ID_ModelProperty": "A3A87478-E266-4ACC-9821-48AB640B9148",
            "ID_ListView": "9DDD8950-5B2A-42C0-A412-9387586A7680",
            "ID_CreatedBy": 1,
            "ID_LastModifiedBy": 1,
            "DateCreated": "2020-12-17T13:41:54.187Z",
            "DateModified": null,
            "DataSource": null,
            "Format": null,
            "Width": "64",
            "Fixed": null,
            "VisibleIndex": 0,
            "IsAllowEdit": null,
            "ID_ControlType": null,
            "ID_ColumnAlignment": null,
            "IsVisible": true,
            "FixedPosition": null,
            "IsRequired": null,
            "ID_SummaryType": null,
            "IsAddModelClass": null,
            "GroupIndex": 0,
            "IsFilter": null,
            "ID_FilterControlType": null,
            "ID_PropertyModel": null,
            "PropertyModel": null,
            "SummaryType": null
        },
        {
            "ID_PropertyType": 3,
            "Precision": 2,
            "$DataSource": null,
            "DisplayProperty": null,
            "Oid": "B2EF2834-E35D-4EA9-9034-7A328C7EBE17",
            "Code": null,
            "Name": "GrossAmount",
            "IsActive": true,
            "Comment": null,
            "Caption": null,
            "ID_ModelProperty": "849C14BA-B54F-422C-A231-E13AC29048F7",
            "ID_ListView": "9DDD8950-5B2A-42C0-A412-9387586A7680",
            "ID_CreatedBy": 1,
            "ID_LastModifiedBy": 1,
            "DateCreated": "2020-12-17T13:41:55.117Z",
            "DateModified": null,
            "DataSource": null,
            "Format": null,
            "Width": "150",
            "Fixed": null,
            "VisibleIndex": 30,
            "IsAllowEdit": null,
            "ID_ControlType": null,
            "ID_ColumnAlignment": null,
            "IsVisible": false,
            "FixedPosition": null,
            "IsRequired": null,
            "ID_SummaryType": null,
            "IsAddModelClass": null,
            "GroupIndex": 0,
            "IsFilter": null,
            "ID_FilterControlType": null,
            "ID_PropertyModel": null,
            "PropertyModel": null,
            "SummaryType": null
        },
        {
            "ID_PropertyType": 3,
            "Precision": 2,
            "$DataSource": null,
            "DisplayProperty": null,
            "Oid": "619E912E-06D6-44C1-B213-7F528B7875B6",
            "Code": null,
            "Name": "VatAmount",
            "IsActive": true,
            "Comment": null,
            "Caption": null,
            "ID_ModelProperty": "40293159-46A5-4EDD-9BB5-FA221113A25A",
            "ID_ListView": "9DDD8950-5B2A-42C0-A412-9387586A7680",
            "ID_CreatedBy": 1,
            "ID_LastModifiedBy": 1,
            "DateCreated": "2020-12-17T13:41:55.430Z",
            "DateModified": null,
            "DataSource": null,
            "Format": null,
            "Width": "150",
            "Fixed": null,
            "VisibleIndex": 40,
            "IsAllowEdit": null,
            "ID_ControlType": null,
            "ID_ColumnAlignment": null,
            "IsVisible": false,
            "FixedPosition": null,
            "IsRequired": null,
            "ID_SummaryType": null,
            "IsAddModelClass": null,
            "GroupIndex": 0,
            "IsFilter": null,
            "ID_FilterControlType": null,
            "ID_PropertyModel": null,
            "PropertyModel": null,
            "SummaryType": null
        },
        {
            "ID_PropertyType": 3,
            "Precision": 2,
            "$DataSource": null,
            "DisplayProperty": null,
            "Oid": "563A3F32-9347-4B74-B3E9-FA7B470225F8",
            "Code": null,
            "Name": "NetAmount",
            "IsActive": true,
            "Comment": null,
            "Caption": null,
            "ID_ModelProperty": "7EFF09AC-175F-488C-8A84-A7EF868F9874",
            "ID_ListView": "9DDD8950-5B2A-42C0-A412-9387586A7680",
            "ID_CreatedBy": 1,
            "ID_LastModifiedBy": 1,
            "DateCreated": "2020-12-17T13:41:55.750Z",
            "DateModified": null,
            "DataSource": null,
            "Format": null,
            "Width": "150",
            "Fixed": null,
            "VisibleIndex": 50,
            "IsAllowEdit": null,
            "ID_ControlType": null,
            "ID_ColumnAlignment": null,
            "IsVisible": false,
            "FixedPosition": null,
            "IsRequired": null,
            "ID_SummaryType": null,
            "IsAddModelClass": null,
            "GroupIndex": 0,
            "IsFilter": null,
            "ID_FilterControlType": null,
            "ID_PropertyModel": null,
            "PropertyModel": null,
            "SummaryType": null
        },
        {
            "ID_PropertyType": 5,
            "Precision": null,
            "$DataSource": null,
            "DisplayProperty": null,
            "Oid": "3157EA1D-66D4-4BC2-B87D-C523D4BAB843",
            "Code": null,
            "Name": "Date",
            "IsActive": true,
            "Comment": null,
            "Caption": null,
            "ID_ModelProperty": "2B86BEAA-583B-4F5D-8757-5FDB86041E1A",
            "ID_ListView": "9DDD8950-5B2A-42C0-A412-9387586A7680",
            "ID_CreatedBy": 1,
            "ID_LastModifiedBy": 1,
            "DateCreated": "2020-12-17T13:52:04.227Z",
            "DateModified": null,
            "DataSource": null,
            "Format": null,
            "Width": "98",
            "Fixed": null,
            "VisibleIndex": 10,
            "IsAllowEdit": null,
            "ID_ControlType": null,
            "ID_ColumnAlignment": null,
            "IsVisible": true,
            "FixedPosition": null,
            "IsRequired": null,
            "ID_SummaryType": null,
            "IsAddModelClass": null,
            "GroupIndex": 0,
            "IsFilter": null,
            "ID_FilterControlType": null,
            "ID_PropertyModel": null,
            "PropertyModel": null,
            "SummaryType": null
        },
        {
            "ID_PropertyType": 2,
            "Precision": null,
            "$DataSource": null,
            "DisplayProperty": "FilingStatus",
            "Oid": "B8EF15DA-2804-46C1-9946-B0AD55882D52",
            "Code": null,
            "Name": "ID_FilingStatus",
            "IsActive": true,
            "Comment": null,
            "Caption": "Filing Status",
            "ID_ModelProperty": "6B886766-9D89-4055-A942-EFA2517025C5",
            "ID_ListView": "9DDD8950-5B2A-42C0-A412-9387586A7680",
            "ID_CreatedBy": 1,
            "ID_LastModifiedBy": 1,
            "DateCreated": "2020-12-17T15:21:50.830Z",
            "DateModified": null,
            "DataSource": null,
            "Format": null,
            "Width": "150",
            "Fixed": true,
            "VisibleIndex": 1100,
            "IsAllowEdit": null,
            "ID_ControlType": null,
            "ID_ColumnAlignment": null,
            "IsVisible": true,
            "FixedPosition": "right",
            "IsRequired": null,
            "ID_SummaryType": null,
            "IsAddModelClass": true,
            "GroupIndex": 0,
            "IsFilter": null,
            "ID_FilterControlType": null,
            "ID_PropertyModel": "8A651C66-5CB8-4FFA-89A5-E7DF2AD0983F",
            "PropertyModel": null,
            "SummaryType": null
        },
        {
            "ID_PropertyType": 2,
            "Precision": null,
            "$DataSource": null,
            "DisplayProperty": "Name_PaymentMethod",
            "Oid": "B6941247-28DA-444C-962F-8E6E98CBD719",
            "Code": null,
            "Name": "ID_PaymentMethod",
            "IsActive": true,
            "Comment": null,
            "Caption": "Payment Method",
            "ID_ModelProperty": "5B6AE1ED-906B-45A9-B4C7-8961F74E7549",
            "ID_ListView": "9DDD8950-5B2A-42C0-A412-9387586A7680",
            "ID_CreatedBy": 1,
            "ID_LastModifiedBy": 1,
            "DateCreated": "2020-12-17T21:37:40.700Z",
            "DateModified": null,
            "DataSource": null,
            "Format": null,
            "Width": "122",
            "Fixed": null,
            "VisibleIndex": 300,
            "IsAllowEdit": null,
            "ID_ControlType": null,
            "ID_ColumnAlignment": null,
            "IsVisible": true,
            "FixedPosition": null,
            "IsRequired": null,
            "ID_SummaryType": null,
            "IsAddModelClass": null,
            "GroupIndex": 0,
            "IsFilter": null,
            "ID_FilterControlType": null,
            "ID_PropertyModel": null,
            "PropertyModel": null,
            "SummaryType": null
        },
        {
            "ID_PropertyType": 3,
            "Precision": 2,
            "$DataSource": null,
            "DisplayProperty": null,
            "Oid": "2303099C-17AB-47EC-9F92-7A993EC7A7C3",
            "Code": null,
            "Name": "CashAmount",
            "IsActive": true,
            "Comment": null,
            "Caption": null,
            "ID_ModelProperty": "E27DBE74-11DB-4993-9831-83D7A64EDE92",
            "ID_ListView": "9DDD8950-5B2A-42C0-A412-9387586A7680",
            "ID_CreatedBy": 1,
            "ID_LastModifiedBy": 1,
            "DateCreated": "2020-12-17T23:09:53.740Z",
            "DateModified": null,
            "DataSource": null,
            "Format": null,
            "Width": "150",
            "Fixed": null,
            "VisibleIndex": 1200,
            "IsAllowEdit": null,
            "ID_ControlType": null,
            "ID_ColumnAlignment": null,
            "IsVisible": false,
            "FixedPosition": null,
            "IsRequired": null,
            "ID_SummaryType": null,
            "IsAddModelClass": null,
            "GroupIndex": 0,
            "IsFilter": null,
            "ID_FilterControlType": null,
            "ID_PropertyModel": null,
            "PropertyModel": null,
            "SummaryType": null
        },
        {
            "ID_PropertyType": 3,
            "Precision": 2,
            "$DataSource": null,
            "DisplayProperty": null,
            "Oid": "F9B9B63E-804C-47FB-831E-A1E37B124FA0",
            "Code": null,
            "Name": "CheckAmount",
            "IsActive": true,
            "Comment": null,
            "Caption": null,
            "ID_ModelProperty": "2B132C93-79ED-46D8-9FAF-7CF8088F3B6E",
            "ID_ListView": "9DDD8950-5B2A-42C0-A412-9387586A7680",
            "ID_CreatedBy": 1,
            "ID_LastModifiedBy": 1,
            "DateCreated": "2020-12-17T23:09:54.477Z",
            "DateModified": null,
            "DataSource": null,
            "Format": null,
            "Width": "150",
            "Fixed": null,
            "VisibleIndex": 1300,
            "IsAllowEdit": null,
            "ID_ControlType": null,
            "ID_ColumnAlignment": null,
            "IsVisible": false,
            "FixedPosition": null,
            "IsRequired": null,
            "ID_SummaryType": null,
            "IsAddModelClass": null,
            "GroupIndex": 0,
            "IsFilter": null,
            "ID_FilterControlType": null,
            "ID_PropertyModel": null,
            "PropertyModel": null,
            "SummaryType": null
        },
        {
            "ID_PropertyType": 1,
            "Precision": null,
            "$DataSource": null,
            "DisplayProperty": null,
            "Oid": "2C7B1A30-DD17-4CAB-B40A-B83B047102F7",
            "Code": null,
            "Name": "CheckNumber",
            "IsActive": true,
            "Comment": null,
            "Caption": null,
            "ID_ModelProperty": "F9486BF1-84BB-4E94-B3D8-91E9AB5A15AD",
            "ID_ListView": "9DDD8950-5B2A-42C0-A412-9387586A7680",
            "ID_CreatedBy": 1,
            "ID_LastModifiedBy": 1,
            "DateCreated": "2020-12-17T23:09:54.763Z",
            "DateModified": null,
            "DataSource": null,
            "Format": null,
            "Width": "150",
            "Fixed": null,
            "VisibleIndex": 1400,
            "IsAllowEdit": null,
            "ID_ControlType": null,
            "ID_ColumnAlignment": null,
            "IsVisible": false,
            "FixedPosition": null,
            "IsRequired": null,
            "ID_SummaryType": null,
            "IsAddModelClass": null,
            "GroupIndex": 0,
            "IsFilter": null,
            "ID_FilterControlType": null,
            "ID_PropertyModel": null,
            "PropertyModel": null,
            "SummaryType": null
        },
        {
            "ID_PropertyType": 3,
            "Precision": 2,
            "$DataSource": null,
            "DisplayProperty": null,
            "Oid": "50BB96CB-BB73-426C-8D03-4B4A64B130CA",
            "Code": null,
            "Name": "PayableAmount",
            "IsActive": true,
            "Comment": null,
            "Caption": null,
            "ID_ModelProperty": "96E7A7A9-F383-4004-993B-E02DAA12356D",
            "ID_ListView": "9DDD8950-5B2A-42C0-A412-9387586A7680",
            "ID_CreatedBy": 1,
            "ID_LastModifiedBy": 1,
            "DateCreated": "2020-12-17T23:09:55.047Z",
            "DateModified": null,
            "DataSource": null,
            "Format": null,
            "Width": "121",
            "Fixed": null,
            "VisibleIndex": 400,
            "IsAllowEdit": null,
            "ID_ControlType": null,
            "ID_ColumnAlignment": null,
            "IsVisible": true,
            "FixedPosition": null,
            "IsRequired": null,
            "ID_SummaryType": null,
            "IsAddModelClass": null,
            "GroupIndex": 0,
            "IsFilter": null,
            "ID_FilterControlType": null,
            "ID_PropertyModel": null,
            "PropertyModel": null,
            "SummaryType": null
        },
        {
            "ID_PropertyType": 3,
            "Precision": 2,
            "$DataSource": null,
            "DisplayProperty": null,
            "Oid": "E478E236-6E01-460C-B91C-B7DD7F09C73D",
            "Code": null,
            "Name": "PaymentAmount",
            "IsActive": true,
            "Comment": null,
            "Caption": null,
            "ID_ModelProperty": "F5FE7AB7-FA83-4662-A28E-8F7434349C16",
            "ID_ListView": "9DDD8950-5B2A-42C0-A412-9387586A7680",
            "ID_CreatedBy": 1,
            "ID_LastModifiedBy": 1,
            "DateCreated": "2020-12-17T23:09:55.347Z",
            "DateModified": null,
            "DataSource": null,
            "Format": null,
            "Width": "125",
            "Fixed": null,
            "VisibleIndex": 500,
            "IsAllowEdit": null,
            "ID_ControlType": null,
            "ID_ColumnAlignment": null,
            "IsVisible": true,
            "FixedPosition": null,
            "IsRequired": null,
            "ID_SummaryType": null,
            "IsAddModelClass": null,
            "GroupIndex": 0,
            "IsFilter": null,
            "ID_FilterControlType": null,
            "ID_PropertyModel": null,
            "PropertyModel": null,
            "SummaryType": null
        },
        {
            "ID_PropertyType": 3,
            "Precision": 2,
            "$DataSource": null,
            "DisplayProperty": null,
            "Oid": "426053E3-DEAF-4006-BDFD-826B6DC89DC8",
            "Code": null,
            "Name": "ChangeAmount",
            "IsActive": true,
            "Comment": null,
            "Caption": null,
            "ID_ModelProperty": "A5671D4C-97AD-4BA0-B9E8-7BD2D8148824",
            "ID_ListView": "9DDD8950-5B2A-42C0-A412-9387586A7680",
            "ID_CreatedBy": 1,
            "ID_LastModifiedBy": 1,
            "DateCreated": "2020-12-17T23:09:55.650Z",
            "DateModified": null,
            "DataSource": null,
            "Format": null,
            "Width": "122",
            "Fixed": null,
            "VisibleIndex": 600,
            "IsAllowEdit": null,
            "ID_ControlType": null,
            "ID_ColumnAlignment": null,
            "IsVisible": true,
            "FixedPosition": null,
            "IsRequired": null,
            "ID_SummaryType": null,
            "IsAddModelClass": null,
            "GroupIndex": 0,
            "IsFilter": null,
            "ID_FilterControlType": null,
            "ID_PropertyModel": null,
            "PropertyModel": null,
            "SummaryType": null
        },
        {
            "ID_PropertyType": 5,
            "Precision": null,
            "$DataSource": null,
            "DisplayProperty": null,
            "Oid": "DD04137B-B52A-4982-842C-8D29A99A52FA",
            "Code": null,
            "Name": "DateApproved",
            "IsActive": true,
            "Comment": null,
            "Caption": "Date Approved",
            "ID_ModelProperty": "B0772116-A940-4019-BF28-229B9B6E8A9A",
            "ID_ListView": "9DDD8950-5B2A-42C0-A412-9387586A7680",
            "ID_CreatedBy": 1,
            "ID_LastModifiedBy": 1,
            "DateCreated": "2020-12-18T00:49:25.687Z",
            "DateModified": null,
            "DataSource": null,
            "Format": null,
            "Width": "150",
            "Fixed": null,
            "VisibleIndex": 1400,
            "IsAllowEdit": null,
            "ID_ControlType": null,
            "ID_ColumnAlignment": null,
            "IsVisible": false,
            "FixedPosition": null,
            "IsRequired": null,
            "ID_SummaryType": null,
            "IsAddModelClass": null,
            "GroupIndex": 0,
            "IsFilter": null,
            "ID_FilterControlType": null,
            "ID_PropertyModel": null,
            "PropertyModel": null,
            "SummaryType": null
        },
        {
            "ID_PropertyType": 2,
            "Precision": null,
            "$DataSource": null,
            "DisplayProperty": "ApprovedBy",
            "Oid": "71347354-E905-456E-972F-EA14F6968119",
            "Code": null,
            "Name": "ID_ApprovedBy",
            "IsActive": true,
            "Comment": null,
            "Caption": "Approved By",
            "ID_ModelProperty": "5C8B93D5-14F0-4D8A-BCFD-7E0AA1AACEED",
            "ID_ListView": "9DDD8950-5B2A-42C0-A412-9387586A7680",
            "ID_CreatedBy": 1,
            "ID_LastModifiedBy": 1,
            "DateCreated": "2020-12-18T00:49:26.457Z",
            "DateModified": null,
            "DataSource": null,
            "Format": null,
            "Width": "150",
            "Fixed": null,
            "VisibleIndex": 1500,
            "IsAllowEdit": null,
            "ID_ControlType": null,
            "ID_ColumnAlignment": null,
            "IsVisible": false,
            "FixedPosition": null,
            "IsRequired": null,
            "ID_SummaryType": null,
            "IsAddModelClass": null,
            "GroupIndex": 0,
            "IsFilter": null,
            "ID_FilterControlType": null,
            "ID_PropertyModel": null,
            "PropertyModel": null,
            "SummaryType": null
        },
        {
            "ID_PropertyType": 5,
            "Precision": null,
            "$DataSource": null,
            "DisplayProperty": null,
            "Oid": "D260D8FB-C4C7-4BE1-B3C8-65434CA7C1CE",
            "Code": null,
            "Name": "DateCanceled",
            "IsActive": true,
            "Comment": null,
            "Caption": null,
            "ID_ModelProperty": "30AAFF87-7929-48D8-A1C7-C8B9CDDF8347",
            "ID_ListView": "9DDD8950-5B2A-42C0-A412-9387586A7680",
            "ID_CreatedBy": 1,
            "ID_LastModifiedBy": 1,
            "DateCreated": "2020-12-18T00:49:26.743Z",
            "DateModified": null,
            "DataSource": null,
            "Format": null,
            "Width": "150",
            "Fixed": null,
            "VisibleIndex": 1400,
            "IsAllowEdit": null,
            "ID_ControlType": null,
            "ID_ColumnAlignment": null,
            "IsVisible": false,
            "FixedPosition": null,
            "IsRequired": null,
            "ID_SummaryType": null,
            "IsAddModelClass": null,
            "GroupIndex": 0,
            "IsFilter": null,
            "ID_FilterControlType": null,
            "ID_PropertyModel": null,
            "PropertyModel": null,
            "SummaryType": null
        },
        {
            "ID_PropertyType": 2,
            "Precision": null,
            "$DataSource": null,
            "DisplayProperty": null,
            "Oid": "FCB144A0-776E-4E50-9237-1BCD7B20AEC3",
            "Code": null,
            "Name": "ID_CanceledBy",
            "IsActive": true,
            "Comment": null,
            "Caption": null,
            "ID_ModelProperty": "325EB87D-52BB-4921-8CB7-07C021084A7E",
            "ID_ListView": "9DDD8950-5B2A-42C0-A412-9387586A7680",
            "ID_CreatedBy": 1,
            "ID_LastModifiedBy": 1,
            "DateCreated": "2020-12-18T00:49:27.090Z",
            "DateModified": null,
            "DataSource": null,
            "Format": null,
            "Width": "150",
            "Fixed": null,
            "VisibleIndex": 1400,
            "IsAllowEdit": null,
            "ID_ControlType": null,
            "ID_ColumnAlignment": null,
            "IsVisible": false,
            "FixedPosition": null,
            "IsRequired": null,
            "ID_SummaryType": null,
            "IsAddModelClass": null,
            "GroupIndex": 0,
            "IsFilter": null,
            "ID_FilterControlType": null,
            "ID_PropertyModel": null,
            "PropertyModel": null,
            "SummaryType": null
        },
        {
            "ID_PropertyType": 3,
            "Precision": 2,
            "$DataSource": null,
            "DisplayProperty": null,
            "Oid": "7A4E6796-E884-45D4-A5D3-73343CA2C90A",
            "Code": null,
            "Name": "CardAmount",
            "IsActive": true,
            "Comment": null,
            "Caption": null,
            "ID_ModelProperty": "B30CC99A-8083-464F-BA24-E1C2C392DC7F",
            "ID_ListView": "9DDD8950-5B2A-42C0-A412-9387586A7680",
            "ID_CreatedBy": 1,
            "ID_LastModifiedBy": null,
            "DateCreated": "2021-02-02T14:09:39.983Z",
            "DateModified": null,
            "DataSource": null,
            "Format": null,
            "Width": null,
            "Fixed": null,
            "VisibleIndex": 1000,
            "IsAllowEdit": null,
            "ID_ControlType": null,
            "ID_ColumnAlignment": null,
            "IsVisible": true,
            "FixedPosition": null,
            "IsRequired": null,
            "ID_SummaryType": null,
            "IsAddModelClass": null,
            "GroupIndex": null,
            "IsFilter": null,
            "ID_FilterControlType": null,
            "ID_PropertyModel": null,
            "PropertyModel": null,
            "SummaryType": null
        },
        {
            "ID_PropertyType": 3,
            "Precision": 2,
            "$DataSource": null,
            "DisplayProperty": null,
            "Oid": "E4F5FBAA-FA5A-4895-ADC1-FB5682C8B65C",
            "Code": null,
            "Name": "GCashAmount",
            "IsActive": true,
            "Comment": null,
            "Caption": null,
            "ID_ModelProperty": "5832623A-CBFA-49C2-9666-FF448B794A60",
            "ID_ListView": "9DDD8950-5B2A-42C0-A412-9387586A7680",
            "ID_CreatedBy": 1,
            "ID_LastModifiedBy": null,
            "DateCreated": "2021-02-02T14:09:40.457Z",
            "DateModified": null,
            "DataSource": null,
            "Format": null,
            "Width": null,
            "Fixed": null,
            "VisibleIndex": 1000,
            "IsAllowEdit": null,
            "ID_ControlType": null,
            "ID_ColumnAlignment": null,
            "IsVisible": true,
            "FixedPosition": null,
            "IsRequired": null,
            "ID_SummaryType": null,
            "IsAddModelClass": null,
            "GroupIndex": null,
            "IsFilter": null,
            "ID_FilterControlType": null,
            "ID_PropertyModel": null,
            "PropertyModel": null,
            "SummaryType": null
        },
        {
            "ID_PropertyType": 2,
            "Precision": null,
            "$DataSource": null,
            "DisplayProperty": null,
            "Oid": "4AA8C900-636F-447D-857A-2548037D0AC9",
            "Code": null,
            "Name": "ID_CardType",
            "IsActive": true,
            "Comment": null,
            "Caption": null,
            "ID_ModelProperty": "E47F7D69-BE4E-434D-A53D-E62E51B03A56",
            "ID_ListView": "9DDD8950-5B2A-42C0-A412-9387586A7680",
            "ID_CreatedBy": 1,
            "ID_LastModifiedBy": null,
            "DateCreated": "2021-02-02T14:09:40.840Z",
            "DateModified": null,
            "DataSource": null,
            "Format": null,
            "Width": null,
            "Fixed": null,
            "VisibleIndex": 1000,
            "IsAllowEdit": null,
            "ID_ControlType": null,
            "ID_ColumnAlignment": null,
            "IsVisible": true,
            "FixedPosition": null,
            "IsRequired": null,
            "ID_SummaryType": null,
            "IsAddModelClass": null,
            "GroupIndex": null,
            "IsFilter": null,
            "ID_FilterControlType": null,
            "ID_PropertyModel": null,
            "PropertyModel": null,
            "SummaryType": null
        },
        {
            "ID_PropertyType": 1,
            "Precision": null,
            "$DataSource": null,
            "DisplayProperty": null,
            "Oid": "1D384532-9EFF-4A0F-A516-D3E890BDBB2B",
            "Code": null,
            "Name": "CardHolderName",
            "IsActive": true,
            "Comment": null,
            "Caption": null,
            "ID_ModelProperty": "C6E93622-92AA-404C-B7BF-AA4E34B04B4D",
            "ID_ListView": "9DDD8950-5B2A-42C0-A412-9387586A7680",
            "ID_CreatedBy": 1,
            "ID_LastModifiedBy": null,
            "DateCreated": "2021-02-02T14:09:41.223Z",
            "DateModified": null,
            "DataSource": null,
            "Format": null,
            "Width": null,
            "Fixed": null,
            "VisibleIndex": 1000,
            "IsAllowEdit": null,
            "ID_ControlType": null,
            "ID_ColumnAlignment": null,
            "IsVisible": true,
            "FixedPosition": null,
            "IsRequired": null,
            "ID_SummaryType": null,
            "IsAddModelClass": null,
            "GroupIndex": null,
            "IsFilter": null,
            "ID_FilterControlType": null,
            "ID_PropertyModel": null,
            "PropertyModel": null,
            "SummaryType": null
        },
        {
            "ID_PropertyType": 1,
            "Precision": null,
            "$DataSource": null,
            "DisplayProperty": null,
            "Oid": "21F9B026-FDDA-4CBA-BF08-B435B74FC0BF",
            "Code": null,
            "Name": "ReferenceTransactionNumber",
            "IsActive": true,
            "Comment": null,
            "Caption": null,
            "ID_ModelProperty": "BD859524-3F49-4F03-A76E-F1B197C9233B",
            "ID_ListView": "9DDD8950-5B2A-42C0-A412-9387586A7680",
            "ID_CreatedBy": 1,
            "ID_LastModifiedBy": null,
            "DateCreated": "2021-02-02T14:09:41.600Z",
            "DateModified": null,
            "DataSource": null,
            "Format": null,
            "Width": null,
            "Fixed": null,
            "VisibleIndex": 1000,
            "IsAllowEdit": null,
            "ID_ControlType": null,
            "ID_ColumnAlignment": null,
            "IsVisible": true,
            "FixedPosition": null,
            "IsRequired": null,
            "ID_SummaryType": null,
            "IsAddModelClass": null,
            "GroupIndex": null,
            "IsFilter": null,
            "ID_FilterControlType": null,
            "ID_PropertyModel": null,
            "PropertyModel": null,
            "SummaryType": null
        },
        {
            "ID_PropertyType": 1,
            "Precision": null,
            "$DataSource": null,
            "DisplayProperty": null,
            "Oid": "DEB8C4E9-54E9-4B69-B221-11379743DF0B",
            "Code": null,
            "Name": "CardNumber",
            "IsActive": true,
            "Comment": null,
            "Caption": null,
            "ID_ModelProperty": "AA1D6D76-01D1-4F2A-B62C-F98AA1BCD90E",
            "ID_ListView": "9DDD8950-5B2A-42C0-A412-9387586A7680",
            "ID_CreatedBy": 1,
            "ID_LastModifiedBy": null,
            "DateCreated": "2021-02-02T14:09:41.977Z",
            "DateModified": null,
            "DataSource": null,
            "Format": null,
            "Width": null,
            "Fixed": null,
            "VisibleIndex": 1000,
            "IsAllowEdit": null,
            "ID_ControlType": null,
            "ID_ColumnAlignment": null,
            "IsVisible": true,
            "FixedPosition": null,
            "IsRequired": null,
            "ID_SummaryType": null,
            "IsAddModelClass": null,
            "GroupIndex": null,
            "IsFilter": null,
            "ID_FilterControlType": null,
            "ID_PropertyModel": null,
            "PropertyModel": null,
            "SummaryType": null
        },
        {
            "ID_PropertyType": 3,
            "Precision": 2,
            "$DataSource": null,
            "DisplayProperty": null,
            "Oid": "A3A096F1-63DE-4140-8FC4-BFD7BA62CCDC",
            "Code": null,
            "Name": "RemainingAmount",
            "IsActive": true,
            "Comment": null,
            "Caption": null,
            "ID_ModelProperty": "6162CCEC-CE5A-4909-BD21-F5CCA0B8AB7F",
            "ID_ListView": "9DDD8950-5B2A-42C0-A412-9387586A7680",
            "ID_CreatedBy": 1,
            "ID_LastModifiedBy": null,
            "DateCreated": "2021-02-25T06:17:07.057Z",
            "DateModified": null,
            "DataSource": null,
            "Format": null,
            "Width": null,
            "Fixed": null,
            "VisibleIndex": 1000,
            "IsAllowEdit": null,
            "ID_ControlType": null,
            "ID_ColumnAlignment": null,
            "IsVisible": true,
            "FixedPosition": null,
            "IsRequired": null,
            "ID_SummaryType": null,
            "IsAddModelClass": null,
            "GroupIndex": null,
            "IsFilter": null,
            "ID_FilterControlType": null,
            "ID_PropertyModel": null,
            "PropertyModel": null,
            "SummaryType": null
        }
    ]
}