{
  "configVersion": 1,
  "timestamp": 1615998963286,
  "index": "/index.html",
  "assetGroups": [
    {
      "name": "app",
      "installMode": "prefetch",
      "updateMode": "prefetch",
      "cacheQueryOptions": {
        "ignoreVary": true
      },
      "urls": [
        "/index.html",
        "/main-es2015.219c47c9450865355efa.js",
        "/main-es5.219c47c9450865355efa.js",
        "/manifest.webmanifest",
        "/polyfills-es2015.110f8c161c0fbbacd711.js",
        "/polyfills-es5.bd27270f9c7fcd9c3e5e.js",
        "/runtime-es2015.0dae8cbc97194c7caed4.js",
        "/runtime-es5.0dae8cbc97194c7caed4.js",
        "/scripts.da8ee52b634fd8dc3088.js",
        "/styles.a913671aa8d5ebe394b7.css",
        "/vendor-es2015.b70ed7f9319cc39d7113.js",
        "/vendor-es5.b70ed7f9319cc39d7113.js"
      ],
      "patterns": []
    },
    {
      "name": "assets",
      "installMode": "lazy",
      "updateMode": "prefetch",
      "cacheQueryOptions": {
        "ignoreVary": true
      },
      "urls": [
        "/JosefinSans-Bold.2a8283a39297befd351b.ttf",
        "/Ubuntu-Bold.995358969571c1c37362.ttf",
        "/Ubuntu-Regular.a6767dc546b61fb075f2.ttf",
        "/assets/_ringtone.mp3",
        "/assets/app.config.json",
        "/assets/banner.png",
        "/assets/bg.jpg",
        "/assets/close.png",
        "/assets/default-img.png",
        "/assets/dental/_toothsurface-small.png",
        "/assets/dental/dentalChart.png",
        "/assets/dental/tooth-surface-detailview-small.png",
        "/assets/dental/tooth-surface-detailview.png",
        "/assets/dental/tooth-surface-oval-small.png",
        "/assets/dental/tooth-surface-oval.png",
        "/assets/dental/tooth.gif",
        "/assets/dental/tooth_molar - Copy.gif",
        "/assets/dental/toothimplant.png",
        "/assets/dental/toothsurface-small - Copy.png",
        "/assets/dental/toothsurface-small.png",
        "/assets/dental/toothsurface.png",
        "/assets/dentist-2.jpg",
        "/assets/detailview/AppSetting_DetailView.json",
        "/assets/detailview/AppointmentRequest_DetailView.json",
        "/assets/detailview/AppointmentSchedule_DetailView.json",
        "/assets/detailview/Appointment_DetailView.json",
        "/assets/detailview/ApproverMatrix_DetailView.json",
        "/assets/detailview/ApproverMatrix_Detail_DetailView.json",
        "/assets/detailview/AuditTrailType_DetailView.json",
        "/assets/detailview/AuditTrail_DetailView.json",
        "/assets/detailview/AuditTrail_Detail_DetailView.json",
        "/assets/detailview/BillingInvoice_DetailView.json",
        "/assets/detailview/BillingInvoice_Detail_DetailView.json",
        "/assets/detailview/Client_DetailView.json",
        "/assets/detailview/ColumnAlignment_DetailView.json",
        "/assets/detailview/Company_DetailView.json",
        "/assets/detailview/ControlType_DetailView.json",
        "/assets/detailview/CustomDetailViewRoute_DetailView.json",
        "/assets/detailview/CustomNavigationLink_DetailView.json",
        "/assets/detailview/DentalExamination_DetailView.json",
        "/assets/detailview/Dentition_DetailView.json",
        "/assets/detailview/DetailView_DetailView.json",
        "/assets/detailview/DetailView_Detail_DetailView.json",
        "/assets/detailview/DetailView_Detail_Link_DetailView.json",
        "/assets/detailview/DocumentSeries_DetailView.json",
        "/assets/detailview/DocumentStatus_DetailView.json",
        "/assets/detailview/Employee_DetailView.json",
        "/assets/detailview/Emplyee_DetailView.json",
        "/assets/detailview/FilingStatus_DetailView.json",
        "/assets/detailview/InventoryStatus_DetailView.json",
        "/assets/detailview/InventorySummary_DetailView.json",
        "/assets/detailview/InventoryTrail_DetailView.json",
        "/assets/detailview/ItemCategory_DetailView.json",
        "/assets/detailview/ItemInventoriable_DetailView.json",
        "/assets/detailview/ItemService_DetailView.json",
        "/assets/detailview/ItemType_DetailView.json",
        "/assets/detailview/Item_DetailView.json",
        "/assets/detailview/Item_Supplier_DetailView.json",
        "/assets/detailview/ListView_DetailView.json",
        "/assets/detailview/ListView_Detail_DetailView.json",
        "/assets/detailview/LocalShippingPermitIssuance_DetailView.json",
        "/assets/detailview/LocalShippingPermitIssuance_Item_DetailView.json",
        "/assets/detailview/LocalShippingPermitIssuance_Requirement_DetailView.json",
        "/assets/detailview/MedicalHistoryQuestionnaire_DetailView.json",
        "/assets/detailview/MessageThread_DetailView.json",
        "/assets/detailview/Message_DetailView.json",
        "/assets/detailview/Model_DetailView.json",
        "/assets/detailview/Model_Property_DetailView.json",
        "/assets/detailview/Navigation_DetailView.json",
        "/assets/detailview/PatientAppointment_DetailView.json",
        "/assets/detailview/Patient_DentalExamination_DetailView.json",
        "/assets/detailview/Patient_DentalExamination_Image_DetailView.json",
        "/assets/detailview/Patient_DentalExamination_MedicalHistory_DetailView.json",
        "/assets/detailview/Patient_DentalExamination_ToothInfo_DetailView.json",
        "/assets/detailview/Patient_DetailView.json",
        "/assets/detailview/Patient_History_DetailView.json",
        "/assets/detailview/Patient_SOAP_DetailView.json",
        "/assets/detailview/Patient_SOAP_Plan_DetailView.json",
        "/assets/detailview/Patient_SOAP_RegularConsoltation_DetailView.json",
        "/assets/detailview/PaymentMethod_DetailView.json",
        "/assets/detailview/PaymentTransaction_DetailView.json",
        "/assets/detailview/Position_DetailView.json",
        "/assets/detailview/PropertyType_DetailView.json",
        "/assets/detailview/PurchaseOrder_DetailView.json",
        "/assets/detailview/PurchaseOrder_Detail_DetailView.json",
        "/assets/detailview/ReceivingReport_DetailView.json",
        "/assets/detailview/ReceivingReport_Detail_DetailView.json",
        "/assets/detailview/Report_DetailView.json",
        "/assets/detailview/Report_Filters_DetailView.json",
        "/assets/detailview/SOAPType_DetailView.json",
        "/assets/detailview/Schedule_DetailView.json",
        "/assets/detailview/Schedule_PatientAppointment_DetailView.json",
        "/assets/detailview/ServiceType_DetailView.json",
        "/assets/detailview/Student_DetailView.json",
        "/assets/detailview/Supplier_DetailView.json",
        "/assets/detailview/TaxScheme_DetailView.json",
        "/assets/detailview/Teacher_DetailView.json",
        "/assets/detailview/TeethQuandrant_DetailView.json",
        "/assets/detailview/ToothInfo_DetailView.json",
        "/assets/detailview/ToothStatusType_DetailView.json",
        "/assets/detailview/ToothStatus_DetailView.json",
        "/assets/detailview/ToothSurface_DetailView.json",
        "/assets/detailview/Tooth_DetailView.json",
        "/assets/detailview/UnitOfMeasure_DetailView.json",
        "/assets/detailview/UserComment_DetailView.json",
        "/assets/detailview/UserGroup_DetailView.json",
        "/assets/detailview/UserRole_DetailView.json",
        "/assets/detailview/UserRole_Detail_DetailView.json",
        "/assets/detailview/UserRole_Reports_DetailView.json",
        "/assets/detailview/UserSession_DetailView.json",
        "/assets/detailview/User_DetailView.json",
        "/assets/detailview/User_Roles_DetailView.json",
        "/assets/detailview/ViewType_DetailView.json",
        "/assets/detailview/View_DetailView.json",
        "/assets/detailview/_Index.json",
        "/assets/favicon.ico",
        "/assets/home_logo.png",
        "/assets/icon.png",
        "/assets/icons/icon-128x128.png",
        "/assets/icons/icon-144x144.png",
        "/assets/icons/icon-152x152.png",
        "/assets/icons/icon-192x192.png",
        "/assets/icons/icon-384x384.png",
        "/assets/icons/icon-512x512.png",
        "/assets/icons/icon-72x72.png",
        "/assets/icons/icon-96x96.png",
        "/assets/listview/AppSetting_ListView.json",
        "/assets/listview/AppointmentRequest_ListView.json",
        "/assets/listview/AppointmentSchedule_ListView.json",
        "/assets/listview/Appointment_ListView.json",
        "/assets/listview/ApproverMatrix_Detail_ListView.json",
        "/assets/listview/ApproverMatrix_Detail_ListView_Detail.json",
        "/assets/listview/ApproverMatrix_ListView.json",
        "/assets/listview/AuditTrailType_ListView.json",
        "/assets/listview/AuditTrail_Detail_ListView.json",
        "/assets/listview/AuditTrail_Detail_ListView_Detail.json",
        "/assets/listview/AuditTrail_ListView.json",
        "/assets/listview/BillingInvoice_Detail_ListView.json",
        "/assets/listview/BillingInvoice_Detail_ListView_Detail.json",
        "/assets/listview/BillingInvoice_ListView.json",
        "/assets/listview/BusinessPartnerType_ListView.json",
        "/assets/listview/BusinessPartner_Contact_ListView.json",
        "/assets/listview/BusinessPartner_Contact_ListView_Detail.json",
        "/assets/listview/BusinessPartner_ListView.json",
        "/assets/listview/Client_ListView.json",
        "/assets/listview/ColumnAlignment_ListView.json",
        "/assets/listview/Company_ListView.json",
        "/assets/listview/ControlType_ListView.json",
        "/assets/listview/CustomDetailViewRoute_ListView.json",
        "/assets/listview/CustomNavigationLink_ListView.json",
        "/assets/listview/DentalExamination_ListView.json",
        "/assets/listview/Dentition_ListView.json",
        "/assets/listview/DetailView_Detail_Link_ListView.json",
        "/assets/listview/DetailView_Detail_Link_ListView_Detail.json",
        "/assets/listview/DetailView_Detail_ListView.json",
        "/assets/listview/DetailView_Detail_ListView_Detail.json",
        "/assets/listview/DetailView_ListView.json",
        "/assets/listview/DocumentSeries_ListView.json",
        "/assets/listview/DocumentStatus_ListView.json",
        "/assets/listview/Employee_ListView.json",
        "/assets/listview/FilingStatus_ListView.json",
        "/assets/listview/Industry_ListView.json",
        "/assets/listview/InventoryStatus_ListView.json",
        "/assets/listview/InventorySummary_ListView.json",
        "/assets/listview/InventoryTrail_ListView.json",
        "/assets/listview/ItemBrand_ListView.json",
        "/assets/listview/ItemCategory_ListView.json",
        "/assets/listview/ItemGroup_ListView.json",
        "/assets/listview/ItemInventoriable_ListView.json",
        "/assets/listview/ItemService_ListView.json",
        "/assets/listview/ItemType_ListView.json",
        "/assets/listview/Item_ListView.json",
        "/assets/listview/Item_Supplier_ListView.json",
        "/assets/listview/Item_Supplier_ListView_Detail.json",
        "/assets/listview/ListView_Detail_ListView.json",
        "/assets/listview/ListView_Detail_ListView_Detail.json",
        "/assets/listview/ListView_ListView.json",
        "/assets/listview/LocalShippingPermitIssuance_Item_ListView.json",
        "/assets/listview/LocalShippingPermitIssuance_ListView.json",
        "/assets/listview/LocalShippingPermitIssuance_Requirement_ListView.json",
        "/assets/listview/MedicalHistoryQuestionnaire_ListView.json",
        "/assets/listview/MessageThread_ListView.json",
        "/assets/listview/Message_ListView.json",
        "/assets/listview/Model_ListView.json",
        "/assets/listview/Model_ModelProperty_ListView.json",
        "/assets/listview/Model_Property_ListView.json",
        "/assets/listview/Navigation_ListView.json",
        "/assets/listview/PatientAppointment_ListView.json",
        "/assets/listview/Patient_DentalExamination_Image_ListView.json",
        "/assets/listview/Patient_DentalExamination_ListView.json",
        "/assets/listview/Patient_DentalExamination_ListView_Detail.json",
        "/assets/listview/Patient_DentalExamination_MedicalHistory_ListView.json",
        "/assets/listview/Patient_DentalExamination_ToothInfo_ListView.json",
        "/assets/listview/Patient_History_ListView.json",
        "/assets/listview/Patient_History_ListView_Detail.json",
        "/assets/listview/Patient_ListView.json",
        "/assets/listview/Patient_SOAP_ListView.json",
        "/assets/listview/Patient_SOAP_Plan_ListView.json",
        "/assets/listview/Patient_SOAP_Plan_ListView_Detail.json",
        "/assets/listview/Patient_SOAP_RegularConsoltation_ListView.json",
        "/assets/listview/Patient_SOAP_RegularConsoltation_ListView_Detail.json",
        "/assets/listview/PaymentMethod_ListView.json",
        "/assets/listview/PaymentTransaction_ListView.json",
        "/assets/listview/Position_ListView.json",
        "/assets/listview/PropertyType_ListView.json",
        "/assets/listview/PurchaseOrder_Detail_ListView.json",
        "/assets/listview/PurchaseOrder_Detail_ListView_Detail.json",
        "/assets/listview/PurchaseOrder_Detail_Lookup_ListView.json",
        "/assets/listview/PurchaseOrder_ListView.json",
        "/assets/listview/ReceivingReport_Detail_ListView.json",
        "/assets/listview/ReceivingReport_Detail_ListView_Detail.json",
        "/assets/listview/ReceivingReport_ListView.json",
        "/assets/listview/Report_Filters_ListView.json",
        "/assets/listview/Report_Filters_ListView_Detail.json",
        "/assets/listview/Report_ListView.json",
        "/assets/listview/SOAPType_ListView.json",
        "/assets/listview/SalesOrder_Detail_Lookup_ListView.json",
        "/assets/listview/Schedule_ListView.json",
        "/assets/listview/Schedule_PatientAppointment_ListView.json",
        "/assets/listview/Schedule_PatientAppointment_ListView_Detail.json",
        "/assets/listview/ServiceType_ListView.json",
        "/assets/listview/Student_ListView.json",
        "/assets/listview/Supplier_ListView.json",
        "/assets/listview/TaxScheme_ListView.json",
        "/assets/listview/Teacher_ListView.json",
        "/assets/listview/TeethQuandrant_ListView.json",
        "/assets/listview/ToothInfo_ListView.json",
        "/assets/listview/ToothStatusType_ListView.json",
        "/assets/listview/ToothStatus_ListView.json",
        "/assets/listview/ToothSurface_ListView.json",
        "/assets/listview/Tooth_ListView.json",
        "/assets/listview/UnitOfMeasure_ListView.json",
        "/assets/listview/UserComment_ListView.json",
        "/assets/listview/UserGroup_ListView.json",
        "/assets/listview/UserRole_Detail_ListView.json",
        "/assets/listview/UserRole_Detail_ListView_Detail.json",
        "/assets/listview/UserRole_ListView.json",
        "/assets/listview/UserRole_Reports_ListView.json",
        "/assets/listview/UserRole_Reports_ListView_Detail.json",
        "/assets/listview/UserSession_ListView.json",
        "/assets/listview/User_ListView.json",
        "/assets/listview/User_Roles_ListView.json",
        "/assets/listview/User_Roles_ListView_Detail.json",
        "/assets/listview/ViewType_ListView.json",
        "/assets/listview/View_ListView.json",
        "/assets/listview/Warehouse_ListView.json",
        "/assets/listview/_Index.json",
        "/assets/listview/vSalesInvoice_Lookup_ListView.json",
        "/assets/logo.jpg",
        "/assets/logo.png",
        "/assets/logo1.jpg",
        "/assets/patient-logo.png",
        "/assets/reference/ClientPatientTemplate.xlsx",
        "/assets/reference/SOAPTemplate.xlsx",
        "/assets/reference/StRoch-InventoryTemplateVetCloud.xlsx",
        "/assets/reference/soap_mysql.sql",
        "/color.6441e63a57ccc5105bad.png",
        "/fa-brands-400.31015e861aeb30ff8355.woff2",
        "/fa-brands-400.3c45c98f6f6c1b009c08.svg",
        "/fa-brands-400.5818bbd07dfd7095920a.ttf",
        "/fa-brands-400.607a77859353c0cc1882.eot",
        "/fa-brands-400.ee26f57bc9e3619b022b.woff",
        "/fa-regular-400.0747be4cba2f8600544f.eot",
        "/fa-regular-400.8b892b7904a39e37c53d.woff",
        "/fa-regular-400.ab47faeab8ddc5f809ec.svg",
        "/fa-regular-400.c3146b3524e97475c094.ttf",
        "/fa-regular-400.c52405129ae48097815d.woff2",
        "/fa-solid-900.18df003f90a7f1313b98.svg",
        "/fa-solid-900.32267f3b4db33a7c85ee.ttf",
        "/fa-solid-900.7eefe04dc985dd4ad38b.eot",
        "/fa-solid-900.9451d5fee89b51a20f8a.woff2",
        "/fa-solid-900.a940d584750708f5435c.woff",
        "/fontawesome-webfont.1e59d2330b4c6deb84b3.ttf",
        "/fontawesome-webfont.20fd1704ea223900efa9.woff2",
        "/fontawesome-webfont.6878d55e3615ccf40c38.svg",
        "/fontawesome-webfont.8b43027f47b20503057d.eot",
        "/fontawesome-webfont.f691f37e57f04c152e23.woff",
        "/hue.f8505bd4d6f3e3aa435b.png",
        "/line.39c65dcc08f7edb347b6.gif",
        "/loading.9347db5956a89b0bab38.gif",
        "/materialdesignicons-webfont.5908ecb9ed942e5e61fa.eot",
        "/materialdesignicons-webfont.bbe05489cd38a31d1694.ttf",
        "/materialdesignicons-webfont.d9f39587ab2751b33bcf.woff2",
        "/materialdesignicons-webfont.da9606b68b5c8ac55cfb.woff",
        "/open-sans-v15-latin-300.252a41f69d4c320154a1.ttf",
        "/open-sans-v15-latin-300.2aeabc9e8ed0aef227d7.eot",
        "/open-sans-v15-latin-300.bb3b405a4608d51ddb13.svg",
        "/open-sans-v15-latin-300.df17d4e30091735253a8.woff",
        "/open-sans-v15-latin-300.f2ebdee8c2343f558a02.woff2",
        "/open-sans-v15-latin-700.2509c35b0cfc629f81e5.woff",
        "/open-sans-v15-latin-700.7435e6c2064f36f48626.woff2",
        "/open-sans-v15-latin-700.75e0e55bdb3e82dcacf8.eot",
        "/open-sans-v15-latin-700.926388f043fc8117b35b.svg",
        "/open-sans-v15-latin-700.ec32d6be7329ece0789c.ttf",
        "/open-sans-v15-latin-regular.1d0d8b66fa1da76d69b9.svg",
        "/open-sans-v15-latin-regular.61747992dd9a412e601e.ttf",
        "/open-sans-v15-latin-regular.87a454b233bedae23f8d.woff",
        "/open-sans-v15-latin-regular.a356e361ee6765f3d6d4.eot",
        "/open-sans-v15-latin-regular.ec806460121999bcfb12.woff2",
        "/password-meter.eea288d50533d7995ec1.png",
        "/primeicons.04701ca33ce96d325419.ttf",
        "/primeicons.1d79a0559e5f13294dee.woff",
        "/primeicons.c2e128a00fca2640240d.eot",
        "/primeicons.fa2c83d2f35244bb10dc.svg"
      ],
      "patterns": []
    }
  ],
  "dataGroups": [],
  "hashTable": {
    "/JosefinSans-Bold.2a8283a39297befd351b.ttf": "bd9707aad222a53f88a00d8389e7e0fbeefeaa52",
    "/Ubuntu-Bold.995358969571c1c37362.ttf": "c85f33bc4a1416a8909d8fde4bd28fd8cbd30d86",
    "/Ubuntu-Regular.a6767dc546b61fb075f2.ttf": "c1f6487b64a85c144bc0357832fc79b905dfbcb1",
    "/assets/_ringtone.mp3": "b0a1c31fe481ed98211d5ccdd18ba5cc293c9469",
    "/assets/app.config.json": "4331b6a134faf93390e5e73dd3d53ce493f1461d",
    "/assets/banner.png": "abb413ab2d55fa2d377add793f6b53731cb68dac",
    "/assets/bg.jpg": "57934c8b83e30f887b1f34a15a17a42e7d1e3d3d",
    "/assets/close.png": "2f168c8902f34f74b9d83424979079be8060804e",
    "/assets/default-img.png": "5d66dcdbb729973132e517538b6a43358aa5ee80",
    "/assets/dental/_toothsurface-small.png": "dedd87b6f484dd56f37a9ed33ac269b1b76f001c",
    "/assets/dental/dentalChart.png": "25f2bade9253c743e2f30fe3e1a7dec77aaea0a5",
    "/assets/dental/tooth-surface-detailview-small.png": "342376bdb1d0751da155434d47b8c1f91d8a3827",
    "/assets/dental/tooth-surface-detailview.png": "e461a2009c4302372c52bc22e73216f33f63ef08",
    "/assets/dental/tooth-surface-oval-small.png": "c2424ffa426adb5a248d65c3ee5b6fd14a3c4c0b",
    "/assets/dental/tooth-surface-oval.png": "b3179486aa13f0b6e7b060288c7649e67a6790aa",
    "/assets/dental/tooth.gif": "90f5e425f22d4b02aca7d4008a67d6c2698a5aa1",
    "/assets/dental/tooth_molar - Copy.gif": "90f5e425f22d4b02aca7d4008a67d6c2698a5aa1",
    "/assets/dental/toothimplant.png": "38db8e9f2dcc1575a0dbe898e203a2f31ce062a2",
    "/assets/dental/toothsurface-small - Copy.png": "62afeba954c07c2525385efd7ca742d706e4a021",
    "/assets/dental/toothsurface-small.png": "065377f95031017f01ba640dd9065a1feba07e0d",
    "/assets/dental/toothsurface.png": "af3515983fd6c1cff312a8095b420b91b5a98efb",
    "/assets/dentist-2.jpg": "edef459456be797ff7d0a4f0bb4a3ad0cccc6b97",
    "/assets/detailview/AppSetting_DetailView.json": "4b009f010c711ba5ea3cf513f78419974a3727b0",
    "/assets/detailview/AppointmentRequest_DetailView.json": "5de94a3de2b22981994bad6b143ed1ac142231af",
    "/assets/detailview/AppointmentSchedule_DetailView.json": "95ff0aa1f0c378fb82bfe3078d664f29d8a6bb89",
    "/assets/detailview/Appointment_DetailView.json": "b7feb5f543e419615860c21af0e307b184eb4c83",
    "/assets/detailview/ApproverMatrix_DetailView.json": "982bb8bd7544b4cdb05d7000a20cc536c3e4232e",
    "/assets/detailview/ApproverMatrix_Detail_DetailView.json": "0f79372e89c6af22adfc329720d19988ea4ba305",
    "/assets/detailview/AuditTrailType_DetailView.json": "21e7560d11b426b27aa0ac05543130cc809a5196",
    "/assets/detailview/AuditTrail_DetailView.json": "04b40dcb9b068e0f11fe63a9c2fec9e3962bda67",
    "/assets/detailview/AuditTrail_Detail_DetailView.json": "54fa3f758c0820d10070f70f310938578fdf6cf6",
    "/assets/detailview/BillingInvoice_DetailView.json": "63838bc25f1aa73befe75ca9a534bc6f085aa6dd",
    "/assets/detailview/BillingInvoice_Detail_DetailView.json": "18426ea63d52f2275494cdaaa7d055e695f03df5",
    "/assets/detailview/Client_DetailView.json": "467d4760a8315527cb3b1bfe09ee7c31865eec14",
    "/assets/detailview/ColumnAlignment_DetailView.json": "f7a75bde6651d402afa8b4c86b55a289ef1479a0",
    "/assets/detailview/Company_DetailView.json": "3c7999eee9ccd6b0cc23fa2d5d261105b3a5efbb",
    "/assets/detailview/ControlType_DetailView.json": "1714a22417528b365cf8b3332d136f8d7f6ee074",
    "/assets/detailview/CustomDetailViewRoute_DetailView.json": "a6584518b508b194e55ecd726a4f13972038fc6a",
    "/assets/detailview/CustomNavigationLink_DetailView.json": "84ad71015b749194d914295b58fc43b686e52272",
    "/assets/detailview/DentalExamination_DetailView.json": "b48bdffd1c833c8f471a7cdfaed0f9cf3d0a53bd",
    "/assets/detailview/Dentition_DetailView.json": "12197f481356d91790b6166d5c2ed98d0b939b29",
    "/assets/detailview/DetailView_DetailView.json": "612d08a9724cbb6767ef6d714f259738167236a5",
    "/assets/detailview/DetailView_Detail_DetailView.json": "b977cd226e9df2ff37b9b741d68dd4725d7e4ef0",
    "/assets/detailview/DetailView_Detail_Link_DetailView.json": "c17c01ff774eccbaabba8e095037a0b33a55b1a3",
    "/assets/detailview/DocumentSeries_DetailView.json": "e8cf272e3c87bbf37218701ccc3c75b13a35d73e",
    "/assets/detailview/DocumentStatus_DetailView.json": "40a95ced46dc09901c4532ab3bd7d1420470aa4c",
    "/assets/detailview/Employee_DetailView.json": "5b3e1b0e1a363a68aaeeb666132e06f34e7ab790",
    "/assets/detailview/Emplyee_DetailView.json": "52fbfa7ec8e057ff60a531489264437969eb8411",
    "/assets/detailview/FilingStatus_DetailView.json": "1362c126c525e9b0159dc7cbf1d1bb95dbfb0ab3",
    "/assets/detailview/InventoryStatus_DetailView.json": "4375b5239f36018b800a01cdfd1052f4e667ce81",
    "/assets/detailview/InventorySummary_DetailView.json": "15a5d325eaf1b23d243a56fde40f1eb69241127e",
    "/assets/detailview/InventoryTrail_DetailView.json": "52f64e0b14fbb22fa16ee398ebf01fa8ff1136d7",
    "/assets/detailview/ItemCategory_DetailView.json": "ce320e863b75397aea4e92d48eb150b87555fba0",
    "/assets/detailview/ItemInventoriable_DetailView.json": "6bb4522c281b4a13aeb5df4a14060632c305a73e",
    "/assets/detailview/ItemService_DetailView.json": "f9eab2f1ab18fba818527837da8f9dadb8d88ca7",
    "/assets/detailview/ItemType_DetailView.json": "6d6a14b3087f72eeac63316f673090e353efe697",
    "/assets/detailview/Item_DetailView.json": "edb2fbd49750606aadbfb07d68fc15ec6c2ce7ff",
    "/assets/detailview/Item_Supplier_DetailView.json": "ec6ee73117a2fe03b91605805b1195ab17688caa",
    "/assets/detailview/ListView_DetailView.json": "a263bf6d558bc9e7d5f80b851b0523c1bedb3cd8",
    "/assets/detailview/ListView_Detail_DetailView.json": "1d47528fc0403c46db5ccc133ebe32064dc593f7",
    "/assets/detailview/LocalShippingPermitIssuance_DetailView.json": "a489a7d99e89f339dcdbfc6c9b570819b3b138bf",
    "/assets/detailview/LocalShippingPermitIssuance_Item_DetailView.json": "7cde147b1cec758a7b9aec43b4c982520386f8ce",
    "/assets/detailview/LocalShippingPermitIssuance_Requirement_DetailView.json": "9ee0c1bec6d9dcde4f2959e64ef8639d19d38a04",
    "/assets/detailview/MedicalHistoryQuestionnaire_DetailView.json": "d9e7e93d0c3b9e8c8381923bd00c25abd1deec90",
    "/assets/detailview/MessageThread_DetailView.json": "1b29f5b39493fb1657792b2ceda4116bbc15b0dc",
    "/assets/detailview/Message_DetailView.json": "8e89da58507e51152f3c8b26b288e9566d1eb0ca",
    "/assets/detailview/Model_DetailView.json": "824d7f172fd4e261a427ec0a59f9833a17a3408e",
    "/assets/detailview/Model_Property_DetailView.json": "7d3fae17c85bcc04376e9de6b4b081ac3f9d9de5",
    "/assets/detailview/Navigation_DetailView.json": "f60e35be6eaa73d005bf2359abec9cdc72457922",
    "/assets/detailview/PatientAppointment_DetailView.json": "64cd105a24145e17c9e717bea0a89b374acc4688",
    "/assets/detailview/Patient_DentalExamination_DetailView.json": "326f799716e6d8396fc52bc33c29fe1babaf8ded",
    "/assets/detailview/Patient_DentalExamination_Image_DetailView.json": "e23dbda5098088c7a8007400cd93f8da423ac6e6",
    "/assets/detailview/Patient_DentalExamination_MedicalHistory_DetailView.json": "b3e519355583e10fee00954da2905458bf378af9",
    "/assets/detailview/Patient_DentalExamination_ToothInfo_DetailView.json": "fe08bedf6ddcc1c4ab56244a83f0aa50e48595f3",
    "/assets/detailview/Patient_DetailView.json": "536ae0b230574f3b67c06bda776d290db67aa086",
    "/assets/detailview/Patient_History_DetailView.json": "3ad55b7fdcd9f5793f5a61b9e1ec186e169ff666",
    "/assets/detailview/Patient_SOAP_DetailView.json": "d5a15e3a36a11422d077f5348a1bcb8b2f9b61f8",
    "/assets/detailview/Patient_SOAP_Plan_DetailView.json": "66609ace7507992765402028e7766f09591d79ac",
    "/assets/detailview/Patient_SOAP_RegularConsoltation_DetailView.json": "b2cf745a31adc4b8d213f07ea9a5230b2fca67f8",
    "/assets/detailview/PaymentMethod_DetailView.json": "dcb48c1710bdf2e763af06668f03f36ce657d109",
    "/assets/detailview/PaymentTransaction_DetailView.json": "dd9fdde431c9611ec5ddd839be75cb68eda57962",
    "/assets/detailview/Position_DetailView.json": "e84f29605e79068fa27f7c785dd760431c9a27ba",
    "/assets/detailview/PropertyType_DetailView.json": "a66ff3cc30dc9142bcf34493d02335def71de775",
    "/assets/detailview/PurchaseOrder_DetailView.json": "8bad1d27f7fdfb217f4a0a69dc720d664fc0064a",
    "/assets/detailview/PurchaseOrder_Detail_DetailView.json": "fd44028b5c3a5208c3a78fd4802685475ace8e11",
    "/assets/detailview/ReceivingReport_DetailView.json": "09fe2bc829cba5463af56cd5a86d54aa67c359dd",
    "/assets/detailview/ReceivingReport_Detail_DetailView.json": "373eaeeb05b21abc90a56114a74a165392a3bdc3",
    "/assets/detailview/Report_DetailView.json": "958d225976a6768bb589f882cee08d4f377b7fe4",
    "/assets/detailview/Report_Filters_DetailView.json": "0d416cf85795d9db83f56f40160034724dfe1f29",
    "/assets/detailview/SOAPType_DetailView.json": "7732b14a210483184c130f5786c726c4e77ecf44",
    "/assets/detailview/Schedule_DetailView.json": "a07bd7de5c1177dc3009cff15cc4dc31f93f0844",
    "/assets/detailview/Schedule_PatientAppointment_DetailView.json": "5190abdb5d47ca913684564b2ed191b79d3894cc",
    "/assets/detailview/ServiceType_DetailView.json": "2cf403077998f88848681efec98bd4908b7c45b7",
    "/assets/detailview/Student_DetailView.json": "86184d30a20467bc6051f1185c387194afb4a6e0",
    "/assets/detailview/Supplier_DetailView.json": "d40d32c2895dbb76e0fa705600af0c5a7450b9ff",
    "/assets/detailview/TaxScheme_DetailView.json": "843b2d0eafa788a0d46da0aa461865bf3e7d4b3e",
    "/assets/detailview/Teacher_DetailView.json": "fa3949307c51ed55310ea72cbe0ecfa5e1dfa149",
    "/assets/detailview/TeethQuandrant_DetailView.json": "33aeaeb71e2dae5d192b3de2bba2b84faf70ee42",
    "/assets/detailview/ToothInfo_DetailView.json": "c5361bee1f150b58df70985bc35b6d36438278df",
    "/assets/detailview/ToothStatusType_DetailView.json": "cfa653d6f88b279d9bfac06fc67be2c7e463d5a1",
    "/assets/detailview/ToothStatus_DetailView.json": "ca1f6eb3c4e84264b68da5533531eaedb8a4c00f",
    "/assets/detailview/ToothSurface_DetailView.json": "52d9178d50d7b1a075e411d30c7e7887abccb079",
    "/assets/detailview/Tooth_DetailView.json": "33697c105113dff46c0dc29d3f6a58bff7dd2d3a",
    "/assets/detailview/UnitOfMeasure_DetailView.json": "985a5e59f20e74bfb6bf88c5bc45d245ec4e3873",
    "/assets/detailview/UserComment_DetailView.json": "60cdf163bf23ac026890a10a173795bc5b68a2da",
    "/assets/detailview/UserGroup_DetailView.json": "78f489799037d715cc80336c44ee45646969b52a",
    "/assets/detailview/UserRole_DetailView.json": "1fd67f31c8f0b457e5391eb457ddd765415dcfc2",
    "/assets/detailview/UserRole_Detail_DetailView.json": "4fdf9f4411170522db529a4d547fd59c6ed8bf85",
    "/assets/detailview/UserRole_Reports_DetailView.json": "92f6ef2e1d6f1d6d43e83d4112b8d9ce7bc59cd5",
    "/assets/detailview/UserSession_DetailView.json": "756198725740012607f4c1fc223ed2af16fcc98b",
    "/assets/detailview/User_DetailView.json": "91ed0e74218a5f223f71593f8a77f51ef5e34b98",
    "/assets/detailview/User_Roles_DetailView.json": "9de102338667827ccdb2dc2cd183a29f2503f54e",
    "/assets/detailview/ViewType_DetailView.json": "c78b904fe4d8dc46419574aa8ebef49a40fb46df",
    "/assets/detailview/View_DetailView.json": "65354459908a8fe796121fd08e11defacff95442",
    "/assets/detailview/_Index.json": "c51d31990b2e39c782196f847353d2cf0c35fc05",
    "/assets/favicon.ico": "ddc76b757e82c7572f2440ff730cac9de957997d",
    "/assets/home_logo.png": "7eec3df046d59597b52aaa64fb8326ead22797d4",
    "/assets/icon.png": "d64ad14177f7486da4becfd97b46d093de2c5263",
    "/assets/icons/icon-128x128.png": "dae3b6ed49bdaf4327b92531d4b5b4a5d30c7532",
    "/assets/icons/icon-144x144.png": "b0bd89982e08f9bd2b642928f5391915b74799a7",
    "/assets/icons/icon-152x152.png": "7479a9477815dfd9668d60f8b3b2fba709b91310",
    "/assets/icons/icon-192x192.png": "1abd80d431a237a853ce38147d8c63752f10933b",
    "/assets/icons/icon-384x384.png": "329749cd6393768d3131ed6304c136b1ca05f2fd",
    "/assets/icons/icon-512x512.png": "559d9c4318b45a1f2b10596bbb4c960fe521dbcc",
    "/assets/icons/icon-72x72.png": "c457e56089a36952cd67156f9996bc4ce54a5ed9",
    "/assets/icons/icon-96x96.png": "3914125a4b445bf111c5627875fc190f560daa41",
    "/assets/listview/AppSetting_ListView.json": "a43ef6aeb31d52fcee9503f9c8db994c6e40c8b7",
    "/assets/listview/AppointmentRequest_ListView.json": "cf28d26f65b6137b431470999966168bb0e8f9c9",
    "/assets/listview/AppointmentSchedule_ListView.json": "774290638db07cdb3064bf6aee52f58d1658cb5f",
    "/assets/listview/Appointment_ListView.json": "c191e0885b7a71f9f4f3b60bb26f4a78bf4b682a",
    "/assets/listview/ApproverMatrix_Detail_ListView.json": "76e6b1260858a48fec688d2357cfa1a5ee77e99c",
    "/assets/listview/ApproverMatrix_Detail_ListView_Detail.json": "3ca78afdd8ec16ec467289c39148dd5b269aa8f9",
    "/assets/listview/ApproverMatrix_ListView.json": "eb40c4df5e9dbef69437ea897d3ac8e2a19de4af",
    "/assets/listview/AuditTrailType_ListView.json": "3edf0c4b54c40a966cef008ad15b7e38bda10779",
    "/assets/listview/AuditTrail_Detail_ListView.json": "ddb9b4040a188a462b2af275bbad53b471475ee6",
    "/assets/listview/AuditTrail_Detail_ListView_Detail.json": "f1377f5511a749dd68ccbc635b9ff37e1169dd0c",
    "/assets/listview/AuditTrail_ListView.json": "bbc341dfd6ba6f0216ee753bb8ff1a2fb97daa15",
    "/assets/listview/BillingInvoice_Detail_ListView.json": "c0ab586dbe0c7d5ba16c2ea39addd23e5eb86ba2",
    "/assets/listview/BillingInvoice_Detail_ListView_Detail.json": "44ebe3cbbec9791b27f751c9ea7604ff6273ce30",
    "/assets/listview/BillingInvoice_ListView.json": "09ae5c26e16228e775eeba4c1ea086d1c9897fa9",
    "/assets/listview/BusinessPartnerType_ListView.json": "830d6cb9b65e20936e02f1cb696d8ae4fb899d51",
    "/assets/listview/BusinessPartner_Contact_ListView.json": "2dd1d85409ffbaa9d43afea96f2af1126e918b98",
    "/assets/listview/BusinessPartner_Contact_ListView_Detail.json": "e1ecad9064f7fae877d4fa621f23c632ee9d5ac1",
    "/assets/listview/BusinessPartner_ListView.json": "6bfea049af21a45dce65a31097ea5cbf17c75d2b",
    "/assets/listview/Client_ListView.json": "f00d34573b983ee49b8431328808b2936c6f28a5",
    "/assets/listview/ColumnAlignment_ListView.json": "986f17e7da5683ebfef90d77fe778f45b43d2067",
    "/assets/listview/Company_ListView.json": "3da75ca55a614d5599a3241ac707e53a62c33cc8",
    "/assets/listview/ControlType_ListView.json": "27260b85f98e2a90b78fc39fca164de9e80ff9ee",
    "/assets/listview/CustomDetailViewRoute_ListView.json": "8e09541ed11a74fbff4a0115e6ed888dcddb4028",
    "/assets/listview/CustomNavigationLink_ListView.json": "f977a8c379ffe69f925c597e3178716f7032839c",
    "/assets/listview/DentalExamination_ListView.json": "cc9381cc7f99c23e348e043ff2a290827d57dd2f",
    "/assets/listview/Dentition_ListView.json": "5bdbe4f6d88e7b16079bcabbfae07f1d4421d189",
    "/assets/listview/DetailView_Detail_Link_ListView.json": "0bd798cbe3cac0144327b46e062deea13743a7b7",
    "/assets/listview/DetailView_Detail_Link_ListView_Detail.json": "2f0515e824f7396ddce00917bf4ec757e4d5dba8",
    "/assets/listview/DetailView_Detail_ListView.json": "45ea82c40a84cdda8150144b9b54591da467846f",
    "/assets/listview/DetailView_Detail_ListView_Detail.json": "bb85abbda52e0b0539bf0ffad0c4815652bbc632",
    "/assets/listview/DetailView_ListView.json": "ad1210ff4db2032612bc8e60b397019ee02f0d60",
    "/assets/listview/DocumentSeries_ListView.json": "d1fe6fc656a407cf700b4ee9110a0a76fcd333d5",
    "/assets/listview/DocumentStatus_ListView.json": "cf5adc2910ebcbf2f2bf7f452cc39b2b5cf53b90",
    "/assets/listview/Employee_ListView.json": "88e4bc7c4ae7cefd7a219ff1f78131f325b06146",
    "/assets/listview/FilingStatus_ListView.json": "7379a9e10eaac6c5ce32487d6c145149204050ab",
    "/assets/listview/Industry_ListView.json": "6510629d0a393fe27705df9f5bb0e528949fee5b",
    "/assets/listview/InventoryStatus_ListView.json": "6107b95cedf2a262f46588b97b85804191e456d5",
    "/assets/listview/InventorySummary_ListView.json": "62927322622ff3a2d20ab566fc21f5e511a3e1d4",
    "/assets/listview/InventoryTrail_ListView.json": "2f95ec9cb924a6207d3a9233311e1c3296fe0ad5",
    "/assets/listview/ItemBrand_ListView.json": "7855b7be44f26b171d6edbb5b4c0d379ee964642",
    "/assets/listview/ItemCategory_ListView.json": "46a1334f22e2b1fa0620f9b9b0a429f74c97455d",
    "/assets/listview/ItemGroup_ListView.json": "ac24eb095fb66d2d42763eb74a004f23356f8cf2",
    "/assets/listview/ItemInventoriable_ListView.json": "8983d459a343a4b0631a13618a72b422be4c8479",
    "/assets/listview/ItemService_ListView.json": "fab600fcfc7d4c5841956021e8cc03a11f67cb8d",
    "/assets/listview/ItemType_ListView.json": "d87e19dea66a2e5059eef3a03528a54151bacb0e",
    "/assets/listview/Item_ListView.json": "6f75cd40bc4deea1e052bc9ba8c5aec6cc89cdd9",
    "/assets/listview/Item_Supplier_ListView.json": "00e479a51b8ff0c06ab9bd4aba7ee7c52d56e4e6",
    "/assets/listview/Item_Supplier_ListView_Detail.json": "d1e04a3d98f34249cda959ee05f18fc9bf1141a8",
    "/assets/listview/ListView_Detail_ListView.json": "623c6ed7d985462c835c22fe0c6aab43ee5136df",
    "/assets/listview/ListView_Detail_ListView_Detail.json": "df88bba16be27b3c6b0b912468b8135cd8c9da31",
    "/assets/listview/ListView_ListView.json": "af51a05cb08b59cbb706f1da12090e9e6eddac12",
    "/assets/listview/LocalShippingPermitIssuance_Item_ListView.json": "f621fdfb93081088ea4f3777952dea36af29f78a",
    "/assets/listview/LocalShippingPermitIssuance_ListView.json": "6c72afc0e43f0a1c6d9e7185c7c3e7f752d810cf",
    "/assets/listview/LocalShippingPermitIssuance_Requirement_ListView.json": "7a316b7ace33e8c1f05cf9fab3579a05aa1961a0",
    "/assets/listview/MedicalHistoryQuestionnaire_ListView.json": "c7b5640fa9b64269c3ffa02c549f953c14fe8cfc",
    "/assets/listview/MessageThread_ListView.json": "3da19d5f8364f7c04bbd399277fbaf175a23f10b",
    "/assets/listview/Message_ListView.json": "4150f67da0fae0d6a70e5c4621196d116ff0537f",
    "/assets/listview/Model_ListView.json": "1e25d3564d0ff27fab3a678948cb60a621800812",
    "/assets/listview/Model_ModelProperty_ListView.json": "15f70db2c5b8ed619a952c80d05751ba049e07ec",
    "/assets/listview/Model_Property_ListView.json": "8b8b35f1e9756dcad9cac0f67c6d03fdf7e517eb",
    "/assets/listview/Navigation_ListView.json": "aa718a8531b3baa43c3238f7ef6a41c735b34ce1",
    "/assets/listview/PatientAppointment_ListView.json": "96dd8dbc860c98a4d0653b427e9c1ee13cf5f3f0",
    "/assets/listview/Patient_DentalExamination_Image_ListView.json": "4f9e96dfb4753779b4aa3aad7a94de8f8e67d31a",
    "/assets/listview/Patient_DentalExamination_ListView.json": "8bddbfb420d09223c6f59f505b8808aa85af4d0f",
    "/assets/listview/Patient_DentalExamination_ListView_Detail.json": "239adf456c4fcb2684d3f16dce9ef9ceaf953fc8",
    "/assets/listview/Patient_DentalExamination_MedicalHistory_ListView.json": "192bc8083e38f4c733b6db18215812310a56c2a8",
    "/assets/listview/Patient_DentalExamination_ToothInfo_ListView.json": "fd5eade7eeef4f9c76a705656b15999b76d1dd37",
    "/assets/listview/Patient_History_ListView.json": "2bc2de919e2738acdf01573c1a94530d3415769e",
    "/assets/listview/Patient_History_ListView_Detail.json": "ed0e1f8bb5e029c652dd1a29a2b01b7ecb30b45d",
    "/assets/listview/Patient_ListView.json": "0c2d8805c34a44b382563cdcb88a6790c08ce112",
    "/assets/listview/Patient_SOAP_ListView.json": "c7209ac3b8294637edb1defb78cf226f20740378",
    "/assets/listview/Patient_SOAP_Plan_ListView.json": "85073d5bfca1e43fbace3878bd3c27f7bbd92a64",
    "/assets/listview/Patient_SOAP_Plan_ListView_Detail.json": "829b2889375f970153fd817b90732455894512be",
    "/assets/listview/Patient_SOAP_RegularConsoltation_ListView.json": "9a3dbbc00931f74ec5448528b8b8fb5cd8c4e548",
    "/assets/listview/Patient_SOAP_RegularConsoltation_ListView_Detail.json": "a00bbc936bb82f0e0a1159e780d152382bd77b88",
    "/assets/listview/PaymentMethod_ListView.json": "ac6184b637c2ab0f4fa332b1eafe53c790d48187",
    "/assets/listview/PaymentTransaction_ListView.json": "d375193bfec772c3fc829e3839032e069927364d",
    "/assets/listview/Position_ListView.json": "f8eff88adb0377ae88ff9cbebee5fe4ba0014d2f",
    "/assets/listview/PropertyType_ListView.json": "27710232c1def08c01eb645afd90dca9ab5ba31d",
    "/assets/listview/PurchaseOrder_Detail_ListView.json": "f649a02e942fd5e61813cf470609330c5c408591",
    "/assets/listview/PurchaseOrder_Detail_ListView_Detail.json": "6ed1cc95522af6a6bbba74b252256d388de793d9",
    "/assets/listview/PurchaseOrder_Detail_Lookup_ListView.json": "f6fe666577332be6f94bc3f83222a82636c2bad3",
    "/assets/listview/PurchaseOrder_ListView.json": "8cd8864e4c8b21f56956d863bd896fd5c0360445",
    "/assets/listview/ReceivingReport_Detail_ListView.json": "e32e6c08191c22ae2b7135dc4fe68df657ec19df",
    "/assets/listview/ReceivingReport_Detail_ListView_Detail.json": "bbbb3e7f5a60332218dd8542f2db5e54fc3031d8",
    "/assets/listview/ReceivingReport_ListView.json": "04a9335981a38006d7238ebc9722df3aa951e385",
    "/assets/listview/Report_Filters_ListView.json": "379fa642698ce465d4c1dee571d72297220be3a7",
    "/assets/listview/Report_Filters_ListView_Detail.json": "7f430e6bd0a6461bdb2f5474381d3bf77c671257",
    "/assets/listview/Report_ListView.json": "1d76e29f6b944f8b947fb90a491f84a67e8094db",
    "/assets/listview/SOAPType_ListView.json": "7dea67d8d2a23b606f768ae5b26c8206bdb5dbc0",
    "/assets/listview/SalesOrder_Detail_Lookup_ListView.json": "18a5f1be2ea54076f2d5b846bdd62e5c0c488c7e",
    "/assets/listview/Schedule_ListView.json": "b681409dcbaaee49ac8d9b9e45c77fcf2190265c",
    "/assets/listview/Schedule_PatientAppointment_ListView.json": "f0b677dc584129b28e97df75ea3962b648c16534",
    "/assets/listview/Schedule_PatientAppointment_ListView_Detail.json": "068b9fb8c62a4bce2f6911cac54d8f31f76062eb",
    "/assets/listview/ServiceType_ListView.json": "f0d57a1367139558237875439f8cbbeea04705e8",
    "/assets/listview/Student_ListView.json": "871371c88fbc24a91c2df1e09065dbdeea7d0817",
    "/assets/listview/Supplier_ListView.json": "cc10ab58d38b0c26062db78587d12b144319d356",
    "/assets/listview/TaxScheme_ListView.json": "e9567ab00deec5241c561dde66b61feb2c9a6cb5",
    "/assets/listview/Teacher_ListView.json": "6e073e9303ee8dd2ef4c73826974f36e2c729305",
    "/assets/listview/TeethQuandrant_ListView.json": "c859c3a3e7a2bec6c1de1719f8f6878b619b2404",
    "/assets/listview/ToothInfo_ListView.json": "991a4d377cb60e1ccd56a87c9224e43a0199cdce",
    "/assets/listview/ToothStatusType_ListView.json": "9cd0c6feecd0f9015f1b981fd1cac61afc0b4e72",
    "/assets/listview/ToothStatus_ListView.json": "e7d641d1bfec43c079e7ecfba205e57f323ea8ac",
    "/assets/listview/ToothSurface_ListView.json": "657f41fe0e37f01c938f2a2b79941196c5e6d8ad",
    "/assets/listview/Tooth_ListView.json": "1e6ff1c98ae8c4c936f130ba3ac958c8defc2e12",
    "/assets/listview/UnitOfMeasure_ListView.json": "800d5e952d36d46232c170bfd0b3d548bc13c6d2",
    "/assets/listview/UserComment_ListView.json": "54717147707d283330c23079e5013da57e088a1b",
    "/assets/listview/UserGroup_ListView.json": "ec70735ddf5908fd09df902b2f1313bb3594bb5f",
    "/assets/listview/UserRole_Detail_ListView.json": "ebd802abc7d81fbbe2f0314b2bd32806c8d826fe",
    "/assets/listview/UserRole_Detail_ListView_Detail.json": "9d0eaac033dbb59e2da1255f35a4a8d2fbaa340f",
    "/assets/listview/UserRole_ListView.json": "ab9d171b2cf99e5a3d06edf77eb4c982e2142af5",
    "/assets/listview/UserRole_Reports_ListView.json": "a9997ca340167f37c6dd6c57167bf9a9d040b96a",
    "/assets/listview/UserRole_Reports_ListView_Detail.json": "27bbfeb1be07f96cd508874312250df9c52a0a9b",
    "/assets/listview/UserSession_ListView.json": "cbdd096777a73effdb6ceec17b9743e9b4ed05c3",
    "/assets/listview/User_ListView.json": "54193da79c3a40d79741064513482eb515139d3e",
    "/assets/listview/User_Roles_ListView.json": "b8a29f2b66e9d19b82a05f1fd61474ce875a376b",
    "/assets/listview/User_Roles_ListView_Detail.json": "1d8ca22b539bb3df6a14d27eda44acfbcce3ae23",
    "/assets/listview/ViewType_ListView.json": "6be5f0eeaaff262669e2c90339ee45949719b564",
    "/assets/listview/View_ListView.json": "6c7e8703d944d00d0bd859e89fff55712d77b923",
    "/assets/listview/Warehouse_ListView.json": "20ec764cad30ad80c3de2307146d9e96ad7d029f",
    "/assets/listview/_Index.json": "f4e8526550b11d2265c1a1778975502af9ba3e38",
    "/assets/listview/vSalesInvoice_Lookup_ListView.json": "74084b65ed049091cd9e37af897b6f1bf5ef7810",
    "/assets/logo.jpg": "55a7340ec2a36f5e8c86b94e70ff8470a1b823f7",
    "/assets/logo.png": "d4dc783ff315116008298c1c8750d00d0616aa87",
    "/assets/logo1.jpg": "df5fde9b91fb8c3eb8a37cd4b2e3dd558043e01d",
    "/assets/patient-logo.png": "62da1c6614f913c0c6cb6cb7b111a99cf607ac8c",
    "/assets/reference/ClientPatientTemplate.xlsx": "84294390c468b3b94c01eb0ddeb7cbc61d45ab3b",
    "/assets/reference/SOAPTemplate.xlsx": "3f3ba7dfa6fa966d5203d68c8bad914a63c3106a",
    "/assets/reference/StRoch-InventoryTemplateVetCloud.xlsx": "0aeff6a444b1e6120e02037412070646c0c414f2",
    "/assets/reference/soap_mysql.sql": "9eeb48ece582433b96adc826a0c86fdc9831518e",
    "/color.6441e63a57ccc5105bad.png": "ff4c4bcb2207891b292f544edb4da9d2df5d45cf",
    "/fa-brands-400.31015e861aeb30ff8355.woff2": "509988477da79c146cb93fb728405f18e923c2de",
    "/fa-brands-400.3c45c98f6f6c1b009c08.svg": "d49c07aef6414916b3c6860b42b906e39748e842",
    "/fa-brands-400.5818bbd07dfd7095920a.ttf": "66c86edfd13e63e0e981ce853335c28bc2d20cec",
    "/fa-brands-400.607a77859353c0cc1882.eot": "a17db2a5a355befd089bb6e7d53c3d501bf9e827",
    "/fa-brands-400.ee26f57bc9e3619b022b.woff": "8436788e76679c0485b62c80eb7512c6c2e34e88",
    "/fa-regular-400.0747be4cba2f8600544f.eot": "6299f0e32575f73d8d897f87ce899827f99e20fe",
    "/fa-regular-400.8b892b7904a39e37c53d.woff": "8469cb3d9c8189fea64f60aef2753509d770b8df",
    "/fa-regular-400.ab47faeab8ddc5f809ec.svg": "3372e92825af3975013cece2390f806023b1b05d",
    "/fa-regular-400.c3146b3524e97475c094.ttf": "00f569f7d8ac2497a43b25dc4d3b32213bcea31b",
    "/fa-regular-400.c52405129ae48097815d.woff2": "260bb01acd44d88dcb7f501a238ab968f86bef9e",
    "/fa-solid-900.18df003f90a7f1313b98.svg": "a4115fd7ce47ed2b41f7d4e9e7448f28ba3f7508",
    "/fa-solid-900.32267f3b4db33a7c85ee.ttf": "ff8f37dfad105796bd924d0db0d37a4ff252618c",
    "/fa-solid-900.7eefe04dc985dd4ad38b.eot": "5be5944a17e8b32589a12fdc2b8a8570c9081db4",
    "/fa-solid-900.9451d5fee89b51a20f8a.woff2": "75a88815c47a249eadb5f0edc1675957f860cca7",
    "/fa-solid-900.a940d584750708f5435c.woff": "15c52209092ce0fb7210e40e2a01acc8b4a5c494",
    "/fontawesome-webfont.1e59d2330b4c6deb84b3.ttf": "13b1eab65a983c7a73bc7997c479d66943f7c6cb",
    "/fontawesome-webfont.20fd1704ea223900efa9.woff2": "d6f48cba7d076fb6f2fd6ba993a75b9dc1ecbf0c",
    "/fontawesome-webfont.6878d55e3615ccf40c38.svg": "b5483b11f8ba213e733b5b8af9927a04fec996f6",
    "/fontawesome-webfont.8b43027f47b20503057d.eot": "d980c2ce873dc43af460d4d572d441304499f400",
    "/fontawesome-webfont.f691f37e57f04c152e23.woff": "28b782240b3e76db824e12c02754a9731a167527",
    "/hue.f8505bd4d6f3e3aa435b.png": "f81ae627637a684614aa726e206c73ce099a01fd",
    "/index.html": "ca1c199773fa7260d694a0d35ff95526b0b87bd5",
    "/line.39c65dcc08f7edb347b6.gif": "a2af20bd160ca9cfc2c85527663ff7429267519a",
    "/loading.9347db5956a89b0bab38.gif": "72998a116936156dc7cace0606dab499fe4f3ce8",
    "/main-es2015.219c47c9450865355efa.js": "62b7827f849de02b83efaffc60e64b3fa77f3f77",
    "/main-es5.219c47c9450865355efa.js": "0c9979ba173df5df216a86f8883007e465dc41a0",
    "/manifest.webmanifest": "b3b17526b69beb0f8f90ccecac320db2950e1fc1",
    "/materialdesignicons-webfont.5908ecb9ed942e5e61fa.eot": "d3907d800b1efc2f54e2268bb2174d1cd2170645",
    "/materialdesignicons-webfont.bbe05489cd38a31d1694.ttf": "81f052a4166dcdab782403d2faa55608c79e27ef",
    "/materialdesignicons-webfont.d9f39587ab2751b33bcf.woff2": "956a1268c3a510ed74350d3993814b6a1ff57a65",
    "/materialdesignicons-webfont.da9606b68b5c8ac55cfb.woff": "b61974cd872e7259f36aa050168f55e5d2967ecd",
    "/open-sans-v15-latin-300.252a41f69d4c320154a1.ttf": "861b3593521709d9fa8a8efb6f40817dd7fa9337",
    "/open-sans-v15-latin-300.2aeabc9e8ed0aef227d7.eot": "7ee41fc56711a91b386b72d60d42feb9b4148f50",
    "/open-sans-v15-latin-300.bb3b405a4608d51ddb13.svg": "1183c2939f6cad1ac69dc16d4a0b943d546e4b2e",
    "/open-sans-v15-latin-300.df17d4e30091735253a8.woff": "0c74bab4a4ebdafe080c8a35bd61d38f1b692358",
    "/open-sans-v15-latin-300.f2ebdee8c2343f558a02.woff2": "34f486906decb7c8cf7a02d4758add9a2408c7a5",
    "/open-sans-v15-latin-700.2509c35b0cfc629f81e5.woff": "b5f79d1934da79c8a4ba381092dad82ffb0582cb",
    "/open-sans-v15-latin-700.7435e6c2064f36f48626.woff2": "5a6a45d6f98752b11ccb7c4f0f6fd7faf18ad1a7",
    "/open-sans-v15-latin-700.75e0e55bdb3e82dcacf8.eot": "29ac62f8162f60358348d8f80b191736885fdc12",
    "/open-sans-v15-latin-700.926388f043fc8117b35b.svg": "8338e3159cc9c5ff55cac72674afb7e90118ff19",
    "/open-sans-v15-latin-700.ec32d6be7329ece0789c.ttf": "f6e1c78441d4ca2ef589ce79e48d3dbf9dca9a0d",
    "/open-sans-v15-latin-regular.1d0d8b66fa1da76d69b9.svg": "4ca4e88a77a4d81138206a10793507cde43e31a8",
    "/open-sans-v15-latin-regular.61747992dd9a412e601e.ttf": "92d652578c531e2c3d9db4622584f6a1ab2c225a",
    "/open-sans-v15-latin-regular.87a454b233bedae23f8d.woff": "0e92462e402c15295366d912a7b8be303d0257d8",
    "/open-sans-v15-latin-regular.a356e361ee6765f3d6d4.eot": "8bfad53d1b3c94c9e13bdd7c0b6c7d605396d7b4",
    "/open-sans-v15-latin-regular.ec806460121999bcfb12.woff2": "2c07a9656f1e38da408f20f1cf11581a15cbd7a2",
    "/password-meter.eea288d50533d7995ec1.png": "e0e101bd2a1cbda41398b48a4ab1792d89cb7334",
    "/polyfills-es2015.110f8c161c0fbbacd711.js": "6d53c736d38c40a8236d1d2120da8931140a4ee2",
    "/polyfills-es5.bd27270f9c7fcd9c3e5e.js": "ea305df5abcb539f35c2f7dfa34999a6f40fa6b0",
    "/primeicons.04701ca33ce96d325419.ttf": "5695d34fc4ebc0bbd2fcb0babe238c3023638a7d",
    "/primeicons.1d79a0559e5f13294dee.woff": "c4b44a9b0bc025f62101936b37de1977cd25e3fd",
    "/primeicons.c2e128a00fca2640240d.eot": "3a564ee7b180527eeba74f3dccfa6f779fcc48ab",
    "/primeicons.fa2c83d2f35244bb10dc.svg": "98255677416ed656903e9190e976c00fb2ac862d",
    "/runtime-es2015.0dae8cbc97194c7caed4.js": "a9aafcf49f49145093fc831efd9b8e2f6c71bb9c",
    "/runtime-es5.0dae8cbc97194c7caed4.js": "a9aafcf49f49145093fc831efd9b8e2f6c71bb9c",
    "/scripts.da8ee52b634fd8dc3088.js": "168a38f9630934d00c07d9dc76896c7e4337ac9e",
    "/styles.a913671aa8d5ebe394b7.css": "0b3450b85ff3abfb25f579cd93c3960f16c6f705",
    "/vendor-es2015.b70ed7f9319cc39d7113.js": "7c926d72d121c3271be5613223f64eac4451ab02",
    "/vendor-es5.b70ed7f9319cc39d7113.js": "4dd172033807cd9fb931d0973e413d4238c1cee7"
  },
  "navigationUrls": [
    {
      "positive": true,
      "regex": "^\\/.*$"
    },
    {
      "positive": false,
      "regex": "^\\/(?:.+\\/)?[^/]*\\.[^/]*$"
    },
    {
      "positive": false,
      "regex": "^\\/(?:.+\\/)?[^/]*__[^/]*$"
    },
    {
      "positive": false,
      "regex": "^\\/(?:.+\\/)?[^/]*__[^/]*\\/.*$"
    }
  ],
  "navigationRequestStrategy": "performance"
}