{
    "Oid": "F2E290B7-BE5C-45F7-9304-F5B137537A74",
    "Name": "Navigation_ListView",
    "ID_Model": "3F43B3EF-B221-444B-89F1-214EA25869B0",
    "DataSource": "SELECT * FROM _vNavigation",
    "Comment": null,
    "ID_DetailView": "D506944F-10E9-4D02-B30D-A3E4AC5D0ED6",
    "Model": "Navigation",
    "PrimaryKey": "Oid",
    "Caption": "Navigation",
    "Details": [
        {
            "ID_PropertyType": 2,
            "Precision": null,
            "$DataSource": null,
            "DisplayProperty": "CreatedBy",
            "Oid": "80C454A9-3835-456A-A1A1-0E1084059EAD",
            "Code": null,
            "Name": "ID_CreatedBy",
            "IsActive": true,
            "Comment": null,
            "Caption": "Created By",
            "ID_ModelProperty": "C0BF6BFB-375C-4D5D-9985-32DFE1DE7FCD",
            "ID_ListView": "F2E290B7-BE5C-45F7-9304-F5B137537A74",
            "ID_CreatedBy": 1,
            "ID_LastModifiedBy": 1,
            "DateCreated": "2017-12-27T16:00:12.463Z",
            "DateModified": null,
            "DataSource": null,
            "Format": null,
            "Width": null,
            "Fixed": null,
            "VisibleIndex": 700,
            "IsAllowEdit": null,
            "ID_ControlType": null,
            "ID_ColumnAlignment": null,
            "IsVisible": false,
            "FixedPosition": null,
            "IsRequired": null,
            "ID_SummaryType": null,
            "IsAddModelClass": null,
            "GroupIndex": null,
            "IsFilter": null,
            "ID_FilterControlType": null,
            "ID_PropertyModel": null,
            "PropertyModel": null,
            "SummaryType": null
        },
        {
            "ID_PropertyType": 1,
            "Precision": null,
            "$DataSource": null,
            "DisplayProperty": null,
            "Oid": "E9B89C17-2E0F-4397-8AA7-182814EF12EB",
            "Code": null,
            "Name": "Comment",
            "IsActive": true,
            "Comment": null,
            "Caption": null,
            "ID_ModelProperty": "AF84403D-F4BD-470C-9DEF-CFD1AD0950AC",
            "ID_ListView": "F2E290B7-BE5C-45F7-9304-F5B137537A74",
            "ID_CreatedBy": 1,
            "ID_LastModifiedBy": 1,
            "DateCreated": "2017-12-27T16:00:12.463Z",
            "DateModified": null,
            "DataSource": null,
            "Format": null,
            "Width": "122",
            "Fixed": null,
            "VisibleIndex": 800,
            "IsAllowEdit": null,
            "ID_ControlType": null,
            "ID_ColumnAlignment": null,
            "IsVisible": true,
            "FixedPosition": null,
            "IsRequired": null,
            "ID_SummaryType": null,
            "IsAddModelClass": null,
            "GroupIndex": null,
            "IsFilter": null,
            "ID_FilterControlType": null,
            "ID_PropertyModel": null,
            "PropertyModel": null,
            "SummaryType": null
        },
        {
            "ID_PropertyType": 1,
            "Precision": null,
            "$DataSource": null,
            "DisplayProperty": null,
            "Oid": "59DFF641-0EBE-4376-9283-44FDD15EDAF9",
            "Code": null,
            "Name": "Icon",
            "IsActive": true,
            "Comment": null,
            "Caption": null,
            "ID_ModelProperty": "8D2496B3-EC4A-46AD-BC45-22C5D91B088A",
            "ID_ListView": "F2E290B7-BE5C-45F7-9304-F5B137537A74",
            "ID_CreatedBy": 1,
            "ID_LastModifiedBy": 1,
            "DateCreated": "2017-12-27T16:00:12.463Z",
            "DateModified": null,
            "DataSource": null,
            "Format": null,
            "Width": "150",
            "Fixed": null,
            "VisibleIndex": 600,
            "IsAllowEdit": null,
            "ID_ControlType": null,
            "ID_ColumnAlignment": null,
            "IsVisible": true,
            "FixedPosition": null,
            "IsRequired": null,
            "ID_SummaryType": null,
            "IsAddModelClass": null,
            "GroupIndex": null,
            "IsFilter": null,
            "ID_FilterControlType": null,
            "ID_PropertyModel": null,
            "PropertyModel": null,
            "SummaryType": null
        },
        {
            "ID_PropertyType": 1,
            "Precision": null,
            "$DataSource": null,
            "DisplayProperty": null,
            "Oid": "9405DD08-4319-414C-8A10-4F152BDE323E",
            "Code": null,
            "Name": "Code",
            "IsActive": true,
            "Comment": null,
            "Caption": null,
            "ID_ModelProperty": "1229CE86-C08B-4CB6-B460-93FC1AA6AF0C",
            "ID_ListView": "F2E290B7-BE5C-45F7-9304-F5B137537A74",
            "ID_CreatedBy": 1,
            "ID_LastModifiedBy": 1,
            "DateCreated": "2017-12-27T16:00:12.463Z",
            "DateModified": null,
            "DataSource": null,
            "Format": null,
            "Width": null,
            "Fixed": null,
            "VisibleIndex": 900,
            "IsAllowEdit": null,
            "ID_ControlType": null,
            "ID_ColumnAlignment": null,
            "IsVisible": false,
            "FixedPosition": null,
            "IsRequired": null,
            "ID_SummaryType": null,
            "IsAddModelClass": null,
            "GroupIndex": null,
            "IsFilter": null,
            "ID_FilterControlType": null,
            "ID_PropertyModel": null,
            "PropertyModel": null,
            "SummaryType": null
        },
        {
            "ID_PropertyType": 8,
            "Precision": null,
            "$DataSource": null,
            "DisplayProperty": "View",
            "Oid": "469D70A8-F242-44F4-BD59-A178094A798A",
            "Code": null,
            "Name": "ID_View",
            "IsActive": true,
            "Comment": null,
            "Caption": "View",
            "ID_ModelProperty": "5AC262B0-DA46-4916-BE33-EED4B6C86397",
            "ID_ListView": "F2E290B7-BE5C-45F7-9304-F5B137537A74",
            "ID_CreatedBy": 1,
            "ID_LastModifiedBy": 1,
            "DateCreated": "2017-12-27T16:00:12.463Z",
            "DateModified": null,
            "DataSource": null,
            "Format": null,
            "Width": "307",
            "Fixed": null,
            "VisibleIndex": 500,
            "IsAllowEdit": null,
            "ID_ControlType": null,
            "ID_ColumnAlignment": null,
            "IsVisible": true,
            "FixedPosition": null,
            "IsRequired": null,
            "ID_SummaryType": null,
            "IsAddModelClass": null,
            "GroupIndex": null,
            "IsFilter": null,
            "ID_FilterControlType": null,
            "ID_PropertyModel": "B4686D2F-2AAF-497A-B304-1113F9A4D34A",
            "PropertyModel": "View",
            "SummaryType": null
        },
        {
            "ID_PropertyType": 2,
            "Precision": null,
            "$DataSource": null,
            "DisplayProperty": null,
            "Oid": "EEB5BB29-53E8-489C-B66A-B1F1310125DE",
            "Code": null,
            "Name": "SeqNo",
            "IsActive": true,
            "Comment": null,
            "Caption": "Seq No",
            "ID_ModelProperty": "9C7DE9ED-9451-428A-A1C3-53E0E4582DCE",
            "ID_ListView": "F2E290B7-BE5C-45F7-9304-F5B137537A74",
            "ID_CreatedBy": 1,
            "ID_LastModifiedBy": 1,
            "DateCreated": "2017-12-27T16:00:12.463Z",
            "DateModified": null,
            "DataSource": null,
            "Format": null,
            "Width": "104",
            "Fixed": null,
            "VisibleIndex": 100,
            "IsAllowEdit": true,
            "ID_ControlType": null,
            "ID_ColumnAlignment": null,
            "IsVisible": true,
            "FixedPosition": null,
            "IsRequired": null,
            "ID_SummaryType": null,
            "IsAddModelClass": null,
            "GroupIndex": null,
            "IsFilter": null,
            "ID_FilterControlType": null,
            "ID_PropertyModel": null,
            "PropertyModel": null,
            "SummaryType": null
        },
        {
            "ID_PropertyType": 2,
            "Precision": null,
            "$DataSource": null,
            "DisplayProperty": "LastModifiedBy",
            "Oid": "1BD4000D-E6BD-4820-9FC2-C6B05528F446",
            "Code": null,
            "Name": "ID_LastModifiedBy",
            "IsActive": true,
            "Comment": null,
            "Caption": "Last Modified By",
            "ID_ModelProperty": "C1650477-F728-442E-9004-23F5257FB1AE",
            "ID_ListView": "F2E290B7-BE5C-45F7-9304-F5B137537A74",
            "ID_CreatedBy": 1,
            "ID_LastModifiedBy": 1,
            "DateCreated": "2017-12-27T16:00:12.463Z",
            "DateModified": null,
            "DataSource": null,
            "Format": null,
            "Width": null,
            "Fixed": null,
            "VisibleIndex": 300,
            "IsAllowEdit": null,
            "ID_ControlType": null,
            "ID_ColumnAlignment": null,
            "IsVisible": false,
            "FixedPosition": null,
            "IsRequired": null,
            "ID_SummaryType": null,
            "IsAddModelClass": null,
            "GroupIndex": null,
            "IsFilter": null,
            "ID_FilterControlType": null,
            "ID_PropertyModel": null,
            "PropertyModel": null,
            "SummaryType": null
        },
        {
            "ID_PropertyType": 1,
            "Precision": null,
            "$DataSource": null,
            "DisplayProperty": null,
            "Oid": "14452034-5321-45CB-9AB4-CB24458DFCA0",
            "Code": null,
            "Name": "Name",
            "IsActive": true,
            "Comment": null,
            "Caption": null,
            "ID_ModelProperty": "85844BFD-1033-4256-94C8-7EF4125047BA",
            "ID_ListView": "F2E290B7-BE5C-45F7-9304-F5B137537A74",
            "ID_CreatedBy": 1,
            "ID_LastModifiedBy": 1,
            "DateCreated": "2017-12-27T16:00:12.463Z",
            "DateModified": null,
            "DataSource": null,
            "Format": null,
            "Width": "200",
            "Fixed": true,
            "VisibleIndex": 1300,
            "IsAllowEdit": true,
            "ID_ControlType": null,
            "ID_ColumnAlignment": null,
            "IsVisible": true,
            "FixedPosition": "left",
            "IsRequired": null,
            "ID_SummaryType": null,
            "IsAddModelClass": null,
            "GroupIndex": null,
            "IsFilter": false,
            "ID_FilterControlType": 1,
            "ID_PropertyModel": null,
            "PropertyModel": null,
            "SummaryType": null
        },
        {
            "ID_PropertyType": 5,
            "Precision": null,
            "$DataSource": null,
            "DisplayProperty": null,
            "Oid": "10BFB49B-C81D-4502-A704-CBD30756196E",
            "Code": null,
            "Name": "DateCreated",
            "IsActive": true,
            "Comment": null,
            "Caption": "Date Created",
            "ID_ModelProperty": "E1C6CB95-DFA5-4B10-B7DF-AA03E5AA095B",
            "ID_ListView": "F2E290B7-BE5C-45F7-9304-F5B137537A74",
            "ID_CreatedBy": 1,
            "ID_LastModifiedBy": 1,
            "DateCreated": "2017-12-27T16:00:12.463Z",
            "DateModified": null,
            "DataSource": null,
            "Format": null,
            "Width": null,
            "Fixed": null,
            "VisibleIndex": 1000,
            "IsAllowEdit": null,
            "ID_ControlType": null,
            "ID_ColumnAlignment": null,
            "IsVisible": false,
            "FixedPosition": null,
            "IsRequired": null,
            "ID_SummaryType": null,
            "IsAddModelClass": null,
            "GroupIndex": null,
            "IsFilter": null,
            "ID_FilterControlType": null,
            "ID_PropertyModel": null,
            "PropertyModel": null,
            "SummaryType": null
        },
        {
            "ID_PropertyType": 8,
            "Precision": null,
            "$DataSource": null,
            "DisplayProperty": null,
            "Oid": "C9D1FF6C-EA14-4B26-AEB8-CD98C2D28034",
            "Code": null,
            "Name": "Oid",
            "IsActive": true,
            "Comment": null,
            "Caption": null,
            "ID_ModelProperty": "EC85718A-6688-42A4-8CEF-15BE8440FF3E",
            "ID_ListView": "F2E290B7-BE5C-45F7-9304-F5B137537A74",
            "ID_CreatedBy": 1,
            "ID_LastModifiedBy": 1,
            "DateCreated": "2017-12-27T16:00:12.463Z",
            "DateModified": null,
            "DataSource": null,
            "Format": null,
            "Width": "50",
            "Fixed": true,
            "VisibleIndex": 1200,
            "IsAllowEdit": null,
            "ID_ControlType": null,
            "ID_ColumnAlignment": null,
            "IsVisible": true,
            "FixedPosition": "left",
            "IsRequired": null,
            "ID_SummaryType": null,
            "IsAddModelClass": null,
            "GroupIndex": null,
            "IsFilter": null,
            "ID_FilterControlType": null,
            "ID_PropertyModel": null,
            "PropertyModel": null,
            "SummaryType": null
        },
        {
            "ID_PropertyType": 5,
            "Precision": null,
            "$DataSource": null,
            "DisplayProperty": null,
            "Oid": "46EF4C26-264C-4C95-8363-D27EE479AD39",
            "Code": null,
            "Name": "DateModified",
            "IsActive": true,
            "Comment": null,
            "Caption": "Date Modified",
            "ID_ModelProperty": "2CB74ADA-0FEA-4FCB-BA29-A67398FD34D0",
            "ID_ListView": "F2E290B7-BE5C-45F7-9304-F5B137537A74",
            "ID_CreatedBy": 1,
            "ID_LastModifiedBy": 1,
            "DateCreated": "2017-12-27T16:00:12.463Z",
            "DateModified": null,
            "DataSource": null,
            "Format": null,
            "Width": null,
            "Fixed": null,
            "VisibleIndex": 1100,
            "IsAllowEdit": null,
            "ID_ControlType": null,
            "ID_ColumnAlignment": null,
            "IsVisible": false,
            "FixedPosition": null,
            "IsRequired": null,
            "ID_SummaryType": null,
            "IsAddModelClass": null,
            "GroupIndex": null,
            "IsFilter": null,
            "ID_FilterControlType": null,
            "ID_PropertyModel": null,
            "PropertyModel": null,
            "SummaryType": null
        },
        {
            "ID_PropertyType": 4,
            "Precision": null,
            "$DataSource": null,
            "DisplayProperty": null,
            "Oid": "870DCAFD-5194-4B79-93AD-D730A719C9FD",
            "Code": null,
            "Name": "IsActive",
            "IsActive": true,
            "Comment": null,
            "Caption": "Active",
            "ID_ModelProperty": "8D7144E6-1C5A-4E12-84C6-56997D33C0C6",
            "ID_ListView": "F2E290B7-BE5C-45F7-9304-F5B137537A74",
            "ID_CreatedBy": 1,
            "ID_LastModifiedBy": 1,
            "DateCreated": "2017-12-27T16:00:12.463Z",
            "DateModified": null,
            "DataSource": null,
            "Format": null,
            "Width": "117",
            "Fixed": null,
            "VisibleIndex": 200,
            "IsAllowEdit": true,
            "ID_ControlType": null,
            "ID_ColumnAlignment": null,
            "IsVisible": true,
            "FixedPosition": null,
            "IsRequired": null,
            "ID_SummaryType": null,
            "IsAddModelClass": null,
            "GroupIndex": null,
            "IsFilter": null,
            "ID_FilterControlType": null,
            "ID_PropertyModel": null,
            "PropertyModel": null,
            "SummaryType": null
        },
        {
            "ID_PropertyType": 1,
            "Precision": null,
            "$DataSource": null,
            "DisplayProperty": null,
            "Oid": "B2EFAF9E-8540-4879-818C-E08F6C7816A3",
            "Code": null,
            "Name": "Caption",
            "IsActive": true,
            "Comment": null,
            "Caption": null,
            "ID_ModelProperty": "8214C401-051E-4364-8A9B-504C1268F9CA",
            "ID_ListView": "F2E290B7-BE5C-45F7-9304-F5B137537A74",
            "ID_CreatedBy": 1,
            "ID_LastModifiedBy": 1,
            "DateCreated": "2017-12-27T16:00:12.463Z",
            "DateModified": null,
            "DataSource": null,
            "Format": null,
            "Width": "188",
            "Fixed": null,
            "VisibleIndex": 0,
            "IsAllowEdit": true,
            "ID_ControlType": null,
            "ID_ColumnAlignment": null,
            "IsVisible": true,
            "FixedPosition": null,
            "IsRequired": null,
            "ID_SummaryType": null,
            "IsAddModelClass": null,
            "GroupIndex": null,
            "IsFilter": false,
            "ID_FilterControlType": 1,
            "ID_PropertyModel": null,
            "PropertyModel": null,
            "SummaryType": null
        },
        {
            "ID_PropertyType": 8,
            "Precision": null,
            "$DataSource": "SELECT Oid, Name FROM _tNavigation WHERE ID_View IS NULL AND IsActive = 1",
            "DisplayProperty": "Parent",
            "Oid": "AED57E03-16FA-4DE6-8FC0-56EBD9F99C1A",
            "Code": null,
            "Name": "ID_Parent",
            "IsActive": true,
            "Comment": null,
            "Caption": "Parent",
            "ID_ModelProperty": "D2ACCB54-1846-4E02-8D3A-4DB4CF2BE576",
            "ID_ListView": "F2E290B7-BE5C-45F7-9304-F5B137537A74",
            "ID_CreatedBy": 1,
            "ID_LastModifiedBy": 1,
            "DateCreated": "2017-12-29T17:20:41.900Z",
            "DateModified": null,
            "DataSource": "6mpZqEb3QWX5rzNYvHMTnlJqinQQMUip39KnKx0y80lAiqEBidK3woFyf8JsvkcQpZhkgj5ypRhfqpln2aI/oAkfJgCEpk251xYzKPXzh24=",
            "Format": null,
            "Width": "194",
            "Fixed": null,
            "VisibleIndex": 400,
            "IsAllowEdit": true,
            "ID_ControlType": 9,
            "ID_ColumnAlignment": null,
            "IsVisible": true,
            "FixedPosition": null,
            "IsRequired": null,
            "ID_SummaryType": null,
            "IsAddModelClass": null,
            "GroupIndex": null,
            "IsFilter": null,
            "ID_FilterControlType": null,
            "ID_PropertyModel": "3F43B3EF-B221-444B-89F1-214EA25869B0",
            "PropertyModel": "Navigation",
            "SummaryType": null
        },
        {
            "ID_PropertyType": 1,
            "Precision": null,
            "$DataSource": null,
            "DisplayProperty": null,
            "Oid": "CF17ABEE-E118-4681-B2D1-091061E189AA",
            "Code": null,
            "Name": "Route",
            "IsActive": true,
            "Comment": null,
            "Caption": null,
            "ID_ModelProperty": "4638D589-8388-4AC2-ACE9-D3E52D4C1ACA",
            "ID_ListView": "F2E290B7-BE5C-45F7-9304-F5B137537A74",
            "ID_CreatedBy": 1,
            "ID_LastModifiedBy": null,
            "DateCreated": "2020-09-14T19:58:54.207Z",
            "DateModified": null,
            "DataSource": null,
            "Format": null,
            "Width": null,
            "Fixed": null,
            "VisibleIndex": 1000,
            "IsAllowEdit": null,
            "ID_ControlType": null,
            "ID_ColumnAlignment": null,
            "IsVisible": true,
            "FixedPosition": null,
            "IsRequired": null,
            "ID_SummaryType": null,
            "IsAddModelClass": null,
            "GroupIndex": null,
            "IsFilter": null,
            "ID_FilterControlType": null,
            "ID_PropertyModel": null,
            "PropertyModel": null,
            "SummaryType": null
        }
    ]
}