{
    "Oid": "CAD8F4A4-20C2-4015-9510-A9E3F03AD981",
    "Name": "SalesOrder_Detail_Lookup_ListView",
    "ID_Model": null,
    "DataSource": "SELECT * FROM vSalesOrder_Detail_Lookup_ListView",
    "Comment": null,
    "ID_DetailView": null,
    "Model": null,
    "PrimaryKey": null,
    "Caption": null,
    "Details": [
        {
            "ID_PropertyType": 2,
            "Precision": null,
            "$DataSource": null,
            "DisplayProperty": null,
            "Oid": "F2D7817A-630A-475F-8947-049951BF8747",
            "Code": null,
            "Name": "ID_SalesOrder",
            "IsActive": true,
            "Comment": null,
            "Caption": null,
            "ID_ModelProperty": null,
            "ID_ListView": "CAD8F4A4-20C2-4015-9510-A9E3F03AD981",
            "ID_CreatedBy": 1,
            "ID_LastModifiedBy": 1,
            "DateCreated": "2018-04-19T17:00:35.123Z",
            "DateModified": "2018-04-19T17:00:35.123Z",
            "DataSource": null,
            "Format": null,
            "Width": null,
            "Fixed": null,
            "VisibleIndex": 0,
            "IsAllowEdit": null,
            "ID_ControlType": null,
            "ID_ColumnAlignment": null,
            "IsVisible": false,
            "FixedPosition": null,
            "IsRequired": null,
            "ID_SummaryType": null,
            "IsAddModelClass": null,
            "GroupIndex": null,
            "IsFilter": null,
            "ID_FilterControlType": null,
            "ID_PropertyModel": null,
            "PropertyModel": null,
            "SummaryType": null
        },
        {
            "ID_PropertyType": 5,
            "Precision": null,
            "$DataSource": null,
            "DisplayProperty": null,
            "Oid": "B66CE0D8-0E3A-4EEC-966E-05106C824354",
            "Code": null,
            "Name": "DateModified",
            "IsActive": true,
            "Comment": null,
            "Caption": "Date Modified",
            "ID_ModelProperty": null,
            "ID_ListView": "CAD8F4A4-20C2-4015-9510-A9E3F03AD981",
            "ID_CreatedBy": 1,
            "ID_LastModifiedBy": 1,
            "DateCreated": "2018-04-19T17:00:35.123Z",
            "DateModified": "2018-04-19T17:00:35.123Z",
            "DataSource": null,
            "Format": null,
            "Width": null,
            "Fixed": null,
            "VisibleIndex": 100,
            "IsAllowEdit": null,
            "ID_ControlType": null,
            "ID_ColumnAlignment": null,
            "IsVisible": false,
            "FixedPosition": null,
            "IsRequired": null,
            "ID_SummaryType": null,
            "IsAddModelClass": null,
            "GroupIndex": null,
            "IsFilter": null,
            "ID_FilterControlType": null,
            "ID_PropertyModel": null,
            "PropertyModel": null,
            "SummaryType": null
        },
        {
            "ID_PropertyType": 1,
            "Precision": null,
            "$DataSource": null,
            "DisplayProperty": null,
            "Oid": "22465A5C-4754-4773-87DA-052F5757E721",
            "Code": null,
            "Name": "Code",
            "IsActive": true,
            "Comment": null,
            "Caption": null,
            "ID_ModelProperty": null,
            "ID_ListView": "CAD8F4A4-20C2-4015-9510-A9E3F03AD981",
            "ID_CreatedBy": 1,
            "ID_LastModifiedBy": 1,
            "DateCreated": "2018-04-19T17:00:35.123Z",
            "DateModified": "2018-04-19T17:00:35.123Z",
            "DataSource": null,
            "Format": null,
            "Width": "78",
            "Fixed": null,
            "VisibleIndex": 200,
            "IsAllowEdit": null,
            "ID_ControlType": null,
            "ID_ColumnAlignment": null,
            "IsVisible": true,
            "FixedPosition": null,
            "IsRequired": null,
            "ID_SummaryType": null,
            "IsAddModelClass": null,
            "GroupIndex": null,
            "IsFilter": null,
            "ID_FilterControlType": null,
            "ID_PropertyModel": null,
            "PropertyModel": null,
            "SummaryType": null
        },
        {
            "ID_PropertyType": 3,
            "Precision": 2,
            "$DataSource": null,
            "DisplayProperty": null,
            "Oid": "EA50967E-AE07-4A94-9D70-10991876B679",
            "Code": null,
            "Name": "Quantity",
            "IsActive": true,
            "Comment": null,
            "Caption": null,
            "ID_ModelProperty": null,
            "ID_ListView": "CAD8F4A4-20C2-4015-9510-A9E3F03AD981",
            "ID_CreatedBy": 1,
            "ID_LastModifiedBy": 1,
            "DateCreated": "2018-04-19T17:00:35.123Z",
            "DateModified": "2018-04-19T17:00:35.123Z",
            "DataSource": null,
            "Format": null,
            "Width": "103",
            "Fixed": null,
            "VisibleIndex": 400,
            "IsAllowEdit": null,
            "ID_ControlType": null,
            "ID_ColumnAlignment": null,
            "IsVisible": true,
            "FixedPosition": null,
            "IsRequired": null,
            "ID_SummaryType": null,
            "IsAddModelClass": null,
            "GroupIndex": null,
            "IsFilter": null,
            "ID_FilterControlType": null,
            "ID_PropertyModel": null,
            "PropertyModel": null,
            "SummaryType": null
        },
        {
            "ID_PropertyType": 4,
            "Precision": null,
            "$DataSource": null,
            "DisplayProperty": null,
            "Oid": "807083B9-66B7-4937-9940-1772209769CB",
            "Code": null,
            "Name": "IsActive",
            "IsActive": true,
            "Comment": null,
            "Caption": "Active",
            "ID_ModelProperty": null,
            "ID_ListView": "CAD8F4A4-20C2-4015-9510-A9E3F03AD981",
            "ID_CreatedBy": 1,
            "ID_LastModifiedBy": 1,
            "DateCreated": "2018-04-19T17:00:35.123Z",
            "DateModified": "2018-04-19T17:00:35.123Z",
            "DataSource": null,
            "Format": null,
            "Width": null,
            "Fixed": null,
            "VisibleIndex": 500,
            "IsAllowEdit": null,
            "ID_ControlType": null,
            "ID_ColumnAlignment": null,
            "IsVisible": false,
            "FixedPosition": null,
            "IsRequired": null,
            "ID_SummaryType": null,
            "IsAddModelClass": null,
            "GroupIndex": null,
            "IsFilter": null,
            "ID_FilterControlType": null,
            "ID_PropertyModel": null,
            "PropertyModel": null,
            "SummaryType": null
        },
        {
            "ID_PropertyType": 1,
            "Precision": null,
            "$DataSource": null,
            "DisplayProperty": null,
            "Oid": "3B687C70-B3DE-4BF5-A473-1A5A396FC041",
            "Code": null,
            "Name": "Item",
            "IsActive": true,
            "Comment": null,
            "Caption": null,
            "ID_ModelProperty": null,
            "ID_ListView": "CAD8F4A4-20C2-4015-9510-A9E3F03AD981",
            "ID_CreatedBy": 1,
            "ID_LastModifiedBy": 1,
            "DateCreated": "2018-04-19T17:00:35.123Z",
            "DateModified": "2018-04-19T17:00:35.123Z",
            "DataSource": null,
            "Format": null,
            "Width": "189",
            "Fixed": null,
            "VisibleIndex": 300,
            "IsAllowEdit": null,
            "ID_ControlType": null,
            "ID_ColumnAlignment": null,
            "IsVisible": true,
            "FixedPosition": null,
            "IsRequired": null,
            "ID_SummaryType": null,
            "IsAddModelClass": null,
            "GroupIndex": null,
            "IsFilter": null,
            "ID_FilterControlType": null,
            "ID_PropertyModel": null,
            "PropertyModel": null,
            "SummaryType": null
        },
        {
            "ID_PropertyType": 1,
            "Precision": null,
            "$DataSource": null,
            "DisplayProperty": null,
            "Oid": "B3A9E3C0-5D95-4663-8E8F-3605773E5C35",
            "Code": null,
            "Name": "CreatedBy",
            "IsActive": true,
            "Comment": null,
            "Caption": null,
            "ID_ModelProperty": null,
            "ID_ListView": "CAD8F4A4-20C2-4015-9510-A9E3F03AD981",
            "ID_CreatedBy": 1,
            "ID_LastModifiedBy": 1,
            "DateCreated": "2018-04-19T17:00:35.123Z",
            "DateModified": "2018-04-19T17:00:35.123Z",
            "DataSource": null,
            "Format": null,
            "Width": null,
            "Fixed": null,
            "VisibleIndex": 700,
            "IsAllowEdit": null,
            "ID_ControlType": null,
            "ID_ColumnAlignment": null,
            "IsVisible": false,
            "FixedPosition": null,
            "IsRequired": null,
            "ID_SummaryType": null,
            "IsAddModelClass": null,
            "GroupIndex": null,
            "IsFilter": null,
            "ID_FilterControlType": null,
            "ID_PropertyModel": null,
            "PropertyModel": null,
            "SummaryType": null
        },
        {
            "ID_PropertyType": 1,
            "Precision": null,
            "$DataSource": null,
            "DisplayProperty": null,
            "Oid": "C9597B97-2577-4AB7-B0C0-3AC0E59395B2",
            "Code": null,
            "Name": "Name",
            "IsActive": true,
            "Comment": null,
            "Caption": null,
            "ID_ModelProperty": null,
            "ID_ListView": "CAD8F4A4-20C2-4015-9510-A9E3F03AD981",
            "ID_CreatedBy": 1,
            "ID_LastModifiedBy": 1,
            "DateCreated": "2018-04-19T17:00:35.123Z",
            "DateModified": "2018-04-19T17:00:35.123Z",
            "DataSource": null,
            "Format": null,
            "Width": null,
            "Fixed": null,
            "VisibleIndex": 800,
            "IsAllowEdit": null,
            "ID_ControlType": null,
            "ID_ColumnAlignment": null,
            "IsVisible": false,
            "FixedPosition": null,
            "IsRequired": null,
            "ID_SummaryType": null,
            "IsAddModelClass": null,
            "GroupIndex": null,
            "IsFilter": null,
            "ID_FilterControlType": null,
            "ID_PropertyModel": null,
            "PropertyModel": null,
            "SummaryType": null
        },
        {
            "ID_PropertyType": 3,
            "Precision": 2,
            "$DataSource": null,
            "DisplayProperty": null,
            "Oid": "4422364F-3E09-42BE-B24D-3AC3D383E348",
            "Code": null,
            "Name": "VATRate",
            "IsActive": true,
            "Comment": null,
            "Caption": null,
            "ID_ModelProperty": null,
            "ID_ListView": "CAD8F4A4-20C2-4015-9510-A9E3F03AD981",
            "ID_CreatedBy": 1,
            "ID_LastModifiedBy": 1,
            "DateCreated": "2018-04-19T17:00:35.123Z",
            "DateModified": "2018-04-19T17:00:35.123Z",
            "DataSource": null,
            "Format": null,
            "Width": null,
            "Fixed": null,
            "VisibleIndex": 900,
            "IsAllowEdit": null,
            "ID_ControlType": null,
            "ID_ColumnAlignment": null,
            "IsVisible": false,
            "FixedPosition": null,
            "IsRequired": null,
            "ID_SummaryType": null,
            "IsAddModelClass": null,
            "GroupIndex": null,
            "IsFilter": null,
            "ID_FilterControlType": null,
            "ID_PropertyModel": null,
            "PropertyModel": null,
            "SummaryType": null
        },
        {
            "ID_PropertyType": 1,
            "Precision": null,
            "$DataSource": null,
            "DisplayProperty": null,
            "Oid": "3D004FF5-0770-4871-A9FC-44506E628CA4",
            "Code": null,
            "Name": "LastModifiedBy",
            "IsActive": true,
            "Comment": null,
            "Caption": null,
            "ID_ModelProperty": null,
            "ID_ListView": "CAD8F4A4-20C2-4015-9510-A9E3F03AD981",
            "ID_CreatedBy": 1,
            "ID_LastModifiedBy": 1,
            "DateCreated": "2018-04-19T17:00:35.123Z",
            "DateModified": "2018-04-19T17:00:35.123Z",
            "DataSource": null,
            "Format": null,
            "Width": null,
            "Fixed": null,
            "VisibleIndex": 1000,
            "IsAllowEdit": null,
            "ID_ControlType": null,
            "ID_ColumnAlignment": null,
            "IsVisible": false,
            "FixedPosition": null,
            "IsRequired": null,
            "ID_SummaryType": null,
            "IsAddModelClass": null,
            "GroupIndex": null,
            "IsFilter": null,
            "ID_FilterControlType": null,
            "ID_PropertyModel": null,
            "PropertyModel": null,
            "SummaryType": null
        },
        {
            "ID_PropertyType": 2,
            "Precision": null,
            "$DataSource": null,
            "DisplayProperty": null,
            "Oid": "B1704E60-4876-4583-AA1B-5DA179FDDB4D",
            "Code": null,
            "Name": "ID_Item",
            "IsActive": true,
            "Comment": null,
            "Caption": null,
            "ID_ModelProperty": null,
            "ID_ListView": "CAD8F4A4-20C2-4015-9510-A9E3F03AD981",
            "ID_CreatedBy": 1,
            "ID_LastModifiedBy": 1,
            "DateCreated": "2018-04-19T17:00:35.123Z",
            "DateModified": "2018-04-19T17:00:35.123Z",
            "DataSource": null,
            "Format": null,
            "Width": null,
            "Fixed": null,
            "VisibleIndex": 1100,
            "IsAllowEdit": null,
            "ID_ControlType": null,
            "ID_ColumnAlignment": null,
            "IsVisible": false,
            "FixedPosition": null,
            "IsRequired": null,
            "ID_SummaryType": null,
            "IsAddModelClass": null,
            "GroupIndex": null,
            "IsFilter": null,
            "ID_FilterControlType": null,
            "ID_PropertyModel": null,
            "PropertyModel": null,
            "SummaryType": null
        },
        {
            "ID_PropertyType": 3,
            "Precision": 2,
            "$DataSource": null,
            "DisplayProperty": null,
            "Oid": "BC995162-E60D-43FA-B095-618217260937",
            "Code": null,
            "Name": "DiscountAmount",
            "IsActive": true,
            "Comment": null,
            "Caption": "Discount",
            "ID_ModelProperty": null,
            "ID_ListView": "CAD8F4A4-20C2-4015-9510-A9E3F03AD981",
            "ID_CreatedBy": 1,
            "ID_LastModifiedBy": 1,
            "DateCreated": "2018-04-19T17:00:35.123Z",
            "DateModified": "2018-04-19T17:00:35.123Z",
            "DataSource": null,
            "Format": null,
            "Width": "105",
            "Fixed": null,
            "VisibleIndex": 1400,
            "IsAllowEdit": null,
            "ID_ControlType": null,
            "ID_ColumnAlignment": null,
            "IsVisible": true,
            "FixedPosition": null,
            "IsRequired": null,
            "ID_SummaryType": null,
            "IsAddModelClass": null,
            "GroupIndex": null,
            "IsFilter": null,
            "ID_FilterControlType": null,
            "ID_PropertyModel": null,
            "PropertyModel": null,
            "SummaryType": null
        },
        {
            "ID_PropertyType": 3,
            "Precision": 2,
            "$DataSource": null,
            "DisplayProperty": null,
            "Oid": "67F447E6-8CF8-4E62-86A7-6C6570E67152",
            "Code": null,
            "Name": "TotalAmount",
            "IsActive": true,
            "Comment": null,
            "Caption": null,
            "ID_ModelProperty": null,
            "ID_ListView": "CAD8F4A4-20C2-4015-9510-A9E3F03AD981",
            "ID_CreatedBy": 1,
            "ID_LastModifiedBy": 1,
            "DateCreated": "2018-04-19T17:00:35.123Z",
            "DateModified": "2018-04-19T17:00:35.123Z",
            "DataSource": null,
            "Format": null,
            "Width": "102",
            "Fixed": null,
            "VisibleIndex": 1800,
            "IsAllowEdit": null,
            "ID_ControlType": null,
            "ID_ColumnAlignment": null,
            "IsVisible": true,
            "FixedPosition": null,
            "IsRequired": null,
            "ID_SummaryType": null,
            "IsAddModelClass": null,
            "GroupIndex": null,
            "IsFilter": null,
            "ID_FilterControlType": null,
            "ID_PropertyModel": null,
            "PropertyModel": null,
            "SummaryType": null
        },
        {
            "ID_PropertyType": 3,
            "Precision": 2,
            "$DataSource": null,
            "DisplayProperty": null,
            "Oid": "BF36F62E-46D7-4391-904E-6FFA7D6AC520",
            "Code": null,
            "Name": "Subtotal",
            "IsActive": true,
            "Comment": null,
            "Caption": null,
            "ID_ModelProperty": null,
            "ID_ListView": "CAD8F4A4-20C2-4015-9510-A9E3F03AD981",
            "ID_CreatedBy": 1,
            "ID_LastModifiedBy": 1,
            "DateCreated": "2018-04-19T17:00:35.123Z",
            "DateModified": "2018-04-19T17:00:35.123Z",
            "DataSource": null,
            "Format": null,
            "Width": "121",
            "Fixed": null,
            "VisibleIndex": 1700,
            "IsAllowEdit": null,
            "ID_ControlType": null,
            "ID_ColumnAlignment": null,
            "IsVisible": true,
            "FixedPosition": null,
            "IsRequired": null,
            "ID_SummaryType": null,
            "IsAddModelClass": null,
            "GroupIndex": null,
            "IsFilter": null,
            "ID_FilterControlType": null,
            "ID_PropertyModel": null,
            "PropertyModel": null,
            "SummaryType": null
        },
        {
            "ID_PropertyType": 2,
            "Precision": null,
            "$DataSource": null,
            "DisplayProperty": "CreatedBy",
            "Oid": "42C18FEC-C752-43EA-B0A7-72E1C4A5AC33",
            "Code": null,
            "Name": "ID_CreatedBy",
            "IsActive": true,
            "Comment": null,
            "Caption": "Created By",
            "ID_ModelProperty": null,
            "ID_ListView": "CAD8F4A4-20C2-4015-9510-A9E3F03AD981",
            "ID_CreatedBy": 1,
            "ID_LastModifiedBy": 1,
            "DateCreated": "2018-04-19T17:00:35.123Z",
            "DateModified": "2018-04-19T17:00:35.123Z",
            "DataSource": null,
            "Format": null,
            "Width": "117",
            "Fixed": null,
            "VisibleIndex": 1900,
            "IsAllowEdit": null,
            "ID_ControlType": null,
            "ID_ColumnAlignment": null,
            "IsVisible": false,
            "FixedPosition": null,
            "IsRequired": null,
            "ID_SummaryType": null,
            "IsAddModelClass": null,
            "GroupIndex": null,
            "IsFilter": null,
            "ID_FilterControlType": null,
            "ID_PropertyModel": null,
            "PropertyModel": null,
            "SummaryType": null
        },
        {
            "ID_PropertyType": 3,
            "Precision": 2,
            "$DataSource": null,
            "DisplayProperty": null,
            "Oid": "B12E689B-B960-4A63-946C-77A1CFFA2927",
            "Code": null,
            "Name": "VATAmount",
            "IsActive": true,
            "Comment": null,
            "Caption": null,
            "ID_ModelProperty": null,
            "ID_ListView": "CAD8F4A4-20C2-4015-9510-A9E3F03AD981",
            "ID_CreatedBy": 1,
            "ID_LastModifiedBy": 1,
            "DateCreated": "2018-04-19T17:00:35.123Z",
            "DateModified": "2018-04-19T17:00:35.123Z",
            "DataSource": null,
            "Format": null,
            "Width": "106",
            "Fixed": null,
            "VisibleIndex": 1600,
            "IsAllowEdit": null,
            "ID_ControlType": null,
            "ID_ColumnAlignment": null,
            "IsVisible": true,
            "FixedPosition": null,
            "IsRequired": null,
            "ID_SummaryType": null,
            "IsAddModelClass": null,
            "GroupIndex": null,
            "IsFilter": null,
            "ID_FilterControlType": null,
            "ID_PropertyModel": null,
            "PropertyModel": null,
            "SummaryType": null
        },
        {
            "ID_PropertyType": 2,
            "Precision": null,
            "$DataSource": null,
            "DisplayProperty": "LastModifiedBy",
            "Oid": "7558E83F-EF02-4752-BFF5-83C636E87F4B",
            "Code": null,
            "Name": "ID_LastModifiedBy",
            "IsActive": true,
            "Comment": null,
            "Caption": "Last Modified By",
            "ID_ModelProperty": null,
            "ID_ListView": "CAD8F4A4-20C2-4015-9510-A9E3F03AD981",
            "ID_CreatedBy": 1,
            "ID_LastModifiedBy": 1,
            "DateCreated": "2018-04-19T17:00:35.123Z",
            "DateModified": "2018-04-19T17:00:35.123Z",
            "DataSource": null,
            "Format": null,
            "Width": null,
            "Fixed": null,
            "VisibleIndex": 2000,
            "IsAllowEdit": null,
            "ID_ControlType": null,
            "ID_ColumnAlignment": null,
            "IsVisible": false,
            "FixedPosition": null,
            "IsRequired": null,
            "ID_SummaryType": null,
            "IsAddModelClass": null,
            "GroupIndex": null,
            "IsFilter": null,
            "ID_FilterControlType": null,
            "ID_PropertyModel": null,
            "PropertyModel": null,
            "SummaryType": null
        },
        {
            "ID_PropertyType": 5,
            "Precision": null,
            "$DataSource": null,
            "DisplayProperty": null,
            "Oid": "CF2E467E-B009-4F21-8FEA-8AF7CB19BF3A",
            "Code": null,
            "Name": "DateCreated",
            "IsActive": true,
            "Comment": null,
            "Caption": "Date Created",
            "ID_ModelProperty": null,
            "ID_ListView": "CAD8F4A4-20C2-4015-9510-A9E3F03AD981",
            "ID_CreatedBy": 1,
            "ID_LastModifiedBy": 1,
            "DateCreated": "2018-04-19T17:00:35.123Z",
            "DateModified": "2018-04-19T17:00:35.123Z",
            "DataSource": null,
            "Format": null,
            "Width": "113",
            "Fixed": null,
            "VisibleIndex": 2100,
            "IsAllowEdit": null,
            "ID_ControlType": null,
            "ID_ColumnAlignment": null,
            "IsVisible": false,
            "FixedPosition": null,
            "IsRequired": null,
            "ID_SummaryType": null,
            "IsAddModelClass": null,
            "GroupIndex": null,
            "IsFilter": null,
            "ID_FilterControlType": null,
            "ID_PropertyModel": null,
            "PropertyModel": null,
            "SummaryType": null
        },
        {
            "ID_PropertyType": 1,
            "Precision": null,
            "$DataSource": null,
            "DisplayProperty": null,
            "Oid": "63A5A330-514D-4160-8E8B-8BF0CA2943B1",
            "Code": null,
            "Name": "Comment",
            "IsActive": true,
            "Comment": null,
            "Caption": null,
            "ID_ModelProperty": null,
            "ID_ListView": "CAD8F4A4-20C2-4015-9510-A9E3F03AD981",
            "ID_CreatedBy": 1,
            "ID_LastModifiedBy": 1,
            "DateCreated": "2018-04-19T17:00:35.123Z",
            "DateModified": "2018-04-19T17:00:35.123Z",
            "DataSource": null,
            "Format": null,
            "Width": null,
            "Fixed": null,
            "VisibleIndex": 2200,
            "IsAllowEdit": null,
            "ID_ControlType": null,
            "ID_ColumnAlignment": null,
            "IsVisible": false,
            "FixedPosition": null,
            "IsRequired": null,
            "ID_SummaryType": null,
            "IsAddModelClass": null,
            "GroupIndex": null,
            "IsFilter": null,
            "ID_FilterControlType": null,
            "ID_PropertyModel": null,
            "PropertyModel": null,
            "SummaryType": null
        },
        {
            "ID_PropertyType": 2,
            "Precision": null,
            "$DataSource": null,
            "DisplayProperty": "DocStatus",
            "Oid": "FDFE219A-B448-476B-9B2C-908186AFAAAB",
            "Code": null,
            "Name": "ID_DocStatus",
            "IsActive": true,
            "Comment": null,
            "Caption": "Status",
            "ID_ModelProperty": null,
            "ID_ListView": "CAD8F4A4-20C2-4015-9510-A9E3F03AD981",
            "ID_CreatedBy": 1,
            "ID_LastModifiedBy": 1,
            "DateCreated": "2018-04-19T17:00:35.123Z",
            "DateModified": "2018-04-19T17:00:35.123Z",
            "DataSource": null,
            "Format": null,
            "Width": "120",
            "Fixed": true,
            "VisibleIndex": 1300,
            "IsAllowEdit": null,
            "ID_ControlType": null,
            "ID_ColumnAlignment": null,
            "IsVisible": true,
            "FixedPosition": "right",
            "IsRequired": null,
            "ID_SummaryType": null,
            "IsAddModelClass": null,
            "GroupIndex": null,
            "IsFilter": null,
            "ID_FilterControlType": null,
            "ID_PropertyModel": null,
            "PropertyModel": null,
            "SummaryType": null
        },
        {
            "ID_PropertyType": 2,
            "Precision": null,
            "$DataSource": null,
            "DisplayProperty": null,
            "Oid": "2785A4CD-8B7F-400A-BD85-ADE6ED2FA7FC",
            "Code": null,
            "Name": "ID",
            "IsActive": true,
            "Comment": null,
            "Caption": null,
            "ID_ModelProperty": null,
            "ID_ListView": "CAD8F4A4-20C2-4015-9510-A9E3F03AD981",
            "ID_CreatedBy": 1,
            "ID_LastModifiedBy": 1,
            "DateCreated": "2018-04-19T17:00:35.123Z",
            "DateModified": "2018-04-19T17:00:35.123Z",
            "DataSource": null,
            "Format": null,
            "Width": "70",
            "Fixed": true,
            "VisibleIndex": 2300,
            "IsAllowEdit": null,
            "ID_ControlType": null,
            "ID_ColumnAlignment": null,
            "IsVisible": true,
            "FixedPosition": "left",
            "IsRequired": null,
            "ID_SummaryType": null,
            "IsAddModelClass": null,
            "GroupIndex": null,
            "IsFilter": null,
            "ID_FilterControlType": null,
            "ID_PropertyModel": null,
            "PropertyModel": null,
            "SummaryType": null
        },
        {
            "ID_PropertyType": 3,
            "Precision": 2,
            "$DataSource": null,
            "DisplayProperty": null,
            "Oid": "FE68BF57-FEDF-48CE-A8F1-C0B7C3539DF2",
            "Code": null,
            "Name": "UnitPrice",
            "IsActive": true,
            "Comment": null,
            "Caption": null,
            "ID_ModelProperty": null,
            "ID_ListView": "CAD8F4A4-20C2-4015-9510-A9E3F03AD981",
            "ID_CreatedBy": 1,
            "ID_LastModifiedBy": 1,
            "DateCreated": "2018-04-19T17:00:35.123Z",
            "DateModified": "2018-04-19T17:00:35.123Z",
            "DataSource": null,
            "Format": null,
            "Width": "89",
            "Fixed": null,
            "VisibleIndex": 1500,
            "IsAllowEdit": null,
            "ID_ControlType": null,
            "ID_ColumnAlignment": null,
            "IsVisible": true,
            "FixedPosition": null,
            "IsRequired": null,
            "ID_SummaryType": null,
            "IsAddModelClass": null,
            "GroupIndex": null,
            "IsFilter": null,
            "ID_FilterControlType": null,
            "ID_PropertyModel": null,
            "PropertyModel": null,
            "SummaryType": null
        },
        {
            "ID_PropertyType": 2,
            "Precision": null,
            "$DataSource": null,
            "DisplayProperty": "UOM",
            "Oid": "D6B3EA7D-FF59-4B5B-B8A8-E50861D4F6B6",
            "Code": null,
            "Name": "ID_UOM",
            "IsActive": true,
            "Comment": null,
            "Caption": "UOM",
            "ID_ModelProperty": null,
            "ID_ListView": "CAD8F4A4-20C2-4015-9510-A9E3F03AD981",
            "ID_CreatedBy": 1,
            "ID_LastModifiedBy": 1,
            "DateCreated": "2018-04-19T17:00:35.123Z",
            "DateModified": "2018-04-19T17:00:35.123Z",
            "DataSource": null,
            "Format": null,
            "Width": "67",
            "Fixed": null,
            "VisibleIndex": 1200,
            "IsAllowEdit": null,
            "ID_ControlType": null,
            "ID_ColumnAlignment": null,
            "IsVisible": true,
            "FixedPosition": null,
            "IsRequired": null,
            "ID_SummaryType": null,
            "IsAddModelClass": null,
            "GroupIndex": null,
            "IsFilter": null,
            "ID_FilterControlType": null,
            "ID_PropertyModel": null,
            "PropertyModel": null,
            "SummaryType": null
        }
    ]
}