{
    "Oid": "B450F145-3FD9-48FC-B3F1-A01A30DBAC7D",
    "Name": "View_ListView",
    "ID_Model": "B4686D2F-2AAF-497A-B304-1113F9A4D34A",
    "DataSource": "SELECT * FROM _tView",
    "Comment": null,
    "ID_DetailView": "C8991901-C61D-40CF-BB17-72A899C8FA8D",
    "Model": "View",
    "PrimaryKey": "Oid",
    "Caption": "View",
    "Details": [
        {
            "ID_PropertyType": 2,
            "Precision": null,
            "$DataSource": null,
            "DisplayProperty": "ViewType",
            "Oid": "B04E2050-568D-4BDD-A23C-01341BFD68F0",
            "Code": null,
            "Name": "ID_ViewType",
            "IsActive": true,
            "Comment": null,
            "Caption": "View Type",
            "ID_ModelProperty": "58ECA979-11BB-42B0-A1B3-AC91C333BB28",
            "ID_ListView": "B450F145-3FD9-48FC-B3F1-A01A30DBAC7D",
            "ID_CreatedBy": 1,
            "ID_LastModifiedBy": 1,
            "DateCreated": "2017-12-27T15:49:54.590Z",
            "DateModified": null,
            "DataSource": null,
            "Format": null,
            "Width": "86",
            "Fixed": null,
            "VisibleIndex": 100,
            "IsAllowEdit": null,
            "ID_ControlType": null,
            "ID_ColumnAlignment": null,
            "IsVisible": true,
            "FixedPosition": null,
            "IsRequired": null,
            "ID_SummaryType": null,
            "IsAddModelClass": null,
            "GroupIndex": null,
            "IsFilter": null,
            "ID_FilterControlType": null,
            "ID_PropertyModel": null,
            "PropertyModel": null,
            "SummaryType": null
        },
        {
            "ID_PropertyType": 2,
            "Precision": null,
            "$DataSource": null,
            "DisplayProperty": "CreatedBy",
            "Oid": "AA1DDF32-2D4B-42B1-9246-0D97D66B651D",
            "Code": null,
            "Name": "ID_CreatedBy",
            "IsActive": true,
            "Comment": null,
            "Caption": "Created By",
            "ID_ModelProperty": "3556119E-B9BB-45F4-B851-1C333A093791",
            "ID_ListView": "B450F145-3FD9-48FC-B3F1-A01A30DBAC7D",
            "ID_CreatedBy": 1,
            "ID_LastModifiedBy": 1,
            "DateCreated": "2017-12-27T15:49:54.590Z",
            "DateModified": null,
            "DataSource": null,
            "Format": null,
            "Width": "91",
            "Fixed": null,
            "VisibleIndex": 200,
            "IsAllowEdit": null,
            "ID_ControlType": null,
            "ID_ColumnAlignment": null,
            "IsVisible": true,
            "FixedPosition": null,
            "IsRequired": null,
            "ID_SummaryType": null,
            "IsAddModelClass": null,
            "GroupIndex": null,
            "IsFilter": null,
            "ID_FilterControlType": null,
            "ID_PropertyModel": null,
            "PropertyModel": null,
            "SummaryType": null
        },
        {
            "ID_PropertyType": 8,
            "Precision": null,
            "$DataSource": null,
            "DisplayProperty": "Model",
            "Oid": "6FD46CDB-AF90-4279-98F6-1018001042ED",
            "Code": null,
            "Name": "ID_Model",
            "IsActive": true,
            "Comment": null,
            "Caption": "Model",
            "ID_ModelProperty": "2F2CF26B-CC07-410E-9D5A-CEFE8ECD0E2B",
            "ID_ListView": "B450F145-3FD9-48FC-B3F1-A01A30DBAC7D",
            "ID_CreatedBy": 1,
            "ID_LastModifiedBy": 1,
            "DateCreated": "2017-12-27T15:49:54.590Z",
            "DateModified": null,
            "DataSource": null,
            "Format": null,
            "Width": "256",
            "Fixed": null,
            "VisibleIndex": 300,
            "IsAllowEdit": null,
            "ID_ControlType": null,
            "ID_ColumnAlignment": null,
            "IsVisible": true,
            "FixedPosition": null,
            "IsRequired": null,
            "ID_SummaryType": null,
            "IsAddModelClass": null,
            "GroupIndex": null,
            "IsFilter": null,
            "ID_FilterControlType": null,
            "ID_PropertyModel": null,
            "PropertyModel": null,
            "SummaryType": null
        },
        {
            "ID_PropertyType": 1,
            "Precision": null,
            "$DataSource": null,
            "DisplayProperty": null,
            "Oid": "CE802B46-9904-45EB-B790-1B6DF52D670A",
            "Code": null,
            "Name": "ControllerPath",
            "IsActive": true,
            "Comment": null,
            "Caption": "Controller Path",
            "ID_ModelProperty": "D2013ECD-B340-4401-907D-3242868E8902",
            "ID_ListView": "B450F145-3FD9-48FC-B3F1-A01A30DBAC7D",
            "ID_CreatedBy": 1,
            "ID_LastModifiedBy": 1,
            "DateCreated": "2017-12-27T15:49:54.590Z",
            "DateModified": null,
            "DataSource": null,
            "Format": null,
            "Width": "114",
            "Fixed": null,
            "VisibleIndex": 400,
            "IsAllowEdit": null,
            "ID_ControlType": null,
            "ID_ColumnAlignment": null,
            "IsVisible": true,
            "FixedPosition": null,
            "IsRequired": null,
            "ID_SummaryType": null,
            "IsAddModelClass": null,
            "GroupIndex": null,
            "IsFilter": null,
            "ID_FilterControlType": null,
            "ID_PropertyModel": null,
            "PropertyModel": null,
            "SummaryType": null
        },
        {
            "ID_PropertyType": 1,
            "Precision": null,
            "$DataSource": null,
            "DisplayProperty": null,
            "Oid": "654938C8-AF0C-4E26-A424-30C9CD92C80C",
            "Code": null,
            "Name": "Name",
            "IsActive": true,
            "Comment": null,
            "Caption": null,
            "ID_ModelProperty": "036E0C81-8A00-481B-9CB7-0BA5CD0D0D85",
            "ID_ListView": "B450F145-3FD9-48FC-B3F1-A01A30DBAC7D",
            "ID_CreatedBy": 1,
            "ID_LastModifiedBy": 1,
            "DateCreated": "2017-12-27T15:49:54.590Z",
            "DateModified": null,
            "DataSource": null,
            "Format": null,
            "Width": "225",
            "Fixed": null,
            "VisibleIndex": 0,
            "IsAllowEdit": true,
            "ID_ControlType": null,
            "ID_ColumnAlignment": null,
            "IsVisible": true,
            "FixedPosition": null,
            "IsRequired": null,
            "ID_SummaryType": null,
            "IsAddModelClass": null,
            "GroupIndex": null,
            "IsFilter": null,
            "ID_FilterControlType": null,
            "ID_PropertyModel": null,
            "PropertyModel": null,
            "SummaryType": null
        },
        {
            "ID_PropertyType": 2,
            "Precision": null,
            "$DataSource": null,
            "DisplayProperty": "LastModifiedBy",
            "Oid": "9E39689C-7D1F-4B1F-B56F-3ED0B12D7741",
            "Code": null,
            "Name": "ID_LastModifiedBy",
            "IsActive": true,
            "Comment": null,
            "Caption": "Last Modified By",
            "ID_ModelProperty": "D576AE51-0395-48AF-A535-D1B50EAFFAC3",
            "ID_ListView": "B450F145-3FD9-48FC-B3F1-A01A30DBAC7D",
            "ID_CreatedBy": 1,
            "ID_LastModifiedBy": 1,
            "DateCreated": "2017-12-27T15:49:54.590Z",
            "DateModified": null,
            "DataSource": null,
            "Format": null,
            "Width": "124",
            "Fixed": null,
            "VisibleIndex": 600,
            "IsAllowEdit": null,
            "ID_ControlType": null,
            "ID_ColumnAlignment": null,
            "IsVisible": true,
            "FixedPosition": null,
            "IsRequired": null,
            "ID_SummaryType": null,
            "IsAddModelClass": null,
            "GroupIndex": null,
            "IsFilter": null,
            "ID_FilterControlType": null,
            "ID_PropertyModel": null,
            "PropertyModel": null,
            "SummaryType": null
        },
        {
            "ID_PropertyType": 4,
            "Precision": null,
            "$DataSource": null,
            "DisplayProperty": null,
            "Oid": "369A3849-AAE3-4C21-A517-6D6F6D788163",
            "Code": null,
            "Name": "IsActive",
            "IsActive": true,
            "Comment": null,
            "Caption": "Active",
            "ID_ModelProperty": "8DBE5A51-F985-4680-B23D-F52D3ADC3282",
            "ID_ListView": "B450F145-3FD9-48FC-B3F1-A01A30DBAC7D",
            "ID_CreatedBy": 1,
            "ID_LastModifiedBy": 1,
            "DateCreated": "2017-12-27T15:49:54.590Z",
            "DateModified": null,
            "DataSource": null,
            "Format": null,
            "Width": "80",
            "Fixed": null,
            "VisibleIndex": 700,
            "IsAllowEdit": null,
            "ID_ControlType": null,
            "ID_ColumnAlignment": null,
            "IsVisible": true,
            "FixedPosition": null,
            "IsRequired": null,
            "ID_SummaryType": null,
            "IsAddModelClass": null,
            "GroupIndex": null,
            "IsFilter": null,
            "ID_FilterControlType": null,
            "ID_PropertyModel": null,
            "PropertyModel": null,
            "SummaryType": null
        },
        {
            "ID_PropertyType": 8,
            "Precision": null,
            "$DataSource": null,
            "DisplayProperty": null,
            "Oid": "85A5C5D9-A9F2-4F74-A5C9-8E19C8D064AE",
            "Code": null,
            "Name": "ID_Report",
            "IsActive": true,
            "Comment": null,
            "Caption": "Report",
            "ID_ModelProperty": "B7F8DCE3-9024-41D0-84CB-CEC2CD7E50E2",
            "ID_ListView": "B450F145-3FD9-48FC-B3F1-A01A30DBAC7D",
            "ID_CreatedBy": 1,
            "ID_LastModifiedBy": 1,
            "DateCreated": "2017-12-27T15:49:54.590Z",
            "DateModified": null,
            "DataSource": null,
            "Format": null,
            "Width": "85",
            "Fixed": null,
            "VisibleIndex": 800,
            "IsAllowEdit": null,
            "ID_ControlType": null,
            "ID_ColumnAlignment": null,
            "IsVisible": true,
            "FixedPosition": null,
            "IsRequired": null,
            "ID_SummaryType": null,
            "IsAddModelClass": null,
            "GroupIndex": null,
            "IsFilter": null,
            "ID_FilterControlType": null,
            "ID_PropertyModel": null,
            "PropertyModel": null,
            "SummaryType": null
        },
        {
            "ID_PropertyType": 8,
            "Precision": null,
            "$DataSource": null,
            "DisplayProperty": null,
            "Oid": "FCD95999-9976-4432-B992-A3ABAC8FCD24",
            "Code": null,
            "Name": "ID_ListView",
            "IsActive": true,
            "Comment": null,
            "Caption": "ListView",
            "ID_ModelProperty": "A72F6FBA-8A6A-4B57-8257-9F3183A5F6B5",
            "ID_ListView": "B450F145-3FD9-48FC-B3F1-A01A30DBAC7D",
            "ID_CreatedBy": 1,
            "ID_LastModifiedBy": 1,
            "DateCreated": "2017-12-27T15:49:54.590Z",
            "DateModified": null,
            "DataSource": null,
            "Format": null,
            "Width": "257",
            "Fixed": null,
            "VisibleIndex": 900,
            "IsAllowEdit": null,
            "ID_ControlType": null,
            "ID_ColumnAlignment": null,
            "IsVisible": true,
            "FixedPosition": null,
            "IsRequired": null,
            "ID_SummaryType": null,
            "IsAddModelClass": null,
            "GroupIndex": null,
            "IsFilter": null,
            "ID_FilterControlType": null,
            "ID_PropertyModel": null,
            "PropertyModel": null,
            "SummaryType": null
        },
        {
            "ID_PropertyType": 5,
            "Precision": null,
            "$DataSource": null,
            "DisplayProperty": null,
            "Oid": "4BFD0505-B310-4D8B-B188-B2A041A7DE7E",
            "Code": null,
            "Name": "DateCreated",
            "IsActive": true,
            "Comment": null,
            "Caption": "Date Created",
            "ID_ModelProperty": "512A8BD1-C016-4987-B1B7-347D25FDA859",
            "ID_ListView": "B450F145-3FD9-48FC-B3F1-A01A30DBAC7D",
            "ID_CreatedBy": 1,
            "ID_LastModifiedBy": 1,
            "DateCreated": "2017-12-27T15:49:54.590Z",
            "DateModified": null,
            "DataSource": null,
            "Format": null,
            "Width": "104",
            "Fixed": null,
            "VisibleIndex": 1000,
            "IsAllowEdit": null,
            "ID_ControlType": null,
            "ID_ColumnAlignment": null,
            "IsVisible": true,
            "FixedPosition": null,
            "IsRequired": null,
            "ID_SummaryType": null,
            "IsAddModelClass": null,
            "GroupIndex": null,
            "IsFilter": null,
            "ID_FilterControlType": null,
            "ID_PropertyModel": null,
            "PropertyModel": null,
            "SummaryType": null
        },
        {
            "ID_PropertyType": 1,
            "Precision": null,
            "$DataSource": null,
            "DisplayProperty": null,
            "Oid": "D4BB9131-5631-446F-8B6F-B6CEAA6FB278",
            "Code": null,
            "Name": "Comment",
            "IsActive": true,
            "Comment": null,
            "Caption": null,
            "ID_ModelProperty": "7FF1D3E5-BAB2-4603-A386-BD8B9D21141B",
            "ID_ListView": "B450F145-3FD9-48FC-B3F1-A01A30DBAC7D",
            "ID_CreatedBy": 1,
            "ID_LastModifiedBy": 1,
            "DateCreated": "2017-12-27T15:49:54.590Z",
            "DateModified": null,
            "DataSource": null,
            "Format": null,
            "Width": "85",
            "Fixed": null,
            "VisibleIndex": 1100,
            "IsAllowEdit": null,
            "ID_ControlType": null,
            "ID_ColumnAlignment": null,
            "IsVisible": true,
            "FixedPosition": null,
            "IsRequired": null,
            "ID_SummaryType": null,
            "IsAddModelClass": null,
            "GroupIndex": null,
            "IsFilter": null,
            "ID_FilterControlType": null,
            "ID_PropertyModel": null,
            "PropertyModel": null,
            "SummaryType": null
        },
        {
            "ID_PropertyType": 5,
            "Precision": null,
            "$DataSource": null,
            "DisplayProperty": null,
            "Oid": "099D1CF6-89CD-4CEF-A5AB-B72740FF3FD1",
            "Code": null,
            "Name": "DateModified",
            "IsActive": true,
            "Comment": null,
            "Caption": "Date Modified",
            "ID_ModelProperty": "21339CCC-B0D4-4D28-8A29-6DED0081009C",
            "ID_ListView": "B450F145-3FD9-48FC-B3F1-A01A30DBAC7D",
            "ID_CreatedBy": 1,
            "ID_LastModifiedBy": 1,
            "DateCreated": "2017-12-27T15:49:54.590Z",
            "DateModified": null,
            "DataSource": null,
            "Format": null,
            "Width": "111",
            "Fixed": null,
            "VisibleIndex": 1200,
            "IsAllowEdit": null,
            "ID_ControlType": null,
            "ID_ColumnAlignment": null,
            "IsVisible": true,
            "FixedPosition": null,
            "IsRequired": null,
            "ID_SummaryType": null,
            "IsAddModelClass": null,
            "GroupIndex": null,
            "IsFilter": null,
            "ID_FilterControlType": null,
            "ID_PropertyModel": null,
            "PropertyModel": null,
            "SummaryType": null
        },
        {
            "ID_PropertyType": 1,
            "Precision": null,
            "$DataSource": null,
            "DisplayProperty": null,
            "Oid": "FADA0E7A-55E6-48FF-99EF-BDF5485A7D0C",
            "Code": null,
            "Name": "CustomViewPath",
            "IsActive": true,
            "Comment": null,
            "Caption": null,
            "ID_ModelProperty": "487974A4-3952-4E8C-B395-F0F3BE1072D0",
            "ID_ListView": "B450F145-3FD9-48FC-B3F1-A01A30DBAC7D",
            "ID_CreatedBy": 1,
            "ID_LastModifiedBy": 1,
            "DateCreated": "2017-12-27T15:49:54.590Z",
            "DateModified": null,
            "DataSource": null,
            "Format": null,
            "Width": "178",
            "Fixed": null,
            "VisibleIndex": 1300,
            "IsAllowEdit": null,
            "ID_ControlType": null,
            "ID_ColumnAlignment": null,
            "IsVisible": true,
            "FixedPosition": null,
            "IsRequired": null,
            "ID_SummaryType": null,
            "IsAddModelClass": null,
            "GroupIndex": null,
            "IsFilter": null,
            "ID_FilterControlType": null,
            "ID_PropertyModel": null,
            "PropertyModel": null,
            "SummaryType": null
        },
        {
            "ID_PropertyType": 1,
            "Precision": null,
            "$DataSource": null,
            "DisplayProperty": null,
            "Oid": "216AF45E-AA7E-4BEC-9DBE-DBD5611DF8A2",
            "Code": null,
            "Name": "Code",
            "IsActive": true,
            "Comment": null,
            "Caption": null,
            "ID_ModelProperty": "A94B65E2-558E-495A-AC06-2A950EE7E911",
            "ID_ListView": "B450F145-3FD9-48FC-B3F1-A01A30DBAC7D",
            "ID_CreatedBy": 1,
            "ID_LastModifiedBy": 1,
            "DateCreated": "2017-12-27T15:49:54.590Z",
            "DateModified": null,
            "DataSource": null,
            "Format": null,
            "Width": "59",
            "Fixed": null,
            "VisibleIndex": 1400,
            "IsAllowEdit": null,
            "ID_ControlType": null,
            "ID_ColumnAlignment": null,
            "IsVisible": true,
            "FixedPosition": null,
            "IsRequired": null,
            "ID_SummaryType": null,
            "IsAddModelClass": null,
            "GroupIndex": null,
            "IsFilter": null,
            "ID_FilterControlType": null,
            "ID_PropertyModel": null,
            "PropertyModel": null,
            "SummaryType": null
        },
        {
            "ID_PropertyType": 8,
            "Precision": null,
            "$DataSource": null,
            "DisplayProperty": null,
            "Oid": "6E6A776D-933D-4161-9B52-DEC3991C81D9",
            "Code": null,
            "Name": "ID_Dashboard",
            "IsActive": true,
            "Comment": null,
            "Caption": null,
            "ID_ModelProperty": "F6ED7251-4FF7-48E9-B95B-296F972D3C4A",
            "ID_ListView": "B450F145-3FD9-48FC-B3F1-A01A30DBAC7D",
            "ID_CreatedBy": 1,
            "ID_LastModifiedBy": 1,
            "DateCreated": "2017-12-27T15:49:54.590Z",
            "DateModified": null,
            "DataSource": null,
            "Format": null,
            "Width": "109",
            "Fixed": null,
            "VisibleIndex": 1500,
            "IsAllowEdit": null,
            "ID_ControlType": null,
            "ID_ColumnAlignment": null,
            "IsVisible": true,
            "FixedPosition": null,
            "IsRequired": null,
            "ID_SummaryType": null,
            "IsAddModelClass": null,
            "GroupIndex": null,
            "IsFilter": null,
            "ID_FilterControlType": null,
            "ID_PropertyModel": null,
            "PropertyModel": null,
            "SummaryType": null
        },
        {
            "ID_PropertyType": 8,
            "Precision": null,
            "$DataSource": null,
            "DisplayProperty": null,
            "Oid": "3D76B5D7-3BBC-4FB8-BA4F-E87BC2CAFFC5",
            "Code": null,
            "Name": "Oid",
            "IsActive": true,
            "Comment": null,
            "Caption": null,
            "ID_ModelProperty": "43825B2F-A854-4CB7-8FF1-99DCAB6D61A4",
            "ID_ListView": "B450F145-3FD9-48FC-B3F1-A01A30DBAC7D",
            "ID_CreatedBy": 1,
            "ID_LastModifiedBy": 1,
            "DateCreated": "2017-12-27T15:49:54.590Z",
            "DateModified": null,
            "DataSource": null,
            "Format": null,
            "Width": "85",
            "Fixed": true,
            "VisibleIndex": 1600,
            "IsAllowEdit": null,
            "ID_ControlType": null,
            "ID_ColumnAlignment": null,
            "IsVisible": true,
            "FixedPosition": "left",
            "IsRequired": null,
            "ID_SummaryType": null,
            "IsAddModelClass": null,
            "GroupIndex": null,
            "IsFilter": null,
            "ID_FilterControlType": null,
            "ID_PropertyModel": null,
            "PropertyModel": null,
            "SummaryType": null
        },
        {
            "ID_PropertyType": 1,
            "Precision": null,
            "$DataSource": null,
            "DisplayProperty": null,
            "Oid": "6E6D16CA-D1DA-4931-982F-1E50A3FE0570",
            "Code": null,
            "Name": "DataSource",
            "IsActive": true,
            "Comment": null,
            "Caption": null,
            "ID_ModelProperty": "A1061DCA-2840-4999-8F6A-66DD923E4BA8",
            "ID_ListView": "B450F145-3FD9-48FC-B3F1-A01A30DBAC7D",
            "ID_CreatedBy": 1,
            "ID_LastModifiedBy": 1,
            "DateCreated": "2018-01-05T10:10:25.550Z",
            "DateModified": null,
            "DataSource": null,
            "Format": null,
            "Width": "94",
            "Fixed": null,
            "VisibleIndex": 500,
            "IsAllowEdit": null,
            "ID_ControlType": null,
            "ID_ColumnAlignment": null,
            "IsVisible": true,
            "FixedPosition": null,
            "IsRequired": null,
            "ID_SummaryType": null,
            "IsAddModelClass": null,
            "GroupIndex": null,
            "IsFilter": null,
            "ID_FilterControlType": null,
            "ID_PropertyModel": null,
            "PropertyModel": null,
            "SummaryType": null
        }
    ]
}