{
    "Oid": "E5C31125-D147-461C-A47C-8FC27A889D2A",
    "Code": null,
    "Name": "AuditTrail_DetailView",
    "IsActive": true,
    "Comment": null,
    "ID_CreatedBy": 1,
    "ID_LastModifiedBy": null,
    "DateCreated": "2018-02-10T22:39:46.307Z",
    "DateModified": null,
    "ID_Model": "AEA2A2FD-EDF0-4D5D-BC38-A91910DE1278",
    "ModelName": "AuditTrail",
    "Caption": "Audit Trail",
    "Details": [
        {
            "SeqNo": 10000,
            "ID_PropertyType": 10,
            "ValueExpr": "ID",
            "GroupIndex": -1,
            "DataSourceKey": null,
            "DataSource": null,
            "DisplayProperty": null,
            "Oid": "0B470525-2D32-4E29-9EC5-2C8AED954579",
            "Code": null,
            "Name": "AuditTrail_Detail",
            "IsActive": true,
            "Comment": null,
            "Caption": "Details",
            "ID_ModelProperty": "928194F2-814F-4E2F-96EA-0E6410DA71C5",
            "ID_DetailView": "E5C31125-D147-461C-A47C-8FC27A889D2A",
            "ID_Tab": "3C51393B-A034-4A98-B4C6-E0F7A9170759",
            "ID_Section": null,
            "ID_ControlType": 11,
            "Format": null,
            "ID_CreatedBy": 1,
            "ID_LastModifiedBy": 1,
            "DateCreated": null,
            "DateModified": null,
            "IsLoadData": null,
            "ColCount": null,
            "ColSpan": 2,
            "IsDisabled": null,
            "Height": null,
            "ID_ListView": "3178205E-1163-4CEE-AB67-EB380848EB72",
            "IsReadOnly": null,
            "ID_LabelLocation": null,
            "IsShowLabel": false,
            "IsRequired": null,
            "DisplayExpr": null,
            "ID_LookUp_ListView": null,
            "LookUp_ListView_Caption": null,
            "LookUp_ListView_DataSource": null,
            "SearchExpr": null,
            "Precision": null,
            "ID_Parent_Grid": null,
            "IsShowClearButton": null,
            "IsSearchEnabled": null,
            "InputMask": null,
            "ID_PropertyModel": "9130B122-A74E-47AF-9F4B-6459D704AF46",
            "PropertyName": "AuditTrail_Detail",
            "PropertyModel": "AuditTrail_Detail",
            "ID_PropertyModel_DetailView": "C6A9C377-3570-4053-858D-1A3651A1BBA5",
            "ID_PropertyModel_DetailView_Height": null,
            "ID_PropertyModel_DetailView_Width": null,
            "PropertyModel_PrimaryKey": "ID",
            "PropertyModel_Caption": "AuditTrail_Detail",
            "ID_PropertyModel_ID_DetailView": "C6A9C377-3570-4053-858D-1A3651A1BBA5",
            "LookUpDataSource": null,
            "LookUp_ListView_PK": null,
            "LookUp_ListView_Model": null,
            "ID_ModelProperty_Key": "4BC85FD8-F5CC-42CD-BA6D-B6DADF480C86",
            "ModelProperty_Key": "ID_AuditTrail",
            "IsAllowAdd": null,
            "ListViewDetailName": "AuditTrail_Detail_ListView_Detail"
        },
        {
            "SeqNo": 100,
            "ID_PropertyType": null,
            "ValueExpr": "ID",
            "GroupIndex": -1,
            "DataSourceKey": null,
            "DataSource": null,
            "DisplayProperty": null,
            "Oid": "91A81E0F-B727-4BC1-B6B6-8DF00A1EE8B9",
            "Code": null,
            "Name": "InfoSection",
            "IsActive": true,
            "Comment": null,
            "Caption": "Information",
            "ID_ModelProperty": null,
            "ID_DetailView": "E5C31125-D147-461C-A47C-8FC27A889D2A",
            "ID_Tab": "3C51393B-A034-4A98-B4C6-E0F7A9170759",
            "ID_Section": null,
            "ID_ControlType": 13,
            "Format": null,
            "ID_CreatedBy": 1,
            "ID_LastModifiedBy": 1,
            "DateCreated": "2018-02-10T22:39:46.310Z",
            "DateModified": null,
            "IsLoadData": null,
            "ColCount": 1,
            "ColSpan": 4,
            "IsDisabled": null,
            "Height": null,
            "ID_ListView": null,
            "IsReadOnly": true,
            "ID_LabelLocation": null,
            "IsShowLabel": false,
            "IsRequired": null,
            "DisplayExpr": null,
            "ID_LookUp_ListView": null,
            "LookUp_ListView_Caption": null,
            "LookUp_ListView_DataSource": null,
            "SearchExpr": null,
            "Precision": null,
            "ID_Parent_Grid": null,
            "IsShowClearButton": null,
            "IsSearchEnabled": null,
            "InputMask": null,
            "ID_PropertyModel": null,
            "PropertyName": null,
            "PropertyModel": null,
            "ID_PropertyModel_DetailView": null,
            "ID_PropertyModel_DetailView_Height": null,
            "ID_PropertyModel_DetailView_Width": null,
            "PropertyModel_PrimaryKey": null,
            "PropertyModel_Caption": null,
            "ID_PropertyModel_ID_DetailView": null,
            "LookUpDataSource": null,
            "LookUp_ListView_PK": null,
            "LookUp_ListView_Model": null,
            "ID_ModelProperty_Key": null,
            "ModelProperty_Key": null,
            "IsAllowAdd": null,
            "ListViewDetailName": null
        },
        {
            "SeqNo": 100,
            "ID_PropertyType": null,
            "ValueExpr": "ID",
            "GroupIndex": -1,
            "DataSourceKey": null,
            "DataSource": null,
            "DisplayProperty": null,
            "Oid": "3C51393B-A034-4A98-B4C6-E0F7A9170759",
            "Code": null,
            "Name": "GeneralTab",
            "IsActive": true,
            "Comment": null,
            "Caption": "General",
            "ID_ModelProperty": null,
            "ID_DetailView": "E5C31125-D147-461C-A47C-8FC27A889D2A",
            "ID_Tab": null,
            "ID_Section": null,
            "ID_ControlType": 12,
            "Format": null,
            "ID_CreatedBy": 1,
            "ID_LastModifiedBy": null,
            "DateCreated": "2018-02-10T22:39:46.310Z",
            "DateModified": null,
            "IsLoadData": null,
            "ColCount": null,
            "ColSpan": null,
            "IsDisabled": null,
            "Height": null,
            "ID_ListView": null,
            "IsReadOnly": null,
            "ID_LabelLocation": null,
            "IsShowLabel": null,
            "IsRequired": null,
            "DisplayExpr": null,
            "ID_LookUp_ListView": null,
            "LookUp_ListView_Caption": null,
            "LookUp_ListView_DataSource": null,
            "SearchExpr": null,
            "Precision": null,
            "ID_Parent_Grid": null,
            "IsShowClearButton": null,
            "IsSearchEnabled": null,
            "InputMask": null,
            "ID_PropertyModel": null,
            "PropertyName": null,
            "PropertyModel": null,
            "ID_PropertyModel_DetailView": null,
            "ID_PropertyModel_DetailView_Height": null,
            "ID_PropertyModel_DetailView_Width": null,
            "PropertyModel_PrimaryKey": null,
            "PropertyModel_Caption": null,
            "ID_PropertyModel_ID_DetailView": null,
            "LookUpDataSource": null,
            "LookUp_ListView_PK": null,
            "LookUp_ListView_Model": null,
            "ID_ModelProperty_Key": null,
            "ModelProperty_Key": null,
            "IsAllowAdd": null,
            "ListViewDetailName": null
        },
        {
            "SeqNo": 300,
            "ID_PropertyType": null,
            "ValueExpr": "ID",
            "GroupIndex": -1,
            "DataSourceKey": null,
            "DataSource": null,
            "DisplayProperty": null,
            "Oid": "BC855284-AB64-487D-B31C-C33589E5EDE0",
            "Code": null,
            "Name": "CommentTab",
            "IsActive": true,
            "Comment": null,
            "Caption": "Comment",
            "ID_ModelProperty": null,
            "ID_DetailView": "E5C31125-D147-461C-A47C-8FC27A889D2A",
            "ID_Tab": null,
            "ID_Section": null,
            "ID_ControlType": 12,
            "Format": null,
            "ID_CreatedBy": 1,
            "ID_LastModifiedBy": null,
            "DateCreated": "2018-02-10T22:39:46.323Z",
            "DateModified": null,
            "IsLoadData": null,
            "ColCount": null,
            "ColSpan": null,
            "IsDisabled": null,
            "Height": null,
            "ID_ListView": null,
            "IsReadOnly": null,
            "ID_LabelLocation": null,
            "IsShowLabel": null,
            "IsRequired": null,
            "DisplayExpr": null,
            "ID_LookUp_ListView": null,
            "LookUp_ListView_Caption": null,
            "LookUp_ListView_DataSource": null,
            "SearchExpr": null,
            "Precision": null,
            "ID_Parent_Grid": null,
            "IsShowClearButton": null,
            "IsSearchEnabled": null,
            "InputMask": null,
            "ID_PropertyModel": null,
            "PropertyName": null,
            "PropertyModel": null,
            "ID_PropertyModel_DetailView": null,
            "ID_PropertyModel_DetailView_Height": null,
            "ID_PropertyModel_DetailView_Width": null,
            "PropertyModel_PrimaryKey": null,
            "PropertyModel_Caption": null,
            "ID_PropertyModel_ID_DetailView": null,
            "LookUpDataSource": null,
            "LookUp_ListView_PK": null,
            "LookUp_ListView_Model": null,
            "ID_ModelProperty_Key": null,
            "ModelProperty_Key": null,
            "IsAllowAdd": null,
            "ListViewDetailName": null
        },
        {
            "SeqNo": 1000,
            "ID_PropertyType": 1,
            "ValueExpr": "ID",
            "GroupIndex": -1,
            "DataSourceKey": null,
            "DataSource": null,
            "DisplayProperty": null,
            "Oid": "E40F684E-451D-48E6-B7CF-35E31EFB01BF",
            "Code": null,
            "Name": "Code",
            "IsActive": true,
            "Comment": null,
            "Caption": null,
            "ID_ModelProperty": "D6755BCD-15BA-4760-ACB9-ECE39F9E4115",
            "ID_DetailView": "E5C31125-D147-461C-A47C-8FC27A889D2A",
            "ID_Tab": null,
            "ID_Section": "91A81E0F-B727-4BC1-B6B6-8DF00A1EE8B9",
            "ID_ControlType": null,
            "Format": null,
            "ID_CreatedBy": 1,
            "ID_LastModifiedBy": 1,
            "DateCreated": "2018-02-10T22:39:46.387Z",
            "DateModified": null,
            "IsLoadData": null,
            "ColCount": null,
            "ColSpan": null,
            "IsDisabled": null,
            "Height": null,
            "ID_ListView": null,
            "IsReadOnly": true,
            "ID_LabelLocation": 2,
            "IsShowLabel": null,
            "IsRequired": null,
            "DisplayExpr": null,
            "ID_LookUp_ListView": null,
            "LookUp_ListView_Caption": null,
            "LookUp_ListView_DataSource": null,
            "SearchExpr": null,
            "Precision": null,
            "ID_Parent_Grid": null,
            "IsShowClearButton": null,
            "IsSearchEnabled": null,
            "InputMask": null,
            "ID_PropertyModel": null,
            "PropertyName": "Code",
            "PropertyModel": null,
            "ID_PropertyModel_DetailView": null,
            "ID_PropertyModel_DetailView_Height": null,
            "ID_PropertyModel_DetailView_Width": null,
            "PropertyModel_PrimaryKey": null,
            "PropertyModel_Caption": null,
            "ID_PropertyModel_ID_DetailView": null,
            "LookUpDataSource": null,
            "LookUp_ListView_PK": null,
            "LookUp_ListView_Model": null,
            "ID_ModelProperty_Key": null,
            "ModelProperty_Key": null,
            "IsAllowAdd": null,
            "ListViewDetailName": null
        },
        {
            "SeqNo": 1000,
            "ID_PropertyType": 8,
            "ValueExpr": "ID",
            "GroupIndex": -1,
            "DataSourceKey": null,
            "DataSource": null,
            "DisplayProperty": null,
            "Oid": "34127678-2046-4182-AD68-3D194BC85C34",
            "Code": null,
            "Name": "ID_Model",
            "IsActive": true,
            "Comment": null,
            "Caption": "Model",
            "ID_ModelProperty": "D29F82B6-21BB-489F-B4D1-F96978D752EB",
            "ID_DetailView": "E5C31125-D147-461C-A47C-8FC27A889D2A",
            "ID_Tab": null,
            "ID_Section": "91A81E0F-B727-4BC1-B6B6-8DF00A1EE8B9",
            "ID_ControlType": null,
            "Format": null,
            "ID_CreatedBy": 1,
            "ID_LastModifiedBy": 1,
            "DateCreated": "2018-02-10T22:39:46.387Z",
            "DateModified": null,
            "IsLoadData": null,
            "ColCount": null,
            "ColSpan": null,
            "IsDisabled": null,
            "Height": null,
            "ID_ListView": null,
            "IsReadOnly": true,
            "ID_LabelLocation": 2,
            "IsShowLabel": null,
            "IsRequired": null,
            "DisplayExpr": null,
            "ID_LookUp_ListView": null,
            "LookUp_ListView_Caption": null,
            "LookUp_ListView_DataSource": null,
            "SearchExpr": null,
            "Precision": null,
            "ID_Parent_Grid": null,
            "IsShowClearButton": null,
            "IsSearchEnabled": null,
            "InputMask": null,
            "ID_PropertyModel": null,
            "PropertyName": "ID_Model",
            "PropertyModel": null,
            "ID_PropertyModel_DetailView": null,
            "ID_PropertyModel_DetailView_Height": null,
            "ID_PropertyModel_DetailView_Width": null,
            "PropertyModel_PrimaryKey": null,
            "PropertyModel_Caption": null,
            "ID_PropertyModel_ID_DetailView": null,
            "LookUpDataSource": null,
            "LookUp_ListView_PK": null,
            "LookUp_ListView_Model": null,
            "ID_ModelProperty_Key": null,
            "ModelProperty_Key": null,
            "IsAllowAdd": null,
            "ListViewDetailName": null
        },
        {
            "SeqNo": 1000,
            "ID_PropertyType": 1,
            "ValueExpr": "ID",
            "GroupIndex": -1,
            "DataSourceKey": null,
            "DataSource": null,
            "DisplayProperty": null,
            "Oid": "E71B56E7-201F-4542-BF6A-3EF2A66BBF8C",
            "Code": null,
            "Name": "Name",
            "IsActive": true,
            "Comment": null,
            "Caption": null,
            "ID_ModelProperty": "3602866F-AC22-40FB-B149-916565EA8AA1",
            "ID_DetailView": "E5C31125-D147-461C-A47C-8FC27A889D2A",
            "ID_Tab": null,
            "ID_Section": "91A81E0F-B727-4BC1-B6B6-8DF00A1EE8B9",
            "ID_ControlType": null,
            "Format": null,
            "ID_CreatedBy": 1,
            "ID_LastModifiedBy": 1,
            "DateCreated": "2018-02-10T22:39:46.387Z",
            "DateModified": null,
            "IsLoadData": null,
            "ColCount": null,
            "ColSpan": null,
            "IsDisabled": null,
            "Height": null,
            "ID_ListView": null,
            "IsReadOnly": true,
            "ID_LabelLocation": 2,
            "IsShowLabel": null,
            "IsRequired": null,
            "DisplayExpr": null,
            "ID_LookUp_ListView": null,
            "LookUp_ListView_Caption": null,
            "LookUp_ListView_DataSource": null,
            "SearchExpr": null,
            "Precision": null,
            "ID_Parent_Grid": null,
            "IsShowClearButton": null,
            "IsSearchEnabled": null,
            "InputMask": null,
            "ID_PropertyModel": null,
            "PropertyName": "Name",
            "PropertyModel": null,
            "ID_PropertyModel_DetailView": null,
            "ID_PropertyModel_DetailView_Height": null,
            "ID_PropertyModel_DetailView_Width": null,
            "PropertyModel_PrimaryKey": null,
            "PropertyModel_Caption": null,
            "ID_PropertyModel_ID_DetailView": null,
            "LookUpDataSource": null,
            "LookUp_ListView_PK": null,
            "LookUp_ListView_Model": null,
            "ID_ModelProperty_Key": null,
            "ModelProperty_Key": null,
            "IsAllowAdd": null,
            "ListViewDetailName": null
        },
        {
            "SeqNo": 1000,
            "ID_PropertyType": 2,
            "ValueExpr": "ID",
            "GroupIndex": -1,
            "DataSourceKey": null,
            "DataSource": null,
            "DisplayProperty": null,
            "Oid": "D874A49C-5A61-4589-A607-4E9EB2748AC8",
            "Code": null,
            "Name": "ID_User",
            "IsActive": true,
            "Comment": null,
            "Caption": "User",
            "ID_ModelProperty": "73A51FCA-E2C6-4109-89B3-7A26B211FAEA",
            "ID_DetailView": "E5C31125-D147-461C-A47C-8FC27A889D2A",
            "ID_Tab": null,
            "ID_Section": "91A81E0F-B727-4BC1-B6B6-8DF00A1EE8B9",
            "ID_ControlType": null,
            "Format": null,
            "ID_CreatedBy": 1,
            "ID_LastModifiedBy": 1,
            "DateCreated": "2018-02-10T22:39:46.387Z",
            "DateModified": null,
            "IsLoadData": null,
            "ColCount": null,
            "ColSpan": null,
            "IsDisabled": null,
            "Height": null,
            "ID_ListView": null,
            "IsReadOnly": true,
            "ID_LabelLocation": 2,
            "IsShowLabel": null,
            "IsRequired": null,
            "DisplayExpr": null,
            "ID_LookUp_ListView": null,
            "LookUp_ListView_Caption": null,
            "LookUp_ListView_DataSource": null,
            "SearchExpr": null,
            "Precision": null,
            "ID_Parent_Grid": null,
            "IsShowClearButton": null,
            "IsSearchEnabled": null,
            "InputMask": null,
            "ID_PropertyModel": null,
            "PropertyName": "ID_User",
            "PropertyModel": null,
            "ID_PropertyModel_DetailView": null,
            "ID_PropertyModel_DetailView_Height": null,
            "ID_PropertyModel_DetailView_Width": null,
            "PropertyModel_PrimaryKey": null,
            "PropertyModel_Caption": null,
            "ID_PropertyModel_ID_DetailView": null,
            "LookUpDataSource": null,
            "LookUp_ListView_PK": null,
            "LookUp_ListView_Model": null,
            "ID_ModelProperty_Key": null,
            "ModelProperty_Key": null,
            "IsAllowAdd": null,
            "ListViewDetailName": null
        },
        {
            "SeqNo": 1000,
            "ID_PropertyType": 1,
            "ValueExpr": "ID",
            "GroupIndex": -1,
            "DataSourceKey": null,
            "DataSource": null,
            "DisplayProperty": null,
            "Oid": "85844BE6-A7D8-4B43-AA35-961D7D325692",
            "Code": null,
            "Name": "ID_CurrentObject",
            "IsActive": true,
            "Comment": null,
            "Caption": "Key",
            "ID_ModelProperty": "5CDFA1DF-46BC-4E72-A0F3-A21F355A3EF6",
            "ID_DetailView": "E5C31125-D147-461C-A47C-8FC27A889D2A",
            "ID_Tab": null,
            "ID_Section": "91A81E0F-B727-4BC1-B6B6-8DF00A1EE8B9",
            "ID_ControlType": null,
            "Format": null,
            "ID_CreatedBy": 1,
            "ID_LastModifiedBy": 1,
            "DateCreated": "2018-02-10T22:39:46.387Z",
            "DateModified": null,
            "IsLoadData": null,
            "ColCount": null,
            "ColSpan": null,
            "IsDisabled": null,
            "Height": null,
            "ID_ListView": null,
            "IsReadOnly": true,
            "ID_LabelLocation": 2,
            "IsShowLabel": null,
            "IsRequired": null,
            "DisplayExpr": null,
            "ID_LookUp_ListView": null,
            "LookUp_ListView_Caption": null,
            "LookUp_ListView_DataSource": null,
            "SearchExpr": null,
            "Precision": null,
            "ID_Parent_Grid": null,
            "IsShowClearButton": null,
            "IsSearchEnabled": null,
            "InputMask": null,
            "ID_PropertyModel": null,
            "PropertyName": "ID_CurrentObject",
            "PropertyModel": null,
            "ID_PropertyModel_DetailView": null,
            "ID_PropertyModel_DetailView_Height": null,
            "ID_PropertyModel_DetailView_Width": null,
            "PropertyModel_PrimaryKey": null,
            "PropertyModel_Caption": null,
            "ID_PropertyModel_ID_DetailView": null,
            "LookUpDataSource": null,
            "LookUp_ListView_PK": null,
            "LookUp_ListView_Model": null,
            "ID_ModelProperty_Key": null,
            "ModelProperty_Key": null,
            "IsAllowAdd": null,
            "ListViewDetailName": null
        },
        {
            "SeqNo": 1000,
            "ID_PropertyType": 2,
            "ValueExpr": "ID",
            "GroupIndex": -1,
            "DataSourceKey": null,
            "DataSource": null,
            "DisplayProperty": null,
            "Oid": "20F06D74-FAA5-4836-9466-9682FB8FBE08",
            "Code": null,
            "Name": "ID_AuditType",
            "IsActive": true,
            "Comment": null,
            "Caption": "Type",
            "ID_ModelProperty": "0CD43615-6C2C-4BA2-83B6-6B2CDEB19422",
            "ID_DetailView": "E5C31125-D147-461C-A47C-8FC27A889D2A",
            "ID_Tab": null,
            "ID_Section": "91A81E0F-B727-4BC1-B6B6-8DF00A1EE8B9",
            "ID_ControlType": null,
            "Format": null,
            "ID_CreatedBy": 1,
            "ID_LastModifiedBy": 1,
            "DateCreated": "2018-02-10T22:39:46.387Z",
            "DateModified": null,
            "IsLoadData": null,
            "ColCount": null,
            "ColSpan": null,
            "IsDisabled": null,
            "Height": null,
            "ID_ListView": null,
            "IsReadOnly": true,
            "ID_LabelLocation": 2,
            "IsShowLabel": null,
            "IsRequired": null,
            "DisplayExpr": null,
            "ID_LookUp_ListView": null,
            "LookUp_ListView_Caption": null,
            "LookUp_ListView_DataSource": null,
            "SearchExpr": null,
            "Precision": null,
            "ID_Parent_Grid": null,
            "IsShowClearButton": null,
            "IsSearchEnabled": null,
            "InputMask": null,
            "ID_PropertyModel": "6AC0FC27-EB39-4F30-965E-27D579FB625F",
            "PropertyName": "ID_AuditType",
            "PropertyModel": "AuditTrailType",
            "ID_PropertyModel_DetailView": "A3ECBA3F-8104-4779-8F43-ED7D23ABD144",
            "ID_PropertyModel_DetailView_Height": null,
            "ID_PropertyModel_DetailView_Width": null,
            "PropertyModel_PrimaryKey": "ID",
            "PropertyModel_Caption": "AuditTrailType",
            "ID_PropertyModel_ID_DetailView": "A3ECBA3F-8104-4779-8F43-ED7D23ABD144",
            "LookUpDataSource": null,
            "LookUp_ListView_PK": null,
            "LookUp_ListView_Model": null,
            "ID_ModelProperty_Key": null,
            "ModelProperty_Key": null,
            "IsAllowAdd": null,
            "ListViewDetailName": null
        },
        {
            "SeqNo": 1000,
            "ID_PropertyType": 1,
            "ValueExpr": "ID",
            "GroupIndex": -1,
            "DataSourceKey": null,
            "DataSource": null,
            "DisplayProperty": null,
            "Oid": "9CEEAF53-523B-4662-B722-DE0431EEFA93",
            "Code": null,
            "Name": "Comment",
            "IsActive": true,
            "Comment": null,
            "Caption": null,
            "ID_ModelProperty": "DF0C192E-C22E-497A-A0A7-E845649A6C1D",
            "ID_DetailView": "E5C31125-D147-461C-A47C-8FC27A889D2A",
            "ID_Tab": "BC855284-AB64-487D-B31C-C33589E5EDE0",
            "ID_Section": null,
            "ID_ControlType": 2,
            "Format": null,
            "ID_CreatedBy": 1,
            "ID_LastModifiedBy": null,
            "DateCreated": "2018-02-10T22:39:46.387Z",
            "DateModified": null,
            "IsLoadData": null,
            "ColCount": null,
            "ColSpan": 3,
            "IsDisabled": null,
            "Height": 250,
            "ID_ListView": null,
            "IsReadOnly": null,
            "ID_LabelLocation": 2,
            "IsShowLabel": null,
            "IsRequired": null,
            "DisplayExpr": null,
            "ID_LookUp_ListView": null,
            "LookUp_ListView_Caption": null,
            "LookUp_ListView_DataSource": null,
            "SearchExpr": null,
            "Precision": null,
            "ID_Parent_Grid": null,
            "IsShowClearButton": null,
            "IsSearchEnabled": null,
            "InputMask": null,
            "ID_PropertyModel": null,
            "PropertyName": "Comment",
            "PropertyModel": null,
            "ID_PropertyModel_DetailView": null,
            "ID_PropertyModel_DetailView_Height": null,
            "ID_PropertyModel_DetailView_Width": null,
            "PropertyModel_PrimaryKey": null,
            "PropertyModel_Caption": null,
            "ID_PropertyModel_ID_DetailView": null,
            "LookUpDataSource": null,
            "LookUp_ListView_PK": null,
            "LookUp_ListView_Model": null,
            "ID_ModelProperty_Key": null,
            "ModelProperty_Key": null,
            "IsAllowAdd": null,
            "ListViewDetailName": null
        },
        {
            "SeqNo": 1000,
            "ID_PropertyType": 5,
            "ValueExpr": "ID",
            "GroupIndex": -1,
            "DataSourceKey": null,
            "DataSource": null,
            "DisplayProperty": null,
            "Oid": "5D56558D-C29E-4311-A1C9-E598B053CEB7",
            "Code": null,
            "Name": "Date",
            "IsActive": true,
            "Comment": null,
            "Caption": null,
            "ID_ModelProperty": "1736B2D4-73F4-47B5-93A2-2E288F2DBA1C",
            "ID_DetailView": "E5C31125-D147-461C-A47C-8FC27A889D2A",
            "ID_Tab": null,
            "ID_Section": "91A81E0F-B727-4BC1-B6B6-8DF00A1EE8B9",
            "ID_ControlType": null,
            "Format": null,
            "ID_CreatedBy": 1,
            "ID_LastModifiedBy": 1,
            "DateCreated": "2018-02-10T22:39:46.387Z",
            "DateModified": null,
            "IsLoadData": null,
            "ColCount": null,
            "ColSpan": null,
            "IsDisabled": null,
            "Height": null,
            "ID_ListView": null,
            "IsReadOnly": true,
            "ID_LabelLocation": 2,
            "IsShowLabel": null,
            "IsRequired": null,
            "DisplayExpr": null,
            "ID_LookUp_ListView": null,
            "LookUp_ListView_Caption": null,
            "LookUp_ListView_DataSource": null,
            "SearchExpr": null,
            "Precision": null,
            "ID_Parent_Grid": null,
            "IsShowClearButton": null,
            "IsSearchEnabled": null,
            "InputMask": null,
            "ID_PropertyModel": null,
            "PropertyName": "Date",
            "PropertyModel": null,
            "ID_PropertyModel_DetailView": null,
            "ID_PropertyModel_DetailView_Height": null,
            "ID_PropertyModel_DetailView_Width": null,
            "PropertyModel_PrimaryKey": null,
            "PropertyModel_Caption": null,
            "ID_PropertyModel_ID_DetailView": null,
            "LookUpDataSource": null,
            "LookUp_ListView_PK": null,
            "LookUp_ListView_Model": null,
            "ID_ModelProperty_Key": null,
            "ModelProperty_Key": null,
            "IsAllowAdd": null,
            "ListViewDetailName": null
        },
        {
            "SeqNo": 1000,
            "ID_PropertyType": 2,
            "ValueExpr": "ID",
            "GroupIndex": -1,
            "DataSourceKey": null,
            "DataSource": null,
            "DisplayProperty": null,
            "Oid": "DF5F913A-3E82-4864-BE18-F6B7EE12BE31",
            "Code": null,
            "Name": "ID_Session",
            "IsActive": true,
            "Comment": null,
            "Caption": "Session",
            "ID_ModelProperty": "B72F7018-1517-46C2-9178-84A822E53322",
            "ID_DetailView": "E5C31125-D147-461C-A47C-8FC27A889D2A",
            "ID_Tab": null,
            "ID_Section": "91A81E0F-B727-4BC1-B6B6-8DF00A1EE8B9",
            "ID_ControlType": null,
            "Format": null,
            "ID_CreatedBy": 1,
            "ID_LastModifiedBy": 1,
            "DateCreated": "2018-02-10T22:39:46.387Z",
            "DateModified": null,
            "IsLoadData": null,
            "ColCount": null,
            "ColSpan": null,
            "IsDisabled": null,
            "Height": null,
            "ID_ListView": null,
            "IsReadOnly": true,
            "ID_LabelLocation": 2,
            "IsShowLabel": null,
            "IsRequired": null,
            "DisplayExpr": null,
            "ID_LookUp_ListView": null,
            "LookUp_ListView_Caption": null,
            "LookUp_ListView_DataSource": null,
            "SearchExpr": null,
            "Precision": null,
            "ID_Parent_Grid": null,
            "IsShowClearButton": null,
            "IsSearchEnabled": null,
            "InputMask": null,
            "ID_PropertyModel": null,
            "PropertyName": "ID_Session",
            "PropertyModel": null,
            "ID_PropertyModel_DetailView": null,
            "ID_PropertyModel_DetailView_Height": null,
            "ID_PropertyModel_DetailView_Width": null,
            "PropertyModel_PrimaryKey": null,
            "PropertyModel_Caption": null,
            "ID_PropertyModel_ID_DetailView": null,
            "LookUpDataSource": null,
            "LookUp_ListView_PK": null,
            "LookUp_ListView_Model": null,
            "ID_ModelProperty_Key": null,
            "ModelProperty_Key": null,
            "IsAllowAdd": null,
            "ListViewDetailName": null
        },
        {
            "SeqNo": 50000,
            "ID_PropertyType": 1,
            "ValueExpr": "ID",
            "GroupIndex": -1,
            "DataSourceKey": null,
            "DataSource": null,
            "DisplayProperty": null,
            "Oid": "F69A4C78-BE32-4BB1-9C8D-0252AD54500F",
            "Code": null,
            "Name": "Description",
            "IsActive": true,
            "Comment": null,
            "Caption": null,
            "ID_ModelProperty": "85473D14-01B6-4B47-91CE-EB8458A037E2",
            "ID_DetailView": "E5C31125-D147-461C-A47C-8FC27A889D2A",
            "ID_Tab": null,
            "ID_Section": "91A81E0F-B727-4BC1-B6B6-8DF00A1EE8B9",
            "ID_ControlType": 2,
            "Format": null,
            "ID_CreatedBy": 1,
            "ID_LastModifiedBy": 1,
            "DateCreated": "2018-08-29T23:14:18.813Z",
            "DateModified": null,
            "IsLoadData": null,
            "ColCount": null,
            "ColSpan": null,
            "IsDisabled": true,
            "Height": 80,
            "ID_ListView": null,
            "IsReadOnly": true,
            "ID_LabelLocation": 2,
            "IsShowLabel": null,
            "IsRequired": null,
            "DisplayExpr": null,
            "ID_LookUp_ListView": null,
            "LookUp_ListView_Caption": null,
            "LookUp_ListView_DataSource": null,
            "SearchExpr": null,
            "Precision": null,
            "ID_Parent_Grid": null,
            "IsShowClearButton": null,
            "IsSearchEnabled": null,
            "InputMask": null,
            "ID_PropertyModel": null,
            "PropertyName": "Description",
            "PropertyModel": null,
            "ID_PropertyModel_DetailView": null,
            "ID_PropertyModel_DetailView_Height": null,
            "ID_PropertyModel_DetailView_Width": null,
            "PropertyModel_PrimaryKey": null,
            "PropertyModel_Caption": null,
            "ID_PropertyModel_ID_DetailView": null,
            "LookUpDataSource": null,
            "LookUp_ListView_PK": null,
            "LookUp_ListView_Model": null,
            "ID_ModelProperty_Key": null,
            "ModelProperty_Key": null,
            "IsAllowAdd": null,
            "ListViewDetailName": null
        },
        {
            "SeqNo": -10000,
            "ID_PropertyType": 5,
            "ValueExpr": "ID",
            "GroupIndex": -1,
            "DataSourceKey": null,
            "DataSource": null,
            "DisplayProperty": null,
            "Oid": "63840172-623F-4F79-B703-43F420EF3B96",
            "Code": null,
            "Name": "DateCreated",
            "IsActive": true,
            "Comment": null,
            "Caption": "Date Created",
            "ID_ModelProperty": "03373AAF-1255-4A60-A688-CB538D329A12",
            "ID_DetailView": "E5C31125-D147-461C-A47C-8FC27A889D2A",
            "ID_Tab": null,
            "ID_Section": null,
            "ID_ControlType": null,
            "Format": null,
            "ID_CreatedBy": 1,
            "ID_LastModifiedBy": null,
            "DateCreated": "2018-09-04T18:40:25.283Z",
            "DateModified": null,
            "IsLoadData": null,
            "ColCount": null,
            "ColSpan": null,
            "IsDisabled": null,
            "Height": null,
            "ID_ListView": null,
            "IsReadOnly": true,
            "ID_LabelLocation": 2,
            "IsShowLabel": null,
            "IsRequired": null,
            "DisplayExpr": null,
            "ID_LookUp_ListView": null,
            "LookUp_ListView_Caption": null,
            "LookUp_ListView_DataSource": null,
            "SearchExpr": null,
            "Precision": null,
            "ID_Parent_Grid": null,
            "IsShowClearButton": null,
            "IsSearchEnabled": null,
            "InputMask": null,
            "ID_PropertyModel": null,
            "PropertyName": "DateCreated",
            "PropertyModel": null,
            "ID_PropertyModel_DetailView": null,
            "ID_PropertyModel_DetailView_Height": null,
            "ID_PropertyModel_DetailView_Width": null,
            "PropertyModel_PrimaryKey": null,
            "PropertyModel_Caption": null,
            "ID_PropertyModel_ID_DetailView": null,
            "LookUpDataSource": null,
            "LookUp_ListView_PK": null,
            "LookUp_ListView_Model": null,
            "ID_ModelProperty_Key": null,
            "ModelProperty_Key": null,
            "IsAllowAdd": null,
            "ListViewDetailName": null
        },
        {
            "SeqNo": -10000,
            "ID_PropertyType": 2,
            "ValueExpr": "ID",
            "GroupIndex": -1,
            "DataSourceKey": null,
            "DataSource": null,
            "DisplayProperty": "CreatedBy",
            "Oid": "67AA873E-0313-45E7-8443-0BC932E472CD",
            "Code": null,
            "Name": "ID_CreatedBy",
            "IsActive": true,
            "Comment": null,
            "Caption": "Created By",
            "ID_ModelProperty": "3A845F6F-E991-401B-BDF1-09DE6C3586A6",
            "ID_DetailView": "E5C31125-D147-461C-A47C-8FC27A889D2A",
            "ID_Tab": null,
            "ID_Section": null,
            "ID_ControlType": null,
            "Format": null,
            "ID_CreatedBy": 1,
            "ID_LastModifiedBy": null,
            "DateCreated": "2018-09-04T18:41:00.260Z",
            "DateModified": null,
            "IsLoadData": null,
            "ColCount": null,
            "ColSpan": null,
            "IsDisabled": null,
            "Height": null,
            "ID_ListView": null,
            "IsReadOnly": true,
            "ID_LabelLocation": 2,
            "IsShowLabel": null,
            "IsRequired": null,
            "DisplayExpr": null,
            "ID_LookUp_ListView": null,
            "LookUp_ListView_Caption": null,
            "LookUp_ListView_DataSource": null,
            "SearchExpr": null,
            "Precision": null,
            "ID_Parent_Grid": null,
            "IsShowClearButton": null,
            "IsSearchEnabled": null,
            "InputMask": null,
            "ID_PropertyModel": null,
            "PropertyName": "ID_CreatedBy",
            "PropertyModel": null,
            "ID_PropertyModel_DetailView": null,
            "ID_PropertyModel_DetailView_Height": null,
            "ID_PropertyModel_DetailView_Width": null,
            "PropertyModel_PrimaryKey": null,
            "PropertyModel_Caption": null,
            "ID_PropertyModel_ID_DetailView": null,
            "LookUpDataSource": null,
            "LookUp_ListView_PK": null,
            "LookUp_ListView_Model": null,
            "ID_ModelProperty_Key": null,
            "ModelProperty_Key": null,
            "IsAllowAdd": null,
            "ListViewDetailName": null
        }
    ]
}