{
    "Oid": "31032B8E-6655-4EE6-A675-9364FD9E8CEC",
    "Name": "AuditTrail_ListView",
    "ID_Model": "AEA2A2FD-EDF0-4D5D-BC38-A91910DE1278",
    "DataSource": "SELECT * FROM vAuditTrail",
    "Comment": null,
    "ID_DetailView": "E5C31125-D147-461C-A47C-8FC27A889D2A",
    "Model": "AuditTrail",
    "PrimaryKey": "ID",
    "Caption": "Audit Trail",
    "Details": [
        {
            "ID_PropertyType": 1,
            "Precision": null,
            "$DataSource": null,
            "DisplayProperty": null,
            "Oid": "500927D8-CF2C-4BB4-A4EE-2D931946C747",
            "Code": null,
            "Name": "Comment",
            "IsActive": true,
            "Comment": null,
            "Caption": null,
            "ID_ModelProperty": "DF0C192E-C22E-497A-A0A7-E845649A6C1D",
            "ID_ListView": "31032B8E-6655-4EE6-A675-9364FD9E8CEC",
            "ID_CreatedBy": 1,
            "ID_LastModifiedBy": 1,
            "DateCreated": "2018-02-10T22:39:46.240Z",
            "DateModified": null,
            "DataSource": null,
            "Format": null,
            "Width": null,
            "Fixed": null,
            "VisibleIndex": 1200,
            "IsAllowEdit": null,
            "ID_ControlType": null,
            "ID_ColumnAlignment": null,
            "IsVisible": false,
            "FixedPosition": null,
            "IsRequired": null,
            "ID_SummaryType": null,
            "IsAddModelClass": null,
            "GroupIndex": null,
            "IsFilter": null,
            "ID_FilterControlType": null,
            "ID_PropertyModel": null,
            "PropertyModel": null,
            "SummaryType": null
        },
        {
            "ID_PropertyType": 5,
            "Precision": null,
            "$DataSource": null,
            "DisplayProperty": null,
            "Oid": "AF5296F1-3C92-457A-AEEE-36F8F14E8888",
            "Code": null,
            "Name": "Date",
            "IsActive": true,
            "Comment": null,
            "Caption": null,
            "ID_ModelProperty": "1736B2D4-73F4-47B5-93A2-2E288F2DBA1C",
            "ID_ListView": "31032B8E-6655-4EE6-A675-9364FD9E8CEC",
            "ID_CreatedBy": 1,
            "ID_LastModifiedBy": 1,
            "DateCreated": "2018-02-10T22:39:46.240Z",
            "DateModified": null,
            "DataSource": null,
            "Format": null,
            "Width": "91",
            "Fixed": null,
            "VisibleIndex": 100,
            "IsAllowEdit": null,
            "ID_ControlType": null,
            "ID_ColumnAlignment": null,
            "IsVisible": true,
            "FixedPosition": null,
            "IsRequired": null,
            "ID_SummaryType": null,
            "IsAddModelClass": null,
            "GroupIndex": null,
            "IsFilter": null,
            "ID_FilterControlType": null,
            "ID_PropertyModel": null,
            "PropertyModel": null,
            "SummaryType": null
        },
        {
            "ID_PropertyType": 2,
            "Precision": null,
            "$DataSource": null,
            "DisplayProperty": "AuditType",
            "Oid": "F32235B5-F2A1-4CEF-BED3-4F2D72F22E50",
            "Code": null,
            "Name": "ID_AuditType",
            "IsActive": true,
            "Comment": null,
            "Caption": "Audit Type",
            "ID_ModelProperty": "0CD43615-6C2C-4BA2-83B6-6B2CDEB19422",
            "ID_ListView": "31032B8E-6655-4EE6-A675-9364FD9E8CEC",
            "ID_CreatedBy": 1,
            "ID_LastModifiedBy": 1,
            "DateCreated": "2018-02-10T22:39:46.240Z",
            "DateModified": null,
            "DataSource": null,
            "Format": null,
            "Width": "103",
            "Fixed": null,
            "VisibleIndex": 200,
            "IsAllowEdit": null,
            "ID_ControlType": null,
            "ID_ColumnAlignment": null,
            "IsVisible": true,
            "FixedPosition": null,
            "IsRequired": null,
            "ID_SummaryType": null,
            "IsAddModelClass": true,
            "GroupIndex": null,
            "IsFilter": null,
            "ID_FilterControlType": null,
            "ID_PropertyModel": "6AC0FC27-EB39-4F30-965E-27D579FB625F",
            "PropertyModel": "AuditTrailType",
            "SummaryType": null
        },
        {
            "ID_PropertyType": 1,
            "Precision": null,
            "$DataSource": null,
            "DisplayProperty": null,
            "Oid": "61265397-6ED5-4373-95DD-6F946900C491",
            "Code": null,
            "Name": "Code",
            "IsActive": true,
            "Comment": null,
            "Caption": null,
            "ID_ModelProperty": "D6755BCD-15BA-4760-ACB9-ECE39F9E4115",
            "ID_ListView": "31032B8E-6655-4EE6-A675-9364FD9E8CEC",
            "ID_CreatedBy": 1,
            "ID_LastModifiedBy": 1,
            "DateCreated": "2018-02-10T22:39:46.240Z",
            "DateModified": null,
            "DataSource": null,
            "Format": null,
            "Width": null,
            "Fixed": null,
            "VisibleIndex": 0,
            "IsAllowEdit": null,
            "ID_ControlType": null,
            "ID_ColumnAlignment": null,
            "IsVisible": false,
            "FixedPosition": null,
            "IsRequired": null,
            "ID_SummaryType": null,
            "IsAddModelClass": null,
            "GroupIndex": null,
            "IsFilter": null,
            "ID_FilterControlType": null,
            "ID_PropertyModel": null,
            "PropertyModel": null,
            "SummaryType": null
        },
        {
            "ID_PropertyType": 2,
            "Precision": null,
            "$DataSource": null,
            "DisplayProperty": "User",
            "Oid": "DEB7EB25-9619-435C-A833-8AEFCD7F74D7",
            "Code": null,
            "Name": "ID_User",
            "IsActive": true,
            "Comment": null,
            "Caption": "User",
            "ID_ModelProperty": "73A51FCA-E2C6-4109-89B3-7A26B211FAEA",
            "ID_ListView": "31032B8E-6655-4EE6-A675-9364FD9E8CEC",
            "ID_CreatedBy": 1,
            "ID_LastModifiedBy": 1,
            "DateCreated": "2018-02-10T22:39:46.240Z",
            "DateModified": null,
            "DataSource": null,
            "Format": null,
            "Width": "214",
            "Fixed": null,
            "VisibleIndex": 700,
            "IsAllowEdit": null,
            "ID_ControlType": null,
            "ID_ColumnAlignment": null,
            "IsVisible": true,
            "FixedPosition": null,
            "IsRequired": null,
            "ID_SummaryType": null,
            "IsAddModelClass": null,
            "GroupIndex": null,
            "IsFilter": null,
            "ID_FilterControlType": null,
            "ID_PropertyModel": null,
            "PropertyModel": null,
            "SummaryType": null
        },
        {
            "ID_PropertyType": 2,
            "Precision": null,
            "$DataSource": null,
            "DisplayProperty": null,
            "Oid": "AD495651-592D-4A7D-B3C8-A00691BD4BC0",
            "Code": null,
            "Name": "ID",
            "IsActive": true,
            "Comment": null,
            "Caption": null,
            "ID_ModelProperty": "1B8530B4-B278-4F8B-A9E3-EB8FDD30D347",
            "ID_ListView": "31032B8E-6655-4EE6-A675-9364FD9E8CEC",
            "ID_CreatedBy": 1,
            "ID_LastModifiedBy": 1,
            "DateCreated": "2018-02-10T22:39:46.240Z",
            "DateModified": null,
            "DataSource": null,
            "Format": null,
            "Width": "80",
            "Fixed": true,
            "VisibleIndex": 800,
            "IsAllowEdit": null,
            "ID_ControlType": null,
            "ID_ColumnAlignment": null,
            "IsVisible": true,
            "FixedPosition": "left",
            "IsRequired": null,
            "ID_SummaryType": null,
            "IsAddModelClass": null,
            "GroupIndex": null,
            "IsFilter": null,
            "ID_FilterControlType": null,
            "ID_PropertyModel": null,
            "PropertyModel": null,
            "SummaryType": null
        },
        {
            "ID_PropertyType": 4,
            "Precision": null,
            "$DataSource": null,
            "DisplayProperty": null,
            "Oid": "F897B159-562D-43B5-A5C1-A87FA3A9A727",
            "Code": null,
            "Name": "IsActive",
            "IsActive": true,
            "Comment": null,
            "Caption": "Active",
            "ID_ModelProperty": "D55A044E-3AB1-4CAC-871A-D8A98C1D4014",
            "ID_ListView": "31032B8E-6655-4EE6-A675-9364FD9E8CEC",
            "ID_CreatedBy": 1,
            "ID_LastModifiedBy": 1,
            "DateCreated": "2018-02-10T22:39:46.240Z",
            "DateModified": null,
            "DataSource": null,
            "Format": null,
            "Width": null,
            "Fixed": null,
            "VisibleIndex": 500,
            "IsAllowEdit": null,
            "ID_ControlType": null,
            "ID_ColumnAlignment": null,
            "IsVisible": false,
            "FixedPosition": null,
            "IsRequired": null,
            "ID_SummaryType": null,
            "IsAddModelClass": null,
            "GroupIndex": null,
            "IsFilter": null,
            "ID_FilterControlType": null,
            "ID_PropertyModel": null,
            "PropertyModel": null,
            "SummaryType": null
        },
        {
            "ID_PropertyType": 1,
            "Precision": null,
            "$DataSource": null,
            "DisplayProperty": null,
            "Oid": "8881F4B8-2C56-47D6-94F5-AAD9CEDC8650",
            "Code": null,
            "Name": "Name",
            "IsActive": true,
            "Comment": null,
            "Caption": "Document Name",
            "ID_ModelProperty": "3602866F-AC22-40FB-B149-916565EA8AA1",
            "ID_ListView": "31032B8E-6655-4EE6-A675-9364FD9E8CEC",
            "ID_CreatedBy": 1,
            "ID_LastModifiedBy": 1,
            "DateCreated": "2018-02-10T22:39:46.240Z",
            "DateModified": null,
            "DataSource": null,
            "Format": null,
            "Width": "138",
            "Fixed": null,
            "VisibleIndex": 400,
            "IsAllowEdit": null,
            "ID_ControlType": null,
            "ID_ColumnAlignment": null,
            "IsVisible": true,
            "FixedPosition": null,
            "IsRequired": null,
            "ID_SummaryType": null,
            "IsAddModelClass": null,
            "GroupIndex": null,
            "IsFilter": null,
            "ID_FilterControlType": null,
            "ID_PropertyModel": null,
            "PropertyModel": null,
            "SummaryType": null
        },
        {
            "ID_PropertyType": 8,
            "Precision": null,
            "$DataSource": null,
            "DisplayProperty": "Model",
            "Oid": "3EE7B469-F1DA-449C-B47A-BD2EF1A00B70",
            "Code": null,
            "Name": "ID_Model",
            "IsActive": true,
            "Comment": null,
            "Caption": "Model",
            "ID_ModelProperty": "D29F82B6-21BB-489F-B4D1-F96978D752EB",
            "ID_ListView": "31032B8E-6655-4EE6-A675-9364FD9E8CEC",
            "ID_CreatedBy": 1,
            "ID_LastModifiedBy": 1,
            "DateCreated": "2018-02-10T22:39:46.240Z",
            "DateModified": null,
            "DataSource": null,
            "Format": null,
            "Width": "116",
            "Fixed": null,
            "VisibleIndex": 300,
            "IsAllowEdit": null,
            "ID_ControlType": null,
            "ID_ColumnAlignment": null,
            "IsVisible": true,
            "FixedPosition": null,
            "IsRequired": null,
            "ID_SummaryType": null,
            "IsAddModelClass": null,
            "GroupIndex": null,
            "IsFilter": null,
            "ID_FilterControlType": null,
            "ID_PropertyModel": null,
            "PropertyModel": null,
            "SummaryType": null
        },
        {
            "ID_PropertyType": 2,
            "Precision": null,
            "$DataSource": null,
            "DisplayProperty": "DetailView",
            "Oid": "337764E1-3345-4006-B1B5-BDCB6ECC96A0",
            "Code": null,
            "Name": "ID_DetailView",
            "IsActive": true,
            "Comment": null,
            "Caption": "DetailView",
            "ID_ModelProperty": "14BD8295-9AA9-4D3D-A531-508ECF2557AF",
            "ID_ListView": "31032B8E-6655-4EE6-A675-9364FD9E8CEC",
            "ID_CreatedBy": 1,
            "ID_LastModifiedBy": 1,
            "DateCreated": "2018-02-10T22:39:46.240Z",
            "DateModified": null,
            "DataSource": null,
            "Format": null,
            "Width": null,
            "Fixed": null,
            "VisibleIndex": 900,
            "IsAllowEdit": null,
            "ID_ControlType": null,
            "ID_ColumnAlignment": null,
            "IsVisible": false,
            "FixedPosition": null,
            "IsRequired": null,
            "ID_SummaryType": null,
            "IsAddModelClass": null,
            "GroupIndex": null,
            "IsFilter": null,
            "ID_FilterControlType": null,
            "ID_PropertyModel": null,
            "PropertyModel": null,
            "SummaryType": null
        },
        {
            "ID_PropertyType": 2,
            "Precision": null,
            "$DataSource": null,
            "DisplayProperty": "Session",
            "Oid": "FD3A160F-F502-44A1-9550-E046F653227F",
            "Code": null,
            "Name": "ID_Session",
            "IsActive": true,
            "Comment": null,
            "Caption": "Session",
            "ID_ModelProperty": "B72F7018-1517-46C2-9178-84A822E53322",
            "ID_ListView": "31032B8E-6655-4EE6-A675-9364FD9E8CEC",
            "ID_CreatedBy": 1,
            "ID_LastModifiedBy": 1,
            "DateCreated": "2018-02-10T22:39:46.240Z",
            "DateModified": null,
            "DataSource": null,
            "Format": null,
            "Width": null,
            "Fixed": null,
            "VisibleIndex": 1000,
            "IsAllowEdit": null,
            "ID_ControlType": null,
            "ID_ColumnAlignment": null,
            "IsVisible": false,
            "FixedPosition": null,
            "IsRequired": null,
            "ID_SummaryType": null,
            "IsAddModelClass": null,
            "GroupIndex": null,
            "IsFilter": null,
            "ID_FilterControlType": null,
            "ID_PropertyModel": null,
            "PropertyModel": null,
            "SummaryType": null
        },
        {
            "ID_PropertyType": 1,
            "Precision": null,
            "$DataSource": null,
            "DisplayProperty": null,
            "Oid": "8628086F-86EC-4580-9A22-FE2E2E9EFA5A",
            "Code": null,
            "Name": "ID_CurrentObject",
            "IsActive": true,
            "Comment": null,
            "Caption": null,
            "ID_ModelProperty": "5CDFA1DF-46BC-4E72-A0F3-A21F355A3EF6",
            "ID_ListView": "31032B8E-6655-4EE6-A675-9364FD9E8CEC",
            "ID_CreatedBy": 1,
            "ID_LastModifiedBy": 1,
            "DateCreated": "2018-02-10T22:39:46.240Z",
            "DateModified": null,
            "DataSource": null,
            "Format": null,
            "Width": null,
            "Fixed": null,
            "VisibleIndex": 1100,
            "IsAllowEdit": null,
            "ID_ControlType": null,
            "ID_ColumnAlignment": null,
            "IsVisible": false,
            "FixedPosition": null,
            "IsRequired": null,
            "ID_SummaryType": null,
            "IsAddModelClass": null,
            "GroupIndex": null,
            "IsFilter": null,
            "ID_FilterControlType": null,
            "ID_PropertyModel": null,
            "PropertyModel": null,
            "SummaryType": null
        },
        {
            "ID_PropertyType": 1,
            "Precision": null,
            "$DataSource": null,
            "DisplayProperty": null,
            "Oid": "BFEC6F9C-86E0-466F-83E5-C543A5680E08",
            "Code": null,
            "Name": "Description",
            "IsActive": true,
            "Comment": null,
            "Caption": null,
            "ID_ModelProperty": "85473D14-01B6-4B47-91CE-EB8458A037E2",
            "ID_ListView": "31032B8E-6655-4EE6-A675-9364FD9E8CEC",
            "ID_CreatedBy": 1,
            "ID_LastModifiedBy": 1,
            "DateCreated": "2018-08-29T23:14:18.853Z",
            "DateModified": null,
            "DataSource": null,
            "Format": null,
            "Width": "540",
            "Fixed": null,
            "VisibleIndex": 600,
            "IsAllowEdit": null,
            "ID_ControlType": null,
            "ID_ColumnAlignment": null,
            "IsVisible": true,
            "FixedPosition": null,
            "IsRequired": null,
            "ID_SummaryType": null,
            "IsAddModelClass": null,
            "GroupIndex": null,
            "IsFilter": null,
            "ID_FilterControlType": null,
            "ID_PropertyModel": null,
            "PropertyModel": null,
            "SummaryType": null
        },
        {
            "ID_PropertyType": 5,
            "Precision": null,
            "$DataSource": null,
            "DisplayProperty": null,
            "Oid": "F2FE65DE-353F-46B4-8C71-3CA272111DAF",
            "Code": null,
            "Name": "DateCreated",
            "IsActive": true,
            "Comment": null,
            "Caption": "Date Created",
            "ID_ModelProperty": "03373AAF-1255-4A60-A688-CB538D329A12",
            "ID_ListView": "31032B8E-6655-4EE6-A675-9364FD9E8CEC",
            "ID_CreatedBy": 1,
            "ID_LastModifiedBy": 1,
            "DateCreated": "2018-09-04T18:40:25.290Z",
            "DateModified": null,
            "DataSource": null,
            "Format": null,
            "Width": null,
            "Fixed": null,
            "VisibleIndex": null,
            "IsAllowEdit": null,
            "ID_ControlType": null,
            "ID_ColumnAlignment": null,
            "IsVisible": false,
            "FixedPosition": null,
            "IsRequired": null,
            "ID_SummaryType": null,
            "IsAddModelClass": null,
            "GroupIndex": null,
            "IsFilter": null,
            "ID_FilterControlType": null,
            "ID_PropertyModel": null,
            "PropertyModel": null,
            "SummaryType": null
        },
        {
            "ID_PropertyType": 2,
            "Precision": null,
            "$DataSource": null,
            "DisplayProperty": "CreatedBy",
            "Oid": "19943B61-1F9C-461E-9AEF-20FE3F7D1CAC",
            "Code": null,
            "Name": "ID_CreatedBy",
            "IsActive": true,
            "Comment": null,
            "Caption": "Created By",
            "ID_ModelProperty": "3A845F6F-E991-401B-BDF1-09DE6C3586A6",
            "ID_ListView": "31032B8E-6655-4EE6-A675-9364FD9E8CEC",
            "ID_CreatedBy": 1,
            "ID_LastModifiedBy": 1,
            "DateCreated": "2018-09-04T18:41:00.313Z",
            "DateModified": null,
            "DataSource": null,
            "Format": null,
            "Width": null,
            "Fixed": null,
            "VisibleIndex": null,
            "IsAllowEdit": null,
            "ID_ControlType": null,
            "ID_ColumnAlignment": null,
            "IsVisible": false,
            "FixedPosition": null,
            "IsRequired": null,
            "ID_SummaryType": null,
            "IsAddModelClass": null,
            "GroupIndex": null,
            "IsFilter": null,
            "ID_FilterControlType": null,
            "ID_PropertyModel": null,
            "PropertyModel": null,
            "SummaryType": null
        }
    ]
}