{
    "Oid": "5F7CA623-0F4E-454C-8F69-DF8BF99F90F7",
    "Name": "PurchaseOrder_Detail_Lookup_ListView",
    "ID_Model": null,
    "DataSource": "SELECT * FROM vPurchaseOrder_Detail",
    "Comment": null,
    "ID_DetailView": null,
    "Model": null,
    "PrimaryKey": null,
    "Caption": null,
    "Details": [
        {
            "ID_PropertyType": 2,
            "Precision": null,
            "$DataSource": null,
            "DisplayProperty": null,
            "Oid": "9E3BF79F-D780-4389-B2C5-0042C8EB1099",
            "Code": null,
            "Name": "ID_UOM",
            "IsActive": true,
            "Comment": null,
            "Caption": null,
            "ID_ModelProperty": null,
            "ID_ListView": "5F7CA623-0F4E-454C-8F69-DF8BF99F90F7",
            "ID_CreatedBy": null,
            "ID_LastModifiedBy": null,
            "DateCreated": "2018-04-17T15:45:30.083Z",
            "DateModified": "2018-04-17T15:45:30.083Z",
            "DataSource": null,
            "Format": null,
            "Width": null,
            "Fixed": null,
            "VisibleIndex": null,
            "IsAllowEdit": null,
            "ID_ControlType": null,
            "ID_ColumnAlignment": null,
            "IsVisible": true,
            "FixedPosition": null,
            "IsRequired": null,
            "ID_SummaryType": null,
            "IsAddModelClass": null,
            "GroupIndex": null,
            "IsFilter": null,
            "ID_FilterControlType": null,
            "ID_PropertyModel": null,
            "PropertyModel": null,
            "SummaryType": null
        },
        {
            "ID_PropertyType": 5,
            "Precision": null,
            "$DataSource": null,
            "DisplayProperty": null,
            "Oid": "AB472E98-B3DE-4486-B160-02CE3EF3D818",
            "Code": null,
            "Name": "DateModified",
            "IsActive": true,
            "Comment": null,
            "Caption": "Date Modified",
            "ID_ModelProperty": null,
            "ID_ListView": "5F7CA623-0F4E-454C-8F69-DF8BF99F90F7",
            "ID_CreatedBy": null,
            "ID_LastModifiedBy": null,
            "DateCreated": "2018-04-17T15:45:30.083Z",
            "DateModified": "2018-04-17T15:45:30.083Z",
            "DataSource": null,
            "Format": null,
            "Width": null,
            "Fixed": null,
            "VisibleIndex": null,
            "IsAllowEdit": null,
            "ID_ControlType": null,
            "ID_ColumnAlignment": null,
            "IsVisible": true,
            "FixedPosition": null,
            "IsRequired": null,
            "ID_SummaryType": null,
            "IsAddModelClass": null,
            "GroupIndex": null,
            "IsFilter": null,
            "ID_FilterControlType": null,
            "ID_PropertyModel": null,
            "PropertyModel": null,
            "SummaryType": null
        },
        {
            "ID_PropertyType": 1,
            "Precision": null,
            "$DataSource": null,
            "DisplayProperty": null,
            "Oid": "1AC2A59B-B7EC-4CDF-90EC-1A9CC4CFEEBC",
            "Code": null,
            "Name": "LastModifiedBy",
            "IsActive": true,
            "Comment": null,
            "Caption": null,
            "ID_ModelProperty": null,
            "ID_ListView": "5F7CA623-0F4E-454C-8F69-DF8BF99F90F7",
            "ID_CreatedBy": null,
            "ID_LastModifiedBy": null,
            "DateCreated": "2018-04-17T15:45:30.083Z",
            "DateModified": "2018-04-17T15:45:30.083Z",
            "DataSource": null,
            "Format": null,
            "Width": null,
            "Fixed": null,
            "VisibleIndex": null,
            "IsAllowEdit": null,
            "ID_ControlType": null,
            "ID_ColumnAlignment": null,
            "IsVisible": true,
            "FixedPosition": null,
            "IsRequired": null,
            "ID_SummaryType": null,
            "IsAddModelClass": null,
            "GroupIndex": null,
            "IsFilter": null,
            "ID_FilterControlType": null,
            "ID_PropertyModel": null,
            "PropertyModel": null,
            "SummaryType": null
        },
        {
            "ID_PropertyType": 1,
            "Precision": null,
            "$DataSource": null,
            "DisplayProperty": null,
            "Oid": "020D6B2F-7600-4C3F-B30D-1B17A39F4FD1",
            "Code": null,
            "Name": "Item",
            "IsActive": true,
            "Comment": null,
            "Caption": null,
            "ID_ModelProperty": null,
            "ID_ListView": "5F7CA623-0F4E-454C-8F69-DF8BF99F90F7",
            "ID_CreatedBy": null,
            "ID_LastModifiedBy": null,
            "DateCreated": "2018-04-17T15:45:30.083Z",
            "DateModified": "2018-04-17T15:45:30.083Z",
            "DataSource": null,
            "Format": null,
            "Width": null,
            "Fixed": null,
            "VisibleIndex": null,
            "IsAllowEdit": null,
            "ID_ControlType": null,
            "ID_ColumnAlignment": null,
            "IsVisible": true,
            "FixedPosition": null,
            "IsRequired": null,
            "ID_SummaryType": null,
            "IsAddModelClass": null,
            "GroupIndex": null,
            "IsFilter": null,
            "ID_FilterControlType": null,
            "ID_PropertyModel": null,
            "PropertyModel": null,
            "SummaryType": null
        },
        {
            "ID_PropertyType": 3,
            "Precision": 2,
            "$DataSource": null,
            "DisplayProperty": null,
            "Oid": "E7467E18-9E4C-4DAA-9C7A-2269A02BCAC4",
            "Code": null,
            "Name": "TotalAmount",
            "IsActive": true,
            "Comment": null,
            "Caption": null,
            "ID_ModelProperty": null,
            "ID_ListView": "5F7CA623-0F4E-454C-8F69-DF8BF99F90F7",
            "ID_CreatedBy": null,
            "ID_LastModifiedBy": null,
            "DateCreated": "2018-04-17T15:45:30.083Z",
            "DateModified": "2018-04-17T15:45:30.083Z",
            "DataSource": null,
            "Format": null,
            "Width": null,
            "Fixed": null,
            "VisibleIndex": null,
            "IsAllowEdit": null,
            "ID_ControlType": null,
            "ID_ColumnAlignment": null,
            "IsVisible": true,
            "FixedPosition": null,
            "IsRequired": null,
            "ID_SummaryType": null,
            "IsAddModelClass": null,
            "GroupIndex": null,
            "IsFilter": null,
            "ID_FilterControlType": null,
            "ID_PropertyModel": null,
            "PropertyModel": null,
            "SummaryType": null
        },
        {
            "ID_PropertyType": 1,
            "Precision": null,
            "$DataSource": null,
            "DisplayProperty": null,
            "Oid": "ADE03E0D-306E-4DF6-BE43-2C23464DC90E",
            "Code": null,
            "Name": "Code",
            "IsActive": true,
            "Comment": null,
            "Caption": null,
            "ID_ModelProperty": null,
            "ID_ListView": "5F7CA623-0F4E-454C-8F69-DF8BF99F90F7",
            "ID_CreatedBy": null,
            "ID_LastModifiedBy": null,
            "DateCreated": "2018-04-17T15:45:30.083Z",
            "DateModified": "2018-04-17T15:45:30.083Z",
            "DataSource": null,
            "Format": null,
            "Width": null,
            "Fixed": null,
            "VisibleIndex": null,
            "IsAllowEdit": null,
            "ID_ControlType": null,
            "ID_ColumnAlignment": null,
            "IsVisible": true,
            "FixedPosition": null,
            "IsRequired": null,
            "ID_SummaryType": null,
            "IsAddModelClass": null,
            "GroupIndex": null,
            "IsFilter": null,
            "ID_FilterControlType": null,
            "ID_PropertyModel": null,
            "PropertyModel": null,
            "SummaryType": null
        },
        {
            "ID_PropertyType": 2,
            "Precision": null,
            "$DataSource": null,
            "DisplayProperty": null,
            "Oid": "67915CA2-2E8B-4566-823D-3E1B0B3F93E6",
            "Code": null,
            "Name": "ID_DocStatus",
            "IsActive": true,
            "Comment": null,
            "Caption": null,
            "ID_ModelProperty": null,
            "ID_ListView": "5F7CA623-0F4E-454C-8F69-DF8BF99F90F7",
            "ID_CreatedBy": null,
            "ID_LastModifiedBy": null,
            "DateCreated": "2018-04-17T15:45:30.083Z",
            "DateModified": "2018-04-17T15:45:30.083Z",
            "DataSource": null,
            "Format": null,
            "Width": null,
            "Fixed": null,
            "VisibleIndex": null,
            "IsAllowEdit": null,
            "ID_ControlType": null,
            "ID_ColumnAlignment": null,
            "IsVisible": true,
            "FixedPosition": null,
            "IsRequired": null,
            "ID_SummaryType": null,
            "IsAddModelClass": null,
            "GroupIndex": null,
            "IsFilter": null,
            "ID_FilterControlType": null,
            "ID_PropertyModel": null,
            "PropertyModel": null,
            "SummaryType": null
        },
        {
            "ID_PropertyType": 2,
            "Precision": null,
            "$DataSource": null,
            "DisplayProperty": null,
            "Oid": "05E7808D-F735-418F-A791-4BB21E1764EF",
            "Code": null,
            "Name": "ID_PurchaseOrder",
            "IsActive": true,
            "Comment": null,
            "Caption": null,
            "ID_ModelProperty": null,
            "ID_ListView": "5F7CA623-0F4E-454C-8F69-DF8BF99F90F7",
            "ID_CreatedBy": null,
            "ID_LastModifiedBy": null,
            "DateCreated": "2018-04-17T15:45:30.083Z",
            "DateModified": "2018-04-17T15:45:30.083Z",
            "DataSource": null,
            "Format": null,
            "Width": null,
            "Fixed": null,
            "VisibleIndex": null,
            "IsAllowEdit": null,
            "ID_ControlType": null,
            "ID_ColumnAlignment": null,
            "IsVisible": true,
            "FixedPosition": null,
            "IsRequired": null,
            "ID_SummaryType": null,
            "IsAddModelClass": null,
            "GroupIndex": null,
            "IsFilter": null,
            "ID_FilterControlType": null,
            "ID_PropertyModel": null,
            "PropertyModel": null,
            "SummaryType": null
        },
        {
            "ID_PropertyType": 3,
            "Precision": 2,
            "$DataSource": null,
            "DisplayProperty": null,
            "Oid": "8EACB859-AE4C-4AAD-841A-4C209144C1A3",
            "Code": null,
            "Name": "Subtotal",
            "IsActive": true,
            "Comment": null,
            "Caption": null,
            "ID_ModelProperty": null,
            "ID_ListView": "5F7CA623-0F4E-454C-8F69-DF8BF99F90F7",
            "ID_CreatedBy": null,
            "ID_LastModifiedBy": null,
            "DateCreated": "2018-04-17T15:45:30.083Z",
            "DateModified": "2018-04-17T15:45:30.083Z",
            "DataSource": null,
            "Format": null,
            "Width": null,
            "Fixed": null,
            "VisibleIndex": null,
            "IsAllowEdit": null,
            "ID_ControlType": null,
            "ID_ColumnAlignment": null,
            "IsVisible": true,
            "FixedPosition": null,
            "IsRequired": null,
            "ID_SummaryType": null,
            "IsAddModelClass": null,
            "GroupIndex": null,
            "IsFilter": null,
            "ID_FilterControlType": null,
            "ID_PropertyModel": null,
            "PropertyModel": null,
            "SummaryType": null
        },
        {
            "ID_PropertyType": 2,
            "Precision": null,
            "$DataSource": null,
            "DisplayProperty": null,
            "Oid": "C158CC9D-C803-4ABB-9B02-4F0D60ECA458",
            "Code": null,
            "Name": "ID_Item",
            "IsActive": true,
            "Comment": null,
            "Caption": null,
            "ID_ModelProperty": null,
            "ID_ListView": "5F7CA623-0F4E-454C-8F69-DF8BF99F90F7",
            "ID_CreatedBy": null,
            "ID_LastModifiedBy": null,
            "DateCreated": "2018-04-17T15:45:30.083Z",
            "DateModified": "2018-04-17T15:45:30.083Z",
            "DataSource": null,
            "Format": null,
            "Width": null,
            "Fixed": null,
            "VisibleIndex": null,
            "IsAllowEdit": null,
            "ID_ControlType": null,
            "ID_ColumnAlignment": null,
            "IsVisible": true,
            "FixedPosition": null,
            "IsRequired": null,
            "ID_SummaryType": null,
            "IsAddModelClass": null,
            "GroupIndex": null,
            "IsFilter": null,
            "ID_FilterControlType": null,
            "ID_PropertyModel": null,
            "PropertyModel": null,
            "SummaryType": null
        },
        {
            "ID_PropertyType": 3,
            "Precision": 2,
            "$DataSource": null,
            "DisplayProperty": null,
            "Oid": "E96AB590-69BA-4C44-827A-5D3C54BEE880",
            "Code": null,
            "Name": "Balance",
            "IsActive": true,
            "Comment": null,
            "Caption": null,
            "ID_ModelProperty": null,
            "ID_ListView": "5F7CA623-0F4E-454C-8F69-DF8BF99F90F7",
            "ID_CreatedBy": null,
            "ID_LastModifiedBy": null,
            "DateCreated": "2018-04-17T15:45:30.083Z",
            "DateModified": "2018-04-17T15:45:30.083Z",
            "DataSource": null,
            "Format": null,
            "Width": null,
            "Fixed": null,
            "VisibleIndex": null,
            "IsAllowEdit": null,
            "ID_ControlType": null,
            "ID_ColumnAlignment": null,
            "IsVisible": true,
            "FixedPosition": null,
            "IsRequired": null,
            "ID_SummaryType": null,
            "IsAddModelClass": null,
            "GroupIndex": null,
            "IsFilter": null,
            "ID_FilterControlType": null,
            "ID_PropertyModel": null,
            "PropertyModel": null,
            "SummaryType": null
        },
        {
            "ID_PropertyType": 3,
            "Precision": 2,
            "$DataSource": null,
            "DisplayProperty": null,
            "Oid": "B8B56C00-E8ED-4B1A-A4E0-635A22642C95",
            "Code": null,
            "Name": "UnitPrice",
            "IsActive": true,
            "Comment": null,
            "Caption": null,
            "ID_ModelProperty": null,
            "ID_ListView": "5F7CA623-0F4E-454C-8F69-DF8BF99F90F7",
            "ID_CreatedBy": null,
            "ID_LastModifiedBy": null,
            "DateCreated": "2018-04-17T15:45:30.083Z",
            "DateModified": "2018-04-17T15:45:30.083Z",
            "DataSource": null,
            "Format": null,
            "Width": null,
            "Fixed": null,
            "VisibleIndex": null,
            "IsAllowEdit": null,
            "ID_ControlType": null,
            "ID_ColumnAlignment": null,
            "IsVisible": true,
            "FixedPosition": null,
            "IsRequired": null,
            "ID_SummaryType": null,
            "IsAddModelClass": null,
            "GroupIndex": null,
            "IsFilter": null,
            "ID_FilterControlType": null,
            "ID_PropertyModel": null,
            "PropertyModel": null,
            "SummaryType": null
        },
        {
            "ID_PropertyType": 4,
            "Precision": null,
            "$DataSource": null,
            "DisplayProperty": null,
            "Oid": "7F31830F-9948-4D67-A2F9-7BF9465269C3",
            "Code": null,
            "Name": "IsActive",
            "IsActive": true,
            "Comment": null,
            "Caption": "Active",
            "ID_ModelProperty": null,
            "ID_ListView": "5F7CA623-0F4E-454C-8F69-DF8BF99F90F7",
            "ID_CreatedBy": null,
            "ID_LastModifiedBy": null,
            "DateCreated": "2018-04-17T15:45:30.083Z",
            "DateModified": "2018-04-17T15:45:30.083Z",
            "DataSource": null,
            "Format": null,
            "Width": null,
            "Fixed": null,
            "VisibleIndex": null,
            "IsAllowEdit": null,
            "ID_ControlType": null,
            "ID_ColumnAlignment": null,
            "IsVisible": true,
            "FixedPosition": null,
            "IsRequired": null,
            "ID_SummaryType": null,
            "IsAddModelClass": null,
            "GroupIndex": null,
            "IsFilter": null,
            "ID_FilterControlType": null,
            "ID_PropertyModel": null,
            "PropertyModel": null,
            "SummaryType": null
        },
        {
            "ID_PropertyType": 1,
            "Precision": null,
            "$DataSource": null,
            "DisplayProperty": null,
            "Oid": "7EF9208B-6803-442E-B253-7DDE15708DDD",
            "Code": null,
            "Name": "Comment",
            "IsActive": true,
            "Comment": null,
            "Caption": null,
            "ID_ModelProperty": null,
            "ID_ListView": "5F7CA623-0F4E-454C-8F69-DF8BF99F90F7",
            "ID_CreatedBy": null,
            "ID_LastModifiedBy": null,
            "DateCreated": "2018-04-17T15:45:30.083Z",
            "DateModified": "2018-04-17T15:45:30.083Z",
            "DataSource": null,
            "Format": null,
            "Width": null,
            "Fixed": null,
            "VisibleIndex": null,
            "IsAllowEdit": null,
            "ID_ControlType": null,
            "ID_ColumnAlignment": null,
            "IsVisible": true,
            "FixedPosition": null,
            "IsRequired": null,
            "ID_SummaryType": null,
            "IsAddModelClass": null,
            "GroupIndex": null,
            "IsFilter": null,
            "ID_FilterControlType": null,
            "ID_PropertyModel": null,
            "PropertyModel": null,
            "SummaryType": null
        },
        {
            "ID_PropertyType": 3,
            "Precision": 2,
            "$DataSource": null,
            "DisplayProperty": null,
            "Oid": "3C98B6F9-4CA6-4CC0-BA26-851E716C214F",
            "Code": null,
            "Name": "VATAmount",
            "IsActive": true,
            "Comment": null,
            "Caption": null,
            "ID_ModelProperty": null,
            "ID_ListView": "5F7CA623-0F4E-454C-8F69-DF8BF99F90F7",
            "ID_CreatedBy": null,
            "ID_LastModifiedBy": null,
            "DateCreated": "2018-04-17T15:45:30.083Z",
            "DateModified": "2018-04-17T15:45:30.083Z",
            "DataSource": null,
            "Format": null,
            "Width": null,
            "Fixed": null,
            "VisibleIndex": null,
            "IsAllowEdit": null,
            "ID_ControlType": null,
            "ID_ColumnAlignment": null,
            "IsVisible": true,
            "FixedPosition": null,
            "IsRequired": null,
            "ID_SummaryType": null,
            "IsAddModelClass": null,
            "GroupIndex": null,
            "IsFilter": null,
            "ID_FilterControlType": null,
            "ID_PropertyModel": null,
            "PropertyModel": null,
            "SummaryType": null
        },
        {
            "ID_PropertyType": 2,
            "Precision": null,
            "$DataSource": null,
            "DisplayProperty": "CreatedBy",
            "Oid": "B3707931-F495-4F0B-AE0A-99B384A99E75",
            "Code": null,
            "Name": "ID_CreatedBy",
            "IsActive": true,
            "Comment": null,
            "Caption": "Created By",
            "ID_ModelProperty": null,
            "ID_ListView": "5F7CA623-0F4E-454C-8F69-DF8BF99F90F7",
            "ID_CreatedBy": null,
            "ID_LastModifiedBy": null,
            "DateCreated": "2018-04-17T15:45:30.083Z",
            "DateModified": "2018-04-17T15:45:30.083Z",
            "DataSource": null,
            "Format": null,
            "Width": null,
            "Fixed": null,
            "VisibleIndex": null,
            "IsAllowEdit": null,
            "ID_ControlType": null,
            "ID_ColumnAlignment": null,
            "IsVisible": true,
            "FixedPosition": null,
            "IsRequired": null,
            "ID_SummaryType": null,
            "IsAddModelClass": null,
            "GroupIndex": null,
            "IsFilter": null,
            "ID_FilterControlType": null,
            "ID_PropertyModel": null,
            "PropertyModel": null,
            "SummaryType": null
        },
        {
            "ID_PropertyType": 3,
            "Precision": 2,
            "$DataSource": null,
            "DisplayProperty": null,
            "Oid": "88880BF7-854A-4B9C-A2B4-A2FD26A10457",
            "Code": null,
            "Name": "Quantity",
            "IsActive": true,
            "Comment": null,
            "Caption": null,
            "ID_ModelProperty": null,
            "ID_ListView": "5F7CA623-0F4E-454C-8F69-DF8BF99F90F7",
            "ID_CreatedBy": null,
            "ID_LastModifiedBy": null,
            "DateCreated": "2018-04-17T15:45:30.083Z",
            "DateModified": "2018-04-17T15:45:30.083Z",
            "DataSource": null,
            "Format": null,
            "Width": null,
            "Fixed": null,
            "VisibleIndex": null,
            "IsAllowEdit": null,
            "ID_ControlType": null,
            "ID_ColumnAlignment": null,
            "IsVisible": true,
            "FixedPosition": null,
            "IsRequired": null,
            "ID_SummaryType": null,
            "IsAddModelClass": null,
            "GroupIndex": null,
            "IsFilter": null,
            "ID_FilterControlType": null,
            "ID_PropertyModel": null,
            "PropertyModel": null,
            "SummaryType": null
        },
        {
            "ID_PropertyType": 3,
            "Precision": 2,
            "$DataSource": null,
            "DisplayProperty": null,
            "Oid": "B9358AFF-6E65-4263-89C8-A3D18AA6D854",
            "Code": null,
            "Name": "DiscountAmount",
            "IsActive": true,
            "Comment": null,
            "Caption": null,
            "ID_ModelProperty": null,
            "ID_ListView": "5F7CA623-0F4E-454C-8F69-DF8BF99F90F7",
            "ID_CreatedBy": null,
            "ID_LastModifiedBy": null,
            "DateCreated": "2018-04-17T15:45:30.083Z",
            "DateModified": "2018-04-17T15:45:30.083Z",
            "DataSource": null,
            "Format": null,
            "Width": null,
            "Fixed": null,
            "VisibleIndex": null,
            "IsAllowEdit": null,
            "ID_ControlType": null,
            "ID_ColumnAlignment": null,
            "IsVisible": true,
            "FixedPosition": null,
            "IsRequired": null,
            "ID_SummaryType": null,
            "IsAddModelClass": null,
            "GroupIndex": null,
            "IsFilter": null,
            "ID_FilterControlType": null,
            "ID_PropertyModel": null,
            "PropertyModel": null,
            "SummaryType": null
        },
        {
            "ID_PropertyType": 3,
            "Precision": 2,
            "$DataSource": null,
            "DisplayProperty": null,
            "Oid": "978C2666-751A-43FF-9CA6-AA829082A0E1",
            "Code": null,
            "Name": "VATRate",
            "IsActive": true,
            "Comment": null,
            "Caption": null,
            "ID_ModelProperty": null,
            "ID_ListView": "5F7CA623-0F4E-454C-8F69-DF8BF99F90F7",
            "ID_CreatedBy": null,
            "ID_LastModifiedBy": null,
            "DateCreated": "2018-04-17T15:45:30.083Z",
            "DateModified": "2018-04-17T15:45:30.083Z",
            "DataSource": null,
            "Format": null,
            "Width": null,
            "Fixed": null,
            "VisibleIndex": null,
            "IsAllowEdit": null,
            "ID_ControlType": null,
            "ID_ColumnAlignment": null,
            "IsVisible": true,
            "FixedPosition": null,
            "IsRequired": null,
            "ID_SummaryType": null,
            "IsAddModelClass": null,
            "GroupIndex": null,
            "IsFilter": null,
            "ID_FilterControlType": null,
            "ID_PropertyModel": null,
            "PropertyModel": null,
            "SummaryType": null
        },
        {
            "ID_PropertyType": 2,
            "Precision": null,
            "$DataSource": null,
            "DisplayProperty": null,
            "Oid": "E344303A-BB02-4E3F-AF9C-BB165A49B4DA",
            "Code": null,
            "Name": "ID",
            "IsActive": true,
            "Comment": null,
            "Caption": null,
            "ID_ModelProperty": null,
            "ID_ListView": "5F7CA623-0F4E-454C-8F69-DF8BF99F90F7",
            "ID_CreatedBy": null,
            "ID_LastModifiedBy": null,
            "DateCreated": "2018-04-17T15:45:30.083Z",
            "DateModified": "2018-04-17T15:45:30.083Z",
            "DataSource": null,
            "Format": null,
            "Width": null,
            "Fixed": null,
            "VisibleIndex": null,
            "IsAllowEdit": null,
            "ID_ControlType": null,
            "ID_ColumnAlignment": null,
            "IsVisible": true,
            "FixedPosition": null,
            "IsRequired": null,
            "ID_SummaryType": null,
            "IsAddModelClass": null,
            "GroupIndex": null,
            "IsFilter": null,
            "ID_FilterControlType": null,
            "ID_PropertyModel": null,
            "PropertyModel": null,
            "SummaryType": null
        },
        {
            "ID_PropertyType": 1,
            "Precision": null,
            "$DataSource": null,
            "DisplayProperty": null,
            "Oid": "8D7A2C66-D69D-4236-BA44-C65B87146CD3",
            "Code": null,
            "Name": "CreatedBy",
            "IsActive": true,
            "Comment": null,
            "Caption": null,
            "ID_ModelProperty": null,
            "ID_ListView": "5F7CA623-0F4E-454C-8F69-DF8BF99F90F7",
            "ID_CreatedBy": null,
            "ID_LastModifiedBy": null,
            "DateCreated": "2018-04-17T15:45:30.083Z",
            "DateModified": "2018-04-17T15:45:30.083Z",
            "DataSource": null,
            "Format": null,
            "Width": null,
            "Fixed": null,
            "VisibleIndex": null,
            "IsAllowEdit": null,
            "ID_ControlType": null,
            "ID_ColumnAlignment": null,
            "IsVisible": true,
            "FixedPosition": null,
            "IsRequired": null,
            "ID_SummaryType": null,
            "IsAddModelClass": null,
            "GroupIndex": null,
            "IsFilter": null,
            "ID_FilterControlType": null,
            "ID_PropertyModel": null,
            "PropertyModel": null,
            "SummaryType": null
        },
        {
            "ID_PropertyType": 5,
            "Precision": null,
            "$DataSource": null,
            "DisplayProperty": null,
            "Oid": "77E9A5A1-499D-4C59-B76D-CCA917606837",
            "Code": null,
            "Name": "DateCreated",
            "IsActive": true,
            "Comment": null,
            "Caption": "Date Created",
            "ID_ModelProperty": null,
            "ID_ListView": "5F7CA623-0F4E-454C-8F69-DF8BF99F90F7",
            "ID_CreatedBy": null,
            "ID_LastModifiedBy": null,
            "DateCreated": "2018-04-17T15:45:30.083Z",
            "DateModified": "2018-04-17T15:45:30.083Z",
            "DataSource": null,
            "Format": null,
            "Width": null,
            "Fixed": null,
            "VisibleIndex": null,
            "IsAllowEdit": null,
            "ID_ControlType": null,
            "ID_ColumnAlignment": null,
            "IsVisible": true,
            "FixedPosition": null,
            "IsRequired": null,
            "ID_SummaryType": null,
            "IsAddModelClass": null,
            "GroupIndex": null,
            "IsFilter": null,
            "ID_FilterControlType": null,
            "ID_PropertyModel": null,
            "PropertyModel": null,
            "SummaryType": null
        },
        {
            "ID_PropertyType": 2,
            "Precision": null,
            "$DataSource": null,
            "DisplayProperty": "LastModifiedBy",
            "Oid": "5EADB245-5161-4420-A0F7-DDDAF790C0AD",
            "Code": null,
            "Name": "ID_LastModifiedBy",
            "IsActive": true,
            "Comment": null,
            "Caption": "Last Modified By",
            "ID_ModelProperty": null,
            "ID_ListView": "5F7CA623-0F4E-454C-8F69-DF8BF99F90F7",
            "ID_CreatedBy": null,
            "ID_LastModifiedBy": null,
            "DateCreated": "2018-04-17T15:45:30.083Z",
            "DateModified": "2018-04-17T15:45:30.083Z",
            "DataSource": null,
            "Format": null,
            "Width": null,
            "Fixed": null,
            "VisibleIndex": null,
            "IsAllowEdit": null,
            "ID_ControlType": null,
            "ID_ColumnAlignment": null,
            "IsVisible": true,
            "FixedPosition": null,
            "IsRequired": null,
            "ID_SummaryType": null,
            "IsAddModelClass": null,
            "GroupIndex": null,
            "IsFilter": null,
            "ID_FilterControlType": null,
            "ID_PropertyModel": null,
            "PropertyModel": null,
            "SummaryType": null
        },
        {
            "ID_PropertyType": 1,
            "Precision": null,
            "$DataSource": null,
            "DisplayProperty": null,
            "Oid": "8098237C-DD1E-4EF3-A248-E3574A52B7FD",
            "Code": null,
            "Name": "Name",
            "IsActive": true,
            "Comment": null,
            "Caption": null,
            "ID_ModelProperty": null,
            "ID_ListView": "5F7CA623-0F4E-454C-8F69-DF8BF99F90F7",
            "ID_CreatedBy": null,
            "ID_LastModifiedBy": null,
            "DateCreated": "2018-04-17T15:45:30.083Z",
            "DateModified": "2018-04-17T15:45:30.083Z",
            "DataSource": null,
            "Format": null,
            "Width": null,
            "Fixed": null,
            "VisibleIndex": null,
            "IsAllowEdit": null,
            "ID_ControlType": null,
            "ID_ColumnAlignment": null,
            "IsVisible": true,
            "FixedPosition": null,
            "IsRequired": null,
            "ID_SummaryType": null,
            "IsAddModelClass": null,
            "GroupIndex": null,
            "IsFilter": null,
            "ID_FilterControlType": null,
            "ID_PropertyModel": null,
            "PropertyModel": null,
            "SummaryType": null
        }
    ]
}