{
    "Oid": "FF4E69FC-3882-40A3-9FB3-042BBBF2416C",
    "Code": null,
    "Name": "Item_Supplier_DetailView",
    "IsActive": true,
    "Comment": null,
    "ID_CreatedBy": 1,
    "ID_LastModifiedBy": null,
    "DateCreated": "2020-08-10T13:30:50.980Z",
    "DateModified": null,
    "ID_Model": "4DB9B636-7CEF-4308-BEFE-4CFCC3985E45",
    "ModelName": "Item_Supplier",
    "Caption": "Item_Supplier",
    "Details": [
        {
            "SeqNo": 100,
            "ID_PropertyType": null,
            "ValueExpr": "ID",
            "GroupIndex": -1,
            "DataSourceKey": null,
            "DataSource": null,
            "DisplayProperty": null,
            "Oid": "CF0EDA63-B26F-44BA-BB13-31FC982E8959",
            "Code": null,
            "Name": "InfoSection",
            "IsActive": true,
            "Comment": null,
            "Caption": "Information",
            "ID_ModelProperty": null,
            "ID_DetailView": "FF4E69FC-3882-40A3-9FB3-042BBBF2416C",
            "ID_Tab": "52A08D1A-F8E3-4C22-8D4D-6BA843E51CCD",
            "ID_Section": null,
            "ID_ControlType": 13,
            "Format": null,
            "ID_CreatedBy": 1,
            "ID_LastModifiedBy": null,
            "DateCreated": "2020-08-10T13:30:50.980Z",
            "DateModified": null,
            "IsLoadData": null,
            "ColCount": 1,
            "ColSpan": 3,
            "IsDisabled": null,
            "Height": null,
            "ID_ListView": null,
            "IsReadOnly": null,
            "ID_LabelLocation": null,
            "IsShowLabel": null,
            "IsRequired": null,
            "DisplayExpr": null,
            "ID_LookUp_ListView": null,
            "LookUp_ListView_Caption": null,
            "LookUp_ListView_DataSource": null,
            "SearchExpr": null,
            "Precision": null,
            "ID_Parent_Grid": null,
            "IsShowClearButton": null,
            "IsSearchEnabled": null,
            "InputMask": null,
            "ID_PropertyModel": null,
            "PropertyName": null,
            "PropertyModel": null,
            "ID_PropertyModel_DetailView": null,
            "ID_PropertyModel_DetailView_Height": null,
            "ID_PropertyModel_DetailView_Width": null,
            "PropertyModel_PrimaryKey": null,
            "PropertyModel_Caption": null,
            "ID_PropertyModel_ID_DetailView": null,
            "LookUpDataSource": null,
            "LookUp_ListView_PK": null,
            "LookUp_ListView_Model": null,
            "ID_ModelProperty_Key": null,
            "ModelProperty_Key": null,
            "IsAllowAdd": null,
            "ListViewDetailName": null
        },
        {
            "SeqNo": 100,
            "ID_PropertyType": null,
            "ValueExpr": "ID",
            "GroupIndex": -1,
            "DataSourceKey": null,
            "DataSource": null,
            "DisplayProperty": null,
            "Oid": "52A08D1A-F8E3-4C22-8D4D-6BA843E51CCD",
            "Code": null,
            "Name": "GeneralTab",
            "IsActive": true,
            "Comment": null,
            "Caption": "General",
            "ID_ModelProperty": null,
            "ID_DetailView": "FF4E69FC-3882-40A3-9FB3-042BBBF2416C",
            "ID_Tab": null,
            "ID_Section": null,
            "ID_ControlType": 12,
            "Format": null,
            "ID_CreatedBy": 1,
            "ID_LastModifiedBy": null,
            "DateCreated": "2020-08-10T13:30:50.980Z",
            "DateModified": null,
            "IsLoadData": null,
            "ColCount": null,
            "ColSpan": null,
            "IsDisabled": null,
            "Height": null,
            "ID_ListView": null,
            "IsReadOnly": null,
            "ID_LabelLocation": null,
            "IsShowLabel": null,
            "IsRequired": null,
            "DisplayExpr": null,
            "ID_LookUp_ListView": null,
            "LookUp_ListView_Caption": null,
            "LookUp_ListView_DataSource": null,
            "SearchExpr": null,
            "Precision": null,
            "ID_Parent_Grid": null,
            "IsShowClearButton": null,
            "IsSearchEnabled": null,
            "InputMask": null,
            "ID_PropertyModel": null,
            "PropertyName": null,
            "PropertyModel": null,
            "ID_PropertyModel_DetailView": null,
            "ID_PropertyModel_DetailView_Height": null,
            "ID_PropertyModel_DetailView_Width": null,
            "PropertyModel_PrimaryKey": null,
            "PropertyModel_Caption": null,
            "ID_PropertyModel_ID_DetailView": null,
            "LookUpDataSource": null,
            "LookUp_ListView_PK": null,
            "LookUp_ListView_Model": null,
            "ID_ModelProperty_Key": null,
            "ModelProperty_Key": null,
            "IsAllowAdd": null,
            "ListViewDetailName": null
        },
        {
            "SeqNo": 1000,
            "ID_PropertyType": 1,
            "ValueExpr": "ID",
            "GroupIndex": -1,
            "DataSourceKey": null,
            "DataSource": null,
            "DisplayProperty": null,
            "Oid": "32E1F05D-ABE9-4D8F-9B59-0857EEBFE1E1",
            "Code": null,
            "Name": "Code",
            "IsActive": true,
            "Comment": null,
            "Caption": null,
            "ID_ModelProperty": "63987931-4083-45FB-B85A-126244612DB4",
            "ID_DetailView": "FF4E69FC-3882-40A3-9FB3-042BBBF2416C",
            "ID_Tab": null,
            "ID_Section": "CF0EDA63-B26F-44BA-BB13-31FC982E8959",
            "ID_ControlType": null,
            "Format": null,
            "ID_CreatedBy": 1,
            "ID_LastModifiedBy": null,
            "DateCreated": "2020-08-10T13:30:51.033Z",
            "DateModified": null,
            "IsLoadData": null,
            "ColCount": null,
            "ColSpan": 3,
            "IsDisabled": null,
            "Height": null,
            "ID_ListView": null,
            "IsReadOnly": null,
            "ID_LabelLocation": 2,
            "IsShowLabel": null,
            "IsRequired": null,
            "DisplayExpr": null,
            "ID_LookUp_ListView": null,
            "LookUp_ListView_Caption": null,
            "LookUp_ListView_DataSource": null,
            "SearchExpr": null,
            "Precision": null,
            "ID_Parent_Grid": null,
            "IsShowClearButton": null,
            "IsSearchEnabled": null,
            "InputMask": null,
            "ID_PropertyModel": null,
            "PropertyName": "Code",
            "PropertyModel": null,
            "ID_PropertyModel_DetailView": null,
            "ID_PropertyModel_DetailView_Height": null,
            "ID_PropertyModel_DetailView_Width": null,
            "PropertyModel_PrimaryKey": null,
            "PropertyModel_Caption": null,
            "ID_PropertyModel_ID_DetailView": null,
            "LookUpDataSource": null,
            "LookUp_ListView_PK": null,
            "LookUp_ListView_Model": null,
            "ID_ModelProperty_Key": null,
            "ModelProperty_Key": null,
            "IsAllowAdd": null,
            "ListViewDetailName": null
        },
        {
            "SeqNo": 1000,
            "ID_PropertyType": 1,
            "ValueExpr": "ID",
            "GroupIndex": -1,
            "DataSourceKey": null,
            "DataSource": null,
            "DisplayProperty": null,
            "Oid": "B55FBCBE-06CF-4C23-A39A-5366620A951D",
            "Code": null,
            "Name": "Name",
            "IsActive": true,
            "Comment": null,
            "Caption": null,
            "ID_ModelProperty": "B99C39D3-CF81-49C2-994A-2E6FDBCADE8F",
            "ID_DetailView": "FF4E69FC-3882-40A3-9FB3-042BBBF2416C",
            "ID_Tab": null,
            "ID_Section": "CF0EDA63-B26F-44BA-BB13-31FC982E8959",
            "ID_ControlType": null,
            "Format": null,
            "ID_CreatedBy": 1,
            "ID_LastModifiedBy": null,
            "DateCreated": "2020-08-10T13:30:51.033Z",
            "DateModified": null,
            "IsLoadData": null,
            "ColCount": null,
            "ColSpan": 3,
            "IsDisabled": null,
            "Height": null,
            "ID_ListView": null,
            "IsReadOnly": null,
            "ID_LabelLocation": 2,
            "IsShowLabel": null,
            "IsRequired": null,
            "DisplayExpr": null,
            "ID_LookUp_ListView": null,
            "LookUp_ListView_Caption": null,
            "LookUp_ListView_DataSource": null,
            "SearchExpr": null,
            "Precision": null,
            "ID_Parent_Grid": null,
            "IsShowClearButton": null,
            "IsSearchEnabled": null,
            "InputMask": null,
            "ID_PropertyModel": null,
            "PropertyName": "Name",
            "PropertyModel": null,
            "ID_PropertyModel_DetailView": null,
            "ID_PropertyModel_DetailView_Height": null,
            "ID_PropertyModel_DetailView_Width": null,
            "PropertyModel_PrimaryKey": null,
            "PropertyModel_Caption": null,
            "ID_PropertyModel_ID_DetailView": null,
            "LookUpDataSource": null,
            "LookUp_ListView_PK": null,
            "LookUp_ListView_Model": null,
            "ID_ModelProperty_Key": null,
            "ModelProperty_Key": null,
            "IsAllowAdd": null,
            "ListViewDetailName": null
        },
        {
            "SeqNo": 1000,
            "ID_PropertyType": 1,
            "ValueExpr": "ID",
            "GroupIndex": -1,
            "DataSourceKey": null,
            "DataSource": null,
            "DisplayProperty": null,
            "Oid": "6F983DEA-E941-482D-B816-81013E74C572",
            "Code": null,
            "Name": "Comment",
            "IsActive": true,
            "Comment": null,
            "Caption": null,
            "ID_ModelProperty": "797F3A5D-8991-48B5-8AC9-290E31E21540",
            "ID_DetailView": "FF4E69FC-3882-40A3-9FB3-042BBBF2416C",
            "ID_Tab": "E83692D2-AF0F-4C6A-B0F3-C7811600DDEF",
            "ID_Section": null,
            "ID_ControlType": 2,
            "Format": null,
            "ID_CreatedBy": 1,
            "ID_LastModifiedBy": null,
            "DateCreated": "2020-08-10T13:30:51.033Z",
            "DateModified": null,
            "IsLoadData": null,
            "ColCount": null,
            "ColSpan": 3,
            "IsDisabled": null,
            "Height": 250,
            "ID_ListView": null,
            "IsReadOnly": null,
            "ID_LabelLocation": 2,
            "IsShowLabel": null,
            "IsRequired": null,
            "DisplayExpr": null,
            "ID_LookUp_ListView": null,
            "LookUp_ListView_Caption": null,
            "LookUp_ListView_DataSource": null,
            "SearchExpr": null,
            "Precision": null,
            "ID_Parent_Grid": null,
            "IsShowClearButton": null,
            "IsSearchEnabled": null,
            "InputMask": null,
            "ID_PropertyModel": null,
            "PropertyName": "Comment",
            "PropertyModel": null,
            "ID_PropertyModel_DetailView": null,
            "ID_PropertyModel_DetailView_Height": null,
            "ID_PropertyModel_DetailView_Width": null,
            "PropertyModel_PrimaryKey": null,
            "PropertyModel_Caption": null,
            "ID_PropertyModel_ID_DetailView": null,
            "LookUpDataSource": null,
            "LookUp_ListView_PK": null,
            "LookUp_ListView_Model": null,
            "ID_ModelProperty_Key": null,
            "ModelProperty_Key": null,
            "IsAllowAdd": null,
            "ListViewDetailName": null
        },
        {
            "SeqNo": 1000,
            "ID_PropertyType": 4,
            "ValueExpr": "ID",
            "GroupIndex": -1,
            "DataSourceKey": null,
            "DataSource": null,
            "DisplayProperty": null,
            "Oid": "026DF9C2-2CCF-44CD-AB71-A24D72F1CF81",
            "Code": null,
            "Name": "IsActive",
            "IsActive": true,
            "Comment": null,
            "Caption": "Active",
            "ID_ModelProperty": "4173FE3B-B483-4E16-A093-E22B5E3E2C2B",
            "ID_DetailView": "FF4E69FC-3882-40A3-9FB3-042BBBF2416C",
            "ID_Tab": null,
            "ID_Section": "CF0EDA63-B26F-44BA-BB13-31FC982E8959",
            "ID_ControlType": 4,
            "Format": null,
            "ID_CreatedBy": 1,
            "ID_LastModifiedBy": null,
            "DateCreated": "2020-08-10T13:30:51.033Z",
            "DateModified": null,
            "IsLoadData": null,
            "ColCount": null,
            "ColSpan": 3,
            "IsDisabled": null,
            "Height": null,
            "ID_ListView": null,
            "IsReadOnly": null,
            "ID_LabelLocation": 2,
            "IsShowLabel": null,
            "IsRequired": null,
            "DisplayExpr": null,
            "ID_LookUp_ListView": null,
            "LookUp_ListView_Caption": null,
            "LookUp_ListView_DataSource": null,
            "SearchExpr": null,
            "Precision": null,
            "ID_Parent_Grid": null,
            "IsShowClearButton": null,
            "IsSearchEnabled": null,
            "InputMask": null,
            "ID_PropertyModel": null,
            "PropertyName": "IsActive",
            "PropertyModel": null,
            "ID_PropertyModel_DetailView": null,
            "ID_PropertyModel_DetailView_Height": null,
            "ID_PropertyModel_DetailView_Width": null,
            "PropertyModel_PrimaryKey": null,
            "PropertyModel_Caption": null,
            "ID_PropertyModel_ID_DetailView": null,
            "LookUpDataSource": null,
            "LookUp_ListView_PK": null,
            "LookUp_ListView_Model": null,
            "ID_ModelProperty_Key": null,
            "ModelProperty_Key": null,
            "IsAllowAdd": null,
            "ListViewDetailName": null
        },
        {
            "SeqNo": 300,
            "ID_PropertyType": null,
            "ValueExpr": "ID",
            "GroupIndex": -1,
            "DataSourceKey": null,
            "DataSource": null,
            "DisplayProperty": null,
            "Oid": "E83692D2-AF0F-4C6A-B0F3-C7811600DDEF",
            "Code": null,
            "Name": "CommentTab",
            "IsActive": true,
            "Comment": null,
            "Caption": "Comment",
            "ID_ModelProperty": null,
            "ID_DetailView": "FF4E69FC-3882-40A3-9FB3-042BBBF2416C",
            "ID_Tab": null,
            "ID_Section": null,
            "ID_ControlType": 12,
            "Format": null,
            "ID_CreatedBy": 1,
            "ID_LastModifiedBy": null,
            "DateCreated": "2020-08-10T13:30:51.033Z",
            "DateModified": null,
            "IsLoadData": null,
            "ColCount": null,
            "ColSpan": null,
            "IsDisabled": null,
            "Height": null,
            "ID_ListView": null,
            "IsReadOnly": null,
            "ID_LabelLocation": null,
            "IsShowLabel": null,
            "IsRequired": null,
            "DisplayExpr": null,
            "ID_LookUp_ListView": null,
            "LookUp_ListView_Caption": null,
            "LookUp_ListView_DataSource": null,
            "SearchExpr": null,
            "Precision": null,
            "ID_Parent_Grid": null,
            "IsShowClearButton": null,
            "IsSearchEnabled": null,
            "InputMask": null,
            "ID_PropertyModel": null,
            "PropertyName": null,
            "PropertyModel": null,
            "ID_PropertyModel_DetailView": null,
            "ID_PropertyModel_DetailView_Height": null,
            "ID_PropertyModel_DetailView_Width": null,
            "PropertyModel_PrimaryKey": null,
            "PropertyModel_Caption": null,
            "ID_PropertyModel_ID_DetailView": null,
            "LookUpDataSource": null,
            "LookUp_ListView_PK": null,
            "LookUp_ListView_Model": null,
            "ID_ModelProperty_Key": null,
            "ModelProperty_Key": null,
            "IsAllowAdd": null,
            "ListViewDetailName": null
        },
        {
            "SeqNo": -10000,
            "ID_PropertyType": 2,
            "ValueExpr": "ID",
            "GroupIndex": -1,
            "DataSourceKey": null,
            "DataSource": null,
            "DisplayProperty": null,
            "Oid": "15E2E0D5-C6AE-41FF-9D5C-F326B76541B8",
            "Code": null,
            "Name": "ID_Item",
            "IsActive": true,
            "Comment": null,
            "Caption": null,
            "ID_ModelProperty": "233F5338-AE69-4DB4-9E43-80B081F6EF66",
            "ID_DetailView": "FF4E69FC-3882-40A3-9FB3-042BBBF2416C",
            "ID_Tab": null,
            "ID_Section": null,
            "ID_ControlType": null,
            "Format": null,
            "ID_CreatedBy": 1,
            "ID_LastModifiedBy": null,
            "DateCreated": "2020-08-10T13:30:51.037Z",
            "DateModified": null,
            "IsLoadData": null,
            "ColCount": null,
            "ColSpan": null,
            "IsDisabled": null,
            "Height": null,
            "ID_ListView": null,
            "IsReadOnly": null,
            "ID_LabelLocation": 2,
            "IsShowLabel": null,
            "IsRequired": null,
            "DisplayExpr": null,
            "ID_LookUp_ListView": null,
            "LookUp_ListView_Caption": null,
            "LookUp_ListView_DataSource": null,
            "SearchExpr": null,
            "Precision": null,
            "ID_Parent_Grid": null,
            "IsShowClearButton": null,
            "IsSearchEnabled": null,
            "InputMask": null,
            "ID_PropertyModel": null,
            "PropertyName": "ID_Item",
            "PropertyModel": null,
            "ID_PropertyModel_DetailView": null,
            "ID_PropertyModel_DetailView_Height": null,
            "ID_PropertyModel_DetailView_Width": null,
            "PropertyModel_PrimaryKey": null,
            "PropertyModel_Caption": null,
            "ID_PropertyModel_ID_DetailView": null,
            "LookUpDataSource": null,
            "LookUp_ListView_PK": null,
            "LookUp_ListView_Model": null,
            "ID_ModelProperty_Key": null,
            "ModelProperty_Key": null,
            "IsAllowAdd": null,
            "ListViewDetailName": null
        },
        {
            "SeqNo": -10000,
            "ID_PropertyType": 2,
            "ValueExpr": "ID",
            "GroupIndex": -1,
            "DataSourceKey": null,
            "DataSource": null,
            "DisplayProperty": null,
            "Oid": "3E352F29-9B06-4A5F-9F89-B9C737C2D875",
            "Code": null,
            "Name": "ID_Supplier",
            "IsActive": true,
            "Comment": null,
            "Caption": null,
            "ID_ModelProperty": "3A264B9C-1613-4B7E-826D-F12E61CD01F4",
            "ID_DetailView": "FF4E69FC-3882-40A3-9FB3-042BBBF2416C",
            "ID_Tab": null,
            "ID_Section": null,
            "ID_ControlType": null,
            "Format": null,
            "ID_CreatedBy": 1,
            "ID_LastModifiedBy": null,
            "DateCreated": "2020-08-10T13:33:00.180Z",
            "DateModified": null,
            "IsLoadData": null,
            "ColCount": null,
            "ColSpan": null,
            "IsDisabled": null,
            "Height": null,
            "ID_ListView": null,
            "IsReadOnly": null,
            "ID_LabelLocation": 2,
            "IsShowLabel": null,
            "IsRequired": null,
            "DisplayExpr": null,
            "ID_LookUp_ListView": null,
            "LookUp_ListView_Caption": null,
            "LookUp_ListView_DataSource": null,
            "SearchExpr": null,
            "Precision": null,
            "ID_Parent_Grid": null,
            "IsShowClearButton": null,
            "IsSearchEnabled": null,
            "InputMask": null,
            "ID_PropertyModel": null,
            "PropertyName": "ID_Supplier",
            "PropertyModel": null,
            "ID_PropertyModel_DetailView": null,
            "ID_PropertyModel_DetailView_Height": null,
            "ID_PropertyModel_DetailView_Width": null,
            "PropertyModel_PrimaryKey": null,
            "PropertyModel_Caption": null,
            "ID_PropertyModel_ID_DetailView": null,
            "LookUpDataSource": null,
            "LookUp_ListView_PK": null,
            "LookUp_ListView_Model": null,
            "ID_ModelProperty_Key": null,
            "ModelProperty_Key": null,
            "IsAllowAdd": null,
            "ListViewDetailName": null
        }
    ]
}