{
	"Title": "Expenses Report",
	"Subtitle": "Expenses Report",
	"headerData": [
		{
			"name": "Name_Company",
			"caption": "Clinic",
			"dataType": "string",
		}
	],
	"columns": [
		{
			"name": "FormattedDate",
			"caption": "Date",
			"dataType": "",
		},
		{
			"name": "Name_ExpenseCategory",
			"caption": "Category",
			"dataType": "string"
		},
		{
			"name": "Name",
			"caption": "Expense",
			"dataType": ""
		},
		{
			"name": "TotalAmount",
			"caption": "Amount",
			"dataType": ""
		},
		{
			"name": "RemaningAmount",
			"caption": "Remaining",
			"dataType": ""
		},
		{
			"name": "PaidAmount",
			"caption": "Paid",
			"dataType": ""
		},
		{
			"name": "Payment_Name_FilingStatus",
			"caption": "Status",
			"dataType": ""
		}
	],
	"footerData": [
		{
			"name": "Name_Company",
			"caption": "Clinic",
			"dataType": "string",
			"expression": "MAX(Name_Company)"
		}
	],
	"sort": "Date"
}