{
    "Oid": "2B21F843-E71F-440B-B085-82DB34FB7B46",
    "Name": "PropertyType_ListView",
    "ID_Model": "B8FC3C30-6F07-419A-B236-15D592070102",
    "DataSource": "SELECT * FROM _tPropertyType",
    "Comment": null,
    "ID_DetailView": "ACC0AEF5-0A90-4D41-873E-C8AAC2549A6B",
    "Model": "PropertyType",
    "PrimaryKey": "ID",
    "Caption": "Property Type",
    "Details": [
        {
            "ID_PropertyType": 2,
            "Precision": null,
            "$DataSource": null,
            "DisplayProperty": null,
            "Oid": "12010CA9-ECBB-45A3-AB19-506820454CD2",
            "Code": null,
            "Name": "ID",
            "IsActive": true,
            "Comment": null,
            "Caption": null,
            "ID_ModelProperty": "6160C9B0-6292-43FD-9D62-D5F8F08ECA3A",
            "ID_ListView": "2B21F843-E71F-440B-B085-82DB34FB7B46",
            "ID_CreatedBy": 1,
            "ID_LastModifiedBy": 1,
            "DateCreated": "2018-01-04T18:23:51.257Z",
            "DateModified": null,
            "DataSource": null,
            "Format": null,
            "Width": "71",
            "Fixed": true,
            "VisibleIndex": 0,
            "IsAllowEdit": null,
            "ID_ControlType": null,
            "ID_ColumnAlignment": null,
            "IsVisible": true,
            "FixedPosition": "left",
            "IsRequired": null,
            "ID_SummaryType": null,
            "IsAddModelClass": null,
            "GroupIndex": null,
            "IsFilter": null,
            "ID_FilterControlType": null,
            "ID_PropertyModel": null,
            "PropertyModel": null,
            "SummaryType": null
        },
        {
            "ID_PropertyType": 1,
            "Precision": null,
            "$DataSource": null,
            "DisplayProperty": null,
            "Oid": "A7FEE216-7460-4E97-BBF9-52EF1C559528",
            "Code": null,
            "Name": "Name",
            "IsActive": true,
            "Comment": null,
            "Caption": null,
            "ID_ModelProperty": "FFE2B689-7D50-4D05-A87F-49C2D9E7641E",
            "ID_ListView": "2B21F843-E71F-440B-B085-82DB34FB7B46",
            "ID_CreatedBy": 1,
            "ID_LastModifiedBy": 1,
            "DateCreated": "2018-01-04T18:23:51.257Z",
            "DateModified": null,
            "DataSource": null,
            "Format": null,
            "Width": "345",
            "Fixed": null,
            "VisibleIndex": 100,
            "IsAllowEdit": null,
            "ID_ControlType": null,
            "ID_ColumnAlignment": null,
            "IsVisible": true,
            "FixedPosition": null,
            "IsRequired": null,
            "ID_SummaryType": null,
            "IsAddModelClass": null,
            "GroupIndex": null,
            "IsFilter": null,
            "ID_FilterControlType": null,
            "ID_PropertyModel": null,
            "PropertyModel": null,
            "SummaryType": null
        },
        {
            "ID_PropertyType": 4,
            "Precision": null,
            "$DataSource": null,
            "DisplayProperty": null,
            "Oid": "C6C8B819-083B-4F87-99AF-8F55894AAB69",
            "Code": null,
            "Name": "IsActive",
            "IsActive": true,
            "Comment": null,
            "Caption": "Active",
            "ID_ModelProperty": "C16370D7-43A1-43B0-A641-CB1AF4041CF1",
            "ID_ListView": "2B21F843-E71F-440B-B085-82DB34FB7B46",
            "ID_CreatedBy": 1,
            "ID_LastModifiedBy": 1,
            "DateCreated": "2018-01-04T18:23:51.257Z",
            "DateModified": null,
            "DataSource": null,
            "Format": null,
            "Width": "103",
            "Fixed": null,
            "VisibleIndex": 200,
            "IsAllowEdit": null,
            "ID_ControlType": null,
            "ID_ColumnAlignment": null,
            "IsVisible": true,
            "FixedPosition": null,
            "IsRequired": null,
            "ID_SummaryType": null,
            "IsAddModelClass": null,
            "GroupIndex": null,
            "IsFilter": null,
            "ID_FilterControlType": null,
            "ID_PropertyModel": null,
            "PropertyModel": null,
            "SummaryType": null
        },
        {
            "ID_PropertyType": 1,
            "Precision": null,
            "$DataSource": null,
            "DisplayProperty": null,
            "Oid": "068D96F8-23DE-4000-9A6B-B734B99B7498",
            "Code": null,
            "Name": "Comment",
            "IsActive": true,
            "Comment": null,
            "Caption": null,
            "ID_ModelProperty": "9E8685EA-C8F3-4592-AED1-9FBCB3340EB5",
            "ID_ListView": "2B21F843-E71F-440B-B085-82DB34FB7B46",
            "ID_CreatedBy": 1,
            "ID_LastModifiedBy": 1,
            "DateCreated": "2018-01-04T18:23:51.257Z",
            "DateModified": null,
            "DataSource": null,
            "Format": null,
            "Width": "788",
            "Fixed": null,
            "VisibleIndex": 300,
            "IsAllowEdit": null,
            "ID_ControlType": null,
            "ID_ColumnAlignment": null,
            "IsVisible": true,
            "FixedPosition": null,
            "IsRequired": null,
            "ID_SummaryType": null,
            "IsAddModelClass": null,
            "GroupIndex": null,
            "IsFilter": null,
            "ID_FilterControlType": null,
            "ID_PropertyModel": null,
            "PropertyModel": null,
            "SummaryType": null
        }
    ]
}