{
    "Oid": "4DFF1AF2-35CE-4FFD-BA16-7B7AC68053FE",
    "Name": "User_Roles_ListView_Detail",
    "ID_Model": "2C7820DD-69BD-42C9-85AA-CD56028546A1",
    "DataSource": null,
    "Comment": null,
    "ID_DetailView": "8C5A2CE1-DFBE-4C6D-8F3C-AB0283C69D82",
    "Model": "User_Roles",
    "PrimaryKey": "ID",
    "Caption": "User_Roles",
    "Details": [
        {
            "ID_PropertyType": 4,
            "Precision": null,
            "$DataSource": null,
            "DisplayProperty": null,
            "Oid": "6632AC9F-1DBB-43DB-86A9-0BD09F6687D8",
            "Code": null,
            "Name": "IsActive",
            "IsActive": true,
            "Comment": null,
            "Caption": "Active",
            "ID_ModelProperty": "19605DED-20B0-4512-8A52-160147CAE47D",
            "ID_ListView": "4DFF1AF2-35CE-4FFD-BA16-7B7AC68053FE",
            "ID_CreatedBy": 1,
            "ID_LastModifiedBy": 1,
            "DateCreated": "2020-08-17T12:28:19.640Z",
            "DateModified": null,
            "DataSource": null,
            "Format": null,
            "Width": "150",
            "Fixed": false,
            "VisibleIndex": 100,
            "IsAllowEdit": null,
            "ID_ControlType": null,
            "ID_ColumnAlignment": null,
            "IsVisible": true,
            "FixedPosition": null,
            "IsRequired": null,
            "ID_SummaryType": null,
            "IsAddModelClass": null,
            "GroupIndex": 0,
            "IsFilter": null,
            "ID_FilterControlType": null,
            "ID_PropertyModel": null,
            "PropertyModel": null,
            "SummaryType": null
        },
        {
            "ID_PropertyType": 1,
            "Precision": null,
            "$DataSource": null,
            "DisplayProperty": null,
            "Oid": "E1CA1181-0164-4859-BF65-36F64ADDEEAB",
            "Code": null,
            "Name": "Name",
            "IsActive": true,
            "Comment": null,
            "Caption": "Role Name",
            "ID_ModelProperty": "446CB370-7C07-4C2F-B640-5FC748B5FCD8",
            "ID_ListView": "4DFF1AF2-35CE-4FFD-BA16-7B7AC68053FE",
            "ID_CreatedBy": 1,
            "ID_LastModifiedBy": 1,
            "DateCreated": "2020-08-17T12:28:19.640Z",
            "DateModified": null,
            "DataSource": null,
            "Format": null,
            "Width": "164",
            "Fixed": true,
            "VisibleIndex": 0,
            "IsAllowEdit": null,
            "ID_ControlType": null,
            "ID_ColumnAlignment": null,
            "IsVisible": true,
            "FixedPosition": null,
            "IsRequired": null,
            "ID_SummaryType": null,
            "IsAddModelClass": null,
            "GroupIndex": 0,
            "IsFilter": null,
            "ID_FilterControlType": null,
            "ID_PropertyModel": null,
            "PropertyModel": null,
            "SummaryType": null
        },
        {
            "ID_PropertyType": 2,
            "Precision": null,
            "$DataSource": null,
            "DisplayProperty": null,
            "Oid": "614377E8-D70E-44D4-9E2A-5042BA7FE0CB",
            "Code": null,
            "Name": "ID_User",
            "IsActive": true,
            "Comment": null,
            "Caption": "User",
            "ID_ModelProperty": "E6D106C2-2A5F-4A51-8ED6-E61F4E7162C5",
            "ID_ListView": "4DFF1AF2-35CE-4FFD-BA16-7B7AC68053FE",
            "ID_CreatedBy": 1,
            "ID_LastModifiedBy": 1,
            "DateCreated": "2020-08-17T12:28:19.640Z",
            "DateModified": null,
            "DataSource": null,
            "Format": null,
            "Width": "150",
            "Fixed": null,
            "VisibleIndex": 300,
            "IsAllowEdit": null,
            "ID_ControlType": null,
            "ID_ColumnAlignment": null,
            "IsVisible": false,
            "FixedPosition": null,
            "IsRequired": null,
            "ID_SummaryType": null,
            "IsAddModelClass": null,
            "GroupIndex": 0,
            "IsFilter": null,
            "ID_FilterControlType": null,
            "ID_PropertyModel": null,
            "PropertyModel": null,
            "SummaryType": null
        },
        {
            "ID_PropertyType": 1,
            "Precision": null,
            "$DataSource": null,
            "DisplayProperty": null,
            "Oid": "E34C11EF-F32B-4DEA-827B-67EBFB4DD83C",
            "Code": null,
            "Name": "Code",
            "IsActive": true,
            "Comment": null,
            "Caption": null,
            "ID_ModelProperty": "9CC36A27-670C-48BF-82BC-B568D15CFBA6",
            "ID_ListView": "4DFF1AF2-35CE-4FFD-BA16-7B7AC68053FE",
            "ID_CreatedBy": 1,
            "ID_LastModifiedBy": 1,
            "DateCreated": "2020-08-17T12:28:19.640Z",
            "DateModified": null,
            "DataSource": null,
            "Format": null,
            "Width": "150",
            "Fixed": null,
            "VisibleIndex": 300,
            "IsAllowEdit": null,
            "ID_ControlType": null,
            "ID_ColumnAlignment": null,
            "IsVisible": false,
            "FixedPosition": null,
            "IsRequired": null,
            "ID_SummaryType": null,
            "IsAddModelClass": null,
            "GroupIndex": 0,
            "IsFilter": null,
            "ID_FilterControlType": null,
            "ID_PropertyModel": null,
            "PropertyModel": null,
            "SummaryType": null
        },
        {
            "ID_PropertyType": 2,
            "Precision": null,
            "$DataSource": null,
            "DisplayProperty": null,
            "Oid": "3DE900AF-9E09-49DA-8DAD-A1BE5BEAE292",
            "Code": null,
            "Name": "ID",
            "IsActive": true,
            "Comment": null,
            "Caption": null,
            "ID_ModelProperty": "A4D5B180-A6EC-4691-A71D-BD5173EC5760",
            "ID_ListView": "4DFF1AF2-35CE-4FFD-BA16-7B7AC68053FE",
            "ID_CreatedBy": 1,
            "ID_LastModifiedBy": 1,
            "DateCreated": "2020-08-17T12:28:19.640Z",
            "DateModified": null,
            "DataSource": null,
            "Format": null,
            "Width": "78",
            "Fixed": true,
            "VisibleIndex": 0,
            "IsAllowEdit": null,
            "ID_ControlType": null,
            "ID_ColumnAlignment": null,
            "IsVisible": false,
            "FixedPosition": null,
            "IsRequired": null,
            "ID_SummaryType": null,
            "IsAddModelClass": null,
            "GroupIndex": 0,
            "IsFilter": null,
            "ID_FilterControlType": null,
            "ID_PropertyModel": null,
            "PropertyModel": null,
            "SummaryType": null
        },
        {
            "ID_PropertyType": 1,
            "Precision": null,
            "$DataSource": null,
            "DisplayProperty": null,
            "Oid": "1F25D28D-3265-4845-9437-FFC3D24EA573",
            "Code": null,
            "Name": "Comment",
            "IsActive": true,
            "Comment": null,
            "Caption": null,
            "ID_ModelProperty": "5BAF31DF-6CBD-4054-8E15-3C5CB6B9C081",
            "ID_ListView": "4DFF1AF2-35CE-4FFD-BA16-7B7AC68053FE",
            "ID_CreatedBy": 1,
            "ID_LastModifiedBy": 1,
            "DateCreated": "2020-08-17T12:28:19.640Z",
            "DateModified": null,
            "DataSource": null,
            "Format": null,
            "Width": "482",
            "Fixed": null,
            "VisibleIndex": 200,
            "IsAllowEdit": null,
            "ID_ControlType": null,
            "ID_ColumnAlignment": null,
            "IsVisible": true,
            "FixedPosition": null,
            "IsRequired": null,
            "ID_SummaryType": null,
            "IsAddModelClass": null,
            "GroupIndex": 0,
            "IsFilter": null,
            "ID_FilterControlType": null,
            "ID_PropertyModel": null,
            "PropertyModel": null,
            "SummaryType": null
        },
        {
            "ID_PropertyType": 2,
            "Precision": null,
            "$DataSource": null,
            "DisplayProperty": null,
            "Oid": "312BA7F1-65B9-49CE-A5ED-7ADF1F50C105",
            "Code": null,
            "Name": "ID_UserRole",
            "IsActive": true,
            "Comment": null,
            "Caption": null,
            "ID_ModelProperty": "31619264-6CA5-41E8-8C18-6DB972C424E3",
            "ID_ListView": "4DFF1AF2-35CE-4FFD-BA16-7B7AC68053FE",
            "ID_CreatedBy": 1,
            "ID_LastModifiedBy": 1,
            "DateCreated": "2020-08-19T08:43:15.463Z",
            "DateModified": null,
            "DataSource": null,
            "Format": null,
            "Width": "150",
            "Fixed": null,
            "VisibleIndex": 300,
            "IsAllowEdit": null,
            "ID_ControlType": null,
            "ID_ColumnAlignment": null,
            "IsVisible": false,
            "FixedPosition": null,
            "IsRequired": null,
            "ID_SummaryType": null,
            "IsAddModelClass": null,
            "GroupIndex": 0,
            "IsFilter": null,
            "ID_FilterControlType": null,
            "ID_PropertyModel": null,
            "PropertyModel": null,
            "SummaryType": null
        },
        {
            "ID_PropertyType": 2,
            "Precision": null,
            "$DataSource": null,
            "DisplayProperty": null,
            "Oid": "A2D67500-1F70-40E9-A739-E69AD824B045",
            "Code": null,
            "Name": "SeqNo",
            "IsActive": true,
            "Comment": null,
            "Caption": "Seq No",
            "ID_ModelProperty": "7F5B1395-08B3-4B28-B927-B3DCFA197CD3",
            "ID_ListView": "4DFF1AF2-35CE-4FFD-BA16-7B7AC68053FE",
            "ID_CreatedBy": 1,
            "ID_LastModifiedBy": 1,
            "DateCreated": "2020-08-19T09:00:50.050Z",
            "DateModified": null,
            "DataSource": null,
            "Format": null,
            "Width": "100",
            "Fixed": true,
            "VisibleIndex": 300,
            "IsAllowEdit": null,
            "ID_ControlType": null,
            "ID_ColumnAlignment": null,
            "IsVisible": true,
            "FixedPosition": "right",
            "IsRequired": null,
            "ID_SummaryType": null,
            "IsAddModelClass": null,
            "GroupIndex": 0,
            "IsFilter": null,
            "ID_FilterControlType": null,
            "ID_PropertyModel": null,
            "PropertyModel": null,
            "SummaryType": null
        }
    ]
}