{
    "Oid": "CEB2CFA6-4979-4034-8FBC-A5F02529A8DF",
    "Name": "ServiceType_ListView",
    "ID_Model": "6966EE96-AAB4-4FBC-B174-49BC0B5F1B2F",
    "DataSource": "SELECT * FROM dbo.vServiceType",
    "Comment": null,
    "ID_DetailView": "0B24BD1F-92D3-4A10-8408-EFB51EF03703",
    "Model": "ServiceType",
    "PrimaryKey": "ID",
    "Caption": "ServiceType",
    "Details": [
        {
            "ID_PropertyType": 5,
            "Precision": null,
            "$DataSource": null,
            "DisplayProperty": null,
            "Oid": "E331E8ED-C372-4499-8D1A-02E3C56BE726",
            "Code": null,
            "Name": "DateModified",
            "IsActive": true,
            "Comment": null,
            "Caption": "Date Modified",
            "ID_ModelProperty": "2ADEC380-1E17-4FF9-8D5B-0C1531946C6D",
            "ID_ListView": "CEB2CFA6-4979-4034-8FBC-A5F02529A8DF",
            "ID_CreatedBy": 1,
            "ID_LastModifiedBy": 1,
            "DateCreated": "2020-10-12T21:21:02.693Z",
            "DateModified": null,
            "DataSource": null,
            "Format": null,
            "Width": "150",
            "Fixed": null,
            "VisibleIndex": 300,
            "IsAllowEdit": null,
            "ID_ControlType": null,
            "ID_ColumnAlignment": null,
            "IsVisible": false,
            "FixedPosition": null,
            "IsRequired": null,
            "ID_SummaryType": null,
            "IsAddModelClass": null,
            "GroupIndex": 0,
            "IsFilter": null,
            "ID_FilterControlType": null,
            "ID_PropertyModel": null,
            "PropertyModel": null,
            "SummaryType": null
        },
        {
            "ID_PropertyType": 1,
            "Precision": null,
            "$DataSource": null,
            "DisplayProperty": null,
            "Oid": "2F60B0E2-9945-4308-B18D-26F1795B8917",
            "Code": null,
            "Name": "Name",
            "IsActive": true,
            "Comment": null,
            "Caption": null,
            "ID_ModelProperty": "FAF37470-FDCB-49E7-9458-CD63B87DAEC4",
            "ID_ListView": "CEB2CFA6-4979-4034-8FBC-A5F02529A8DF",
            "ID_CreatedBy": 1,
            "ID_LastModifiedBy": 1,
            "DateCreated": "2020-10-12T21:21:02.693Z",
            "DateModified": null,
            "DataSource": null,
            "Format": null,
            "Width": "883.3299999999999",
            "Fixed": null,
            "VisibleIndex": 200,
            "IsAllowEdit": null,
            "ID_ControlType": null,
            "ID_ColumnAlignment": null,
            "IsVisible": true,
            "FixedPosition": null,
            "IsRequired": null,
            "ID_SummaryType": null,
            "IsAddModelClass": null,
            "GroupIndex": 0,
            "IsFilter": null,
            "ID_FilterControlType": null,
            "ID_PropertyModel": null,
            "PropertyModel": null,
            "SummaryType": null
        },
        {
            "ID_PropertyType": 2,
            "Precision": null,
            "$DataSource": null,
            "DisplayProperty": null,
            "Oid": "0BC4F36B-9636-475D-A4C0-56442F51DA2B",
            "Code": null,
            "Name": "ID",
            "IsActive": true,
            "Comment": null,
            "Caption": null,
            "ID_ModelProperty": "677A6A66-6840-41F5-8F17-1A36FD53DE99",
            "ID_ListView": "CEB2CFA6-4979-4034-8FBC-A5F02529A8DF",
            "ID_CreatedBy": 1,
            "ID_LastModifiedBy": 1,
            "DateCreated": "2020-10-12T21:21:02.693Z",
            "DateModified": null,
            "DataSource": null,
            "Format": null,
            "Width": "66",
            "Fixed": null,
            "VisibleIndex": 0,
            "IsAllowEdit": null,
            "ID_ControlType": null,
            "ID_ColumnAlignment": null,
            "IsVisible": true,
            "FixedPosition": null,
            "IsRequired": null,
            "ID_SummaryType": null,
            "IsAddModelClass": null,
            "GroupIndex": 0,
            "IsFilter": null,
            "ID_FilterControlType": null,
            "ID_PropertyModel": null,
            "PropertyModel": null,
            "SummaryType": null
        },
        {
            "ID_PropertyType": 1,
            "Precision": null,
            "$DataSource": null,
            "DisplayProperty": null,
            "Oid": "A80A925A-1B00-4CD7-9324-5A43FE3AC8AE",
            "Code": null,
            "Name": "Code",
            "IsActive": true,
            "Comment": null,
            "Caption": null,
            "ID_ModelProperty": "AFE55F57-B2CF-4EB9-A29D-02C4039D2CDD",
            "ID_ListView": "CEB2CFA6-4979-4034-8FBC-A5F02529A8DF",
            "ID_CreatedBy": 1,
            "ID_LastModifiedBy": 1,
            "DateCreated": "2020-10-12T21:21:02.693Z",
            "DateModified": null,
            "DataSource": null,
            "Format": null,
            "Width": "134",
            "Fixed": null,
            "VisibleIndex": 100,
            "IsAllowEdit": null,
            "ID_ControlType": null,
            "ID_ColumnAlignment": null,
            "IsVisible": true,
            "FixedPosition": null,
            "IsRequired": null,
            "ID_SummaryType": null,
            "IsAddModelClass": null,
            "GroupIndex": 0,
            "IsFilter": null,
            "ID_FilterControlType": null,
            "ID_PropertyModel": null,
            "PropertyModel": null,
            "SummaryType": null
        },
        {
            "ID_PropertyType": 4,
            "Precision": null,
            "$DataSource": null,
            "DisplayProperty": null,
            "Oid": "220565AF-023F-46F8-96A1-6B06658652A8",
            "Code": null,
            "Name": "IsActive",
            "IsActive": true,
            "Comment": null,
            "Caption": "Active",
            "ID_ModelProperty": "579755CC-26CB-4821-9DDB-2329DFC7020B",
            "ID_ListView": "CEB2CFA6-4979-4034-8FBC-A5F02529A8DF",
            "ID_CreatedBy": 1,
            "ID_LastModifiedBy": 1,
            "DateCreated": "2020-10-12T21:21:02.693Z",
            "DateModified": null,
            "DataSource": null,
            "Format": null,
            "Width": "150",
            "Fixed": null,
            "VisibleIndex": 300,
            "IsAllowEdit": null,
            "ID_ControlType": null,
            "ID_ColumnAlignment": null,
            "IsVisible": false,
            "FixedPosition": null,
            "IsRequired": null,
            "ID_SummaryType": null,
            "IsAddModelClass": null,
            "GroupIndex": 0,
            "IsFilter": null,
            "ID_FilterControlType": null,
            "ID_PropertyModel": null,
            "PropertyModel": null,
            "SummaryType": null
        },
        {
            "ID_PropertyType": 2,
            "Precision": null,
            "$DataSource": null,
            "DisplayProperty": null,
            "Oid": "270B25DB-5078-402F-87E8-83EACB800425",
            "Code": null,
            "Name": "ID_Company",
            "IsActive": true,
            "Comment": null,
            "Caption": null,
            "ID_ModelProperty": "378AB2D2-9233-4D48-AFC5-95EF069AE46C",
            "ID_ListView": "CEB2CFA6-4979-4034-8FBC-A5F02529A8DF",
            "ID_CreatedBy": 1,
            "ID_LastModifiedBy": 1,
            "DateCreated": "2020-10-12T21:21:02.693Z",
            "DateModified": null,
            "DataSource": null,
            "Format": null,
            "Width": "150",
            "Fixed": null,
            "VisibleIndex": 300,
            "IsAllowEdit": null,
            "ID_ControlType": null,
            "ID_ColumnAlignment": null,
            "IsVisible": false,
            "FixedPosition": null,
            "IsRequired": null,
            "ID_SummaryType": null,
            "IsAddModelClass": null,
            "GroupIndex": 0,
            "IsFilter": null,
            "ID_FilterControlType": null,
            "ID_PropertyModel": null,
            "PropertyModel": null,
            "SummaryType": null
        },
        {
            "ID_PropertyType": 2,
            "Precision": null,
            "$DataSource": null,
            "DisplayProperty": "CreatedBy",
            "Oid": "E2F4451E-BC39-43FF-8995-8B4DC2B60863",
            "Code": null,
            "Name": "ID_CreatedBy",
            "IsActive": true,
            "Comment": null,
            "Caption": "Created By",
            "ID_ModelProperty": "1DABFDDE-2A8B-4224-BE4E-CB149145CD50",
            "ID_ListView": "CEB2CFA6-4979-4034-8FBC-A5F02529A8DF",
            "ID_CreatedBy": 1,
            "ID_LastModifiedBy": 1,
            "DateCreated": "2020-10-12T21:21:02.693Z",
            "DateModified": null,
            "DataSource": null,
            "Format": null,
            "Width": "568",
            "Fixed": null,
            "VisibleIndex": 300,
            "IsAllowEdit": null,
            "ID_ControlType": null,
            "ID_ColumnAlignment": null,
            "IsVisible": false,
            "FixedPosition": null,
            "IsRequired": null,
            "ID_SummaryType": null,
            "IsAddModelClass": null,
            "GroupIndex": 0,
            "IsFilter": null,
            "ID_FilterControlType": null,
            "ID_PropertyModel": null,
            "PropertyModel": null,
            "SummaryType": null
        },
        {
            "ID_PropertyType": 2,
            "Precision": null,
            "$DataSource": null,
            "DisplayProperty": "LastModifiedBy",
            "Oid": "B78B5217-2AF8-43BF-8B25-8BFC9CD39DBD",
            "Code": null,
            "Name": "ID_LastModifiedBy",
            "IsActive": true,
            "Comment": null,
            "Caption": "Last Modified By",
            "ID_ModelProperty": "3A41709D-58B5-4500-BB97-60D163303C57",
            "ID_ListView": "CEB2CFA6-4979-4034-8FBC-A5F02529A8DF",
            "ID_CreatedBy": 1,
            "ID_LastModifiedBy": 1,
            "DateCreated": "2020-10-12T21:21:02.693Z",
            "DateModified": null,
            "DataSource": null,
            "Format": null,
            "Width": "150",
            "Fixed": null,
            "VisibleIndex": 300,
            "IsAllowEdit": null,
            "ID_ControlType": null,
            "ID_ColumnAlignment": null,
            "IsVisible": false,
            "FixedPosition": null,
            "IsRequired": null,
            "ID_SummaryType": null,
            "IsAddModelClass": null,
            "GroupIndex": 0,
            "IsFilter": null,
            "ID_FilterControlType": null,
            "ID_PropertyModel": null,
            "PropertyModel": null,
            "SummaryType": null
        },
        {
            "ID_PropertyType": 5,
            "Precision": null,
            "$DataSource": null,
            "DisplayProperty": null,
            "Oid": "5C72E947-FC9E-4FEC-B887-AC5FC6362D81",
            "Code": null,
            "Name": "DateCreated",
            "IsActive": true,
            "Comment": null,
            "Caption": "Date Created",
            "ID_ModelProperty": "1886D9E2-48BC-4FD6-9380-5A1758DAF41A",
            "ID_ListView": "CEB2CFA6-4979-4034-8FBC-A5F02529A8DF",
            "ID_CreatedBy": 1,
            "ID_LastModifiedBy": 1,
            "DateCreated": "2020-10-12T21:21:02.693Z",
            "DateModified": null,
            "DataSource": null,
            "Format": null,
            "Width": "150",
            "Fixed": null,
            "VisibleIndex": 300,
            "IsAllowEdit": null,
            "ID_ControlType": null,
            "ID_ColumnAlignment": null,
            "IsVisible": false,
            "FixedPosition": null,
            "IsRequired": null,
            "ID_SummaryType": null,
            "IsAddModelClass": null,
            "GroupIndex": 0,
            "IsFilter": null,
            "ID_FilterControlType": null,
            "ID_PropertyModel": null,
            "PropertyModel": null,
            "SummaryType": null
        },
        {
            "ID_PropertyType": 1,
            "Precision": null,
            "$DataSource": null,
            "DisplayProperty": null,
            "Oid": "86BE1176-3239-4C47-A39F-DA86153A7E0A",
            "Code": null,
            "Name": "Comment",
            "IsActive": true,
            "Comment": null,
            "Caption": null,
            "ID_ModelProperty": "7F464DB6-3F37-4FD9-8D9F-3D2BB8BBF186",
            "ID_ListView": "CEB2CFA6-4979-4034-8FBC-A5F02529A8DF",
            "ID_CreatedBy": 1,
            "ID_LastModifiedBy": 1,
            "DateCreated": "2020-10-12T21:21:02.693Z",
            "DateModified": null,
            "DataSource": null,
            "Format": null,
            "Width": "150",
            "Fixed": null,
            "VisibleIndex": 300,
            "IsAllowEdit": null,
            "ID_ControlType": null,
            "ID_ColumnAlignment": null,
            "IsVisible": false,
            "FixedPosition": null,
            "IsRequired": null,
            "ID_SummaryType": null,
            "IsAddModelClass": null,
            "GroupIndex": 0,
            "IsFilter": null,
            "ID_FilterControlType": null,
            "ID_PropertyModel": null,
            "PropertyModel": null,
            "SummaryType": null
        }
    ]
}