{
    "Oid": "0DDCCAB3-603A-40FD-8E80-8A5237DB8CDE",
    "Name": "Patient_ListView",
    "ID_Model": "38C42E70-228A-4441-98FE-96C805EF153B",
    "DataSource": "SELECT * FROM dbo.vPatient",
    "Comment": null,
    "ID_DetailView": "95A38913-F389-4FC4-8605-D4CE313B500A",
    "Model": "Patient",
    "PrimaryKey": "ID",
    "Caption": "Patient",
    "Details": [
        {
            "ID_PropertyType": 1,
            "Precision": null,
            "$DataSource": null,
            "DisplayProperty": null,
            "Oid": "5F64148D-D3F8-4BF1-B467-0A34A42D1E12",
            "Code": null,
            "Name": "Code",
            "IsActive": true,
            "Comment": null,
            "Caption": null,
            "ID_ModelProperty": "29F718D9-4BE3-492D-B505-0F9CC39D6728",
            "ID_ListView": "0DDCCAB3-603A-40FD-8E80-8A5237DB8CDE",
            "ID_CreatedBy": 1,
            "ID_LastModifiedBy": 1,
            "DateCreated": "2020-08-03T21:48:50.573Z",
            "DateModified": null,
            "DataSource": null,
            "Format": null,
            "Width": "111",
            "Fixed": null,
            "VisibleIndex": 100,
            "IsAllowEdit": null,
            "ID_ControlType": null,
            "ID_ColumnAlignment": null,
            "IsVisible": false,
            "FixedPosition": null,
            "IsRequired": null,
            "ID_SummaryType": null,
            "IsAddModelClass": null,
            "GroupIndex": 0,
            "IsFilter": null,
            "ID_FilterControlType": null,
            "ID_PropertyModel": null,
            "PropertyModel": null,
            "SummaryType": null
        },
        {
            "ID_PropertyType": 2,
            "Precision": null,
            "$DataSource": null,
            "DisplayProperty": "CreatedBy",
            "Oid": "175E658B-6D13-4C9E-BA7E-1B76D64B391F",
            "Code": null,
            "Name": "ID_CreatedBy",
            "IsActive": true,
            "Comment": null,
            "Caption": "Created By",
            "ID_ModelProperty": "0B659BC5-A058-46FA-9EC3-36CE43A79A88",
            "ID_ListView": "0DDCCAB3-603A-40FD-8E80-8A5237DB8CDE",
            "ID_CreatedBy": 1,
            "ID_LastModifiedBy": 1,
            "DateCreated": "2020-08-03T21:48:50.573Z",
            "DateModified": null,
            "DataSource": null,
            "Format": null,
            "Width": "150",
            "Fixed": null,
            "VisibleIndex": 700,
            "IsAllowEdit": null,
            "ID_ControlType": null,
            "ID_ColumnAlignment": null,
            "IsVisible": true,
            "FixedPosition": null,
            "IsRequired": null,
            "ID_SummaryType": null,
            "IsAddModelClass": null,
            "GroupIndex": 0,
            "IsFilter": null,
            "ID_FilterControlType": null,
            "ID_PropertyModel": null,
            "PropertyModel": null,
            "SummaryType": null
        },
        {
            "ID_PropertyType": 2,
            "Precision": null,
            "$DataSource": null,
            "DisplayProperty": "LastModifiedBy",
            "Oid": "CEE671F6-DDB4-4F7D-B335-5B5C99495522",
            "Code": null,
            "Name": "ID_LastModifiedBy",
            "IsActive": true,
            "Comment": null,
            "Caption": "Last Modified By",
            "ID_ModelProperty": "1DB2D115-672E-46DE-B23C-27E352250BB6",
            "ID_ListView": "0DDCCAB3-603A-40FD-8E80-8A5237DB8CDE",
            "ID_CreatedBy": 1,
            "ID_LastModifiedBy": 1,
            "DateCreated": "2020-08-03T21:48:50.573Z",
            "DateModified": null,
            "DataSource": null,
            "Format": null,
            "Width": "150",
            "Fixed": null,
            "VisibleIndex": 900,
            "IsAllowEdit": null,
            "ID_ControlType": null,
            "ID_ColumnAlignment": null,
            "IsVisible": true,
            "FixedPosition": null,
            "IsRequired": null,
            "ID_SummaryType": null,
            "IsAddModelClass": null,
            "GroupIndex": 0,
            "IsFilter": null,
            "ID_FilterControlType": null,
            "ID_PropertyModel": null,
            "PropertyModel": null,
            "SummaryType": null
        },
        {
            "ID_PropertyType": 2,
            "Precision": null,
            "$DataSource": null,
            "DisplayProperty": null,
            "Oid": "3EB23F23-52BB-4977-BB38-B269D972C67F",
            "Code": null,
            "Name": "ID",
            "IsActive": true,
            "Comment": null,
            "Caption": null,
            "ID_ModelProperty": "4B62E9C9-FBF2-4D31-8354-B789B447DA07",
            "ID_ListView": "0DDCCAB3-603A-40FD-8E80-8A5237DB8CDE",
            "ID_CreatedBy": 1,
            "ID_LastModifiedBy": 1,
            "DateCreated": "2020-08-03T21:48:50.573Z",
            "DateModified": null,
            "DataSource": null,
            "Format": null,
            "Width": "82",
            "Fixed": null,
            "VisibleIndex": 0,
            "IsAllowEdit": null,
            "ID_ControlType": null,
            "ID_ColumnAlignment": null,
            "IsVisible": true,
            "FixedPosition": null,
            "IsRequired": null,
            "ID_SummaryType": null,
            "IsAddModelClass": null,
            "GroupIndex": 0,
            "IsFilter": null,
            "ID_FilterControlType": null,
            "ID_PropertyModel": null,
            "PropertyModel": null,
            "SummaryType": null
        },
        {
            "ID_PropertyType": 5,
            "Precision": null,
            "$DataSource": null,
            "DisplayProperty": null,
            "Oid": "83684832-9B55-4476-9C71-BB983B5B3C50",
            "Code": null,
            "Name": "DateModified",
            "IsActive": true,
            "Comment": null,
            "Caption": "Date Modified",
            "ID_ModelProperty": "9C2AF504-4819-4DDE-A2DF-9EC991A06188",
            "ID_ListView": "0DDCCAB3-603A-40FD-8E80-8A5237DB8CDE",
            "ID_CreatedBy": 1,
            "ID_LastModifiedBy": 1,
            "DateCreated": "2020-08-03T21:48:50.573Z",
            "DateModified": null,
            "DataSource": null,
            "Format": null,
            "Width": "150",
            "Fixed": null,
            "VisibleIndex": 800,
            "IsAllowEdit": null,
            "ID_ControlType": null,
            "ID_ColumnAlignment": null,
            "IsVisible": true,
            "FixedPosition": null,
            "IsRequired": null,
            "ID_SummaryType": null,
            "IsAddModelClass": null,
            "GroupIndex": 0,
            "IsFilter": null,
            "ID_FilterControlType": null,
            "ID_PropertyModel": null,
            "PropertyModel": null,
            "SummaryType": null
        },
        {
            "ID_PropertyType": 1,
            "Precision": null,
            "$DataSource": null,
            "DisplayProperty": null,
            "Oid": "390443A7-E893-4B13-A2FA-D5C99BA8F78E",
            "Code": null,
            "Name": "Comment",
            "IsActive": true,
            "Comment": null,
            "Caption": null,
            "ID_ModelProperty": "BC232493-0A0D-4E95-B6BD-1C10E19F7E4D",
            "ID_ListView": "0DDCCAB3-603A-40FD-8E80-8A5237DB8CDE",
            "ID_CreatedBy": 1,
            "ID_LastModifiedBy": 1,
            "DateCreated": "2020-08-03T21:48:50.573Z",
            "DateModified": null,
            "DataSource": null,
            "Format": null,
            "Width": "150",
            "Fixed": null,
            "VisibleIndex": 1000,
            "IsAllowEdit": null,
            "ID_ControlType": null,
            "ID_ColumnAlignment": null,
            "IsVisible": true,
            "FixedPosition": null,
            "IsRequired": null,
            "ID_SummaryType": null,
            "IsAddModelClass": null,
            "GroupIndex": 0,
            "IsFilter": null,
            "ID_FilterControlType": null,
            "ID_PropertyModel": null,
            "PropertyModel": null,
            "SummaryType": null
        },
        {
            "ID_PropertyType": 5,
            "Precision": null,
            "$DataSource": null,
            "DisplayProperty": null,
            "Oid": "D4C2CD3A-E692-44D9-8BC1-DF2B38C41D1B",
            "Code": null,
            "Name": "DateCreated",
            "IsActive": true,
            "Comment": null,
            "Caption": "Date Created",
            "ID_ModelProperty": "ABA5640F-24C4-42D4-8450-BE3E552A431A",
            "ID_ListView": "0DDCCAB3-603A-40FD-8E80-8A5237DB8CDE",
            "ID_CreatedBy": 1,
            "ID_LastModifiedBy": 1,
            "DateCreated": "2020-08-03T21:48:50.573Z",
            "DateModified": null,
            "DataSource": null,
            "Format": null,
            "Width": "150",
            "Fixed": null,
            "VisibleIndex": 600,
            "IsAllowEdit": null,
            "ID_ControlType": null,
            "ID_ColumnAlignment": null,
            "IsVisible": true,
            "FixedPosition": null,
            "IsRequired": null,
            "ID_SummaryType": null,
            "IsAddModelClass": null,
            "GroupIndex": 0,
            "IsFilter": null,
            "ID_FilterControlType": null,
            "ID_PropertyModel": null,
            "PropertyModel": null,
            "SummaryType": null
        },
        {
            "ID_PropertyType": 1,
            "Precision": null,
            "$DataSource": null,
            "DisplayProperty": "Fullname",
            "Oid": "1CE1AF6A-3A59-400E-BEB4-F8DBEA820E28",
            "Code": null,
            "Name": "Name",
            "IsActive": true,
            "Comment": null,
            "Caption": null,
            "ID_ModelProperty": "AB0300D6-D425-4F83-AE85-A08946DF9FD5",
            "ID_ListView": "0DDCCAB3-603A-40FD-8E80-8A5237DB8CDE",
            "ID_CreatedBy": 1,
            "ID_LastModifiedBy": 1,
            "DateCreated": "2020-08-03T21:48:50.573Z",
            "DateModified": null,
            "DataSource": null,
            "Format": null,
            "Width": "229",
            "Fixed": null,
            "VisibleIndex": 500,
            "IsAllowEdit": null,
            "ID_ControlType": null,
            "ID_ColumnAlignment": null,
            "IsVisible": false,
            "FixedPosition": null,
            "IsRequired": null,
            "ID_SummaryType": null,
            "IsAddModelClass": null,
            "GroupIndex": 0,
            "IsFilter": null,
            "ID_FilterControlType": null,
            "ID_PropertyModel": null,
            "PropertyModel": null,
            "SummaryType": null
        },
        {
            "ID_PropertyType": 4,
            "Precision": null,
            "$DataSource": null,
            "DisplayProperty": null,
            "Oid": "3F759213-43F3-4811-956B-FB489017FDAB",
            "Code": null,
            "Name": "IsActive",
            "IsActive": true,
            "Comment": null,
            "Caption": "Active",
            "ID_ModelProperty": "E21C5F99-96C3-4B8F-997C-A21CE9BD8D88",
            "ID_ListView": "0DDCCAB3-603A-40FD-8E80-8A5237DB8CDE",
            "ID_CreatedBy": 1,
            "ID_LastModifiedBy": 1,
            "DateCreated": "2020-08-03T21:48:50.573Z",
            "DateModified": null,
            "DataSource": null,
            "Format": null,
            "Width": "150",
            "Fixed": null,
            "VisibleIndex": 600,
            "IsAllowEdit": null,
            "ID_ControlType": null,
            "ID_ColumnAlignment": null,
            "IsVisible": false,
            "FixedPosition": null,
            "IsRequired": null,
            "ID_SummaryType": null,
            "IsAddModelClass": null,
            "GroupIndex": 0,
            "IsFilter": null,
            "ID_FilterControlType": null,
            "ID_PropertyModel": null,
            "PropertyModel": null,
            "SummaryType": null
        },
        {
            "ID_PropertyType": 1,
            "Precision": null,
            "$DataSource": null,
            "DisplayProperty": null,
            "Oid": "3A0792AF-A9CE-44DB-B332-20A23AFF7860",
            "Code": null,
            "Name": "FirstName",
            "IsActive": true,
            "Comment": null,
            "Caption": "First Name",
            "ID_ModelProperty": "5A8A9145-3BFE-429E-8FD1-0E54AF075D6B",
            "ID_ListView": "0DDCCAB3-603A-40FD-8E80-8A5237DB8CDE",
            "ID_CreatedBy": 1,
            "ID_LastModifiedBy": 1,
            "DateCreated": "2020-08-03T21:49:59.603Z",
            "DateModified": null,
            "DataSource": null,
            "Format": null,
            "Width": "184",
            "Fixed": null,
            "VisibleIndex": 200,
            "IsAllowEdit": null,
            "ID_ControlType": null,
            "ID_ColumnAlignment": null,
            "IsVisible": true,
            "FixedPosition": null,
            "IsRequired": null,
            "ID_SummaryType": null,
            "IsAddModelClass": null,
            "GroupIndex": 0,
            "IsFilter": true,
            "ID_FilterControlType": null,
            "ID_PropertyModel": null,
            "PropertyModel": null,
            "SummaryType": null
        },
        {
            "ID_PropertyType": 1,
            "Precision": null,
            "$DataSource": null,
            "DisplayProperty": null,
            "Oid": "231F0037-36B7-49A9-9E48-6CD200F5EE80",
            "Code": null,
            "Name": "LastName",
            "IsActive": true,
            "Comment": null,
            "Caption": "Last Name",
            "ID_ModelProperty": "1749DEF6-133B-48D0-99EE-B885D04AFD2E",
            "ID_ListView": "0DDCCAB3-603A-40FD-8E80-8A5237DB8CDE",
            "ID_CreatedBy": 1,
            "ID_LastModifiedBy": 1,
            "DateCreated": "2020-08-03T21:50:23.513Z",
            "DateModified": null,
            "DataSource": null,
            "Format": null,
            "Width": "196",
            "Fixed": null,
            "VisibleIndex": 100,
            "IsAllowEdit": null,
            "ID_ControlType": null,
            "ID_ColumnAlignment": null,
            "IsVisible": true,
            "FixedPosition": null,
            "IsRequired": null,
            "ID_SummaryType": null,
            "IsAddModelClass": null,
            "GroupIndex": 0,
            "IsFilter": true,
            "ID_FilterControlType": null,
            "ID_PropertyModel": null,
            "PropertyModel": null,
            "SummaryType": null
        },
        {
            "ID_PropertyType": 1,
            "Precision": null,
            "$DataSource": null,
            "DisplayProperty": null,
            "Oid": "7A6FBD3D-19A6-45FF-9A68-75D150D6D5A4",
            "Code": null,
            "Name": "MiddleName",
            "IsActive": true,
            "Comment": null,
            "Caption": "Middle Name",
            "ID_ModelProperty": "EB1BB7DD-A930-4F75-BD73-2797C409491D",
            "ID_ListView": "0DDCCAB3-603A-40FD-8E80-8A5237DB8CDE",
            "ID_CreatedBy": 1,
            "ID_LastModifiedBy": 1,
            "DateCreated": "2020-08-03T21:50:37.473Z",
            "DateModified": null,
            "DataSource": null,
            "Format": null,
            "Width": "159",
            "Fixed": null,
            "VisibleIndex": 300,
            "IsAllowEdit": null,
            "ID_ControlType": null,
            "ID_ColumnAlignment": null,
            "IsVisible": true,
            "FixedPosition": null,
            "IsRequired": null,
            "ID_SummaryType": null,
            "IsAddModelClass": null,
            "GroupIndex": 0,
            "IsFilter": true,
            "ID_FilterControlType": null,
            "ID_PropertyModel": null,
            "PropertyModel": null,
            "SummaryType": null
        },
        {
            "ID_PropertyType": 2,
            "Precision": null,
            "$DataSource": null,
            "DisplayProperty": null,
            "Oid": "33521529-F1FF-48FD-A9B7-C58017C42987",
            "Code": null,
            "Name": "ID_Gender",
            "IsActive": true,
            "Comment": null,
            "Caption": null,
            "ID_ModelProperty": "3B723D5F-5BB4-47E7-9FBC-FBD00BB0B9BC",
            "ID_ListView": "0DDCCAB3-603A-40FD-8E80-8A5237DB8CDE",
            "ID_CreatedBy": 1,
            "ID_LastModifiedBy": 1,
            "DateCreated": "2020-08-07T05:24:13.277Z",
            "DateModified": null,
            "DataSource": null,
            "Format": null,
            "Width": "150",
            "Fixed": null,
            "VisibleIndex": null,
            "IsAllowEdit": null,
            "ID_ControlType": null,
            "ID_ColumnAlignment": null,
            "IsVisible": false,
            "FixedPosition": null,
            "IsRequired": null,
            "ID_SummaryType": null,
            "IsAddModelClass": null,
            "GroupIndex": 0,
            "IsFilter": null,
            "ID_FilterControlType": null,
            "ID_PropertyModel": null,
            "PropertyModel": null,
            "SummaryType": null
        },
        {
            "ID_PropertyType": 1,
            "Precision": null,
            "$DataSource": null,
            "DisplayProperty": null,
            "Oid": "E9A17D90-39D5-4888-975A-48124E9921D8",
            "Code": null,
            "Name": "Email",
            "IsActive": true,
            "Comment": null,
            "Caption": null,
            "ID_ModelProperty": "2E3727AE-0333-4069-972D-7FF67F06F950",
            "ID_ListView": "0DDCCAB3-603A-40FD-8E80-8A5237DB8CDE",
            "ID_CreatedBy": 1,
            "ID_LastModifiedBy": 1,
            "DateCreated": "2020-08-07T05:24:57.597Z",
            "DateModified": null,
            "DataSource": null,
            "Format": null,
            "Width": "199",
            "Fixed": null,
            "VisibleIndex": 400,
            "IsAllowEdit": null,
            "ID_ControlType": null,
            "ID_ColumnAlignment": null,
            "IsVisible": true,
            "FixedPosition": null,
            "IsRequired": null,
            "ID_SummaryType": null,
            "IsAddModelClass": null,
            "GroupIndex": 0,
            "IsFilter": null,
            "ID_FilterControlType": null,
            "ID_PropertyModel": null,
            "PropertyModel": null,
            "SummaryType": null
        },
        {
            "ID_PropertyType": 6,
            "Precision": null,
            "$DataSource": null,
            "DisplayProperty": null,
            "Oid": "D7A0F42F-3214-41C4-AF2A-07D645B24883",
            "Code": null,
            "Name": "DateBirth",
            "IsActive": true,
            "Comment": null,
            "Caption": null,
            "ID_ModelProperty": "6D826BC7-C8EB-4AF2-B8F9-B323EACF08F1",
            "ID_ListView": "0DDCCAB3-603A-40FD-8E80-8A5237DB8CDE",
            "ID_CreatedBy": 1,
            "ID_LastModifiedBy": 1,
            "DateCreated": "2020-08-07T05:26:18.933Z",
            "DateModified": null,
            "DataSource": null,
            "Format": null,
            "Width": "150",
            "Fixed": null,
            "VisibleIndex": null,
            "IsAllowEdit": null,
            "ID_ControlType": null,
            "ID_ColumnAlignment": null,
            "IsVisible": false,
            "FixedPosition": null,
            "IsRequired": null,
            "ID_SummaryType": null,
            "IsAddModelClass": null,
            "GroupIndex": 0,
            "IsFilter": null,
            "ID_FilterControlType": null,
            "ID_PropertyModel": null,
            "PropertyModel": null,
            "SummaryType": null
        },
        {
            "ID_PropertyType": 1,
            "Precision": null,
            "$DataSource": null,
            "DisplayProperty": null,
            "Oid": "95A596D9-1881-4EA1-B665-9B3E271FC023",
            "Code": null,
            "Name": "FullAddress",
            "IsActive": true,
            "Comment": null,
            "Caption": null,
            "ID_ModelProperty": "2460EFD0-2827-4366-B285-C8894E3147E6",
            "ID_ListView": "0DDCCAB3-603A-40FD-8E80-8A5237DB8CDE",
            "ID_CreatedBy": 1,
            "ID_LastModifiedBy": 1,
            "DateCreated": "2020-08-07T05:36:47.697Z",
            "DateModified": null,
            "DataSource": null,
            "Format": null,
            "Width": "150",
            "Fixed": null,
            "VisibleIndex": null,
            "IsAllowEdit": null,
            "ID_ControlType": null,
            "ID_ColumnAlignment": null,
            "IsVisible": false,
            "FixedPosition": null,
            "IsRequired": null,
            "ID_SummaryType": null,
            "IsAddModelClass": null,
            "GroupIndex": 0,
            "IsFilter": null,
            "ID_FilterControlType": null,
            "ID_PropertyModel": null,
            "PropertyModel": null,
            "SummaryType": null
        },
        {
            "ID_PropertyType": 2,
            "Precision": null,
            "$DataSource": null,
            "DisplayProperty": null,
            "Oid": "0942A360-288C-44E5-A56D-434B10A06FC3",
            "Code": null,
            "Name": "ID_Country",
            "IsActive": true,
            "Comment": null,
            "Caption": null,
            "ID_ModelProperty": "8B941BFE-91D1-4B5E-90E4-5941496192B2",
            "ID_ListView": "0DDCCAB3-603A-40FD-8E80-8A5237DB8CDE",
            "ID_CreatedBy": 1,
            "ID_LastModifiedBy": 1,
            "DateCreated": "2020-08-07T08:38:17.863Z",
            "DateModified": null,
            "DataSource": null,
            "Format": null,
            "Width": "112",
            "Fixed": null,
            "VisibleIndex": 600,
            "IsAllowEdit": null,
            "ID_ControlType": null,
            "ID_ColumnAlignment": null,
            "IsVisible": false,
            "FixedPosition": null,
            "IsRequired": null,
            "ID_SummaryType": null,
            "IsAddModelClass": null,
            "GroupIndex": 0,
            "IsFilter": null,
            "ID_FilterControlType": null,
            "ID_PropertyModel": null,
            "PropertyModel": null,
            "SummaryType": null
        },
        {
            "ID_PropertyType": 1,
            "Precision": null,
            "$DataSource": null,
            "DisplayProperty": null,
            "Oid": "DC287A8B-DA39-45FB-B957-4B5F916F1234",
            "Code": null,
            "Name": "ContactNumber",
            "IsActive": true,
            "Comment": null,
            "Caption": "Contact No.",
            "ID_ModelProperty": "4076FF3F-F917-471C-AC22-AAA512C649C0",
            "ID_ListView": "0DDCCAB3-603A-40FD-8E80-8A5237DB8CDE",
            "ID_CreatedBy": 1,
            "ID_LastModifiedBy": 1,
            "DateCreated": "2020-08-07T08:58:32.920Z",
            "DateModified": null,
            "DataSource": null,
            "Format": null,
            "Width": "150",
            "Fixed": null,
            "VisibleIndex": 500,
            "IsAllowEdit": null,
            "ID_ControlType": null,
            "ID_ColumnAlignment": null,
            "IsVisible": true,
            "FixedPosition": null,
            "IsRequired": null,
            "ID_SummaryType": null,
            "IsAddModelClass": null,
            "GroupIndex": 0,
            "IsFilter": null,
            "ID_FilterControlType": null,
            "ID_PropertyModel": null,
            "PropertyModel": null,
            "SummaryType": null
        }
    ]
}