{
    "Oid": "FDB2F695-4266-43EF-80E9-29B7758B0032",
    "Name": "PurchaseOrder_Detail_ListView",
    "ID_Model": "4B6F7ABA-C3C3-47F0-9014-F3570127F1E6",
    "DataSource": "SELECT * FROM tPurchaseOrder_Detail",
    "Comment": null,
    "ID_DetailView": "CEBEDD9E-5B03-4C3C-856A-315B919044C0",
    "Model": "PurchaseOrder_Detail",
    "PrimaryKey": "ID",
    "Caption": "PurchaseOrder_Detail",
    "Details": [
        {
            "ID_PropertyType": 1,
            "Precision": null,
            "$DataSource": null,
            "DisplayProperty": null,
            "Oid": "2C9E6D7F-CA1B-42C0-A3A1-13E6E25A9D51",
            "Code": null,
            "Name": "Code",
            "IsActive": true,
            "Comment": null,
            "Caption": null,
            "ID_ModelProperty": "1E3A4F00-58C7-410C-9B0E-8C2D49FAAEA5",
            "ID_ListView": "FDB2F695-4266-43EF-80E9-29B7758B0032",
            "ID_CreatedBy": 1,
            "ID_LastModifiedBy": null,
            "DateCreated": "2020-08-11T12:11:57.390Z",
            "DateModified": null,
            "DataSource": null,
            "Format": null,
            "Width": null,
            "Fixed": null,
            "VisibleIndex": 300,
            "IsAllowEdit": null,
            "ID_ControlType": null,
            "ID_ColumnAlignment": null,
            "IsVisible": true,
            "FixedPosition": null,
            "IsRequired": null,
            "ID_SummaryType": null,
            "IsAddModelClass": null,
            "GroupIndex": null,
            "IsFilter": null,
            "ID_FilterControlType": null,
            "ID_PropertyModel": null,
            "PropertyModel": null,
            "SummaryType": null
        },
        {
            "ID_PropertyType": 4,
            "Precision": null,
            "$DataSource": null,
            "DisplayProperty": null,
            "Oid": "AC2CAEA2-1FBC-448C-815C-5514F139A40F",
            "Code": null,
            "Name": "IsActive",
            "IsActive": true,
            "Comment": null,
            "Caption": "Active",
            "ID_ModelProperty": "2BA232BB-16AC-4BB1-802E-1C6C22D1FB11",
            "ID_ListView": "FDB2F695-4266-43EF-80E9-29B7758B0032",
            "ID_CreatedBy": 1,
            "ID_LastModifiedBy": null,
            "DateCreated": "2020-08-11T12:11:57.390Z",
            "DateModified": null,
            "DataSource": null,
            "Format": null,
            "Width": null,
            "Fixed": null,
            "VisibleIndex": 100,
            "IsAllowEdit": null,
            "ID_ControlType": null,
            "ID_ColumnAlignment": null,
            "IsVisible": true,
            "FixedPosition": null,
            "IsRequired": null,
            "ID_SummaryType": null,
            "IsAddModelClass": null,
            "GroupIndex": null,
            "IsFilter": null,
            "ID_FilterControlType": null,
            "ID_PropertyModel": null,
            "PropertyModel": null,
            "SummaryType": null
        },
        {
            "ID_PropertyType": 2,
            "Precision": null,
            "$DataSource": null,
            "DisplayProperty": null,
            "Oid": "26B69E9A-3FF5-45A0-82AE-857B7E8E1630",
            "Code": null,
            "Name": "ID",
            "IsActive": true,
            "Comment": null,
            "Caption": null,
            "ID_ModelProperty": "F7DDBE86-2B8E-4E67-AE52-F7BA888DC0C6",
            "ID_ListView": "FDB2F695-4266-43EF-80E9-29B7758B0032",
            "ID_CreatedBy": 1,
            "ID_LastModifiedBy": null,
            "DateCreated": "2020-08-11T12:11:57.390Z",
            "DateModified": null,
            "DataSource": null,
            "Format": null,
            "Width": null,
            "Fixed": null,
            "VisibleIndex": 500,
            "IsAllowEdit": null,
            "ID_ControlType": null,
            "ID_ColumnAlignment": null,
            "IsVisible": true,
            "FixedPosition": null,
            "IsRequired": null,
            "ID_SummaryType": null,
            "IsAddModelClass": null,
            "GroupIndex": null,
            "IsFilter": null,
            "ID_FilterControlType": null,
            "ID_PropertyModel": null,
            "PropertyModel": null,
            "SummaryType": null
        },
        {
            "ID_PropertyType": 1,
            "Precision": null,
            "$DataSource": null,
            "DisplayProperty": null,
            "Oid": "F7295719-F0BE-4F43-ABF3-DCAF8E8F8E10",
            "Code": null,
            "Name": "Name",
            "IsActive": true,
            "Comment": null,
            "Caption": null,
            "ID_ModelProperty": "755B72C4-B8D6-44F1-B968-2466256B47F8",
            "ID_ListView": "FDB2F695-4266-43EF-80E9-29B7758B0032",
            "ID_CreatedBy": 1,
            "ID_LastModifiedBy": null,
            "DateCreated": "2020-08-11T12:11:57.390Z",
            "DateModified": null,
            "DataSource": null,
            "Format": null,
            "Width": null,
            "Fixed": null,
            "VisibleIndex": 200,
            "IsAllowEdit": null,
            "ID_ControlType": null,
            "ID_ColumnAlignment": null,
            "IsVisible": true,
            "FixedPosition": null,
            "IsRequired": null,
            "ID_SummaryType": null,
            "IsAddModelClass": null,
            "GroupIndex": null,
            "IsFilter": null,
            "ID_FilterControlType": null,
            "ID_PropertyModel": null,
            "PropertyModel": null,
            "SummaryType": null
        },
        {
            "ID_PropertyType": 1,
            "Precision": null,
            "$DataSource": null,
            "DisplayProperty": null,
            "Oid": "AC0AF321-6262-45FE-8A1B-DEB4BD66B9C5",
            "Code": null,
            "Name": "Comment",
            "IsActive": true,
            "Comment": null,
            "Caption": null,
            "ID_ModelProperty": "A2C4AD2F-609D-41B3-AFA4-C4DA1D66C1F8",
            "ID_ListView": "FDB2F695-4266-43EF-80E9-29B7758B0032",
            "ID_CreatedBy": 1,
            "ID_LastModifiedBy": null,
            "DateCreated": "2020-08-11T12:11:57.390Z",
            "DateModified": null,
            "DataSource": null,
            "Format": null,
            "Width": null,
            "Fixed": null,
            "VisibleIndex": 400,
            "IsAllowEdit": null,
            "ID_ControlType": null,
            "ID_ColumnAlignment": null,
            "IsVisible": true,
            "FixedPosition": null,
            "IsRequired": null,
            "ID_SummaryType": null,
            "IsAddModelClass": null,
            "GroupIndex": null,
            "IsFilter": null,
            "ID_FilterControlType": null,
            "ID_PropertyModel": null,
            "PropertyModel": null,
            "SummaryType": null
        },
        {
            "ID_PropertyType": 2,
            "Precision": null,
            "$DataSource": null,
            "DisplayProperty": null,
            "Oid": "A365DED3-81C2-47AF-9CC8-ED9CA20B3D25",
            "Code": null,
            "Name": "ID_PurchaseOrder",
            "IsActive": true,
            "Comment": null,
            "Caption": null,
            "ID_ModelProperty": "4C7E97BF-91C1-498C-B847-BFAB756497C0",
            "ID_ListView": "FDB2F695-4266-43EF-80E9-29B7758B0032",
            "ID_CreatedBy": 1,
            "ID_LastModifiedBy": null,
            "DateCreated": "2020-08-11T12:11:57.423Z",
            "DateModified": null,
            "DataSource": null,
            "Format": null,
            "Width": null,
            "Fixed": null,
            "VisibleIndex": null,
            "IsAllowEdit": null,
            "ID_ControlType": null,
            "ID_ColumnAlignment": null,
            "IsVisible": false,
            "FixedPosition": null,
            "IsRequired": null,
            "ID_SummaryType": null,
            "IsAddModelClass": null,
            "GroupIndex": null,
            "IsFilter": null,
            "ID_FilterControlType": null,
            "ID_PropertyModel": null,
            "PropertyModel": null,
            "SummaryType": null
        },
        {
            "ID_PropertyType": 2,
            "Precision": null,
            "$DataSource": null,
            "DisplayProperty": null,
            "Oid": "58732331-91CE-4003-B544-9BAA329D3CE1",
            "Code": null,
            "Name": "ID_Item",
            "IsActive": true,
            "Comment": null,
            "Caption": null,
            "ID_ModelProperty": "2111675A-8F26-4A9B-BEAB-B09B5A76959E",
            "ID_ListView": "FDB2F695-4266-43EF-80E9-29B7758B0032",
            "ID_CreatedBy": 1,
            "ID_LastModifiedBy": null,
            "DateCreated": "2020-08-11T12:39:51.350Z",
            "DateModified": null,
            "DataSource": null,
            "Format": null,
            "Width": null,
            "Fixed": null,
            "VisibleIndex": null,
            "IsAllowEdit": null,
            "ID_ControlType": null,
            "ID_ColumnAlignment": null,
            "IsVisible": false,
            "FixedPosition": null,
            "IsRequired": null,
            "ID_SummaryType": null,
            "IsAddModelClass": null,
            "GroupIndex": null,
            "IsFilter": null,
            "ID_FilterControlType": null,
            "ID_PropertyModel": null,
            "PropertyModel": null,
            "SummaryType": null
        },
        {
            "ID_PropertyType": 2,
            "Precision": null,
            "$DataSource": null,
            "DisplayProperty": null,
            "Oid": "A36BD9CB-7EA5-4849-97F5-C3E446F3A615",
            "Code": null,
            "Name": "Quantity",
            "IsActive": true,
            "Comment": null,
            "Caption": null,
            "ID_ModelProperty": "9DB9B07D-12EE-48CC-9318-8E906151EC90",
            "ID_ListView": "FDB2F695-4266-43EF-80E9-29B7758B0032",
            "ID_CreatedBy": 1,
            "ID_LastModifiedBy": null,
            "DateCreated": "2020-08-11T12:55:20.643Z",
            "DateModified": null,
            "DataSource": null,
            "Format": null,
            "Width": null,
            "Fixed": null,
            "VisibleIndex": null,
            "IsAllowEdit": null,
            "ID_ControlType": null,
            "ID_ColumnAlignment": null,
            "IsVisible": false,
            "FixedPosition": null,
            "IsRequired": null,
            "ID_SummaryType": null,
            "IsAddModelClass": null,
            "GroupIndex": null,
            "IsFilter": null,
            "ID_FilterControlType": null,
            "ID_PropertyModel": null,
            "PropertyModel": null,
            "SummaryType": null
        },
        {
            "ID_PropertyType": 3,
            "Precision": 2,
            "$DataSource": null,
            "DisplayProperty": null,
            "Oid": "872B5D24-AA54-4C00-8B62-5547E2993A49",
            "Code": null,
            "Name": "VATAmount",
            "IsActive": true,
            "Comment": null,
            "Caption": null,
            "ID_ModelProperty": "962AB219-996B-41E3-9E54-457FA241481C",
            "ID_ListView": "FDB2F695-4266-43EF-80E9-29B7758B0032",
            "ID_CreatedBy": 1,
            "ID_LastModifiedBy": null,
            "DateCreated": "2020-08-11T12:55:54.710Z",
            "DateModified": null,
            "DataSource": null,
            "Format": null,
            "Width": null,
            "Fixed": null,
            "VisibleIndex": null,
            "IsAllowEdit": null,
            "ID_ControlType": null,
            "ID_ColumnAlignment": null,
            "IsVisible": false,
            "FixedPosition": null,
            "IsRequired": null,
            "ID_SummaryType": null,
            "IsAddModelClass": null,
            "GroupIndex": null,
            "IsFilter": null,
            "ID_FilterControlType": null,
            "ID_PropertyModel": null,
            "PropertyModel": null,
            "SummaryType": null
        },
        {
            "ID_PropertyType": 3,
            "Precision": 2,
            "$DataSource": null,
            "DisplayProperty": null,
            "Oid": "46BA2A50-63CA-4692-90E6-8FFD9DC49AB7",
            "Code": null,
            "Name": "GrossAmount",
            "IsActive": true,
            "Comment": null,
            "Caption": null,
            "ID_ModelProperty": "7D29669B-4DB9-44A8-98C7-43DAD193BF6A",
            "ID_ListView": "FDB2F695-4266-43EF-80E9-29B7758B0032",
            "ID_CreatedBy": 1,
            "ID_LastModifiedBy": null,
            "DateCreated": "2020-08-11T13:05:35.223Z",
            "DateModified": null,
            "DataSource": null,
            "Format": null,
            "Width": null,
            "Fixed": null,
            "VisibleIndex": 1000,
            "IsAllowEdit": null,
            "ID_ControlType": null,
            "ID_ColumnAlignment": null,
            "IsVisible": true,
            "FixedPosition": null,
            "IsRequired": null,
            "ID_SummaryType": null,
            "IsAddModelClass": null,
            "GroupIndex": null,
            "IsFilter": null,
            "ID_FilterControlType": null,
            "ID_PropertyModel": null,
            "PropertyModel": null,
            "SummaryType": null
        },
        {
            "ID_PropertyType": 3,
            "Precision": 2,
            "$DataSource": null,
            "DisplayProperty": null,
            "Oid": "9B86BABD-07B3-496A-A777-347523F9A051",
            "Code": null,
            "Name": "NetAmount",
            "IsActive": true,
            "Comment": null,
            "Caption": null,
            "ID_ModelProperty": "29A6AC06-C04B-41D5-90A8-324E50B4BFA9",
            "ID_ListView": "FDB2F695-4266-43EF-80E9-29B7758B0032",
            "ID_CreatedBy": 1,
            "ID_LastModifiedBy": null,
            "DateCreated": "2020-08-11T13:06:02.080Z",
            "DateModified": null,
            "DataSource": null,
            "Format": null,
            "Width": null,
            "Fixed": null,
            "VisibleIndex": 1000,
            "IsAllowEdit": null,
            "ID_ControlType": null,
            "ID_ColumnAlignment": null,
            "IsVisible": true,
            "FixedPosition": null,
            "IsRequired": null,
            "ID_SummaryType": null,
            "IsAddModelClass": null,
            "GroupIndex": null,
            "IsFilter": null,
            "ID_FilterControlType": null,
            "ID_PropertyModel": null,
            "PropertyModel": null,
            "SummaryType": null
        },
        {
            "ID_PropertyType": 2,
            "Precision": null,
            "$DataSource": null,
            "DisplayProperty": null,
            "Oid": "369D1568-5BE1-42EF-A978-C4FFB08F3BD0",
            "Code": null,
            "Name": "ID_UOM",
            "IsActive": true,
            "Comment": null,
            "Caption": null,
            "ID_ModelProperty": "23F41B8C-C39A-49FF-B811-E1F7D0109C6E",
            "ID_ListView": "FDB2F695-4266-43EF-80E9-29B7758B0032",
            "ID_CreatedBy": 1,
            "ID_LastModifiedBy": null,
            "DateCreated": "2020-08-11T13:06:59.820Z",
            "DateModified": null,
            "DataSource": null,
            "Format": null,
            "Width": null,
            "Fixed": null,
            "VisibleIndex": 1000,
            "IsAllowEdit": null,
            "ID_ControlType": null,
            "ID_ColumnAlignment": null,
            "IsVisible": true,
            "FixedPosition": null,
            "IsRequired": null,
            "ID_SummaryType": null,
            "IsAddModelClass": null,
            "GroupIndex": null,
            "IsFilter": null,
            "ID_FilterControlType": null,
            "ID_PropertyModel": null,
            "PropertyModel": null,
            "SummaryType": null
        },
        {
            "ID_PropertyType": 3,
            "Precision": 2,
            "$DataSource": null,
            "DisplayProperty": null,
            "Oid": "5E190660-FF70-4894-82D9-AB331C95AA05",
            "Code": null,
            "Name": "DiscountAmount",
            "IsActive": true,
            "Comment": null,
            "Caption": null,
            "ID_ModelProperty": "FB25D62C-40AF-45BA-A5E3-1DD91EFA846C",
            "ID_ListView": "FDB2F695-4266-43EF-80E9-29B7758B0032",
            "ID_CreatedBy": 1,
            "ID_LastModifiedBy": null,
            "DateCreated": "2020-08-11T13:07:42.853Z",
            "DateModified": null,
            "DataSource": null,
            "Format": null,
            "Width": null,
            "Fixed": null,
            "VisibleIndex": 1000,
            "IsAllowEdit": null,
            "ID_ControlType": null,
            "ID_ColumnAlignment": null,
            "IsVisible": true,
            "FixedPosition": null,
            "IsRequired": null,
            "ID_SummaryType": null,
            "IsAddModelClass": null,
            "GroupIndex": null,
            "IsFilter": null,
            "ID_FilterControlType": null,
            "ID_PropertyModel": null,
            "PropertyModel": null,
            "SummaryType": null
        },
        {
            "ID_PropertyType": 3,
            "Precision": 2,
            "$DataSource": null,
            "DisplayProperty": null,
            "Oid": "5C586009-1DC4-4DA4-9C7F-A25D4E86796A",
            "Code": null,
            "Name": "UnitCost",
            "IsActive": true,
            "Comment": null,
            "Caption": null,
            "ID_ModelProperty": "AD6DF652-6BF5-4A87-BA89-51FDAD9FBB0A",
            "ID_ListView": "FDB2F695-4266-43EF-80E9-29B7758B0032",
            "ID_CreatedBy": 1,
            "ID_LastModifiedBy": null,
            "DateCreated": "2020-08-11T16:01:32.587Z",
            "DateModified": null,
            "DataSource": null,
            "Format": null,
            "Width": null,
            "Fixed": null,
            "VisibleIndex": 1000,
            "IsAllowEdit": null,
            "ID_ControlType": null,
            "ID_ColumnAlignment": null,
            "IsVisible": true,
            "FixedPosition": null,
            "IsRequired": null,
            "ID_SummaryType": null,
            "IsAddModelClass": null,
            "GroupIndex": null,
            "IsFilter": null,
            "ID_FilterControlType": null,
            "ID_PropertyModel": null,
            "PropertyModel": null,
            "SummaryType": null
        },
        {
            "ID_PropertyType": 3,
            "Precision": 2,
            "$DataSource": null,
            "DisplayProperty": null,
            "Oid": "06A3DA65-B5C7-4520-A125-FFBC24FA8F9F",
            "Code": null,
            "Name": "Balance",
            "IsActive": true,
            "Comment": null,
            "Caption": null,
            "ID_ModelProperty": "43395E5B-874C-4D37-AB6F-67C8BEB7B590",
            "ID_ListView": "FDB2F695-4266-43EF-80E9-29B7758B0032",
            "ID_CreatedBy": 1,
            "ID_LastModifiedBy": null,
            "DateCreated": "2020-08-12T10:34:25.253Z",
            "DateModified": null,
            "DataSource": null,
            "Format": null,
            "Width": null,
            "Fixed": null,
            "VisibleIndex": 1000,
            "IsAllowEdit": null,
            "ID_ControlType": null,
            "ID_ColumnAlignment": null,
            "IsVisible": true,
            "FixedPosition": null,
            "IsRequired": null,
            "ID_SummaryType": null,
            "IsAddModelClass": null,
            "GroupIndex": null,
            "IsFilter": null,
            "ID_FilterControlType": null,
            "ID_PropertyModel": null,
            "PropertyModel": null,
            "SummaryType": null
        },
        {
            "ID_PropertyType": 3,
            "Precision": 2,
            "$DataSource": null,
            "DisplayProperty": null,
            "Oid": "B0860AFE-58A6-48BA-8A51-1035D07321A6",
            "Code": null,
            "Name": "UnitPrice",
            "IsActive": true,
            "Comment": null,
            "Caption": null,
            "ID_ModelProperty": "24533347-9833-4069-A00F-28BA46359C30",
            "ID_ListView": "FDB2F695-4266-43EF-80E9-29B7758B0032",
            "ID_CreatedBy": 1,
            "ID_LastModifiedBy": null,
            "DateCreated": "2020-09-28T02:47:22.810Z",
            "DateModified": null,
            "DataSource": null,
            "Format": null,
            "Width": null,
            "Fixed": null,
            "VisibleIndex": 1000,
            "IsAllowEdit": null,
            "ID_ControlType": null,
            "ID_ColumnAlignment": null,
            "IsVisible": true,
            "FixedPosition": null,
            "IsRequired": null,
            "ID_SummaryType": null,
            "IsAddModelClass": null,
            "GroupIndex": null,
            "IsFilter": null,
            "ID_FilterControlType": null,
            "ID_PropertyModel": null,
            "PropertyModel": null,
            "SummaryType": null
        },
        {
            "ID_PropertyType": 3,
            "Precision": 2,
            "$DataSource": null,
            "DisplayProperty": null,
            "Oid": "75EEA19D-6E1F-45D2-9D9A-BF3A2D356EE6",
            "Code": null,
            "Name": "Amount",
            "IsActive": true,
            "Comment": null,
            "Caption": null,
            "ID_ModelProperty": "F83D6471-3A66-4C7C-9CA6-827789F141AC",
            "ID_ListView": "FDB2F695-4266-43EF-80E9-29B7758B0032",
            "ID_CreatedBy": 1,
            "ID_LastModifiedBy": null,
            "DateCreated": "2020-09-28T02:47:28.700Z",
            "DateModified": null,
            "DataSource": null,
            "Format": null,
            "Width": null,
            "Fixed": null,
            "VisibleIndex": 1000,
            "IsAllowEdit": null,
            "ID_ControlType": null,
            "ID_ColumnAlignment": null,
            "IsVisible": true,
            "FixedPosition": null,
            "IsRequired": null,
            "ID_SummaryType": null,
            "IsAddModelClass": null,
            "GroupIndex": null,
            "IsFilter": null,
            "ID_FilterControlType": null,
            "ID_PropertyModel": null,
            "PropertyModel": null,
            "SummaryType": null
        },
        {
            "ID_PropertyType": 2,
            "Precision": null,
            "$DataSource": null,
            "DisplayProperty": null,
            "Oid": "C56E322F-66D9-474D-AF87-DF2AC3F31C4B",
            "Code": null,
            "Name": "RemainingQuantity",
            "IsActive": true,
            "Comment": null,
            "Caption": null,
            "ID_ModelProperty": "36804369-0389-434E-8E02-474EB8868158",
            "ID_ListView": "FDB2F695-4266-43EF-80E9-29B7758B0032",
            "ID_CreatedBy": 1,
            "ID_LastModifiedBy": null,
            "DateCreated": "2020-10-06T13:41:16.297Z",
            "DateModified": null,
            "DataSource": null,
            "Format": null,
            "Width": null,
            "Fixed": null,
            "VisibleIndex": 1000,
            "IsAllowEdit": null,
            "ID_ControlType": null,
            "ID_ColumnAlignment": null,
            "IsVisible": true,
            "FixedPosition": null,
            "IsRequired": null,
            "ID_SummaryType": null,
            "IsAddModelClass": null,
            "GroupIndex": null,
            "IsFilter": null,
            "ID_FilterControlType": null,
            "ID_PropertyModel": null,
            "PropertyModel": null,
            "SummaryType": null
        },
        {
            "ID_PropertyType": 2,
            "Precision": null,
            "$DataSource": null,
            "DisplayProperty": null,
            "Oid": "D7615A0A-9906-4469-8117-A9A6CE159192",
            "Code": null,
            "Name": "ID_PurchaseOrder_Detail",
            "IsActive": true,
            "Comment": null,
            "Caption": null,
            "ID_ModelProperty": "C15630F8-55EA-4301-B965-EC9F167CC71B",
            "ID_ListView": "FDB2F695-4266-43EF-80E9-29B7758B0032",
            "ID_CreatedBy": 1,
            "ID_LastModifiedBy": null,
            "DateCreated": "2020-10-06T14:00:24.067Z",
            "DateModified": null,
            "DataSource": null,
            "Format": null,
            "Width": null,
            "Fixed": null,
            "VisibleIndex": 1000,
            "IsAllowEdit": null,
            "ID_ControlType": null,
            "ID_ColumnAlignment": null,
            "IsVisible": true,
            "FixedPosition": null,
            "IsRequired": null,
            "ID_SummaryType": null,
            "IsAddModelClass": null,
            "GroupIndex": null,
            "IsFilter": null,
            "ID_FilterControlType": null,
            "ID_PropertyModel": null,
            "PropertyModel": null,
            "SummaryType": null
        }
    ]
}