{
    "Oid": "C1A01BCE-7282-4802-B552-19BE6560529B",
    "Code": null,
    "Name": "CustomNavigationLink_DetailView",
    "IsActive": true,
    "Comment": null,
    "ID_CreatedBy": 1,
    "ID_LastModifiedBy": null,
    "DateCreated": "2020-10-04T00:37:37.623Z",
    "DateModified": null,
    "ID_Model": "A8172ABF-527D-482D-BB97-B58796B93F81",
    "ModelName": "CustomNavigationLink",
    "Caption": "CustomNavigationLink",
    "Details": [
        {
            "SeqNo": 100,
            "ID_PropertyType": null,
            "ValueExpr": "ID",
            "GroupIndex": -1,
            "DataSourceKey": null,
            "DataSource": null,
            "DisplayProperty": null,
            "Oid": "A72A4BF1-2664-4667-8E9B-6A573837D582",
            "Code": null,
            "Name": "GeneralTab",
            "IsActive": true,
            "Comment": null,
            "Caption": "General",
            "ID_ModelProperty": null,
            "ID_DetailView": "C1A01BCE-7282-4802-B552-19BE6560529B",
            "ID_Tab": null,
            "ID_Section": null,
            "ID_ControlType": 12,
            "Format": null,
            "ID_CreatedBy": 1,
            "ID_LastModifiedBy": null,
            "DateCreated": "2020-10-04T00:37:37.630Z",
            "DateModified": null,
            "IsLoadData": null,
            "ColCount": null,
            "ColSpan": null,
            "IsDisabled": null,
            "Height": null,
            "ID_ListView": null,
            "IsReadOnly": null,
            "ID_LabelLocation": null,
            "IsShowLabel": null,
            "IsRequired": null,
            "DisplayExpr": null,
            "ID_LookUp_ListView": null,
            "LookUp_ListView_Caption": null,
            "LookUp_ListView_DataSource": null,
            "SearchExpr": null,
            "Precision": null,
            "ID_Parent_Grid": null,
            "IsShowClearButton": null,
            "IsSearchEnabled": null,
            "InputMask": null,
            "ID_PropertyModel": null,
            "PropertyName": null,
            "PropertyModel": null,
            "ID_PropertyModel_DetailView": null,
            "ID_PropertyModel_DetailView_Height": null,
            "ID_PropertyModel_DetailView_Width": null,
            "PropertyModel_PrimaryKey": null,
            "PropertyModel_Caption": null,
            "ID_PropertyModel_ID_DetailView": null,
            "LookUpDataSource": null,
            "LookUp_ListView_PK": null,
            "LookUp_ListView_Model": null,
            "ID_ModelProperty_Key": null,
            "ModelProperty_Key": null,
            "IsAllowAdd": null,
            "ListViewDetailName": null
        },
        {
            "SeqNo": 100,
            "ID_PropertyType": null,
            "ValueExpr": "ID",
            "GroupIndex": -1,
            "DataSourceKey": null,
            "DataSource": null,
            "DisplayProperty": null,
            "Oid": "1CD499EC-F53C-4E36-A03E-E230578C2994",
            "Code": null,
            "Name": "InfoSection",
            "IsActive": true,
            "Comment": null,
            "Caption": "Information",
            "ID_ModelProperty": null,
            "ID_DetailView": "C1A01BCE-7282-4802-B552-19BE6560529B",
            "ID_Tab": "A72A4BF1-2664-4667-8E9B-6A573837D582",
            "ID_Section": null,
            "ID_ControlType": 13,
            "Format": null,
            "ID_CreatedBy": 1,
            "ID_LastModifiedBy": 1,
            "DateCreated": "2020-10-04T00:37:37.633Z",
            "DateModified": null,
            "IsLoadData": null,
            "ColCount": 1,
            "ColSpan": 4,
            "IsDisabled": null,
            "Height": null,
            "ID_ListView": null,
            "IsReadOnly": null,
            "ID_LabelLocation": null,
            "IsShowLabel": null,
            "IsRequired": null,
            "DisplayExpr": null,
            "ID_LookUp_ListView": null,
            "LookUp_ListView_Caption": null,
            "LookUp_ListView_DataSource": null,
            "SearchExpr": null,
            "Precision": null,
            "ID_Parent_Grid": null,
            "IsShowClearButton": null,
            "IsSearchEnabled": null,
            "InputMask": null,
            "ID_PropertyModel": null,
            "PropertyName": null,
            "PropertyModel": null,
            "ID_PropertyModel_DetailView": null,
            "ID_PropertyModel_DetailView_Height": null,
            "ID_PropertyModel_DetailView_Width": null,
            "PropertyModel_PrimaryKey": null,
            "PropertyModel_Caption": null,
            "ID_PropertyModel_ID_DetailView": null,
            "LookUpDataSource": null,
            "LookUp_ListView_PK": null,
            "LookUp_ListView_Model": null,
            "ID_ModelProperty_Key": null,
            "ModelProperty_Key": null,
            "IsAllowAdd": null,
            "ListViewDetailName": null
        },
        {
            "SeqNo": 200,
            "ID_PropertyType": null,
            "ValueExpr": "ID",
            "GroupIndex": -1,
            "DataSourceKey": null,
            "DataSource": null,
            "DisplayProperty": null,
            "Oid": "6C20C586-8CB9-4E42-8908-F25B98894DD1",
            "Code": null,
            "Name": "StatusTab",
            "IsActive": true,
            "Comment": null,
            "Caption": "Status",
            "ID_ModelProperty": null,
            "ID_DetailView": "C1A01BCE-7282-4802-B552-19BE6560529B",
            "ID_Tab": "12E8FABA-231F-4CF6-9BD3-3C5AFF117845",
            "ID_Section": null,
            "ID_ControlType": 12,
            "Format": null,
            "ID_CreatedBy": 1,
            "ID_LastModifiedBy": 1,
            "DateCreated": "2020-10-04T00:37:37.643Z",
            "DateModified": null,
            "IsLoadData": null,
            "ColCount": null,
            "ColSpan": null,
            "IsDisabled": null,
            "Height": null,
            "ID_ListView": null,
            "IsReadOnly": null,
            "ID_LabelLocation": null,
            "IsShowLabel": null,
            "IsRequired": null,
            "DisplayExpr": null,
            "ID_LookUp_ListView": null,
            "LookUp_ListView_Caption": null,
            "LookUp_ListView_DataSource": null,
            "SearchExpr": null,
            "Precision": null,
            "ID_Parent_Grid": null,
            "IsShowClearButton": null,
            "IsSearchEnabled": null,
            "InputMask": null,
            "ID_PropertyModel": null,
            "PropertyName": null,
            "PropertyModel": null,
            "ID_PropertyModel_DetailView": null,
            "ID_PropertyModel_DetailView_Height": null,
            "ID_PropertyModel_DetailView_Width": null,
            "PropertyModel_PrimaryKey": null,
            "PropertyModel_Caption": null,
            "ID_PropertyModel_ID_DetailView": null,
            "LookUpDataSource": null,
            "LookUp_ListView_PK": null,
            "LookUp_ListView_Model": null,
            "ID_ModelProperty_Key": null,
            "ModelProperty_Key": null,
            "IsAllowAdd": null,
            "ListViewDetailName": null
        },
        {
            "SeqNo": 1000,
            "ID_PropertyType": 2,
            "ValueExpr": "ID",
            "GroupIndex": -1,
            "DataSourceKey": null,
            "DataSource": null,
            "DisplayProperty": "CreatedBy",
            "Oid": "9C21A222-459E-4881-894E-11BEA7FD0661",
            "Code": null,
            "Name": "ID_CreatedBy",
            "IsActive": true,
            "Comment": null,
            "Caption": "Created By",
            "ID_ModelProperty": "4574D037-1419-4628-AF5D-4252776A57A2",
            "ID_DetailView": "C1A01BCE-7282-4802-B552-19BE6560529B",
            "ID_Tab": null,
            "ID_Section": "53B2CC76-4AEF-4773-8316-83F0C9396C71",
            "ID_ControlType": null,
            "Format": null,
            "ID_CreatedBy": 1,
            "ID_LastModifiedBy": null,
            "DateCreated": "2020-10-04T00:37:37.650Z",
            "DateModified": null,
            "IsLoadData": null,
            "ColCount": null,
            "ColSpan": 1,
            "IsDisabled": null,
            "Height": null,
            "ID_ListView": null,
            "IsReadOnly": true,
            "ID_LabelLocation": null,
            "IsShowLabel": null,
            "IsRequired": null,
            "DisplayExpr": null,
            "ID_LookUp_ListView": null,
            "LookUp_ListView_Caption": null,
            "LookUp_ListView_DataSource": null,
            "SearchExpr": null,
            "Precision": null,
            "ID_Parent_Grid": null,
            "IsShowClearButton": null,
            "IsSearchEnabled": null,
            "InputMask": null,
            "ID_PropertyModel": null,
            "PropertyName": "ID_CreatedBy",
            "PropertyModel": null,
            "ID_PropertyModel_DetailView": null,
            "ID_PropertyModel_DetailView_Height": null,
            "ID_PropertyModel_DetailView_Width": null,
            "PropertyModel_PrimaryKey": null,
            "PropertyModel_Caption": null,
            "ID_PropertyModel_ID_DetailView": null,
            "LookUpDataSource": null,
            "LookUp_ListView_PK": null,
            "LookUp_ListView_Model": null,
            "ID_ModelProperty_Key": null,
            "ModelProperty_Key": null,
            "IsAllowAdd": null,
            "ListViewDetailName": null
        },
        {
            "SeqNo": 1000,
            "ID_PropertyType": 2,
            "ValueExpr": "ID",
            "GroupIndex": -1,
            "DataSourceKey": null,
            "DataSource": null,
            "DisplayProperty": "LastModifiedBy",
            "Oid": "EAC98DE0-DC10-42D0-8164-19FF3AD54922",
            "Code": null,
            "Name": "ID_LastModifiedBy",
            "IsActive": true,
            "Comment": null,
            "Caption": "Last Modified By",
            "ID_ModelProperty": "1632B8E6-C589-4897-9E34-52ED9C928635",
            "ID_DetailView": "C1A01BCE-7282-4802-B552-19BE6560529B",
            "ID_Tab": null,
            "ID_Section": "296E21BD-2469-4F41-B153-C5209C26F60F",
            "ID_ControlType": null,
            "Format": null,
            "ID_CreatedBy": 1,
            "ID_LastModifiedBy": null,
            "DateCreated": "2020-10-04T00:37:37.650Z",
            "DateModified": null,
            "IsLoadData": null,
            "ColCount": null,
            "ColSpan": 1,
            "IsDisabled": null,
            "Height": null,
            "ID_ListView": null,
            "IsReadOnly": true,
            "ID_LabelLocation": null,
            "IsShowLabel": null,
            "IsRequired": null,
            "DisplayExpr": null,
            "ID_LookUp_ListView": null,
            "LookUp_ListView_Caption": null,
            "LookUp_ListView_DataSource": null,
            "SearchExpr": null,
            "Precision": null,
            "ID_Parent_Grid": null,
            "IsShowClearButton": null,
            "IsSearchEnabled": null,
            "InputMask": null,
            "ID_PropertyModel": null,
            "PropertyName": "ID_LastModifiedBy",
            "PropertyModel": null,
            "ID_PropertyModel_DetailView": null,
            "ID_PropertyModel_DetailView_Height": null,
            "ID_PropertyModel_DetailView_Width": null,
            "PropertyModel_PrimaryKey": null,
            "PropertyModel_Caption": null,
            "ID_PropertyModel_ID_DetailView": null,
            "LookUpDataSource": null,
            "LookUp_ListView_PK": null,
            "LookUp_ListView_Model": null,
            "ID_ModelProperty_Key": null,
            "ModelProperty_Key": null,
            "IsAllowAdd": null,
            "ListViewDetailName": null
        },
        {
            "SeqNo": 300,
            "ID_PropertyType": null,
            "ValueExpr": "ID",
            "GroupIndex": -1,
            "DataSourceKey": null,
            "DataSource": null,
            "DisplayProperty": null,
            "Oid": "12E8FABA-231F-4CF6-9BD3-3C5AFF117845",
            "Code": null,
            "Name": "CommentTab",
            "IsActive": true,
            "Comment": null,
            "Caption": "Comment",
            "ID_ModelProperty": null,
            "ID_DetailView": "C1A01BCE-7282-4802-B552-19BE6560529B",
            "ID_Tab": null,
            "ID_Section": null,
            "ID_ControlType": 12,
            "Format": null,
            "ID_CreatedBy": 1,
            "ID_LastModifiedBy": null,
            "DateCreated": "2020-10-04T00:37:37.650Z",
            "DateModified": null,
            "IsLoadData": null,
            "ColCount": null,
            "ColSpan": null,
            "IsDisabled": null,
            "Height": null,
            "ID_ListView": null,
            "IsReadOnly": null,
            "ID_LabelLocation": null,
            "IsShowLabel": null,
            "IsRequired": null,
            "DisplayExpr": null,
            "ID_LookUp_ListView": null,
            "LookUp_ListView_Caption": null,
            "LookUp_ListView_DataSource": null,
            "SearchExpr": null,
            "Precision": null,
            "ID_Parent_Grid": null,
            "IsShowClearButton": null,
            "IsSearchEnabled": null,
            "InputMask": null,
            "ID_PropertyModel": null,
            "PropertyName": null,
            "PropertyModel": null,
            "ID_PropertyModel_DetailView": null,
            "ID_PropertyModel_DetailView_Height": null,
            "ID_PropertyModel_DetailView_Width": null,
            "PropertyModel_PrimaryKey": null,
            "PropertyModel_Caption": null,
            "ID_PropertyModel_ID_DetailView": null,
            "LookUpDataSource": null,
            "LookUp_ListView_PK": null,
            "LookUp_ListView_Model": null,
            "ID_ModelProperty_Key": null,
            "ModelProperty_Key": null,
            "IsAllowAdd": null,
            "ListViewDetailName": null
        },
        {
            "SeqNo": 1000,
            "ID_PropertyType": 5,
            "ValueExpr": "ID",
            "GroupIndex": -1,
            "DataSourceKey": null,
            "DataSource": null,
            "DisplayProperty": null,
            "Oid": "AD899428-7568-4256-8094-3DB3ADF2D182",
            "Code": null,
            "Name": "DateCreated",
            "IsActive": true,
            "Comment": null,
            "Caption": "Date Created",
            "ID_ModelProperty": "F25011B8-CE77-4556-9013-06487569D949",
            "ID_DetailView": "C1A01BCE-7282-4802-B552-19BE6560529B",
            "ID_Tab": null,
            "ID_Section": "53B2CC76-4AEF-4773-8316-83F0C9396C71",
            "ID_ControlType": null,
            "Format": null,
            "ID_CreatedBy": 1,
            "ID_LastModifiedBy": null,
            "DateCreated": "2020-10-04T00:37:37.650Z",
            "DateModified": null,
            "IsLoadData": null,
            "ColCount": null,
            "ColSpan": 1,
            "IsDisabled": null,
            "Height": null,
            "ID_ListView": null,
            "IsReadOnly": true,
            "ID_LabelLocation": null,
            "IsShowLabel": null,
            "IsRequired": null,
            "DisplayExpr": null,
            "ID_LookUp_ListView": null,
            "LookUp_ListView_Caption": null,
            "LookUp_ListView_DataSource": null,
            "SearchExpr": null,
            "Precision": null,
            "ID_Parent_Grid": null,
            "IsShowClearButton": null,
            "IsSearchEnabled": null,
            "InputMask": null,
            "ID_PropertyModel": null,
            "PropertyName": "DateCreated",
            "PropertyModel": null,
            "ID_PropertyModel_DetailView": null,
            "ID_PropertyModel_DetailView_Height": null,
            "ID_PropertyModel_DetailView_Width": null,
            "PropertyModel_PrimaryKey": null,
            "PropertyModel_Caption": null,
            "ID_PropertyModel_ID_DetailView": null,
            "LookUpDataSource": null,
            "LookUp_ListView_PK": null,
            "LookUp_ListView_Model": null,
            "ID_ModelProperty_Key": null,
            "ModelProperty_Key": null,
            "IsAllowAdd": null,
            "ListViewDetailName": null
        },
        {
            "SeqNo": 1000,
            "ID_PropertyType": 5,
            "ValueExpr": "ID",
            "GroupIndex": -1,
            "DataSourceKey": null,
            "DataSource": null,
            "DisplayProperty": null,
            "Oid": "94BE974E-A733-4D80-9E71-40DBF2802837",
            "Code": null,
            "Name": "DateModified",
            "IsActive": true,
            "Comment": null,
            "Caption": "Date Modified",
            "ID_ModelProperty": "4D50BCBF-C5B4-48B3-9EEF-566916DED0DC",
            "ID_DetailView": "C1A01BCE-7282-4802-B552-19BE6560529B",
            "ID_Tab": null,
            "ID_Section": "296E21BD-2469-4F41-B153-C5209C26F60F",
            "ID_ControlType": null,
            "Format": null,
            "ID_CreatedBy": 1,
            "ID_LastModifiedBy": null,
            "DateCreated": "2020-10-04T00:37:37.650Z",
            "DateModified": null,
            "IsLoadData": null,
            "ColCount": null,
            "ColSpan": 1,
            "IsDisabled": null,
            "Height": null,
            "ID_ListView": null,
            "IsReadOnly": true,
            "ID_LabelLocation": null,
            "IsShowLabel": null,
            "IsRequired": null,
            "DisplayExpr": null,
            "ID_LookUp_ListView": null,
            "LookUp_ListView_Caption": null,
            "LookUp_ListView_DataSource": null,
            "SearchExpr": null,
            "Precision": null,
            "ID_Parent_Grid": null,
            "IsShowClearButton": null,
            "IsSearchEnabled": null,
            "InputMask": null,
            "ID_PropertyModel": null,
            "PropertyName": "DateModified",
            "PropertyModel": null,
            "ID_PropertyModel_DetailView": null,
            "ID_PropertyModel_DetailView_Height": null,
            "ID_PropertyModel_DetailView_Width": null,
            "PropertyModel_PrimaryKey": null,
            "PropertyModel_Caption": null,
            "ID_PropertyModel_ID_DetailView": null,
            "LookUpDataSource": null,
            "LookUp_ListView_PK": null,
            "LookUp_ListView_Model": null,
            "ID_ModelProperty_Key": null,
            "ModelProperty_Key": null,
            "IsAllowAdd": null,
            "ListViewDetailName": null
        },
        {
            "SeqNo": 20,
            "ID_PropertyType": 1,
            "ValueExpr": "ID",
            "GroupIndex": -1,
            "DataSourceKey": null,
            "DataSource": null,
            "DisplayProperty": null,
            "Oid": "4AD443BC-0E17-4870-9CB8-57F172433873",
            "Code": null,
            "Name": "Name",
            "IsActive": true,
            "Comment": null,
            "Caption": null,
            "ID_ModelProperty": "00C0696E-21F7-44B7-B510-F10D88C2FF84",
            "ID_DetailView": "C1A01BCE-7282-4802-B552-19BE6560529B",
            "ID_Tab": null,
            "ID_Section": "1CD499EC-F53C-4E36-A03E-E230578C2994",
            "ID_ControlType": 1,
            "Format": null,
            "ID_CreatedBy": 1,
            "ID_LastModifiedBy": 1,
            "DateCreated": "2020-10-04T00:37:37.650Z",
            "DateModified": null,
            "IsLoadData": null,
            "ColCount": null,
            "ColSpan": 1,
            "IsDisabled": null,
            "Height": null,
            "ID_ListView": null,
            "IsReadOnly": null,
            "ID_LabelLocation": 2,
            "IsShowLabel": null,
            "IsRequired": null,
            "DisplayExpr": null,
            "ID_LookUp_ListView": null,
            "LookUp_ListView_Caption": null,
            "LookUp_ListView_DataSource": null,
            "SearchExpr": null,
            "Precision": null,
            "ID_Parent_Grid": null,
            "IsShowClearButton": null,
            "IsSearchEnabled": null,
            "InputMask": null,
            "ID_PropertyModel": null,
            "PropertyName": "Name",
            "PropertyModel": null,
            "ID_PropertyModel_DetailView": null,
            "ID_PropertyModel_DetailView_Height": null,
            "ID_PropertyModel_DetailView_Width": null,
            "PropertyModel_PrimaryKey": null,
            "PropertyModel_Caption": null,
            "ID_PropertyModel_ID_DetailView": null,
            "LookUpDataSource": null,
            "LookUp_ListView_PK": null,
            "LookUp_ListView_Model": null,
            "ID_ModelProperty_Key": null,
            "ModelProperty_Key": null,
            "IsAllowAdd": null,
            "ListViewDetailName": null
        },
        {
            "SeqNo": 100,
            "ID_PropertyType": null,
            "ValueExpr": "ID",
            "GroupIndex": -1,
            "DataSourceKey": null,
            "DataSource": null,
            "DisplayProperty": null,
            "Oid": "53B2CC76-4AEF-4773-8316-83F0C9396C71",
            "Code": null,
            "Name": "StatusSectionA",
            "IsActive": true,
            "Comment": null,
            "Caption": "StatusSectionA",
            "ID_ModelProperty": null,
            "ID_DetailView": "C1A01BCE-7282-4802-B552-19BE6560529B",
            "ID_Tab": "6C20C586-8CB9-4E42-8908-F25B98894DD1",
            "ID_Section": null,
            "ID_ControlType": 13,
            "Format": null,
            "ID_CreatedBy": 1,
            "ID_LastModifiedBy": null,
            "DateCreated": "2020-10-04T00:37:37.650Z",
            "DateModified": null,
            "IsLoadData": null,
            "ColCount": 1,
            "ColSpan": 5,
            "IsDisabled": null,
            "Height": null,
            "ID_ListView": null,
            "IsReadOnly": null,
            "ID_LabelLocation": null,
            "IsShowLabel": null,
            "IsRequired": null,
            "DisplayExpr": null,
            "ID_LookUp_ListView": null,
            "LookUp_ListView_Caption": null,
            "LookUp_ListView_DataSource": null,
            "SearchExpr": null,
            "Precision": null,
            "ID_Parent_Grid": null,
            "IsShowClearButton": null,
            "IsSearchEnabled": null,
            "InputMask": null,
            "ID_PropertyModel": null,
            "PropertyName": null,
            "PropertyModel": null,
            "ID_PropertyModel_DetailView": null,
            "ID_PropertyModel_DetailView_Height": null,
            "ID_PropertyModel_DetailView_Width": null,
            "PropertyModel_PrimaryKey": null,
            "PropertyModel_Caption": null,
            "ID_PropertyModel_ID_DetailView": null,
            "LookUpDataSource": null,
            "LookUp_ListView_PK": null,
            "LookUp_ListView_Model": null,
            "ID_ModelProperty_Key": null,
            "ModelProperty_Key": null,
            "IsAllowAdd": null,
            "ListViewDetailName": null
        },
        {
            "SeqNo": 1000,
            "ID_PropertyType": 1,
            "ValueExpr": "ID",
            "GroupIndex": -1,
            "DataSourceKey": null,
            "DataSource": null,
            "DisplayProperty": null,
            "Oid": "AB469B59-6C71-424B-891D-894BF735E798",
            "Code": null,
            "Name": "Comment",
            "IsActive": true,
            "Comment": null,
            "Caption": null,
            "ID_ModelProperty": "72C929DC-D656-4B40-B7C0-825DE823CF2A",
            "ID_DetailView": "C1A01BCE-7282-4802-B552-19BE6560529B",
            "ID_Tab": "12E8FABA-231F-4CF6-9BD3-3C5AFF117845",
            "ID_Section": null,
            "ID_ControlType": 2,
            "Format": null,
            "ID_CreatedBy": 1,
            "ID_LastModifiedBy": null,
            "DateCreated": "2020-10-04T00:37:37.650Z",
            "DateModified": null,
            "IsLoadData": null,
            "ColCount": null,
            "ColSpan": 3,
            "IsDisabled": null,
            "Height": 250,
            "ID_ListView": null,
            "IsReadOnly": null,
            "ID_LabelLocation": 2,
            "IsShowLabel": null,
            "IsRequired": null,
            "DisplayExpr": null,
            "ID_LookUp_ListView": null,
            "LookUp_ListView_Caption": null,
            "LookUp_ListView_DataSource": null,
            "SearchExpr": null,
            "Precision": null,
            "ID_Parent_Grid": null,
            "IsShowClearButton": null,
            "IsSearchEnabled": null,
            "InputMask": null,
            "ID_PropertyModel": null,
            "PropertyName": "Comment",
            "PropertyModel": null,
            "ID_PropertyModel_DetailView": null,
            "ID_PropertyModel_DetailView_Height": null,
            "ID_PropertyModel_DetailView_Width": null,
            "PropertyModel_PrimaryKey": null,
            "PropertyModel_Caption": null,
            "ID_PropertyModel_ID_DetailView": null,
            "LookUpDataSource": null,
            "LookUp_ListView_PK": null,
            "LookUp_ListView_Model": null,
            "ID_ModelProperty_Key": null,
            "ModelProperty_Key": null,
            "IsAllowAdd": null,
            "ListViewDetailName": null
        },
        {
            "SeqNo": 1000,
            "ID_PropertyType": 2,
            "ValueExpr": "ID",
            "GroupIndex": -1,
            "DataSourceKey": null,
            "DataSource": null,
            "DisplayProperty": "Company",
            "Oid": "82AA76C3-01DE-4D80-B22D-C47CAB0D2843",
            "Code": null,
            "Name": "ID_Company",
            "IsActive": true,
            "Comment": null,
            "Caption": "Company",
            "ID_ModelProperty": "D7B5B514-59D2-4BA8-98B2-F62FEEDBE10A",
            "ID_DetailView": "C1A01BCE-7282-4802-B552-19BE6560529B",
            "ID_Tab": null,
            "ID_Section": "53B2CC76-4AEF-4773-8316-83F0C9396C71",
            "ID_ControlType": null,
            "Format": null,
            "ID_CreatedBy": 1,
            "ID_LastModifiedBy": null,
            "DateCreated": "2020-10-04T00:37:37.650Z",
            "DateModified": null,
            "IsLoadData": null,
            "ColCount": null,
            "ColSpan": 1,
            "IsDisabled": null,
            "Height": null,
            "ID_ListView": null,
            "IsReadOnly": true,
            "ID_LabelLocation": null,
            "IsShowLabel": null,
            "IsRequired": null,
            "DisplayExpr": null,
            "ID_LookUp_ListView": null,
            "LookUp_ListView_Caption": null,
            "LookUp_ListView_DataSource": null,
            "SearchExpr": null,
            "Precision": null,
            "ID_Parent_Grid": null,
            "IsShowClearButton": null,
            "IsSearchEnabled": null,
            "InputMask": null,
            "ID_PropertyModel": null,
            "PropertyName": "ID_Company",
            "PropertyModel": null,
            "ID_PropertyModel_DetailView": null,
            "ID_PropertyModel_DetailView_Height": null,
            "ID_PropertyModel_DetailView_Width": null,
            "PropertyModel_PrimaryKey": null,
            "PropertyModel_Caption": null,
            "ID_PropertyModel_ID_DetailView": null,
            "LookUpDataSource": null,
            "LookUp_ListView_PK": null,
            "LookUp_ListView_Model": null,
            "ID_ModelProperty_Key": null,
            "ModelProperty_Key": null,
            "IsAllowAdd": null,
            "ListViewDetailName": null
        },
        {
            "SeqNo": 200,
            "ID_PropertyType": null,
            "ValueExpr": "ID",
            "GroupIndex": -1,
            "DataSourceKey": null,
            "DataSource": null,
            "DisplayProperty": null,
            "Oid": "296E21BD-2469-4F41-B153-C5209C26F60F",
            "Code": null,
            "Name": "StatusSectionB",
            "IsActive": true,
            "Comment": null,
            "Caption": "StatusSectionB",
            "ID_ModelProperty": null,
            "ID_DetailView": "C1A01BCE-7282-4802-B552-19BE6560529B",
            "ID_Tab": "6C20C586-8CB9-4E42-8908-F25B98894DD1",
            "ID_Section": null,
            "ID_ControlType": 13,
            "Format": null,
            "ID_CreatedBy": 1,
            "ID_LastModifiedBy": null,
            "DateCreated": "2020-10-04T00:37:37.650Z",
            "DateModified": null,
            "IsLoadData": null,
            "ColCount": 1,
            "ColSpan": 5,
            "IsDisabled": null,
            "Height": null,
            "ID_ListView": null,
            "IsReadOnly": null,
            "ID_LabelLocation": null,
            "IsShowLabel": null,
            "IsRequired": null,
            "DisplayExpr": null,
            "ID_LookUp_ListView": null,
            "LookUp_ListView_Caption": null,
            "LookUp_ListView_DataSource": null,
            "SearchExpr": null,
            "Precision": null,
            "ID_Parent_Grid": null,
            "IsShowClearButton": null,
            "IsSearchEnabled": null,
            "InputMask": null,
            "ID_PropertyModel": null,
            "PropertyName": null,
            "PropertyModel": null,
            "ID_PropertyModel_DetailView": null,
            "ID_PropertyModel_DetailView_Height": null,
            "ID_PropertyModel_DetailView_Width": null,
            "PropertyModel_PrimaryKey": null,
            "PropertyModel_Caption": null,
            "ID_PropertyModel_ID_DetailView": null,
            "LookUpDataSource": null,
            "LookUp_ListView_PK": null,
            "LookUp_ListView_Model": null,
            "ID_ModelProperty_Key": null,
            "ModelProperty_Key": null,
            "IsAllowAdd": null,
            "ListViewDetailName": null
        },
        {
            "SeqNo": 1000,
            "ID_PropertyType": 4,
            "ValueExpr": "ID",
            "GroupIndex": -1,
            "DataSourceKey": null,
            "DataSource": null,
            "DisplayProperty": null,
            "Oid": "D772D78C-8A02-4B69-8D39-FF7AA9F2E136",
            "Code": null,
            "Name": "IsActive",
            "IsActive": true,
            "Comment": null,
            "Caption": "Active",
            "ID_ModelProperty": "A80D697E-9825-4EB8-8769-BDB3378953BF",
            "ID_DetailView": "C1A01BCE-7282-4802-B552-19BE6560529B",
            "ID_Tab": null,
            "ID_Section": "1CD499EC-F53C-4E36-A03E-E230578C2994",
            "ID_ControlType": 4,
            "Format": null,
            "ID_CreatedBy": 1,
            "ID_LastModifiedBy": 1,
            "DateCreated": "2020-10-04T00:37:37.650Z",
            "DateModified": null,
            "IsLoadData": null,
            "ColCount": null,
            "ColSpan": 1,
            "IsDisabled": null,
            "Height": null,
            "ID_ListView": null,
            "IsReadOnly": null,
            "ID_LabelLocation": 2,
            "IsShowLabel": null,
            "IsRequired": null,
            "DisplayExpr": null,
            "ID_LookUp_ListView": null,
            "LookUp_ListView_Caption": null,
            "LookUp_ListView_DataSource": null,
            "SearchExpr": null,
            "Precision": null,
            "ID_Parent_Grid": null,
            "IsShowClearButton": null,
            "IsSearchEnabled": null,
            "InputMask": null,
            "ID_PropertyModel": null,
            "PropertyName": "IsActive",
            "PropertyModel": null,
            "ID_PropertyModel_DetailView": null,
            "ID_PropertyModel_DetailView_Height": null,
            "ID_PropertyModel_DetailView_Width": null,
            "PropertyModel_PrimaryKey": null,
            "PropertyModel_Caption": null,
            "ID_PropertyModel_ID_DetailView": null,
            "LookUpDataSource": null,
            "LookUp_ListView_PK": null,
            "LookUp_ListView_Model": null,
            "ID_ModelProperty_Key": null,
            "ModelProperty_Key": null,
            "IsAllowAdd": null,
            "ListViewDetailName": null
        },
        {
            "SeqNo": 10000,
            "ID_PropertyType": 1,
            "ValueExpr": "ID",
            "GroupIndex": -1,
            "DataSourceKey": null,
            "DataSource": null,
            "DisplayProperty": null,
            "Oid": "AE3A9D01-6065-4D86-B258-9ADC789DC164",
            "Code": null,
            "Name": "Oid_ListView",
            "IsActive": true,
            "Comment": null,
            "Caption": null,
            "ID_ModelProperty": "3FBD8271-BAAF-433A-86A7-1DC8E6C38BE0",
            "ID_DetailView": "C1A01BCE-7282-4802-B552-19BE6560529B",
            "ID_Tab": null,
            "ID_Section": "1CD499EC-F53C-4E36-A03E-E230578C2994",
            "ID_ControlType": 1,
            "Format": null,
            "ID_CreatedBy": 1,
            "ID_LastModifiedBy": 1,
            "DateCreated": "2020-10-04T00:41:25.953Z",
            "DateModified": null,
            "IsLoadData": null,
            "ColCount": null,
            "ColSpan": 3,
            "IsDisabled": null,
            "Height": null,
            "ID_ListView": null,
            "IsReadOnly": null,
            "ID_LabelLocation": 2,
            "IsShowLabel": null,
            "IsRequired": null,
            "DisplayExpr": null,
            "ID_LookUp_ListView": null,
            "LookUp_ListView_Caption": null,
            "LookUp_ListView_DataSource": null,
            "SearchExpr": null,
            "Precision": null,
            "ID_Parent_Grid": null,
            "IsShowClearButton": null,
            "IsSearchEnabled": null,
            "InputMask": null,
            "ID_PropertyModel": null,
            "PropertyName": "Oid_ListView",
            "PropertyModel": null,
            "ID_PropertyModel_DetailView": null,
            "ID_PropertyModel_DetailView_Height": null,
            "ID_PropertyModel_DetailView_Width": null,
            "PropertyModel_PrimaryKey": null,
            "PropertyModel_Caption": null,
            "ID_PropertyModel_ID_DetailView": null,
            "LookUpDataSource": null,
            "LookUp_ListView_PK": null,
            "LookUp_ListView_Model": null,
            "ID_ModelProperty_Key": null,
            "ModelProperty_Key": null,
            "IsAllowAdd": null,
            "ListViewDetailName": null
        },
        {
            "SeqNo": 60,
            "ID_PropertyType": 1,
            "ValueExpr": "ID",
            "GroupIndex": -1,
            "DataSourceKey": null,
            "DataSource": null,
            "DisplayProperty": null,
            "Oid": "F23A696A-3509-499E-971B-6E9DFFBD9D6A",
            "Code": null,
            "Name": "RouterLink",
            "IsActive": true,
            "Comment": null,
            "Caption": null,
            "ID_ModelProperty": "87AA5102-2899-4E8A-A5EF-6F143291D17D",
            "ID_DetailView": "C1A01BCE-7282-4802-B552-19BE6560529B",
            "ID_Tab": null,
            "ID_Section": "1CD499EC-F53C-4E36-A03E-E230578C2994",
            "ID_ControlType": 1,
            "Format": null,
            "ID_CreatedBy": 1,
            "ID_LastModifiedBy": 1,
            "DateCreated": "2020-10-04T01:11:45.207Z",
            "DateModified": null,
            "IsLoadData": null,
            "ColCount": null,
            "ColSpan": 3,
            "IsDisabled": null,
            "Height": null,
            "ID_ListView": null,
            "IsReadOnly": null,
            "ID_LabelLocation": 2,
            "IsShowLabel": null,
            "IsRequired": null,
            "DisplayExpr": null,
            "ID_LookUp_ListView": null,
            "LookUp_ListView_Caption": null,
            "LookUp_ListView_DataSource": null,
            "SearchExpr": null,
            "Precision": null,
            "ID_Parent_Grid": null,
            "IsShowClearButton": null,
            "IsSearchEnabled": null,
            "InputMask": null,
            "ID_PropertyModel": null,
            "PropertyName": "RouterLink",
            "PropertyModel": null,
            "ID_PropertyModel_DetailView": null,
            "ID_PropertyModel_DetailView_Height": null,
            "ID_PropertyModel_DetailView_Width": null,
            "PropertyModel_PrimaryKey": null,
            "PropertyModel_Caption": null,
            "ID_PropertyModel_ID_DetailView": null,
            "LookUpDataSource": null,
            "LookUp_ListView_PK": null,
            "LookUp_ListView_Model": null,
            "ID_ModelProperty_Key": null,
            "ModelProperty_Key": null,
            "IsAllowAdd": null,
            "ListViewDetailName": null
        },
        {
            "SeqNo": 11000,
            "ID_PropertyType": 2,
            "ValueExpr": "ID",
            "GroupIndex": -1,
            "DataSourceKey": "rF7Uqmclm2kEtx5mbMbusZqC5nAlm+/1/yW2EmYKhQ4=",
            "DataSource": "rF7Uqmclm2kEtx5mbMbusZqC5nAlm+/1/yW2EmYKhQ4=",
            "DisplayProperty": null,
            "Oid": "202C52DE-21DB-49D2-B5F7-E34E4766D6A2",
            "Code": null,
            "Name": "ID_ViewType",
            "IsActive": true,
            "Comment": null,
            "Caption": "View Type",
            "ID_ModelProperty": "CF6B6477-7C9E-433E-A913-89DD08C3BDC5",
            "ID_DetailView": "C1A01BCE-7282-4802-B552-19BE6560529B",
            "ID_Tab": null,
            "ID_Section": "1CD499EC-F53C-4E36-A03E-E230578C2994",
            "ID_ControlType": 9,
            "Format": null,
            "ID_CreatedBy": 1,
            "ID_LastModifiedBy": 1,
            "DateCreated": "2021-01-05T11:47:49.490Z",
            "DateModified": null,
            "IsLoadData": true,
            "ColCount": null,
            "ColSpan": 1,
            "IsDisabled": null,
            "Height": 100,
            "ID_ListView": null,
            "IsReadOnly": null,
            "ID_LabelLocation": 2,
            "IsShowLabel": true,
            "IsRequired": true,
            "DisplayExpr": null,
            "ID_LookUp_ListView": null,
            "LookUp_ListView_Caption": null,
            "LookUp_ListView_DataSource": null,
            "SearchExpr": null,
            "Precision": null,
            "ID_Parent_Grid": null,
            "IsShowClearButton": null,
            "IsSearchEnabled": null,
            "InputMask": null,
            "ID_PropertyModel": null,
            "PropertyName": "ID_ViewType",
            "PropertyModel": null,
            "ID_PropertyModel_DetailView": null,
            "ID_PropertyModel_DetailView_Height": null,
            "ID_PropertyModel_DetailView_Width": null,
            "PropertyModel_PrimaryKey": null,
            "PropertyModel_Caption": null,
            "ID_PropertyModel_ID_DetailView": null,
            "LookUpDataSource": null,
            "LookUp_ListView_PK": null,
            "LookUp_ListView_Model": null,
            "ID_ModelProperty_Key": null,
            "ModelProperty_Key": null,
            "IsAllowAdd": null,
            "ListViewDetailName": null
        },
        {
            "SeqNo": 10500,
            "ID_PropertyType": 1,
            "ValueExpr": "ID",
            "GroupIndex": -1,
            "DataSourceKey": null,
            "DataSource": null,
            "DisplayProperty": null,
            "Oid": "C37253DD-652F-46AE-B77E-75674791AD1B",
            "Code": null,
            "Name": "Oid_Report",
            "IsActive": true,
            "Comment": null,
            "Caption": null,
            "ID_ModelProperty": "C46E0FD1-89A0-4A07-98DC-67F0E3F8C350",
            "ID_DetailView": "C1A01BCE-7282-4802-B552-19BE6560529B",
            "ID_Tab": null,
            "ID_Section": "1CD499EC-F53C-4E36-A03E-E230578C2994",
            "ID_ControlType": 1,
            "Format": null,
            "ID_CreatedBy": 1,
            "ID_LastModifiedBy": 1,
            "DateCreated": "2021-01-05T12:00:51.700Z",
            "DateModified": null,
            "IsLoadData": null,
            "ColCount": null,
            "ColSpan": 3,
            "IsDisabled": null,
            "Height": null,
            "ID_ListView": null,
            "IsReadOnly": null,
            "ID_LabelLocation": 2,
            "IsShowLabel": null,
            "IsRequired": null,
            "DisplayExpr": null,
            "ID_LookUp_ListView": null,
            "LookUp_ListView_Caption": null,
            "LookUp_ListView_DataSource": null,
            "SearchExpr": null,
            "Precision": null,
            "ID_Parent_Grid": null,
            "IsShowClearButton": null,
            "IsSearchEnabled": null,
            "InputMask": null,
            "ID_PropertyModel": null,
            "PropertyName": "Oid_Report",
            "PropertyModel": null,
            "ID_PropertyModel_DetailView": null,
            "ID_PropertyModel_DetailView_Height": null,
            "ID_PropertyModel_DetailView_Width": null,
            "PropertyModel_PrimaryKey": null,
            "PropertyModel_Caption": null,
            "ID_PropertyModel_ID_DetailView": null,
            "LookUpDataSource": null,
            "LookUp_ListView_PK": null,
            "LookUp_ListView_Model": null,
            "ID_ModelProperty_Key": null,
            "ModelProperty_Key": null,
            "IsAllowAdd": null,
            "ListViewDetailName": null
        }
    ]
}