{
    "Oid": "453C3B1A-E962-4B0E-9ED5-8D523F8A5178",
    "Name": "LocalShippingPermitIssuance_ListView",
    "ID_Model": "A30937F4-5FCC-4C7B-A193-7BFB77EB88EC",
    "DataSource": "SELECT * FROM dbo.vLocalShippingPermitIssuance",
    "Comment": null,
    "ID_DetailView": "EB934658-DAFA-4F99-80B1-447118B0C4B7",
    "Model": "LocalShippingPermitIssuance",
    "PrimaryKey": "ID",
    "Caption": "LocalShippingPermitIssuance",
    "Details": [
        {
            "ID_PropertyType": 4,
            "Precision": null,
            "$DataSource": null,
            "DisplayProperty": null,
            "Oid": "06D4A626-29FC-4298-BB24-0186ABA27FC5",
            "Code": null,
            "Name": "IsActive",
            "IsActive": true,
            "Comment": null,
            "Caption": "Active",
            "ID_ModelProperty": "3B276DE4-DC09-4052-9C1D-2434B476546A",
            "ID_ListView": "453C3B1A-E962-4B0E-9ED5-8D523F8A5178",
            "ID_CreatedBy": 1,
            "ID_LastModifiedBy": null,
            "DateCreated": "2020-12-10T16:49:57.180Z",
            "DateModified": null,
            "DataSource": null,
            "Format": null,
            "Width": null,
            "Fixed": null,
            "VisibleIndex": 300,
            "IsAllowEdit": null,
            "ID_ControlType": null,
            "ID_ColumnAlignment": null,
            "IsVisible": true,
            "FixedPosition": null,
            "IsRequired": null,
            "ID_SummaryType": null,
            "IsAddModelClass": null,
            "GroupIndex": null,
            "IsFilter": null,
            "ID_FilterControlType": null,
            "ID_PropertyModel": null,
            "PropertyModel": null,
            "SummaryType": null
        },
        {
            "ID_PropertyType": 2,
            "Precision": null,
            "$DataSource": null,
            "DisplayProperty": "LastModifiedBy",
            "Oid": "A38F3993-5530-4768-B0E4-0AC5D4489807",
            "Code": null,
            "Name": "ID_LastModifiedBy",
            "IsActive": true,
            "Comment": null,
            "Caption": "Last Modified By",
            "ID_ModelProperty": "5539399B-704D-4CED-BA5D-A5C748A2885F",
            "ID_ListView": "453C3B1A-E962-4B0E-9ED5-8D523F8A5178",
            "ID_CreatedBy": 1,
            "ID_LastModifiedBy": null,
            "DateCreated": "2020-12-10T16:49:57.180Z",
            "DateModified": null,
            "DataSource": null,
            "Format": null,
            "Width": null,
            "Fixed": null,
            "VisibleIndex": 500,
            "IsAllowEdit": null,
            "ID_ControlType": null,
            "ID_ColumnAlignment": null,
            "IsVisible": true,
            "FixedPosition": null,
            "IsRequired": null,
            "ID_SummaryType": null,
            "IsAddModelClass": null,
            "GroupIndex": null,
            "IsFilter": null,
            "ID_FilterControlType": null,
            "ID_PropertyModel": null,
            "PropertyModel": null,
            "SummaryType": null
        },
        {
            "ID_PropertyType": 2,
            "Precision": null,
            "$DataSource": null,
            "DisplayProperty": null,
            "Oid": "D5A45432-1496-40EC-8927-1FDB475E35A3",
            "Code": null,
            "Name": "ID_Company",
            "IsActive": true,
            "Comment": null,
            "Caption": null,
            "ID_ModelProperty": "8E3EF215-370C-44FA-8DF9-CC8EBDED56FC",
            "ID_ListView": "453C3B1A-E962-4B0E-9ED5-8D523F8A5178",
            "ID_CreatedBy": 1,
            "ID_LastModifiedBy": null,
            "DateCreated": "2020-12-10T16:49:57.180Z",
            "DateModified": null,
            "DataSource": null,
            "Format": null,
            "Width": null,
            "Fixed": null,
            "VisibleIndex": 600,
            "IsAllowEdit": null,
            "ID_ControlType": null,
            "ID_ColumnAlignment": null,
            "IsVisible": true,
            "FixedPosition": null,
            "IsRequired": null,
            "ID_SummaryType": null,
            "IsAddModelClass": null,
            "GroupIndex": null,
            "IsFilter": null,
            "ID_FilterControlType": null,
            "ID_PropertyModel": null,
            "PropertyModel": null,
            "SummaryType": null
        },
        {
            "ID_PropertyType": 5,
            "Precision": null,
            "$DataSource": null,
            "DisplayProperty": null,
            "Oid": "41437B61-AD3A-4443-8F75-1FF048D0B51F",
            "Code": null,
            "Name": "DateCreated",
            "IsActive": true,
            "Comment": null,
            "Caption": "Date Created",
            "ID_ModelProperty": "2F5A3D18-9988-4478-B493-E93C76A6F3C9",
            "ID_ListView": "453C3B1A-E962-4B0E-9ED5-8D523F8A5178",
            "ID_CreatedBy": 1,
            "ID_LastModifiedBy": null,
            "DateCreated": "2020-12-10T16:49:57.180Z",
            "DateModified": null,
            "DataSource": null,
            "Format": null,
            "Width": null,
            "Fixed": null,
            "VisibleIndex": 800,
            "IsAllowEdit": null,
            "ID_ControlType": null,
            "ID_ColumnAlignment": null,
            "IsVisible": true,
            "FixedPosition": null,
            "IsRequired": null,
            "ID_SummaryType": null,
            "IsAddModelClass": null,
            "GroupIndex": null,
            "IsFilter": null,
            "ID_FilterControlType": null,
            "ID_PropertyModel": null,
            "PropertyModel": null,
            "SummaryType": null
        },
        {
            "ID_PropertyType": 1,
            "Precision": null,
            "$DataSource": null,
            "DisplayProperty": null,
            "Oid": "9A605E34-C9AA-4177-B232-248DD45EE1D4",
            "Code": null,
            "Name": "Code",
            "IsActive": true,
            "Comment": null,
            "Caption": null,
            "ID_ModelProperty": "47B62ED1-F051-4808-BAC3-99F480AC04D2",
            "ID_ListView": "453C3B1A-E962-4B0E-9ED5-8D523F8A5178",
            "ID_CreatedBy": 1,
            "ID_LastModifiedBy": null,
            "DateCreated": "2020-12-10T16:49:57.180Z",
            "DateModified": null,
            "DataSource": null,
            "Format": null,
            "Width": null,
            "Fixed": null,
            "VisibleIndex": 400,
            "IsAllowEdit": null,
            "ID_ControlType": null,
            "ID_ColumnAlignment": null,
            "IsVisible": true,
            "FixedPosition": null,
            "IsRequired": null,
            "ID_SummaryType": null,
            "IsAddModelClass": null,
            "GroupIndex": null,
            "IsFilter": null,
            "ID_FilterControlType": null,
            "ID_PropertyModel": null,
            "PropertyModel": null,
            "SummaryType": null
        },
        {
            "ID_PropertyType": 2,
            "Precision": null,
            "$DataSource": null,
            "DisplayProperty": null,
            "Oid": "B3FE22BF-6268-42D2-8D0A-35B978BFC36C",
            "Code": null,
            "Name": "ID",
            "IsActive": true,
            "Comment": null,
            "Caption": null,
            "ID_ModelProperty": "5559AF9D-D2A4-4498-87EB-E85C92EFB0CF",
            "ID_ListView": "453C3B1A-E962-4B0E-9ED5-8D523F8A5178",
            "ID_CreatedBy": 1,
            "ID_LastModifiedBy": null,
            "DateCreated": "2020-12-10T16:49:57.180Z",
            "DateModified": null,
            "DataSource": null,
            "Format": null,
            "Width": null,
            "Fixed": null,
            "VisibleIndex": 700,
            "IsAllowEdit": null,
            "ID_ControlType": null,
            "ID_ColumnAlignment": null,
            "IsVisible": true,
            "FixedPosition": null,
            "IsRequired": null,
            "ID_SummaryType": null,
            "IsAddModelClass": null,
            "GroupIndex": null,
            "IsFilter": null,
            "ID_FilterControlType": null,
            "ID_PropertyModel": null,
            "PropertyModel": null,
            "SummaryType": null
        },
        {
            "ID_PropertyType": 2,
            "Precision": null,
            "$DataSource": null,
            "DisplayProperty": "CreatedBy",
            "Oid": "93348BCA-309A-49BE-9B8D-49248E17DAF3",
            "Code": null,
            "Name": "ID_CreatedBy",
            "IsActive": true,
            "Comment": null,
            "Caption": "Created By",
            "ID_ModelProperty": "ED9AA39A-E091-4A5A-9294-FD699F240486",
            "ID_ListView": "453C3B1A-E962-4B0E-9ED5-8D523F8A5178",
            "ID_CreatedBy": 1,
            "ID_LastModifiedBy": null,
            "DateCreated": "2020-12-10T16:49:57.180Z",
            "DateModified": null,
            "DataSource": null,
            "Format": null,
            "Width": null,
            "Fixed": null,
            "VisibleIndex": 1000,
            "IsAllowEdit": null,
            "ID_ControlType": null,
            "ID_ColumnAlignment": null,
            "IsVisible": true,
            "FixedPosition": null,
            "IsRequired": null,
            "ID_SummaryType": null,
            "IsAddModelClass": null,
            "GroupIndex": null,
            "IsFilter": null,
            "ID_FilterControlType": null,
            "ID_PropertyModel": null,
            "PropertyModel": null,
            "SummaryType": null
        },
        {
            "ID_PropertyType": 1,
            "Precision": null,
            "$DataSource": null,
            "DisplayProperty": null,
            "Oid": "66323EB0-171D-4E95-9B96-AE5DFD32372F",
            "Code": null,
            "Name": "Name",
            "IsActive": true,
            "Comment": null,
            "Caption": null,
            "ID_ModelProperty": "1DE66426-697E-4425-BB75-18B1E1826051",
            "ID_ListView": "453C3B1A-E962-4B0E-9ED5-8D523F8A5178",
            "ID_CreatedBy": 1,
            "ID_LastModifiedBy": null,
            "DateCreated": "2020-12-10T16:49:57.180Z",
            "DateModified": null,
            "DataSource": null,
            "Format": null,
            "Width": null,
            "Fixed": null,
            "VisibleIndex": 200,
            "IsAllowEdit": null,
            "ID_ControlType": null,
            "ID_ColumnAlignment": null,
            "IsVisible": true,
            "FixedPosition": null,
            "IsRequired": null,
            "ID_SummaryType": null,
            "IsAddModelClass": null,
            "GroupIndex": null,
            "IsFilter": null,
            "ID_FilterControlType": null,
            "ID_PropertyModel": null,
            "PropertyModel": null,
            "SummaryType": null
        },
        {
            "ID_PropertyType": 5,
            "Precision": null,
            "$DataSource": null,
            "DisplayProperty": null,
            "Oid": "15A91FC6-FF27-4DAB-9D1A-F12083129EAD",
            "Code": null,
            "Name": "DateModified",
            "IsActive": true,
            "Comment": null,
            "Caption": "Date Modified",
            "ID_ModelProperty": "0F6001AE-4254-41CA-AA3A-0486B47A8B8F",
            "ID_ListView": "453C3B1A-E962-4B0E-9ED5-8D523F8A5178",
            "ID_CreatedBy": 1,
            "ID_LastModifiedBy": null,
            "DateCreated": "2020-12-10T16:49:57.180Z",
            "DateModified": null,
            "DataSource": null,
            "Format": null,
            "Width": null,
            "Fixed": null,
            "VisibleIndex": 100,
            "IsAllowEdit": null,
            "ID_ControlType": null,
            "ID_ColumnAlignment": null,
            "IsVisible": true,
            "FixedPosition": null,
            "IsRequired": null,
            "ID_SummaryType": null,
            "IsAddModelClass": null,
            "GroupIndex": null,
            "IsFilter": null,
            "ID_FilterControlType": null,
            "ID_PropertyModel": null,
            "PropertyModel": null,
            "SummaryType": null
        },
        {
            "ID_PropertyType": 1,
            "Precision": null,
            "$DataSource": null,
            "DisplayProperty": null,
            "Oid": "7F0997F1-9EE3-4567-B75E-F3E16B68A183",
            "Code": null,
            "Name": "Comment",
            "IsActive": true,
            "Comment": null,
            "Caption": null,
            "ID_ModelProperty": "6BFF33A7-08E1-412E-B181-EC9F67A14E60",
            "ID_ListView": "453C3B1A-E962-4B0E-9ED5-8D523F8A5178",
            "ID_CreatedBy": 1,
            "ID_LastModifiedBy": null,
            "DateCreated": "2020-12-10T16:49:57.180Z",
            "DateModified": null,
            "DataSource": null,
            "Format": null,
            "Width": null,
            "Fixed": null,
            "VisibleIndex": 900,
            "IsAllowEdit": null,
            "ID_ControlType": null,
            "ID_ColumnAlignment": null,
            "IsVisible": true,
            "FixedPosition": null,
            "IsRequired": null,
            "ID_SummaryType": null,
            "IsAddModelClass": null,
            "GroupIndex": null,
            "IsFilter": null,
            "ID_FilterControlType": null,
            "ID_PropertyModel": null,
            "PropertyModel": null,
            "SummaryType": null
        },
        {
            "ID_PropertyType": 1,
            "Precision": null,
            "$DataSource": null,
            "DisplayProperty": null,
            "Oid": "28AAE781-93C8-4262-A93D-F0CD94F04D71",
            "Code": null,
            "Name": "ShippingShipper",
            "IsActive": true,
            "Comment": null,
            "Caption": null,
            "ID_ModelProperty": "52EE48F0-89E4-4083-BCC7-DD32351B88CC",
            "ID_ListView": "453C3B1A-E962-4B0E-9ED5-8D523F8A5178",
            "ID_CreatedBy": 1,
            "ID_LastModifiedBy": null,
            "DateCreated": "2020-12-10T16:52:28.923Z",
            "DateModified": null,
            "DataSource": null,
            "Format": null,
            "Width": null,
            "Fixed": null,
            "VisibleIndex": 1000,
            "IsAllowEdit": null,
            "ID_ControlType": null,
            "ID_ColumnAlignment": null,
            "IsVisible": true,
            "FixedPosition": null,
            "IsRequired": null,
            "ID_SummaryType": null,
            "IsAddModelClass": null,
            "GroupIndex": null,
            "IsFilter": null,
            "ID_FilterControlType": null,
            "ID_PropertyModel": null,
            "PropertyModel": null,
            "SummaryType": null
        },
        {
            "ID_PropertyType": 1,
            "Precision": null,
            "$DataSource": null,
            "DisplayProperty": null,
            "Oid": "E16F5B77-1ED0-496B-BE8B-68C6DFD76ACF",
            "Code": null,
            "Name": "ShippingAddress",
            "IsActive": true,
            "Comment": null,
            "Caption": null,
            "ID_ModelProperty": "DED9D85E-C5D5-4732-A684-551F04E5BFFA",
            "ID_ListView": "453C3B1A-E962-4B0E-9ED5-8D523F8A5178",
            "ID_CreatedBy": 1,
            "ID_LastModifiedBy": null,
            "DateCreated": "2020-12-10T16:52:29.503Z",
            "DateModified": null,
            "DataSource": null,
            "Format": null,
            "Width": null,
            "Fixed": null,
            "VisibleIndex": 1000,
            "IsAllowEdit": null,
            "ID_ControlType": null,
            "ID_ColumnAlignment": null,
            "IsVisible": true,
            "FixedPosition": null,
            "IsRequired": null,
            "ID_SummaryType": null,
            "IsAddModelClass": null,
            "GroupIndex": null,
            "IsFilter": null,
            "ID_FilterControlType": null,
            "ID_PropertyModel": null,
            "PropertyModel": null,
            "SummaryType": null
        },
        {
            "ID_PropertyType": 1,
            "Precision": null,
            "$DataSource": null,
            "DisplayProperty": null,
            "Oid": "8013DC5B-47E4-4BE1-87CA-0FC6CEB32A5C",
            "Code": null,
            "Name": "ShippingCategory",
            "IsActive": true,
            "Comment": null,
            "Caption": null,
            "ID_ModelProperty": "AFF45C6A-AA91-46CA-AA6D-ECAB459DDE6D",
            "ID_ListView": "453C3B1A-E962-4B0E-9ED5-8D523F8A5178",
            "ID_CreatedBy": 1,
            "ID_LastModifiedBy": null,
            "DateCreated": "2020-12-10T16:52:30.250Z",
            "DateModified": null,
            "DataSource": null,
            "Format": null,
            "Width": null,
            "Fixed": null,
            "VisibleIndex": 1000,
            "IsAllowEdit": null,
            "ID_ControlType": null,
            "ID_ColumnAlignment": null,
            "IsVisible": true,
            "FixedPosition": null,
            "IsRequired": null,
            "ID_SummaryType": null,
            "IsAddModelClass": null,
            "GroupIndex": null,
            "IsFilter": null,
            "ID_FilterControlType": null,
            "ID_PropertyModel": null,
            "PropertyModel": null,
            "SummaryType": null
        },
        {
            "ID_PropertyType": 1,
            "Precision": null,
            "$DataSource": null,
            "DisplayProperty": null,
            "Oid": "46C3D1F2-6CF9-4904-8602-1EBA08040A61",
            "Code": null,
            "Name": "ShippingSource",
            "IsActive": true,
            "Comment": null,
            "Caption": null,
            "ID_ModelProperty": "C07E9424-D5DD-4AF6-BC5F-CF5232EACB7E",
            "ID_ListView": "453C3B1A-E962-4B0E-9ED5-8D523F8A5178",
            "ID_CreatedBy": 1,
            "ID_LastModifiedBy": null,
            "DateCreated": "2020-12-10T16:52:31.013Z",
            "DateModified": null,
            "DataSource": null,
            "Format": null,
            "Width": null,
            "Fixed": null,
            "VisibleIndex": 1000,
            "IsAllowEdit": null,
            "ID_ControlType": null,
            "ID_ColumnAlignment": null,
            "IsVisible": true,
            "FixedPosition": null,
            "IsRequired": null,
            "ID_SummaryType": null,
            "IsAddModelClass": null,
            "GroupIndex": null,
            "IsFilter": null,
            "ID_FilterControlType": null,
            "ID_PropertyModel": null,
            "PropertyModel": null,
            "SummaryType": null
        },
        {
            "ID_PropertyType": 1,
            "Precision": null,
            "$DataSource": null,
            "DisplayProperty": null,
            "Oid": "961AE8F6-C070-4DE3-A0BA-3C849EC4330C",
            "Code": null,
            "Name": "ShippingPurpose",
            "IsActive": true,
            "Comment": null,
            "Caption": null,
            "ID_ModelProperty": "1869E672-62B4-48CE-92CB-EADAF082EFF1",
            "ID_ListView": "453C3B1A-E962-4B0E-9ED5-8D523F8A5178",
            "ID_CreatedBy": 1,
            "ID_LastModifiedBy": null,
            "DateCreated": "2020-12-10T16:52:31.723Z",
            "DateModified": null,
            "DataSource": null,
            "Format": null,
            "Width": null,
            "Fixed": null,
            "VisibleIndex": 1000,
            "IsAllowEdit": null,
            "ID_ControlType": null,
            "ID_ColumnAlignment": null,
            "IsVisible": true,
            "FixedPosition": null,
            "IsRequired": null,
            "ID_SummaryType": null,
            "IsAddModelClass": null,
            "GroupIndex": null,
            "IsFilter": null,
            "ID_FilterControlType": null,
            "ID_PropertyModel": null,
            "PropertyModel": null,
            "SummaryType": null
        },
        {
            "ID_PropertyType": 1,
            "Precision": null,
            "$DataSource": null,
            "DisplayProperty": null,
            "Oid": "1892D93F-6AD2-4240-9518-428AC184BE48",
            "Code": null,
            "Name": "ShippingProductSource",
            "IsActive": true,
            "Comment": null,
            "Caption": null,
            "ID_ModelProperty": "949043F7-E074-460A-8F26-317F5B03FBA9",
            "ID_ListView": "453C3B1A-E962-4B0E-9ED5-8D523F8A5178",
            "ID_CreatedBy": 1,
            "ID_LastModifiedBy": null,
            "DateCreated": "2020-12-10T16:52:32.600Z",
            "DateModified": null,
            "DataSource": null,
            "Format": null,
            "Width": null,
            "Fixed": null,
            "VisibleIndex": 1000,
            "IsAllowEdit": null,
            "ID_ControlType": null,
            "ID_ColumnAlignment": null,
            "IsVisible": true,
            "FixedPosition": null,
            "IsRequired": null,
            "ID_SummaryType": null,
            "IsAddModelClass": null,
            "GroupIndex": null,
            "IsFilter": null,
            "ID_FilterControlType": null,
            "ID_PropertyModel": null,
            "PropertyModel": null,
            "SummaryType": null
        },
        {
            "ID_PropertyType": 1,
            "Precision": null,
            "$DataSource": null,
            "DisplayProperty": null,
            "Oid": "D3CF514D-663E-4873-A36B-E8244146623A",
            "Code": null,
            "Name": "ShippingLicenceNumber",
            "IsActive": true,
            "Comment": null,
            "Caption": null,
            "ID_ModelProperty": "7BD34C4E-788D-4726-9552-9C9E747F2D84",
            "ID_ListView": "453C3B1A-E962-4B0E-9ED5-8D523F8A5178",
            "ID_CreatedBy": 1,
            "ID_LastModifiedBy": null,
            "DateCreated": "2020-12-10T16:52:33.453Z",
            "DateModified": null,
            "DataSource": null,
            "Format": null,
            "Width": null,
            "Fixed": null,
            "VisibleIndex": 1000,
            "IsAllowEdit": null,
            "ID_ControlType": null,
            "ID_ColumnAlignment": null,
            "IsVisible": true,
            "FixedPosition": null,
            "IsRequired": null,
            "ID_SummaryType": null,
            "IsAddModelClass": null,
            "GroupIndex": null,
            "IsFilter": null,
            "ID_FilterControlType": null,
            "ID_PropertyModel": null,
            "PropertyModel": null,
            "SummaryType": null
        },
        {
            "ID_PropertyType": 1,
            "Precision": null,
            "$DataSource": null,
            "DisplayProperty": null,
            "Oid": "D350FDD7-391F-4F51-BBD6-5D3447E7390E",
            "Code": null,
            "Name": "ShippingAccredationNumber",
            "IsActive": true,
            "Comment": null,
            "Caption": null,
            "ID_ModelProperty": "82209476-9308-43BB-A596-702C625C3561",
            "ID_ListView": "453C3B1A-E962-4B0E-9ED5-8D523F8A5178",
            "ID_CreatedBy": 1,
            "ID_LastModifiedBy": null,
            "DateCreated": "2020-12-10T16:52:34.813Z",
            "DateModified": null,
            "DataSource": null,
            "Format": null,
            "Width": null,
            "Fixed": null,
            "VisibleIndex": 1000,
            "IsAllowEdit": null,
            "ID_ControlType": null,
            "ID_ColumnAlignment": null,
            "IsVisible": true,
            "FixedPosition": null,
            "IsRequired": null,
            "ID_SummaryType": null,
            "IsAddModelClass": null,
            "GroupIndex": null,
            "IsFilter": null,
            "ID_FilterControlType": null,
            "ID_PropertyModel": null,
            "PropertyModel": null,
            "SummaryType": null
        },
        {
            "ID_PropertyType": 1,
            "Precision": null,
            "$DataSource": null,
            "DisplayProperty": null,
            "Oid": "1ECAE2C7-ECAC-47BA-9574-D4B47CC1C486",
            "Code": null,
            "Name": "ShippingCountryOrigin",
            "IsActive": true,
            "Comment": null,
            "Caption": null,
            "ID_ModelProperty": "06A4F664-AB97-4DED-AB4B-7488D072169D",
            "ID_ListView": "453C3B1A-E962-4B0E-9ED5-8D523F8A5178",
            "ID_CreatedBy": 1,
            "ID_LastModifiedBy": null,
            "DateCreated": "2020-12-10T16:52:35.830Z",
            "DateModified": null,
            "DataSource": null,
            "Format": null,
            "Width": null,
            "Fixed": null,
            "VisibleIndex": 1000,
            "IsAllowEdit": null,
            "ID_ControlType": null,
            "ID_ColumnAlignment": null,
            "IsVisible": true,
            "FixedPosition": null,
            "IsRequired": null,
            "ID_SummaryType": null,
            "IsAddModelClass": null,
            "GroupIndex": null,
            "IsFilter": null,
            "ID_FilterControlType": null,
            "ID_PropertyModel": null,
            "PropertyModel": null,
            "SummaryType": null
        },
        {
            "ID_PropertyType": 5,
            "Precision": null,
            "$DataSource": null,
            "DisplayProperty": null,
            "Oid": "1B80A377-75A1-458B-9AE9-D07E923D0427",
            "Code": null,
            "Name": "ProposedShippingDate",
            "IsActive": true,
            "Comment": null,
            "Caption": null,
            "ID_ModelProperty": "2F985F8D-822F-494E-ADE2-BA9ED9167A3B",
            "ID_ListView": "453C3B1A-E962-4B0E-9ED5-8D523F8A5178",
            "ID_CreatedBy": 1,
            "ID_LastModifiedBy": null,
            "DateCreated": "2020-12-10T17:47:37.687Z",
            "DateModified": null,
            "DataSource": null,
            "Format": null,
            "Width": null,
            "Fixed": null,
            "VisibleIndex": 1000,
            "IsAllowEdit": null,
            "ID_ControlType": null,
            "ID_ColumnAlignment": null,
            "IsVisible": true,
            "FixedPosition": null,
            "IsRequired": null,
            "ID_SummaryType": null,
            "IsAddModelClass": null,
            "GroupIndex": null,
            "IsFilter": null,
            "ID_FilterControlType": null,
            "ID_PropertyModel": null,
            "PropertyModel": null,
            "SummaryType": null
        },
        {
            "ID_PropertyType": 5,
            "Precision": null,
            "$DataSource": null,
            "DisplayProperty": null,
            "Oid": "DDFF5A0A-34AC-411D-9BA8-083C9FD98B59",
            "Code": null,
            "Name": "ProposedArrivalDate",
            "IsActive": true,
            "Comment": null,
            "Caption": null,
            "ID_ModelProperty": "50BD29C2-DC3A-4433-9F43-37D58E992E20",
            "ID_ListView": "453C3B1A-E962-4B0E-9ED5-8D523F8A5178",
            "ID_CreatedBy": 1,
            "ID_LastModifiedBy": null,
            "DateCreated": "2020-12-10T17:47:41.313Z",
            "DateModified": null,
            "DataSource": null,
            "Format": null,
            "Width": null,
            "Fixed": null,
            "VisibleIndex": 1000,
            "IsAllowEdit": null,
            "ID_ControlType": null,
            "ID_ColumnAlignment": null,
            "IsVisible": true,
            "FixedPosition": null,
            "IsRequired": null,
            "ID_SummaryType": null,
            "IsAddModelClass": null,
            "GroupIndex": null,
            "IsFilter": null,
            "ID_FilterControlType": null,
            "ID_PropertyModel": null,
            "PropertyModel": null,
            "SummaryType": null
        },
        {
            "ID_PropertyType": 1,
            "Precision": null,
            "$DataSource": null,
            "DisplayProperty": null,
            "Oid": "0D3DF4CA-4A35-471F-A030-CF7257822EF0",
            "Code": null,
            "Name": "OriginProvince",
            "IsActive": true,
            "Comment": null,
            "Caption": null,
            "ID_ModelProperty": "997B29C4-F84B-4F98-8369-A1323C7C16E5",
            "ID_ListView": "453C3B1A-E962-4B0E-9ED5-8D523F8A5178",
            "ID_CreatedBy": 1,
            "ID_LastModifiedBy": null,
            "DateCreated": "2020-12-10T17:50:16.747Z",
            "DateModified": null,
            "DataSource": null,
            "Format": null,
            "Width": null,
            "Fixed": null,
            "VisibleIndex": 1000,
            "IsAllowEdit": null,
            "ID_ControlType": null,
            "ID_ColumnAlignment": null,
            "IsVisible": true,
            "FixedPosition": null,
            "IsRequired": null,
            "ID_SummaryType": null,
            "IsAddModelClass": null,
            "GroupIndex": null,
            "IsFilter": null,
            "ID_FilterControlType": null,
            "ID_PropertyModel": null,
            "PropertyModel": null,
            "SummaryType": null
        },
        {
            "ID_PropertyType": 1,
            "Precision": null,
            "$DataSource": null,
            "DisplayProperty": null,
            "Oid": "B94F4346-EBA5-47EE-AE21-F5AE63A20F4D",
            "Code": null,
            "Name": "OriginMunicipality",
            "IsActive": true,
            "Comment": null,
            "Caption": null,
            "ID_ModelProperty": "24E77950-E85D-439F-8194-56A1B0ACE841",
            "ID_ListView": "453C3B1A-E962-4B0E-9ED5-8D523F8A5178",
            "ID_CreatedBy": 1,
            "ID_LastModifiedBy": null,
            "DateCreated": "2020-12-10T17:50:17.267Z",
            "DateModified": null,
            "DataSource": null,
            "Format": null,
            "Width": null,
            "Fixed": null,
            "VisibleIndex": 1000,
            "IsAllowEdit": null,
            "ID_ControlType": null,
            "ID_ColumnAlignment": null,
            "IsVisible": true,
            "FixedPosition": null,
            "IsRequired": null,
            "ID_SummaryType": null,
            "IsAddModelClass": null,
            "GroupIndex": null,
            "IsFilter": null,
            "ID_FilterControlType": null,
            "ID_PropertyModel": null,
            "PropertyModel": null,
            "SummaryType": null
        },
        {
            "ID_PropertyType": 1,
            "Precision": null,
            "$DataSource": null,
            "DisplayProperty": null,
            "Oid": "27C7351E-7A2B-41B5-BF31-A3A28A012AB9",
            "Code": null,
            "Name": "OriginBarangay",
            "IsActive": true,
            "Comment": null,
            "Caption": null,
            "ID_ModelProperty": "C8912A1D-C815-43F4-A869-56D8A74B6339",
            "ID_ListView": "453C3B1A-E962-4B0E-9ED5-8D523F8A5178",
            "ID_CreatedBy": 1,
            "ID_LastModifiedBy": null,
            "DateCreated": "2020-12-10T17:50:17.637Z",
            "DateModified": null,
            "DataSource": null,
            "Format": null,
            "Width": null,
            "Fixed": null,
            "VisibleIndex": 1000,
            "IsAllowEdit": null,
            "ID_ControlType": null,
            "ID_ColumnAlignment": null,
            "IsVisible": true,
            "FixedPosition": null,
            "IsRequired": null,
            "ID_SummaryType": null,
            "IsAddModelClass": null,
            "GroupIndex": null,
            "IsFilter": null,
            "ID_FilterControlType": null,
            "ID_PropertyModel": null,
            "PropertyModel": null,
            "SummaryType": null
        },
        {
            "ID_PropertyType": 1,
            "Precision": null,
            "$DataSource": null,
            "DisplayProperty": null,
            "Oid": "382113CB-71D4-4A2B-B3D7-D93F77C4D4BB",
            "Code": null,
            "Name": "OriginEstablishment",
            "IsActive": true,
            "Comment": null,
            "Caption": null,
            "ID_ModelProperty": "0D67C14F-062D-4E8C-80F2-35937A8D63AC",
            "ID_ListView": "453C3B1A-E962-4B0E-9ED5-8D523F8A5178",
            "ID_CreatedBy": 1,
            "ID_LastModifiedBy": null,
            "DateCreated": "2020-12-10T17:50:17.957Z",
            "DateModified": null,
            "DataSource": null,
            "Format": null,
            "Width": null,
            "Fixed": null,
            "VisibleIndex": 1000,
            "IsAllowEdit": null,
            "ID_ControlType": null,
            "ID_ColumnAlignment": null,
            "IsVisible": true,
            "FixedPosition": null,
            "IsRequired": null,
            "ID_SummaryType": null,
            "IsAddModelClass": null,
            "GroupIndex": null,
            "IsFilter": null,
            "ID_FilterControlType": null,
            "ID_PropertyModel": null,
            "PropertyModel": null,
            "SummaryType": null
        },
        {
            "ID_PropertyType": 1,
            "Precision": null,
            "$DataSource": null,
            "DisplayProperty": null,
            "Oid": "0CDC4A15-D17F-471E-9708-3EDBA3FDC341",
            "Code": null,
            "Name": "OriginFullAddress",
            "IsActive": true,
            "Comment": null,
            "Caption": null,
            "ID_ModelProperty": "52041E8E-69A2-4873-8362-30ACC800E17F",
            "ID_ListView": "453C3B1A-E962-4B0E-9ED5-8D523F8A5178",
            "ID_CreatedBy": 1,
            "ID_LastModifiedBy": null,
            "DateCreated": "2020-12-10T17:50:18.323Z",
            "DateModified": null,
            "DataSource": null,
            "Format": null,
            "Width": null,
            "Fixed": null,
            "VisibleIndex": 1000,
            "IsAllowEdit": null,
            "ID_ControlType": null,
            "ID_ColumnAlignment": null,
            "IsVisible": true,
            "FixedPosition": null,
            "IsRequired": null,
            "ID_SummaryType": null,
            "IsAddModelClass": null,
            "GroupIndex": null,
            "IsFilter": null,
            "ID_FilterControlType": null,
            "ID_PropertyModel": null,
            "PropertyModel": null,
            "SummaryType": null
        },
        {
            "ID_PropertyType": 1,
            "Precision": null,
            "$DataSource": null,
            "DisplayProperty": null,
            "Oid": "3513AE2E-4DFF-4A45-B029-0368E65B76E6",
            "Code": null,
            "Name": "OriginSender",
            "IsActive": true,
            "Comment": null,
            "Caption": null,
            "ID_ModelProperty": "D3B2B718-A05A-4568-8974-6D404F567913",
            "ID_ListView": "453C3B1A-E962-4B0E-9ED5-8D523F8A5178",
            "ID_CreatedBy": 1,
            "ID_LastModifiedBy": null,
            "DateCreated": "2020-12-10T17:50:18.683Z",
            "DateModified": null,
            "DataSource": null,
            "Format": null,
            "Width": null,
            "Fixed": null,
            "VisibleIndex": 1000,
            "IsAllowEdit": null,
            "ID_ControlType": null,
            "ID_ColumnAlignment": null,
            "IsVisible": true,
            "FixedPosition": null,
            "IsRequired": null,
            "ID_SummaryType": null,
            "IsAddModelClass": null,
            "GroupIndex": null,
            "IsFilter": null,
            "ID_FilterControlType": null,
            "ID_PropertyModel": null,
            "PropertyModel": null,
            "SummaryType": null
        },
        {
            "ID_PropertyType": 1,
            "Precision": null,
            "$DataSource": null,
            "DisplayProperty": null,
            "Oid": "AB7B77B3-DB7E-4EF2-8944-6794DC8AD307",
            "Code": null,
            "Name": "OriginContactNumber",
            "IsActive": true,
            "Comment": null,
            "Caption": null,
            "ID_ModelProperty": "16BFB3E9-1C8E-43D6-B829-C371CF6D6C6F",
            "ID_ListView": "453C3B1A-E962-4B0E-9ED5-8D523F8A5178",
            "ID_CreatedBy": 1,
            "ID_LastModifiedBy": null,
            "DateCreated": "2020-12-10T17:50:19.013Z",
            "DateModified": null,
            "DataSource": null,
            "Format": null,
            "Width": null,
            "Fixed": null,
            "VisibleIndex": 1000,
            "IsAllowEdit": null,
            "ID_ControlType": null,
            "ID_ColumnAlignment": null,
            "IsVisible": true,
            "FixedPosition": null,
            "IsRequired": null,
            "ID_SummaryType": null,
            "IsAddModelClass": null,
            "GroupIndex": null,
            "IsFilter": null,
            "ID_FilterControlType": null,
            "ID_PropertyModel": null,
            "PropertyModel": null,
            "SummaryType": null
        },
        {
            "ID_PropertyType": 1,
            "Precision": null,
            "$DataSource": null,
            "DisplayProperty": null,
            "Oid": "BAB3A17F-FBDA-4D95-BC32-2E10778F0270",
            "Code": null,
            "Name": "DestinationProvince",
            "IsActive": true,
            "Comment": null,
            "Caption": null,
            "ID_ModelProperty": "0B92F7DB-7B46-4BBB-949F-ED4FE00AABAC",
            "ID_ListView": "453C3B1A-E962-4B0E-9ED5-8D523F8A5178",
            "ID_CreatedBy": 1,
            "ID_LastModifiedBy": null,
            "DateCreated": "2020-12-10T17:50:38.707Z",
            "DateModified": null,
            "DataSource": null,
            "Format": null,
            "Width": null,
            "Fixed": null,
            "VisibleIndex": 1000,
            "IsAllowEdit": null,
            "ID_ControlType": null,
            "ID_ColumnAlignment": null,
            "IsVisible": true,
            "FixedPosition": null,
            "IsRequired": null,
            "ID_SummaryType": null,
            "IsAddModelClass": null,
            "GroupIndex": null,
            "IsFilter": null,
            "ID_FilterControlType": null,
            "ID_PropertyModel": null,
            "PropertyModel": null,
            "SummaryType": null
        },
        {
            "ID_PropertyType": 1,
            "Precision": null,
            "$DataSource": null,
            "DisplayProperty": null,
            "Oid": "43457A51-51B2-4163-9D2F-9EF5E8A880A1",
            "Code": null,
            "Name": "DestinationMunicipality",
            "IsActive": true,
            "Comment": null,
            "Caption": null,
            "ID_ModelProperty": "9DAC1D6F-401D-4912-BB4A-C23449E7F2F1",
            "ID_ListView": "453C3B1A-E962-4B0E-9ED5-8D523F8A5178",
            "ID_CreatedBy": 1,
            "ID_LastModifiedBy": null,
            "DateCreated": "2020-12-10T17:50:39.187Z",
            "DateModified": null,
            "DataSource": null,
            "Format": null,
            "Width": null,
            "Fixed": null,
            "VisibleIndex": 1000,
            "IsAllowEdit": null,
            "ID_ControlType": null,
            "ID_ColumnAlignment": null,
            "IsVisible": true,
            "FixedPosition": null,
            "IsRequired": null,
            "ID_SummaryType": null,
            "IsAddModelClass": null,
            "GroupIndex": null,
            "IsFilter": null,
            "ID_FilterControlType": null,
            "ID_PropertyModel": null,
            "PropertyModel": null,
            "SummaryType": null
        },
        {
            "ID_PropertyType": 1,
            "Precision": null,
            "$DataSource": null,
            "DisplayProperty": null,
            "Oid": "33DFCAAC-38B5-40A3-9858-B49424CD6631",
            "Code": null,
            "Name": "DestinationBarangay",
            "IsActive": true,
            "Comment": null,
            "Caption": null,
            "ID_ModelProperty": "4AFEA02C-BBA9-4E50-9F0F-64256A43660A",
            "ID_ListView": "453C3B1A-E962-4B0E-9ED5-8D523F8A5178",
            "ID_CreatedBy": 1,
            "ID_LastModifiedBy": null,
            "DateCreated": "2020-12-10T17:50:39.543Z",
            "DateModified": null,
            "DataSource": null,
            "Format": null,
            "Width": null,
            "Fixed": null,
            "VisibleIndex": 1000,
            "IsAllowEdit": null,
            "ID_ControlType": null,
            "ID_ColumnAlignment": null,
            "IsVisible": true,
            "FixedPosition": null,
            "IsRequired": null,
            "ID_SummaryType": null,
            "IsAddModelClass": null,
            "GroupIndex": null,
            "IsFilter": null,
            "ID_FilterControlType": null,
            "ID_PropertyModel": null,
            "PropertyModel": null,
            "SummaryType": null
        },
        {
            "ID_PropertyType": 1,
            "Precision": null,
            "$DataSource": null,
            "DisplayProperty": null,
            "Oid": "7B28D489-32E8-445A-9F00-D2CB6A6A53D9",
            "Code": null,
            "Name": "DestinationEstablishment",
            "IsActive": true,
            "Comment": null,
            "Caption": null,
            "ID_ModelProperty": "42560B29-DF9B-4FB5-916E-C5CF65C62908",
            "ID_ListView": "453C3B1A-E962-4B0E-9ED5-8D523F8A5178",
            "ID_CreatedBy": 1,
            "ID_LastModifiedBy": null,
            "DateCreated": "2020-12-10T17:50:39.917Z",
            "DateModified": null,
            "DataSource": null,
            "Format": null,
            "Width": null,
            "Fixed": null,
            "VisibleIndex": 1000,
            "IsAllowEdit": null,
            "ID_ControlType": null,
            "ID_ColumnAlignment": null,
            "IsVisible": true,
            "FixedPosition": null,
            "IsRequired": null,
            "ID_SummaryType": null,
            "IsAddModelClass": null,
            "GroupIndex": null,
            "IsFilter": null,
            "ID_FilterControlType": null,
            "ID_PropertyModel": null,
            "PropertyModel": null,
            "SummaryType": null
        },
        {
            "ID_PropertyType": 1,
            "Precision": null,
            "$DataSource": null,
            "DisplayProperty": null,
            "Oid": "F1D4E1AD-9A08-4CB7-8324-6ADDC637A4B6",
            "Code": null,
            "Name": "DestinationFullAddress",
            "IsActive": true,
            "Comment": null,
            "Caption": null,
            "ID_ModelProperty": "E32BB51D-87CD-4F5C-8638-46B6F2745164",
            "ID_ListView": "453C3B1A-E962-4B0E-9ED5-8D523F8A5178",
            "ID_CreatedBy": 1,
            "ID_LastModifiedBy": null,
            "DateCreated": "2020-12-10T17:50:40.260Z",
            "DateModified": null,
            "DataSource": null,
            "Format": null,
            "Width": null,
            "Fixed": null,
            "VisibleIndex": 1000,
            "IsAllowEdit": null,
            "ID_ControlType": null,
            "ID_ColumnAlignment": null,
            "IsVisible": true,
            "FixedPosition": null,
            "IsRequired": null,
            "ID_SummaryType": null,
            "IsAddModelClass": null,
            "GroupIndex": null,
            "IsFilter": null,
            "ID_FilterControlType": null,
            "ID_PropertyModel": null,
            "PropertyModel": null,
            "SummaryType": null
        },
        {
            "ID_PropertyType": 1,
            "Precision": null,
            "$DataSource": null,
            "DisplayProperty": null,
            "Oid": "D733923A-9FE2-4765-B622-A08A79AFFC75",
            "Code": null,
            "Name": "DestinationSender",
            "IsActive": true,
            "Comment": null,
            "Caption": null,
            "ID_ModelProperty": "74235D00-4FED-4923-97CB-E2931611F393",
            "ID_ListView": "453C3B1A-E962-4B0E-9ED5-8D523F8A5178",
            "ID_CreatedBy": 1,
            "ID_LastModifiedBy": null,
            "DateCreated": "2020-12-10T17:50:40.627Z",
            "DateModified": null,
            "DataSource": null,
            "Format": null,
            "Width": null,
            "Fixed": null,
            "VisibleIndex": 1000,
            "IsAllowEdit": null,
            "ID_ControlType": null,
            "ID_ColumnAlignment": null,
            "IsVisible": true,
            "FixedPosition": null,
            "IsRequired": null,
            "ID_SummaryType": null,
            "IsAddModelClass": null,
            "GroupIndex": null,
            "IsFilter": null,
            "ID_FilterControlType": null,
            "ID_PropertyModel": null,
            "PropertyModel": null,
            "SummaryType": null
        },
        {
            "ID_PropertyType": 1,
            "Precision": null,
            "$DataSource": null,
            "DisplayProperty": null,
            "Oid": "7A8FBF5F-15AE-416D-83E1-BDBAEA3652DD",
            "Code": null,
            "Name": "DestinationContactNumber",
            "IsActive": true,
            "Comment": null,
            "Caption": null,
            "ID_ModelProperty": "B569E299-64C0-4948-95AE-575B60AAA01A",
            "ID_ListView": "453C3B1A-E962-4B0E-9ED5-8D523F8A5178",
            "ID_CreatedBy": 1,
            "ID_LastModifiedBy": null,
            "DateCreated": "2020-12-10T17:50:41.027Z",
            "DateModified": null,
            "DataSource": null,
            "Format": null,
            "Width": null,
            "Fixed": null,
            "VisibleIndex": 1000,
            "IsAllowEdit": null,
            "ID_ControlType": null,
            "ID_ColumnAlignment": null,
            "IsVisible": true,
            "FixedPosition": null,
            "IsRequired": null,
            "ID_SummaryType": null,
            "IsAddModelClass": null,
            "GroupIndex": null,
            "IsFilter": null,
            "ID_FilterControlType": null,
            "ID_PropertyModel": null,
            "PropertyModel": null,
            "SummaryType": null
        },
        {
            "ID_PropertyType": 4,
            "Precision": null,
            "$DataSource": null,
            "DisplayProperty": null,
            "Oid": "E154E2CC-3F70-4470-85C3-BA96188E735A",
            "Code": null,
            "Name": "ModeOfTransfortationIsLand",
            "IsActive": true,
            "Comment": null,
            "Caption": null,
            "ID_ModelProperty": "570C58D1-71EA-4098-8E43-BB18F06ADE1D",
            "ID_ListView": "453C3B1A-E962-4B0E-9ED5-8D523F8A5178",
            "ID_CreatedBy": 1,
            "ID_LastModifiedBy": null,
            "DateCreated": "2020-12-10T17:52:05.080Z",
            "DateModified": null,
            "DataSource": null,
            "Format": null,
            "Width": null,
            "Fixed": null,
            "VisibleIndex": 1000,
            "IsAllowEdit": null,
            "ID_ControlType": null,
            "ID_ColumnAlignment": null,
            "IsVisible": true,
            "FixedPosition": null,
            "IsRequired": null,
            "ID_SummaryType": null,
            "IsAddModelClass": null,
            "GroupIndex": null,
            "IsFilter": null,
            "ID_FilterControlType": null,
            "ID_PropertyModel": null,
            "PropertyModel": null,
            "SummaryType": null
        },
        {
            "ID_PropertyType": 1,
            "Precision": null,
            "$DataSource": null,
            "DisplayProperty": null,
            "Oid": "C2361261-6C1B-49B7-A084-32FF72EE86E8",
            "Code": null,
            "Name": "ModeOfTransfortationLandCarrierType",
            "IsActive": true,
            "Comment": null,
            "Caption": null,
            "ID_ModelProperty": "979BE758-9671-4F49-85F8-F6E7D70B5863",
            "ID_ListView": "453C3B1A-E962-4B0E-9ED5-8D523F8A5178",
            "ID_CreatedBy": 1,
            "ID_LastModifiedBy": null,
            "DateCreated": "2020-12-10T17:52:05.407Z",
            "DateModified": null,
            "DataSource": null,
            "Format": null,
            "Width": null,
            "Fixed": null,
            "VisibleIndex": 1000,
            "IsAllowEdit": null,
            "ID_ControlType": null,
            "ID_ColumnAlignment": null,
            "IsVisible": true,
            "FixedPosition": null,
            "IsRequired": null,
            "ID_SummaryType": null,
            "IsAddModelClass": null,
            "GroupIndex": null,
            "IsFilter": null,
            "ID_FilterControlType": null,
            "ID_PropertyModel": null,
            "PropertyModel": null,
            "SummaryType": null
        },
        {
            "ID_PropertyType": 1,
            "Precision": null,
            "$DataSource": null,
            "DisplayProperty": null,
            "Oid": "506912A8-D8DA-404A-862B-AFBC74BF17F1",
            "Code": null,
            "Name": "ModeOfTransfortationLandPlateNumber",
            "IsActive": true,
            "Comment": null,
            "Caption": null,
            "ID_ModelProperty": "91058DDF-111F-4B61-BB8B-8E08C4E8571C",
            "ID_ListView": "453C3B1A-E962-4B0E-9ED5-8D523F8A5178",
            "ID_CreatedBy": 1,
            "ID_LastModifiedBy": null,
            "DateCreated": "2020-12-10T17:52:06.260Z",
            "DateModified": null,
            "DataSource": null,
            "Format": null,
            "Width": null,
            "Fixed": null,
            "VisibleIndex": 1000,
            "IsAllowEdit": null,
            "ID_ControlType": null,
            "ID_ColumnAlignment": null,
            "IsVisible": true,
            "FixedPosition": null,
            "IsRequired": null,
            "ID_SummaryType": null,
            "IsAddModelClass": null,
            "GroupIndex": null,
            "IsFilter": null,
            "ID_FilterControlType": null,
            "ID_PropertyModel": null,
            "PropertyModel": null,
            "SummaryType": null
        },
        {
            "ID_PropertyType": 4,
            "Precision": null,
            "$DataSource": null,
            "DisplayProperty": null,
            "Oid": "70775E98-FF34-4A14-BB1E-602E05E2B738",
            "Code": null,
            "Name": "ModeOfTransfortationIsAir",
            "IsActive": true,
            "Comment": null,
            "Caption": null,
            "ID_ModelProperty": "53B70E3C-21F7-4060-BBE3-9758BEEB1DF2",
            "ID_ListView": "453C3B1A-E962-4B0E-9ED5-8D523F8A5178",
            "ID_CreatedBy": 1,
            "ID_LastModifiedBy": null,
            "DateCreated": "2020-12-10T17:52:07.300Z",
            "DateModified": null,
            "DataSource": null,
            "Format": null,
            "Width": null,
            "Fixed": null,
            "VisibleIndex": 1000,
            "IsAllowEdit": null,
            "ID_ControlType": null,
            "ID_ColumnAlignment": null,
            "IsVisible": true,
            "FixedPosition": null,
            "IsRequired": null,
            "ID_SummaryType": null,
            "IsAddModelClass": null,
            "GroupIndex": null,
            "IsFilter": null,
            "ID_FilterControlType": null,
            "ID_PropertyModel": null,
            "PropertyModel": null,
            "SummaryType": null
        },
        {
            "ID_PropertyType": 1,
            "Precision": null,
            "$DataSource": null,
            "DisplayProperty": null,
            "Oid": "C5C2E922-A980-426A-93D6-853575B46694",
            "Code": null,
            "Name": "ModeOfTransfortationAirCarrierType",
            "IsActive": true,
            "Comment": null,
            "Caption": null,
            "ID_ModelProperty": "586CBFC3-A734-418D-B546-ED7DDD3D5F86",
            "ID_ListView": "453C3B1A-E962-4B0E-9ED5-8D523F8A5178",
            "ID_CreatedBy": 1,
            "ID_LastModifiedBy": null,
            "DateCreated": "2020-12-10T17:52:07.563Z",
            "DateModified": null,
            "DataSource": null,
            "Format": null,
            "Width": null,
            "Fixed": null,
            "VisibleIndex": 1000,
            "IsAllowEdit": null,
            "ID_ControlType": null,
            "ID_ColumnAlignment": null,
            "IsVisible": true,
            "FixedPosition": null,
            "IsRequired": null,
            "ID_SummaryType": null,
            "IsAddModelClass": null,
            "GroupIndex": null,
            "IsFilter": null,
            "ID_FilterControlType": null,
            "ID_PropertyModel": null,
            "PropertyModel": null,
            "SummaryType": null
        },
        {
            "ID_PropertyType": 1,
            "Precision": null,
            "$DataSource": null,
            "DisplayProperty": null,
            "Oid": "CD8D3533-7964-4DF4-B66F-C093F30CB60D",
            "Code": null,
            "Name": "ModeOfTransfortationAirPlateNumber",
            "IsActive": true,
            "Comment": null,
            "Caption": null,
            "ID_ModelProperty": "A53A6995-E301-4A72-AED8-D2D94852BBAA",
            "ID_ListView": "453C3B1A-E962-4B0E-9ED5-8D523F8A5178",
            "ID_CreatedBy": 1,
            "ID_LastModifiedBy": null,
            "DateCreated": "2020-12-10T17:52:07.850Z",
            "DateModified": null,
            "DataSource": null,
            "Format": null,
            "Width": null,
            "Fixed": null,
            "VisibleIndex": 1000,
            "IsAllowEdit": null,
            "ID_ControlType": null,
            "ID_ColumnAlignment": null,
            "IsVisible": true,
            "FixedPosition": null,
            "IsRequired": null,
            "ID_SummaryType": null,
            "IsAddModelClass": null,
            "GroupIndex": null,
            "IsFilter": null,
            "ID_FilterControlType": null,
            "ID_PropertyModel": null,
            "PropertyModel": null,
            "SummaryType": null
        },
        {
            "ID_PropertyType": 4,
            "Precision": null,
            "$DataSource": null,
            "DisplayProperty": null,
            "Oid": "87A921FB-CE25-4CC1-B969-E4D118F17FA5",
            "Code": null,
            "Name": "ModeOfTransfortationIsWater",
            "IsActive": true,
            "Comment": null,
            "Caption": null,
            "ID_ModelProperty": "72B7A8E6-C260-4421-B73E-191B5D9F32B0",
            "ID_ListView": "453C3B1A-E962-4B0E-9ED5-8D523F8A5178",
            "ID_CreatedBy": 1,
            "ID_LastModifiedBy": null,
            "DateCreated": "2020-12-10T17:52:08.110Z",
            "DateModified": null,
            "DataSource": null,
            "Format": null,
            "Width": null,
            "Fixed": null,
            "VisibleIndex": 1000,
            "IsAllowEdit": null,
            "ID_ControlType": null,
            "ID_ColumnAlignment": null,
            "IsVisible": true,
            "FixedPosition": null,
            "IsRequired": null,
            "ID_SummaryType": null,
            "IsAddModelClass": null,
            "GroupIndex": null,
            "IsFilter": null,
            "ID_FilterControlType": null,
            "ID_PropertyModel": null,
            "PropertyModel": null,
            "SummaryType": null
        },
        {
            "ID_PropertyType": 1,
            "Precision": null,
            "$DataSource": null,
            "DisplayProperty": null,
            "Oid": "E1E8371D-7076-408E-A4A9-F4B281102F87",
            "Code": null,
            "Name": "ModeOfTransfortationWaterCarrierType",
            "IsActive": true,
            "Comment": null,
            "Caption": null,
            "ID_ModelProperty": "E9CA38E4-1885-49B6-807B-7951BE91F892",
            "ID_ListView": "453C3B1A-E962-4B0E-9ED5-8D523F8A5178",
            "ID_CreatedBy": 1,
            "ID_LastModifiedBy": null,
            "DateCreated": "2020-12-10T17:52:08.383Z",
            "DateModified": null,
            "DataSource": null,
            "Format": null,
            "Width": null,
            "Fixed": null,
            "VisibleIndex": 1000,
            "IsAllowEdit": null,
            "ID_ControlType": null,
            "ID_ColumnAlignment": null,
            "IsVisible": true,
            "FixedPosition": null,
            "IsRequired": null,
            "ID_SummaryType": null,
            "IsAddModelClass": null,
            "GroupIndex": null,
            "IsFilter": null,
            "ID_FilterControlType": null,
            "ID_PropertyModel": null,
            "PropertyModel": null,
            "SummaryType": null
        },
        {
            "ID_PropertyType": 1,
            "Precision": null,
            "$DataSource": null,
            "DisplayProperty": null,
            "Oid": "C39B9A97-3FD9-461F-ACC9-40B04F4B7DE6",
            "Code": null,
            "Name": "ModeOfTransfortationWaterPlateNumber",
            "IsActive": true,
            "Comment": null,
            "Caption": null,
            "ID_ModelProperty": "CBD941AB-E55B-410B-866B-C86989443FD7",
            "ID_ListView": "453C3B1A-E962-4B0E-9ED5-8D523F8A5178",
            "ID_CreatedBy": 1,
            "ID_LastModifiedBy": null,
            "DateCreated": "2020-12-10T17:52:08.667Z",
            "DateModified": null,
            "DataSource": null,
            "Format": null,
            "Width": null,
            "Fixed": null,
            "VisibleIndex": 1000,
            "IsAllowEdit": null,
            "ID_ControlType": null,
            "ID_ColumnAlignment": null,
            "IsVisible": true,
            "FixedPosition": null,
            "IsRequired": null,
            "ID_SummaryType": null,
            "IsAddModelClass": null,
            "GroupIndex": null,
            "IsFilter": null,
            "ID_FilterControlType": null,
            "ID_PropertyModel": null,
            "PropertyModel": null,
            "SummaryType": null
        },
        {
            "ID_PropertyType": 2,
            "Precision": null,
            "$DataSource": null,
            "DisplayProperty": "FilingStatus",
            "Oid": "98A11211-4203-487C-A480-581F11B681D0",
            "Code": null,
            "Name": "ID_FilingStatus",
            "IsActive": true,
            "Comment": null,
            "Caption": "Filing Status",
            "ID_ModelProperty": "10BF780E-EA17-4284-A363-F9FB5919F77B",
            "ID_ListView": "453C3B1A-E962-4B0E-9ED5-8D523F8A5178",
            "ID_CreatedBy": 1,
            "ID_LastModifiedBy": null,
            "DateCreated": "2020-12-10T17:59:41.530Z",
            "DateModified": null,
            "DataSource": null,
            "Format": null,
            "Width": null,
            "Fixed": null,
            "VisibleIndex": 1000,
            "IsAllowEdit": null,
            "ID_ControlType": null,
            "ID_ColumnAlignment": null,
            "IsVisible": true,
            "FixedPosition": null,
            "IsRequired": null,
            "ID_SummaryType": null,
            "IsAddModelClass": true,
            "GroupIndex": null,
            "IsFilter": null,
            "ID_FilterControlType": null,
            "ID_PropertyModel": "8A651C66-5CB8-4FFA-89A5-E7DF2AD0983F",
            "PropertyModel": null,
            "SummaryType": null
        }
    ]
}