{
    "Oid": "4D56651C-1093-4231-B6B3-AD58A5C9E18C",
    "Name": "BillingInvoice_Detail_ListView_Detail",
    "ID_Model": "150637F0-344D-4555-A7E4-4544D30106C9",
    "DataSource": null,
    "Comment": null,
    "ID_DetailView": "0D999ADE-25FB-47A1-A909-9C6170219FC6",
    "Model": "BillingInvoice_Detail",
    "PrimaryKey": "ID",
    "Caption": "BillingInvoice_Detail",
    "Details": [
        {
            "ID_PropertyType": 3,
            "Precision": 2,
            "$DataSource": null,
            "DisplayProperty": null,
            "Oid": "1B231CB7-C763-4863-B05C-12887BD6E6EF",
            "Code": null,
            "Name": "UnitPrice",
            "IsActive": true,
            "Comment": null,
            "Caption": null,
            "ID_ModelProperty": "5A997806-DF9B-4ED2-AAF8-31BE9BB28BCE",
            "ID_ListView": "4D56651C-1093-4231-B6B3-AD58A5C9E18C",
            "ID_CreatedBy": 1,
            "ID_LastModifiedBy": null,
            "DateCreated": "2020-09-23T02:21:17.490Z",
            "DateModified": null,
            "DataSource": null,
            "Format": null,
            "Width": null,
            "Fixed": null,
            "VisibleIndex": 10,
            "IsAllowEdit": null,
            "ID_ControlType": null,
            "ID_ColumnAlignment": null,
            "IsVisible": true,
            "FixedPosition": null,
            "IsRequired": null,
            "ID_SummaryType": null,
            "IsAddModelClass": null,
            "GroupIndex": null,
            "IsFilter": null,
            "ID_FilterControlType": null,
            "ID_PropertyModel": null,
            "PropertyModel": null,
            "SummaryType": null
        },
        {
            "ID_PropertyType": 1,
            "Precision": null,
            "$DataSource": null,
            "DisplayProperty": null,
            "Oid": "6729CFA1-C238-450B-915D-21E0C3D31F44",
            "Code": null,
            "Name": "Comment",
            "IsActive": true,
            "Comment": null,
            "Caption": null,
            "ID_ModelProperty": "5E3F73DD-61E5-4DFA-84FA-DA9FBBD0FE0E",
            "ID_ListView": "4D56651C-1093-4231-B6B3-AD58A5C9E18C",
            "ID_CreatedBy": 1,
            "ID_LastModifiedBy": null,
            "DateCreated": "2020-09-23T02:21:17.490Z",
            "DateModified": null,
            "DataSource": null,
            "Format": null,
            "Width": null,
            "Fixed": null,
            "VisibleIndex": 10,
            "IsAllowEdit": null,
            "ID_ControlType": null,
            "ID_ColumnAlignment": null,
            "IsVisible": true,
            "FixedPosition": null,
            "IsRequired": null,
            "ID_SummaryType": null,
            "IsAddModelClass": null,
            "GroupIndex": null,
            "IsFilter": null,
            "ID_FilterControlType": null,
            "ID_PropertyModel": null,
            "PropertyModel": null,
            "SummaryType": null
        },
        {
            "ID_PropertyType": 3,
            "Precision": 2,
            "$DataSource": null,
            "DisplayProperty": null,
            "Oid": "0FD951BE-CA04-4AE0-9340-41FFFCFC9A51",
            "Code": null,
            "Name": "Amount",
            "IsActive": true,
            "Comment": null,
            "Caption": null,
            "ID_ModelProperty": "12720A8F-8C60-40E2-9ECF-799670A88759",
            "ID_ListView": "4D56651C-1093-4231-B6B3-AD58A5C9E18C",
            "ID_CreatedBy": 1,
            "ID_LastModifiedBy": null,
            "DateCreated": "2020-09-23T02:21:17.490Z",
            "DateModified": null,
            "DataSource": null,
            "Format": null,
            "Width": null,
            "Fixed": null,
            "VisibleIndex": 10,
            "IsAllowEdit": null,
            "ID_ControlType": null,
            "ID_ColumnAlignment": null,
            "IsVisible": true,
            "FixedPosition": null,
            "IsRequired": null,
            "ID_SummaryType": null,
            "IsAddModelClass": null,
            "GroupIndex": null,
            "IsFilter": null,
            "ID_FilterControlType": null,
            "ID_PropertyModel": null,
            "PropertyModel": null,
            "SummaryType": null
        },
        {
            "ID_PropertyType": 2,
            "Precision": null,
            "$DataSource": null,
            "DisplayProperty": null,
            "Oid": "C9CAFF6C-646B-4B51-A603-4FA00141FA60",
            "Code": null,
            "Name": "Quantity",
            "IsActive": true,
            "Comment": null,
            "Caption": null,
            "ID_ModelProperty": "D723EA51-2909-4EEF-B389-79544EF03723",
            "ID_ListView": "4D56651C-1093-4231-B6B3-AD58A5C9E18C",
            "ID_CreatedBy": 1,
            "ID_LastModifiedBy": null,
            "DateCreated": "2020-09-23T02:21:17.490Z",
            "DateModified": null,
            "DataSource": null,
            "Format": null,
            "Width": null,
            "Fixed": null,
            "VisibleIndex": 10,
            "IsAllowEdit": null,
            "ID_ControlType": null,
            "ID_ColumnAlignment": null,
            "IsVisible": true,
            "FixedPosition": null,
            "IsRequired": null,
            "ID_SummaryType": null,
            "IsAddModelClass": null,
            "GroupIndex": null,
            "IsFilter": null,
            "ID_FilterControlType": null,
            "ID_PropertyModel": null,
            "PropertyModel": null,
            "SummaryType": null
        },
        {
            "ID_PropertyType": 2,
            "Precision": null,
            "$DataSource": null,
            "DisplayProperty": null,
            "Oid": "EDE2DF1D-BEC6-40EC-833E-7EBF715F5FB5",
            "Code": null,
            "Name": "ID_BillingInvoice",
            "IsActive": true,
            "Comment": null,
            "Caption": null,
            "ID_ModelProperty": "DE6B52E8-C476-4751-9B70-31ADF4E26D7C",
            "ID_ListView": "4D56651C-1093-4231-B6B3-AD58A5C9E18C",
            "ID_CreatedBy": 1,
            "ID_LastModifiedBy": null,
            "DateCreated": "2020-09-23T02:21:17.490Z",
            "DateModified": null,
            "DataSource": null,
            "Format": null,
            "Width": null,
            "Fixed": null,
            "VisibleIndex": 10,
            "IsAllowEdit": null,
            "ID_ControlType": null,
            "ID_ColumnAlignment": null,
            "IsVisible": true,
            "FixedPosition": null,
            "IsRequired": null,
            "ID_SummaryType": null,
            "IsAddModelClass": null,
            "GroupIndex": null,
            "IsFilter": null,
            "ID_FilterControlType": null,
            "ID_PropertyModel": null,
            "PropertyModel": null,
            "SummaryType": null
        },
        {
            "ID_PropertyType": 2,
            "Precision": null,
            "$DataSource": null,
            "DisplayProperty": null,
            "Oid": "FD3AFDA5-9B3B-49C5-83C1-82D0231B86B5",
            "Code": null,
            "Name": "ID_Item",
            "IsActive": true,
            "Comment": null,
            "Caption": null,
            "ID_ModelProperty": "CFAE25DF-4AC0-4575-8E81-D2E1A18D6F73",
            "ID_ListView": "4D56651C-1093-4231-B6B3-AD58A5C9E18C",
            "ID_CreatedBy": 1,
            "ID_LastModifiedBy": null,
            "DateCreated": "2020-09-23T02:21:17.490Z",
            "DateModified": null,
            "DataSource": null,
            "Format": null,
            "Width": null,
            "Fixed": null,
            "VisibleIndex": 10,
            "IsAllowEdit": null,
            "ID_ControlType": null,
            "ID_ColumnAlignment": null,
            "IsVisible": true,
            "FixedPosition": null,
            "IsRequired": null,
            "ID_SummaryType": null,
            "IsAddModelClass": null,
            "GroupIndex": null,
            "IsFilter": null,
            "ID_FilterControlType": null,
            "ID_PropertyModel": null,
            "PropertyModel": null,
            "SummaryType": null
        },
        {
            "ID_PropertyType": 4,
            "Precision": null,
            "$DataSource": null,
            "DisplayProperty": null,
            "Oid": "C50BC87F-5B50-4DE0-A366-C796E1A87741",
            "Code": null,
            "Name": "IsActive",
            "IsActive": true,
            "Comment": null,
            "Caption": "Active",
            "ID_ModelProperty": "4FFBAD95-8FA6-4DD8-A017-93ACA50ED423",
            "ID_ListView": "4D56651C-1093-4231-B6B3-AD58A5C9E18C",
            "ID_CreatedBy": 1,
            "ID_LastModifiedBy": null,
            "DateCreated": "2020-09-23T02:21:17.490Z",
            "DateModified": null,
            "DataSource": null,
            "Format": null,
            "Width": null,
            "Fixed": null,
            "VisibleIndex": 10,
            "IsAllowEdit": null,
            "ID_ControlType": null,
            "ID_ColumnAlignment": null,
            "IsVisible": true,
            "FixedPosition": null,
            "IsRequired": null,
            "ID_SummaryType": null,
            "IsAddModelClass": null,
            "GroupIndex": null,
            "IsFilter": null,
            "ID_FilterControlType": null,
            "ID_PropertyModel": null,
            "PropertyModel": null,
            "SummaryType": null
        },
        {
            "ID_PropertyType": 2,
            "Precision": null,
            "$DataSource": null,
            "DisplayProperty": null,
            "Oid": "5A212AEE-9E3B-4C9D-8235-D4E1AC714244",
            "Code": null,
            "Name": "ID",
            "IsActive": true,
            "Comment": null,
            "Caption": null,
            "ID_ModelProperty": "FDE09289-AF45-472C-9C77-CA8B50689AF6",
            "ID_ListView": "4D56651C-1093-4231-B6B3-AD58A5C9E18C",
            "ID_CreatedBy": 1,
            "ID_LastModifiedBy": null,
            "DateCreated": "2020-09-23T02:21:17.490Z",
            "DateModified": null,
            "DataSource": null,
            "Format": null,
            "Width": null,
            "Fixed": null,
            "VisibleIndex": 10,
            "IsAllowEdit": null,
            "ID_ControlType": null,
            "ID_ColumnAlignment": null,
            "IsVisible": true,
            "FixedPosition": null,
            "IsRequired": null,
            "ID_SummaryType": null,
            "IsAddModelClass": null,
            "GroupIndex": null,
            "IsFilter": null,
            "ID_FilterControlType": null,
            "ID_PropertyModel": null,
            "PropertyModel": null,
            "SummaryType": null
        },
        {
            "ID_PropertyType": 1,
            "Precision": null,
            "$DataSource": null,
            "DisplayProperty": null,
            "Oid": "2064DDC1-7E82-4FBC-AE01-EC59D0EAD5F3",
            "Code": null,
            "Name": "Name",
            "IsActive": true,
            "Comment": null,
            "Caption": null,
            "ID_ModelProperty": "823E6622-540D-4ED7-B9D8-AFF10A3D551F",
            "ID_ListView": "4D56651C-1093-4231-B6B3-AD58A5C9E18C",
            "ID_CreatedBy": 1,
            "ID_LastModifiedBy": null,
            "DateCreated": "2020-09-23T02:21:17.490Z",
            "DateModified": null,
            "DataSource": null,
            "Format": null,
            "Width": null,
            "Fixed": null,
            "VisibleIndex": 10,
            "IsAllowEdit": null,
            "ID_ControlType": null,
            "ID_ColumnAlignment": null,
            "IsVisible": true,
            "FixedPosition": null,
            "IsRequired": null,
            "ID_SummaryType": null,
            "IsAddModelClass": null,
            "GroupIndex": null,
            "IsFilter": null,
            "ID_FilterControlType": null,
            "ID_PropertyModel": null,
            "PropertyModel": null,
            "SummaryType": null
        },
        {
            "ID_PropertyType": 1,
            "Precision": null,
            "$DataSource": null,
            "DisplayProperty": null,
            "Oid": "F71D63D9-018D-4CE5-A23A-FB9623B17760",
            "Code": null,
            "Name": "Code",
            "IsActive": true,
            "Comment": null,
            "Caption": null,
            "ID_ModelProperty": "CC780160-EFA0-4F54-86C5-1CE67D1E2718",
            "ID_ListView": "4D56651C-1093-4231-B6B3-AD58A5C9E18C",
            "ID_CreatedBy": 1,
            "ID_LastModifiedBy": null,
            "DateCreated": "2020-09-23T02:21:17.490Z",
            "DateModified": null,
            "DataSource": null,
            "Format": null,
            "Width": null,
            "Fixed": null,
            "VisibleIndex": 10,
            "IsAllowEdit": null,
            "ID_ControlType": null,
            "ID_ColumnAlignment": null,
            "IsVisible": true,
            "FixedPosition": null,
            "IsRequired": null,
            "ID_SummaryType": null,
            "IsAddModelClass": null,
            "GroupIndex": null,
            "IsFilter": null,
            "ID_FilterControlType": null,
            "ID_PropertyModel": null,
            "PropertyModel": null,
            "SummaryType": null
        },
        {
            "ID_PropertyType": 5,
            "Precision": null,
            "$DataSource": null,
            "DisplayProperty": null,
            "Oid": "994F6287-F5B6-4E4A-AF72-5ACE18FD5DCE",
            "Code": null,
            "Name": "DateExpiration",
            "IsActive": true,
            "Comment": null,
            "Caption": null,
            "ID_ModelProperty": "CD225F99-195F-4F15-8088-942DB5949A26",
            "ID_ListView": "4D56651C-1093-4231-B6B3-AD58A5C9E18C",
            "ID_CreatedBy": 1,
            "ID_LastModifiedBy": null,
            "DateCreated": "2021-02-13T05:05:29.573Z",
            "DateModified": null,
            "DataSource": null,
            "Format": null,
            "Width": null,
            "Fixed": null,
            "VisibleIndex": 1000,
            "IsAllowEdit": null,
            "ID_ControlType": null,
            "ID_ColumnAlignment": null,
            "IsVisible": true,
            "FixedPosition": null,
            "IsRequired": null,
            "ID_SummaryType": null,
            "IsAddModelClass": null,
            "GroupIndex": null,
            "IsFilter": null,
            "ID_FilterControlType": null,
            "ID_PropertyModel": null,
            "PropertyModel": null,
            "SummaryType": null
        }
    ]
}