{
    "Oid": "86F07DBE-4117-46F7-A039-412EF1EA0FFC",
    "Name": "Model_ModelProperty_ListView",
    "ID_Model": "00F4342C-BB85-4E56-AF82-4D5342627A50",
    "DataSource": "SELECT * FROM _vModel_Property",
    "Comment": null,
    "ID_DetailView": "20E7A54D-EBA0-485F-A65A-948CACCA7418",
    "Model": "Model_Property",
    "PrimaryKey": "Oid",
    "Caption": "Model Property",
    "Details": [
        {
            "ID_PropertyType": 8,
            "Precision": null,
            "$DataSource": null,
            "DisplayProperty": null,
            "Oid": "29CF57F8-ECCF-4410-A790-20D11A09CDF0",
            "Code": null,
            "Name": "ID_PropertyModel",
            "IsActive": true,
            "Comment": null,
            "Caption": "Property Model",
            "ID_ModelProperty": "CCB12898-8B12-457C-91F5-2C7F5185533D",
            "ID_ListView": "86F07DBE-4117-46F7-A039-412EF1EA0FFC",
            "ID_CreatedBy": 1,
            "ID_LastModifiedBy": 1,
            "DateCreated": "2017-12-29T09:58:03.567Z",
            "DateModified": null,
            "DataSource": null,
            "Format": null,
            "Width": "132",
            "Fixed": null,
            "VisibleIndex": 300,
            "IsAllowEdit": null,
            "ID_ControlType": null,
            "ID_ColumnAlignment": null,
            "IsVisible": true,
            "FixedPosition": null,
            "IsRequired": null,
            "ID_SummaryType": null,
            "IsAddModelClass": null,
            "GroupIndex": null,
            "IsFilter": null,
            "ID_FilterControlType": null,
            "ID_PropertyModel": "669EE4AC-077D-438A-A410-B323B74173C4",
            "PropertyModel": "Model",
            "SummaryType": null
        },
        {
            "ID_PropertyType": 5,
            "Precision": null,
            "$DataSource": null,
            "DisplayProperty": null,
            "Oid": "7AE927EA-F83E-4A7A-94AA-3D89D88C5093",
            "Code": null,
            "Name": "DateModified",
            "IsActive": true,
            "Comment": null,
            "Caption": "Date Modified",
            "ID_ModelProperty": "BD0FF4A2-9118-4B90-A980-9AA3EF608881",
            "ID_ListView": "86F07DBE-4117-46F7-A039-412EF1EA0FFC",
            "ID_CreatedBy": 1,
            "ID_LastModifiedBy": 1,
            "DateCreated": "2017-12-29T09:58:03.567Z",
            "DateModified": null,
            "DataSource": null,
            "Format": null,
            "Width": "111",
            "Fixed": null,
            "VisibleIndex": 0,
            "IsAllowEdit": null,
            "ID_ControlType": null,
            "ID_ColumnAlignment": null,
            "IsVisible": false,
            "FixedPosition": null,
            "IsRequired": null,
            "ID_SummaryType": null,
            "IsAddModelClass": null,
            "GroupIndex": null,
            "IsFilter": null,
            "ID_FilterControlType": null,
            "ID_PropertyModel": null,
            "PropertyModel": null,
            "SummaryType": null
        },
        {
            "ID_PropertyType": 2,
            "Precision": null,
            "$DataSource": null,
            "DisplayProperty": "PropertyType",
            "Oid": "6CEA0FF4-D377-4334-A051-620F0156E7EB",
            "Code": null,
            "Name": "ID_PropertyType",
            "IsActive": true,
            "Comment": null,
            "Caption": "Type",
            "ID_ModelProperty": "1D5420B5-CE1D-44A5-A89A-4B05160184DC",
            "ID_ListView": "86F07DBE-4117-46F7-A039-412EF1EA0FFC",
            "ID_CreatedBy": 1,
            "ID_LastModifiedBy": 1,
            "DateCreated": "2017-12-29T09:58:03.567Z",
            "DateModified": null,
            "DataSource": null,
            "Format": null,
            "Width": "122",
            "Fixed": null,
            "VisibleIndex": 400,
            "IsAllowEdit": null,
            "ID_ControlType": null,
            "ID_ColumnAlignment": null,
            "IsVisible": true,
            "FixedPosition": null,
            "IsRequired": null,
            "ID_SummaryType": null,
            "IsAddModelClass": null,
            "GroupIndex": null,
            "IsFilter": null,
            "ID_FilterControlType": null,
            "ID_PropertyModel": "B8FC3C30-6F07-419A-B236-15D592070102",
            "PropertyModel": "PropertyType",
            "SummaryType": null
        },
        {
            "ID_PropertyType": 8,
            "Precision": null,
            "$DataSource": null,
            "DisplayProperty": null,
            "Oid": "0D103F04-9E66-41AB-B939-84AAA96E71B7",
            "Code": null,
            "Name": "Oid",
            "IsActive": true,
            "Comment": null,
            "Caption": null,
            "ID_ModelProperty": "6E96D58D-8749-41E7-810F-C10E587B0C29",
            "ID_ListView": "86F07DBE-4117-46F7-A039-412EF1EA0FFC",
            "ID_CreatedBy": 1,
            "ID_LastModifiedBy": 1,
            "DateCreated": "2017-12-29T09:58:03.567Z",
            "DateModified": null,
            "DataSource": null,
            "Format": null,
            "Width": "70",
            "Fixed": true,
            "VisibleIndex": 500,
            "IsAllowEdit": null,
            "ID_ControlType": null,
            "ID_ColumnAlignment": null,
            "IsVisible": true,
            "FixedPosition": "left",
            "IsRequired": null,
            "ID_SummaryType": null,
            "IsAddModelClass": null,
            "GroupIndex": null,
            "IsFilter": null,
            "ID_FilterControlType": null,
            "ID_PropertyModel": null,
            "PropertyModel": null,
            "SummaryType": null
        },
        {
            "ID_PropertyType": 5,
            "Precision": null,
            "$DataSource": null,
            "DisplayProperty": null,
            "Oid": "517845B8-1D2C-46BC-A544-95C99E6909C1",
            "Code": null,
            "Name": "DateCreated",
            "IsActive": true,
            "Comment": null,
            "Caption": "Date Created",
            "ID_ModelProperty": "FC4873D3-27E0-4334-AFB3-FEA8334CC580",
            "ID_ListView": "86F07DBE-4117-46F7-A039-412EF1EA0FFC",
            "ID_CreatedBy": 1,
            "ID_LastModifiedBy": 1,
            "DateCreated": "2017-12-29T09:58:03.567Z",
            "DateModified": null,
            "DataSource": null,
            "Format": null,
            "Width": "104",
            "Fixed": null,
            "VisibleIndex": 600,
            "IsAllowEdit": null,
            "ID_ControlType": null,
            "ID_ColumnAlignment": null,
            "IsVisible": false,
            "FixedPosition": null,
            "IsRequired": null,
            "ID_SummaryType": null,
            "IsAddModelClass": null,
            "GroupIndex": null,
            "IsFilter": null,
            "ID_FilterControlType": null,
            "ID_PropertyModel": null,
            "PropertyModel": null,
            "SummaryType": null
        },
        {
            "ID_PropertyType": 1,
            "Precision": null,
            "$DataSource": null,
            "DisplayProperty": null,
            "Oid": "B6051F60-73A6-4EE8-AFE2-B8CDCCB43A01",
            "Code": null,
            "Name": "Caption",
            "IsActive": true,
            "Comment": null,
            "Caption": null,
            "ID_ModelProperty": "CFD40AAB-3EAA-4D9B-8AA8-B10C36D19009",
            "ID_ListView": "86F07DBE-4117-46F7-A039-412EF1EA0FFC",
            "ID_CreatedBy": 1,
            "ID_LastModifiedBy": 1,
            "DateCreated": "2017-12-29T09:58:03.567Z",
            "DateModified": null,
            "DataSource": null,
            "Format": null,
            "Width": "166",
            "Fixed": null,
            "VisibleIndex": 200,
            "IsAllowEdit": null,
            "ID_ControlType": null,
            "ID_ColumnAlignment": null,
            "IsVisible": true,
            "FixedPosition": null,
            "IsRequired": null,
            "ID_SummaryType": null,
            "IsAddModelClass": null,
            "GroupIndex": null,
            "IsFilter": null,
            "ID_FilterControlType": null,
            "ID_PropertyModel": null,
            "PropertyModel": null,
            "SummaryType": null
        },
        {
            "ID_PropertyType": 4,
            "Precision": null,
            "$DataSource": null,
            "DisplayProperty": null,
            "Oid": "6A4898A7-29D9-4F9A-A5F4-CF51B5B31C17",
            "Code": null,
            "Name": "IsActive",
            "IsActive": true,
            "Comment": null,
            "Caption": "Active",
            "ID_ModelProperty": "44AB2AA4-45A8-4F5E-B526-E2842728C003",
            "ID_ListView": "86F07DBE-4117-46F7-A039-412EF1EA0FFC",
            "ID_CreatedBy": 1,
            "ID_LastModifiedBy": 1,
            "DateCreated": "2017-12-29T09:58:03.567Z",
            "DateModified": null,
            "DataSource": null,
            "Format": null,
            "Width": "80",
            "Fixed": null,
            "VisibleIndex": 100,
            "IsAllowEdit": null,
            "ID_ControlType": null,
            "ID_ColumnAlignment": null,
            "IsVisible": true,
            "FixedPosition": null,
            "IsRequired": null,
            "ID_SummaryType": null,
            "IsAddModelClass": null,
            "GroupIndex": null,
            "IsFilter": null,
            "ID_FilterControlType": null,
            "ID_PropertyModel": null,
            "PropertyModel": null,
            "SummaryType": null
        },
        {
            "ID_PropertyType": 1,
            "Precision": null,
            "$DataSource": null,
            "DisplayProperty": null,
            "Oid": "9163F83C-0A0E-438A-85A3-E44A1C3C7A8C",
            "Code": null,
            "Name": "Name",
            "IsActive": true,
            "Comment": null,
            "Caption": null,
            "ID_ModelProperty": "EFF382DF-D118-4614-B5F1-C35FF36AC3CF",
            "ID_ListView": "86F07DBE-4117-46F7-A039-412EF1EA0FFC",
            "ID_CreatedBy": 1,
            "ID_LastModifiedBy": 1,
            "DateCreated": "2017-12-29T09:58:03.567Z",
            "DateModified": null,
            "DataSource": null,
            "Format": null,
            "Width": "118",
            "Fixed": true,
            "VisibleIndex": 800,
            "IsAllowEdit": true,
            "ID_ControlType": null,
            "ID_ColumnAlignment": null,
            "IsVisible": true,
            "FixedPosition": "left",
            "IsRequired": null,
            "ID_SummaryType": null,
            "IsAddModelClass": null,
            "GroupIndex": null,
            "IsFilter": null,
            "ID_FilterControlType": null,
            "ID_PropertyModel": null,
            "PropertyModel": null,
            "SummaryType": null
        },
        {
            "ID_PropertyType": 8,
            "Precision": null,
            "$DataSource": null,
            "DisplayProperty": "Model",
            "Oid": "FB0800D8-C6D8-450B-BCC9-F5206EB3E7D1",
            "Code": null,
            "Name": "ID_Model",
            "IsActive": true,
            "Comment": null,
            "Caption": null,
            "ID_ModelProperty": "178BE54F-F408-42CE-9534-EF726E5DD2B8",
            "ID_ListView": "86F07DBE-4117-46F7-A039-412EF1EA0FFC",
            "ID_CreatedBy": 1,
            "ID_LastModifiedBy": 1,
            "DateCreated": "2017-12-29T09:58:03.567Z",
            "DateModified": null,
            "DataSource": null,
            "Format": null,
            "Width": "248",
            "Fixed": null,
            "VisibleIndex": 900,
            "IsAllowEdit": null,
            "ID_ControlType": null,
            "ID_ColumnAlignment": null,
            "IsVisible": false,
            "FixedPosition": null,
            "IsRequired": null,
            "ID_SummaryType": null,
            "IsAddModelClass": null,
            "GroupIndex": null,
            "IsFilter": null,
            "ID_FilterControlType": null,
            "ID_PropertyModel": null,
            "PropertyModel": null,
            "SummaryType": null
        },
        {
            "ID_PropertyType": 2,
            "Precision": null,
            "$DataSource": null,
            "DisplayProperty": "CreatedBy",
            "Oid": "C6070868-6A71-4B3F-9A43-FB518B1EF507",
            "Code": null,
            "Name": "ID_CreatedBy",
            "IsActive": true,
            "Comment": null,
            "Caption": "Created By",
            "ID_ModelProperty": "0A21795C-27D2-4436-B6F8-398B34914970",
            "ID_ListView": "86F07DBE-4117-46F7-A039-412EF1EA0FFC",
            "ID_CreatedBy": 1,
            "ID_LastModifiedBy": 1,
            "DateCreated": "2017-12-29T09:58:03.567Z",
            "DateModified": null,
            "DataSource": null,
            "Format": null,
            "Width": "91",
            "Fixed": null,
            "VisibleIndex": 1000,
            "IsAllowEdit": null,
            "ID_ControlType": null,
            "ID_ColumnAlignment": null,
            "IsVisible": false,
            "FixedPosition": null,
            "IsRequired": null,
            "ID_SummaryType": null,
            "IsAddModelClass": null,
            "GroupIndex": null,
            "IsFilter": null,
            "ID_FilterControlType": null,
            "ID_PropertyModel": null,
            "PropertyModel": null,
            "SummaryType": null
        },
        {
            "ID_PropertyType": 2,
            "Precision": null,
            "$DataSource": null,
            "DisplayProperty": "LastModifiedBy",
            "Oid": "E0323052-2C0B-4EB5-929E-FFE2AE5FB055",
            "Code": null,
            "Name": "ID_LastModifiedBy",
            "IsActive": true,
            "Comment": null,
            "Caption": "Last Modified By",
            "ID_ModelProperty": "A1D4A2AA-E06C-4B2D-A2DC-695BA62E7D01",
            "ID_ListView": "86F07DBE-4117-46F7-A039-412EF1EA0FFC",
            "ID_CreatedBy": 1,
            "ID_LastModifiedBy": 1,
            "DateCreated": "2017-12-29T09:58:03.567Z",
            "DateModified": null,
            "DataSource": null,
            "Format": null,
            "Width": "124",
            "Fixed": null,
            "VisibleIndex": 1100,
            "IsAllowEdit": null,
            "ID_ControlType": null,
            "ID_ColumnAlignment": null,
            "IsVisible": false,
            "FixedPosition": null,
            "IsRequired": null,
            "ID_SummaryType": null,
            "IsAddModelClass": null,
            "GroupIndex": null,
            "IsFilter": null,
            "ID_FilterControlType": null,
            "ID_PropertyModel": null,
            "PropertyModel": null,
            "SummaryType": null
        },
        {
            "ID_PropertyType": 8,
            "Precision": null,
            "$DataSource": null,
            "DisplayProperty": null,
            "Oid": "81CA062C-F64D-4399-9B3C-BBC8B4E8903F",
            "Code": null,
            "Name": "ID_ModelProperty_Key",
            "IsActive": true,
            "Comment": null,
            "Caption": "Property Key",
            "ID_ModelProperty": "F62EC905-F508-407C-91BA-7D445A5FAD04",
            "ID_ListView": "86F07DBE-4117-46F7-A039-412EF1EA0FFC",
            "ID_CreatedBy": 1,
            "ID_LastModifiedBy": 1,
            "DateCreated": "2018-01-03T15:48:05.410Z",
            "DateModified": null,
            "DataSource": null,
            "Format": null,
            "Width": "158",
            "Fixed": null,
            "VisibleIndex": 700,
            "IsAllowEdit": null,
            "ID_ControlType": null,
            "ID_ColumnAlignment": null,
            "IsVisible": true,
            "FixedPosition": null,
            "IsRequired": null,
            "ID_SummaryType": null,
            "IsAddModelClass": null,
            "GroupIndex": null,
            "IsFilter": null,
            "ID_FilterControlType": null,
            "ID_PropertyModel": null,
            "PropertyModel": null,
            "SummaryType": null
        },
        {
            "ID_PropertyType": 1,
            "Precision": null,
            "$DataSource": null,
            "DisplayProperty": null,
            "Oid": "F4487BA5-39F5-44B4-8EBF-59C28A826857",
            "Code": null,
            "Name": "DefaultValue",
            "IsActive": true,
            "Comment": null,
            "Caption": null,
            "ID_ModelProperty": "0A9BEFF0-52DC-4DCD-8F1A-C37CCEDE5A10",
            "ID_ListView": "86F07DBE-4117-46F7-A039-412EF1EA0FFC",
            "ID_CreatedBy": 1,
            "ID_LastModifiedBy": null,
            "DateCreated": "2018-02-17T21:44:19.570Z",
            "DateModified": null,
            "DataSource": null,
            "Format": null,
            "Width": null,
            "Fixed": null,
            "VisibleIndex": null,
            "IsAllowEdit": null,
            "ID_ControlType": null,
            "ID_ColumnAlignment": null,
            "IsVisible": false,
            "FixedPosition": null,
            "IsRequired": null,
            "ID_SummaryType": null,
            "IsAddModelClass": null,
            "GroupIndex": null,
            "IsFilter": null,
            "ID_FilterControlType": null,
            "ID_PropertyModel": null,
            "PropertyModel": null,
            "SummaryType": null
        },
        {
            "ID_PropertyType": 4,
            "Precision": null,
            "$DataSource": null,
            "DisplayProperty": null,
            "Oid": "FFD3E511-0C60-4BB7-A36C-57040BD2D5AA",
            "Code": null,
            "Name": "IsAggregated",
            "IsActive": true,
            "Comment": null,
            "Caption": null,
            "ID_ModelProperty": "E013358A-252A-4872-AF1A-3A2206A9E40F",
            "ID_ListView": "86F07DBE-4117-46F7-A039-412EF1EA0FFC",
            "ID_CreatedBy": 1,
            "ID_LastModifiedBy": null,
            "DateCreated": "2018-02-24T21:38:59.000Z",
            "DateModified": null,
            "DataSource": null,
            "Format": null,
            "Width": null,
            "Fixed": null,
            "VisibleIndex": null,
            "IsAllowEdit": null,
            "ID_ControlType": null,
            "ID_ColumnAlignment": null,
            "IsVisible": false,
            "FixedPosition": null,
            "IsRequired": null,
            "ID_SummaryType": null,
            "IsAddModelClass": null,
            "GroupIndex": null,
            "IsFilter": null,
            "ID_FilterControlType": null,
            "ID_PropertyModel": null,
            "PropertyModel": null,
            "SummaryType": null
        },
        {
            "ID_PropertyType": 1,
            "Precision": null,
            "$DataSource": null,
            "DisplayProperty": null,
            "Oid": "E08C142D-014C-4E46-A308-D649A4D97339",
            "Code": null,
            "Name": "DisplayProperty",
            "IsActive": true,
            "Comment": null,
            "Caption": null,
            "ID_ModelProperty": "0627B7C5-C246-443B-945B-4DE5B80D1D23",
            "ID_ListView": "86F07DBE-4117-46F7-A039-412EF1EA0FFC",
            "ID_CreatedBy": 1,
            "ID_LastModifiedBy": null,
            "DateCreated": "2018-02-25T13:27:02.947Z",
            "DateModified": null,
            "DataSource": null,
            "Format": null,
            "Width": null,
            "Fixed": null,
            "VisibleIndex": null,
            "IsAllowEdit": null,
            "ID_ControlType": null,
            "ID_ColumnAlignment": null,
            "IsVisible": false,
            "FixedPosition": null,
            "IsRequired": null,
            "ID_SummaryType": null,
            "IsAddModelClass": null,
            "GroupIndex": null,
            "IsFilter": null,
            "ID_FilterControlType": null,
            "ID_PropertyModel": null,
            "PropertyModel": null,
            "SummaryType": null
        }
    ]
}