{
    "Oid": "AFADE9C7-C210-482D-8B52-7FA9DEC8A45F",
    "Name": "ReceivingReport_ListView",
    "ID_Model": "F382C30E-BA84-448E-B35E-0FF338DF4CD8",
    "DataSource": "SELECT * FROM dbo.vReceivingReport",
    "Comment": null,
    "ID_DetailView": "03DFB3C6-6B53-4395-BFB4-AF5EB9BFF408",
    "Model": "ReceivingReport",
    "PrimaryKey": "ID",
    "Caption": "Receiving Report",
    "Details": [
        {
            "ID_PropertyType": 2,
            "Precision": null,
            "$DataSource": null,
            "DisplayProperty": "LastModifiedBy",
            "Oid": "5EA05546-2F81-4DD4-9178-36EACA83515D",
            "Code": null,
            "Name": "ID_LastModifiedBy",
            "IsActive": true,
            "Comment": null,
            "Caption": "Last Modified By",
            "ID_ModelProperty": "59944FE2-1E4C-41AF-8C4F-970EF7CC5D7D",
            "ID_ListView": "AFADE9C7-C210-482D-8B52-7FA9DEC8A45F",
            "ID_CreatedBy": 1,
            "ID_LastModifiedBy": 1,
            "DateCreated": "2020-08-25T22:33:40.637Z",
            "DateModified": null,
            "DataSource": null,
            "Format": null,
            "Width": "150",
            "Fixed": null,
            "VisibleIndex": 1000,
            "IsAllowEdit": null,
            "ID_ControlType": null,
            "ID_ColumnAlignment": null,
            "IsVisible": true,
            "FixedPosition": null,
            "IsRequired": null,
            "ID_SummaryType": null,
            "IsAddModelClass": null,
            "GroupIndex": 0,
            "IsFilter": null,
            "ID_FilterControlType": null,
            "ID_PropertyModel": null,
            "PropertyModel": null,
            "SummaryType": null
        },
        {
            "ID_PropertyType": 2,
            "Precision": null,
            "$DataSource": null,
            "DisplayProperty": "CreatedBy",
            "Oid": "9460AB60-D98E-40D8-92C9-584AC8D15670",
            "Code": null,
            "Name": "ID_CreatedBy",
            "IsActive": true,
            "Comment": null,
            "Caption": "Created By",
            "ID_ModelProperty": "68343C32-990D-47D4-A7A2-2439C8F51D64",
            "ID_ListView": "AFADE9C7-C210-482D-8B52-7FA9DEC8A45F",
            "ID_CreatedBy": 1,
            "ID_LastModifiedBy": 1,
            "DateCreated": "2020-08-25T22:33:40.637Z",
            "DateModified": null,
            "DataSource": null,
            "Format": null,
            "Width": "150",
            "Fixed": null,
            "VisibleIndex": 800,
            "IsAllowEdit": null,
            "ID_ControlType": null,
            "ID_ColumnAlignment": null,
            "IsVisible": true,
            "FixedPosition": null,
            "IsRequired": null,
            "ID_SummaryType": null,
            "IsAddModelClass": null,
            "GroupIndex": 0,
            "IsFilter": null,
            "ID_FilterControlType": null,
            "ID_PropertyModel": null,
            "PropertyModel": null,
            "SummaryType": null
        },
        {
            "ID_PropertyType": 1,
            "Precision": null,
            "$DataSource": null,
            "DisplayProperty": null,
            "Oid": "BF3E01DF-E43E-4BA7-8915-93047A97A520",
            "Code": null,
            "Name": "Code",
            "IsActive": true,
            "Comment": null,
            "Caption": null,
            "ID_ModelProperty": "3CABB166-5A4B-4B44-827A-688E40461CB3",
            "ID_ListView": "AFADE9C7-C210-482D-8B52-7FA9DEC8A45F",
            "ID_CreatedBy": 1,
            "ID_LastModifiedBy": 1,
            "DateCreated": "2020-08-25T22:33:40.637Z",
            "DateModified": null,
            "DataSource": null,
            "Format": null,
            "Width": "97",
            "Fixed": null,
            "VisibleIndex": 200,
            "IsAllowEdit": null,
            "ID_ControlType": null,
            "ID_ColumnAlignment": null,
            "IsVisible": true,
            "FixedPosition": null,
            "IsRequired": null,
            "ID_SummaryType": null,
            "IsAddModelClass": null,
            "GroupIndex": 0,
            "IsFilter": null,
            "ID_FilterControlType": null,
            "ID_PropertyModel": null,
            "PropertyModel": null,
            "SummaryType": null
        },
        {
            "ID_PropertyType": 5,
            "Precision": null,
            "$DataSource": null,
            "DisplayProperty": null,
            "Oid": "F6D94530-4D01-42E6-AE63-9334428056A1",
            "Code": null,
            "Name": "DateCreated",
            "IsActive": true,
            "Comment": null,
            "Caption": "Date Created",
            "ID_ModelProperty": "1C7D9E6F-E073-4881-A8B5-D23931B3ADDA",
            "ID_ListView": "AFADE9C7-C210-482D-8B52-7FA9DEC8A45F",
            "ID_CreatedBy": 1,
            "ID_LastModifiedBy": 1,
            "DateCreated": "2020-08-25T22:33:40.637Z",
            "DateModified": null,
            "DataSource": null,
            "Format": null,
            "Width": "150",
            "Fixed": null,
            "VisibleIndex": 900,
            "IsAllowEdit": null,
            "ID_ControlType": null,
            "ID_ColumnAlignment": null,
            "IsVisible": true,
            "FixedPosition": null,
            "IsRequired": null,
            "ID_SummaryType": null,
            "IsAddModelClass": null,
            "GroupIndex": 0,
            "IsFilter": null,
            "ID_FilterControlType": null,
            "ID_PropertyModel": null,
            "PropertyModel": null,
            "SummaryType": null
        },
        {
            "ID_PropertyType": 4,
            "Precision": null,
            "$DataSource": null,
            "DisplayProperty": null,
            "Oid": "18F6D3A7-5C8F-4A61-9B69-AF2AD5AC1A8D",
            "Code": null,
            "Name": "IsActive",
            "IsActive": true,
            "Comment": null,
            "Caption": "Active",
            "ID_ModelProperty": "056E3FA9-1487-4D77-843C-35736DD899BE",
            "ID_ListView": "AFADE9C7-C210-482D-8B52-7FA9DEC8A45F",
            "ID_CreatedBy": 1,
            "ID_LastModifiedBy": 1,
            "DateCreated": "2020-08-25T22:33:40.637Z",
            "DateModified": null,
            "DataSource": null,
            "Format": null,
            "Width": "150",
            "Fixed": null,
            "VisibleIndex": 200,
            "IsAllowEdit": null,
            "ID_ControlType": null,
            "ID_ColumnAlignment": null,
            "IsVisible": false,
            "FixedPosition": null,
            "IsRequired": null,
            "ID_SummaryType": null,
            "IsAddModelClass": null,
            "GroupIndex": 0,
            "IsFilter": null,
            "ID_FilterControlType": null,
            "ID_PropertyModel": null,
            "PropertyModel": null,
            "SummaryType": null
        },
        {
            "ID_PropertyType": 1,
            "Precision": null,
            "$DataSource": null,
            "DisplayProperty": null,
            "Oid": "40D58E1F-6BEF-476D-8939-BD7BB3BD75B0",
            "Code": null,
            "Name": "Comment",
            "IsActive": true,
            "Comment": null,
            "Caption": null,
            "ID_ModelProperty": "75C2FC79-5A85-4DF9-A13C-4B4B0409C9DD",
            "ID_ListView": "AFADE9C7-C210-482D-8B52-7FA9DEC8A45F",
            "ID_CreatedBy": 1,
            "ID_LastModifiedBy": 1,
            "DateCreated": "2020-08-25T22:33:40.637Z",
            "DateModified": null,
            "DataSource": null,
            "Format": null,
            "Width": "150",
            "Fixed": null,
            "VisibleIndex": 1200,
            "IsAllowEdit": null,
            "ID_ControlType": null,
            "ID_ColumnAlignment": null,
            "IsVisible": true,
            "FixedPosition": null,
            "IsRequired": null,
            "ID_SummaryType": null,
            "IsAddModelClass": null,
            "GroupIndex": 0,
            "IsFilter": null,
            "ID_FilterControlType": null,
            "ID_PropertyModel": null,
            "PropertyModel": null,
            "SummaryType": null
        },
        {
            "ID_PropertyType": 2,
            "Precision": null,
            "$DataSource": null,
            "DisplayProperty": null,
            "Oid": "14AD7A51-7B8D-408C-93A4-C763AFA358C6",
            "Code": null,
            "Name": "ID_Company",
            "IsActive": true,
            "Comment": null,
            "Caption": null,
            "ID_ModelProperty": "D8396C52-F770-4CC4-9A7F-9FDD3939CD05",
            "ID_ListView": "AFADE9C7-C210-482D-8B52-7FA9DEC8A45F",
            "ID_CreatedBy": 1,
            "ID_LastModifiedBy": 1,
            "DateCreated": "2020-08-25T22:33:40.637Z",
            "DateModified": null,
            "DataSource": null,
            "Format": null,
            "Width": "150",
            "Fixed": null,
            "VisibleIndex": 500,
            "IsAllowEdit": null,
            "ID_ControlType": null,
            "ID_ColumnAlignment": null,
            "IsVisible": false,
            "FixedPosition": null,
            "IsRequired": null,
            "ID_SummaryType": null,
            "IsAddModelClass": null,
            "GroupIndex": 0,
            "IsFilter": null,
            "ID_FilterControlType": null,
            "ID_PropertyModel": null,
            "PropertyModel": null,
            "SummaryType": null
        },
        {
            "ID_PropertyType": 5,
            "Precision": null,
            "$DataSource": null,
            "DisplayProperty": null,
            "Oid": "C90F57B8-6E09-4EEF-98BC-D12B63F4C3D1",
            "Code": null,
            "Name": "DateModified",
            "IsActive": true,
            "Comment": null,
            "Caption": "Date Modified",
            "ID_ModelProperty": "E8E0C2DC-3BDC-4BAC-805B-9284CFB3EA39",
            "ID_ListView": "AFADE9C7-C210-482D-8B52-7FA9DEC8A45F",
            "ID_CreatedBy": 1,
            "ID_LastModifiedBy": 1,
            "DateCreated": "2020-08-25T22:33:40.637Z",
            "DateModified": null,
            "DataSource": null,
            "Format": null,
            "Width": "150",
            "Fixed": null,
            "VisibleIndex": 1100,
            "IsAllowEdit": null,
            "ID_ControlType": null,
            "ID_ColumnAlignment": null,
            "IsVisible": true,
            "FixedPosition": null,
            "IsRequired": null,
            "ID_SummaryType": null,
            "IsAddModelClass": null,
            "GroupIndex": 0,
            "IsFilter": null,
            "ID_FilterControlType": null,
            "ID_PropertyModel": null,
            "PropertyModel": null,
            "SummaryType": null
        },
        {
            "ID_PropertyType": 1,
            "Precision": null,
            "$DataSource": null,
            "DisplayProperty": null,
            "Oid": "50978C4E-5929-4880-89AF-E1A27B587BE7",
            "Code": null,
            "Name": "Name",
            "IsActive": true,
            "Comment": null,
            "Caption": null,
            "ID_ModelProperty": "8B6E67CA-C81F-4586-A681-451DB8442BCF",
            "ID_ListView": "AFADE9C7-C210-482D-8B52-7FA9DEC8A45F",
            "ID_CreatedBy": 1,
            "ID_LastModifiedBy": 1,
            "DateCreated": "2020-08-25T22:33:40.637Z",
            "DateModified": null,
            "DataSource": null,
            "Format": null,
            "Width": "150",
            "Fixed": null,
            "VisibleIndex": 300,
            "IsAllowEdit": null,
            "ID_ControlType": null,
            "ID_ColumnAlignment": null,
            "IsVisible": false,
            "FixedPosition": null,
            "IsRequired": null,
            "ID_SummaryType": null,
            "IsAddModelClass": null,
            "GroupIndex": 0,
            "IsFilter": null,
            "ID_FilterControlType": null,
            "ID_PropertyModel": null,
            "PropertyModel": null,
            "SummaryType": null
        },
        {
            "ID_PropertyType": 2,
            "Precision": null,
            "$DataSource": null,
            "DisplayProperty": null,
            "Oid": "E4253B57-7016-4E82-B72D-FA193FDDD2A6",
            "Code": null,
            "Name": "ID",
            "IsActive": true,
            "Comment": null,
            "Caption": null,
            "ID_ModelProperty": "9BF47D5B-4D7C-4767-924E-3A9161C706AC",
            "ID_ListView": "AFADE9C7-C210-482D-8B52-7FA9DEC8A45F",
            "ID_CreatedBy": 1,
            "ID_LastModifiedBy": 1,
            "DateCreated": "2020-08-25T22:33:40.637Z",
            "DateModified": null,
            "DataSource": null,
            "Format": null,
            "Width": "73",
            "Fixed": null,
            "VisibleIndex": 0,
            "IsAllowEdit": null,
            "ID_ControlType": null,
            "ID_ColumnAlignment": null,
            "IsVisible": true,
            "FixedPosition": null,
            "IsRequired": null,
            "ID_SummaryType": null,
            "IsAddModelClass": null,
            "GroupIndex": 0,
            "IsFilter": null,
            "ID_FilterControlType": null,
            "ID_PropertyModel": null,
            "PropertyModel": null,
            "SummaryType": null
        },
        {
            "ID_PropertyType": 2,
            "Precision": null,
            "$DataSource": null,
            "DisplayProperty": "FilingStatus",
            "Oid": "09F43FB3-FCF9-4B90-938F-749FA89502CC",
            "Code": null,
            "Name": "ID_FilingStatus",
            "IsActive": true,
            "Comment": null,
            "Caption": "Filing Status",
            "ID_ModelProperty": "B5B79EEE-3881-4C1D-8328-5EEDBED48767",
            "ID_ListView": "AFADE9C7-C210-482D-8B52-7FA9DEC8A45F",
            "ID_CreatedBy": 1,
            "ID_LastModifiedBy": 1,
            "DateCreated": "2020-09-28T01:13:14.933Z",
            "DateModified": null,
            "DataSource": null,
            "Format": null,
            "Width": "110",
            "Fixed": true,
            "VisibleIndex": 1700,
            "IsAllowEdit": null,
            "ID_ControlType": null,
            "ID_ColumnAlignment": null,
            "IsVisible": true,
            "FixedPosition": "right",
            "IsRequired": null,
            "ID_SummaryType": null,
            "IsAddModelClass": true,
            "GroupIndex": 0,
            "IsFilter": null,
            "ID_FilterControlType": null,
            "ID_PropertyModel": "8A651C66-5CB8-4FFA-89A5-E7DF2AD0983F",
            "PropertyModel": null,
            "SummaryType": null
        },
        {
            "ID_PropertyType": 2,
            "Precision": null,
            "$DataSource": null,
            "DisplayProperty": "Code_PurchaseOrder",
            "Oid": "90E04A26-A122-4F7E-B3D6-EEA2D486CDC0",
            "Code": null,
            "Name": "ID_PurchaseOrder",
            "IsActive": true,
            "Comment": null,
            "Caption": "PO #",
            "ID_ModelProperty": "2B1960D4-4BD7-4924-BABA-7110B1FFD43C",
            "ID_ListView": "AFADE9C7-C210-482D-8B52-7FA9DEC8A45F",
            "ID_CreatedBy": 1,
            "ID_LastModifiedBy": 1,
            "DateCreated": "2020-09-28T01:13:15.880Z",
            "DateModified": null,
            "DataSource": null,
            "Format": null,
            "Width": "96",
            "Fixed": null,
            "VisibleIndex": 300,
            "IsAllowEdit": null,
            "ID_ControlType": null,
            "ID_ColumnAlignment": null,
            "IsVisible": true,
            "FixedPosition": null,
            "IsRequired": null,
            "ID_SummaryType": null,
            "IsAddModelClass": null,
            "GroupIndex": 0,
            "IsFilter": true,
            "ID_FilterControlType": 1,
            "ID_PropertyModel": null,
            "PropertyModel": null,
            "SummaryType": null
        },
        {
            "ID_PropertyType": 2,
            "Precision": null,
            "$DataSource": null,
            "DisplayProperty": "Name_Supplier",
            "Oid": "2E63A934-2FDC-403E-A568-DC0BA9086DCB",
            "Code": null,
            "Name": "ID_Supplier",
            "IsActive": true,
            "Comment": null,
            "Caption": "Supplier",
            "ID_ModelProperty": "BACDBDD2-0886-45C2-AE97-0BC52A3A1D73",
            "ID_ListView": "AFADE9C7-C210-482D-8B52-7FA9DEC8A45F",
            "ID_CreatedBy": 1,
            "ID_LastModifiedBy": 1,
            "DateCreated": "2020-09-28T01:13:16.393Z",
            "DateModified": null,
            "DataSource": null,
            "Format": null,
            "Width": "150",
            "Fixed": null,
            "VisibleIndex": 400,
            "IsAllowEdit": null,
            "ID_ControlType": null,
            "ID_ColumnAlignment": null,
            "IsVisible": true,
            "FixedPosition": null,
            "IsRequired": null,
            "ID_SummaryType": null,
            "IsAddModelClass": null,
            "GroupIndex": 0,
            "IsFilter": null,
            "ID_FilterControlType": null,
            "ID_PropertyModel": null,
            "PropertyModel": null,
            "SummaryType": null
        },
        {
            "ID_PropertyType": 2,
            "Precision": null,
            "$DataSource": null,
            "DisplayProperty": null,
            "Oid": "8170BE4B-45A1-4C90-B9A5-C7AF6D7C198E",
            "Code": null,
            "Name": "ID_TaxScheme",
            "IsActive": true,
            "Comment": null,
            "Caption": null,
            "ID_ModelProperty": "2A8330D2-2A8C-4472-8863-47C3BDFB5073",
            "ID_ListView": "AFADE9C7-C210-482D-8B52-7FA9DEC8A45F",
            "ID_CreatedBy": 1,
            "ID_LastModifiedBy": 1,
            "DateCreated": "2020-09-28T01:13:17.020Z",
            "DateModified": null,
            "DataSource": null,
            "Format": null,
            "Width": "150",
            "Fixed": null,
            "VisibleIndex": 900,
            "IsAllowEdit": null,
            "ID_ControlType": null,
            "ID_ColumnAlignment": null,
            "IsVisible": false,
            "FixedPosition": null,
            "IsRequired": null,
            "ID_SummaryType": null,
            "IsAddModelClass": null,
            "GroupIndex": 0,
            "IsFilter": null,
            "ID_FilterControlType": null,
            "ID_PropertyModel": null,
            "PropertyModel": null,
            "SummaryType": null
        },
        {
            "ID_PropertyType": 3,
            "Precision": 2,
            "$DataSource": null,
            "DisplayProperty": null,
            "Oid": "839C10EE-869A-41AE-B557-6B17E9046B2D",
            "Code": null,
            "Name": "GrossAmount",
            "IsActive": true,
            "Comment": null,
            "Caption": null,
            "ID_ModelProperty": "5CF29BBA-B1E4-4E38-9986-066272CCEBE0",
            "ID_ListView": "AFADE9C7-C210-482D-8B52-7FA9DEC8A45F",
            "ID_CreatedBy": 1,
            "ID_LastModifiedBy": 1,
            "DateCreated": "2020-09-28T01:13:17.510Z",
            "DateModified": null,
            "DataSource": null,
            "Format": null,
            "Width": "116",
            "Fixed": null,
            "VisibleIndex": 500,
            "IsAllowEdit": null,
            "ID_ControlType": null,
            "ID_ColumnAlignment": null,
            "IsVisible": true,
            "FixedPosition": null,
            "IsRequired": null,
            "ID_SummaryType": null,
            "IsAddModelClass": null,
            "GroupIndex": 0,
            "IsFilter": null,
            "ID_FilterControlType": null,
            "ID_PropertyModel": null,
            "PropertyModel": null,
            "SummaryType": null
        },
        {
            "ID_PropertyType": 3,
            "Precision": 2,
            "$DataSource": null,
            "DisplayProperty": null,
            "Oid": "F57FA6BF-F07D-46AC-8BD7-3A72D4B78610",
            "Code": null,
            "Name": "VatAmount",
            "IsActive": true,
            "Comment": null,
            "Caption": null,
            "ID_ModelProperty": "D8A93713-7DC9-4C15-AD10-70F40FBA9CDC",
            "ID_ListView": "AFADE9C7-C210-482D-8B52-7FA9DEC8A45F",
            "ID_CreatedBy": 1,
            "ID_LastModifiedBy": 1,
            "DateCreated": "2020-09-28T01:13:18.033Z",
            "DateModified": null,
            "DataSource": null,
            "Format": null,
            "Width": "111",
            "Fixed": null,
            "VisibleIndex": 600,
            "IsAllowEdit": null,
            "ID_ControlType": null,
            "ID_ColumnAlignment": null,
            "IsVisible": true,
            "FixedPosition": null,
            "IsRequired": null,
            "ID_SummaryType": null,
            "IsAddModelClass": null,
            "GroupIndex": 0,
            "IsFilter": null,
            "ID_FilterControlType": null,
            "ID_PropertyModel": null,
            "PropertyModel": null,
            "SummaryType": null
        },
        {
            "ID_PropertyType": 3,
            "Precision": 2,
            "$DataSource": null,
            "DisplayProperty": null,
            "Oid": "92C9A47D-4722-4586-94A8-55E70315BB20",
            "Code": null,
            "Name": "NetAmount",
            "IsActive": true,
            "Comment": null,
            "Caption": null,
            "ID_ModelProperty": "033EA67A-31FD-49A2-AB23-F22C373B18D9",
            "ID_ListView": "AFADE9C7-C210-482D-8B52-7FA9DEC8A45F",
            "ID_CreatedBy": 1,
            "ID_LastModifiedBy": 1,
            "DateCreated": "2020-09-28T01:13:18.520Z",
            "DateModified": null,
            "DataSource": null,
            "Format": null,
            "Width": "107",
            "Fixed": null,
            "VisibleIndex": 700,
            "IsAllowEdit": null,
            "ID_ControlType": null,
            "ID_ColumnAlignment": null,
            "IsVisible": true,
            "FixedPosition": null,
            "IsRequired": null,
            "ID_SummaryType": null,
            "IsAddModelClass": null,
            "GroupIndex": 0,
            "IsFilter": null,
            "ID_FilterControlType": null,
            "ID_PropertyModel": null,
            "PropertyModel": null,
            "SummaryType": null
        },
        {
            "ID_PropertyType": 2,
            "Precision": null,
            "$DataSource": null,
            "DisplayProperty": "ApprovedBy",
            "Oid": "E6708105-ECE4-4762-91E7-C6A3EB7B7667",
            "Code": null,
            "Name": "ID_ApprovedBy",
            "IsActive": true,
            "Comment": null,
            "Caption": "Approved By",
            "ID_ModelProperty": "E53499C1-AC60-478C-8FAC-629C1152D1E4",
            "ID_ListView": "AFADE9C7-C210-482D-8B52-7FA9DEC8A45F",
            "ID_CreatedBy": 1,
            "ID_LastModifiedBy": 1,
            "DateCreated": "2020-09-28T01:13:19.013Z",
            "DateModified": null,
            "DataSource": null,
            "Format": null,
            "Width": "150",
            "Fixed": null,
            "VisibleIndex": 1400,
            "IsAllowEdit": null,
            "ID_ControlType": null,
            "ID_ColumnAlignment": null,
            "IsVisible": true,
            "FixedPosition": null,
            "IsRequired": null,
            "ID_SummaryType": null,
            "IsAddModelClass": null,
            "GroupIndex": 0,
            "IsFilter": null,
            "ID_FilterControlType": null,
            "ID_PropertyModel": null,
            "PropertyModel": null,
            "SummaryType": null
        },
        {
            "ID_PropertyType": 5,
            "Precision": null,
            "$DataSource": null,
            "DisplayProperty": null,
            "Oid": "94203CB0-A301-4C42-9C81-3B6C2B5DEFAD",
            "Code": null,
            "Name": "DateApproved",
            "IsActive": true,
            "Comment": null,
            "Caption": "Date Approved",
            "ID_ModelProperty": "B668E262-5D2D-4314-AB81-E7BAD4D78C19",
            "ID_ListView": "AFADE9C7-C210-482D-8B52-7FA9DEC8A45F",
            "ID_CreatedBy": 1,
            "ID_LastModifiedBy": 1,
            "DateCreated": "2020-09-28T01:13:19.857Z",
            "DateModified": null,
            "DataSource": null,
            "Format": null,
            "Width": "150",
            "Fixed": null,
            "VisibleIndex": 1300,
            "IsAllowEdit": null,
            "ID_ControlType": null,
            "ID_ColumnAlignment": null,
            "IsVisible": true,
            "FixedPosition": null,
            "IsRequired": null,
            "ID_SummaryType": null,
            "IsAddModelClass": null,
            "GroupIndex": 0,
            "IsFilter": null,
            "ID_FilterControlType": null,
            "ID_PropertyModel": null,
            "PropertyModel": null,
            "SummaryType": null
        },
        {
            "ID_PropertyType": 5,
            "Precision": null,
            "$DataSource": null,
            "DisplayProperty": null,
            "Oid": "02029A0A-1514-45E1-9AC8-BCB3FAA8DA2F",
            "Code": null,
            "Name": "Date",
            "IsActive": true,
            "Comment": null,
            "Caption": null,
            "ID_ModelProperty": "09D171F6-00A2-4901-B5B7-F4DCB48776E8",
            "ID_ListView": "AFADE9C7-C210-482D-8B52-7FA9DEC8A45F",
            "ID_CreatedBy": 1,
            "ID_LastModifiedBy": 1,
            "DateCreated": "2020-09-28T01:13:20.463Z",
            "DateModified": null,
            "DataSource": null,
            "Format": null,
            "Width": "150",
            "Fixed": null,
            "VisibleIndex": 100,
            "IsAllowEdit": null,
            "ID_ControlType": null,
            "ID_ColumnAlignment": null,
            "IsVisible": true,
            "FixedPosition": null,
            "IsRequired": null,
            "ID_SummaryType": null,
            "IsAddModelClass": null,
            "GroupIndex": 0,
            "IsFilter": null,
            "ID_FilterControlType": null,
            "ID_PropertyModel": null,
            "PropertyModel": null,
            "SummaryType": null
        },
        {
            "ID_PropertyType": 2,
            "Precision": null,
            "$DataSource": null,
            "DisplayProperty": "CanceledBy_Name_User",
            "Oid": "CEC17BF4-6396-4A1B-A51A-9D88143126C3",
            "Code": null,
            "Name": "ID_CanceledBy",
            "IsActive": true,
            "Comment": null,
            "Caption": "Canceled By",
            "ID_ModelProperty": "C9141D09-11CE-463C-923B-E751D7652DBC",
            "ID_ListView": "AFADE9C7-C210-482D-8B52-7FA9DEC8A45F",
            "ID_CreatedBy": 1,
            "ID_LastModifiedBy": 1,
            "DateCreated": "2020-09-28T01:13:21.040Z",
            "DateModified": null,
            "DataSource": null,
            "Format": null,
            "Width": "150",
            "Fixed": null,
            "VisibleIndex": 1600,
            "IsAllowEdit": null,
            "ID_ControlType": null,
            "ID_ColumnAlignment": null,
            "IsVisible": true,
            "FixedPosition": null,
            "IsRequired": null,
            "ID_SummaryType": null,
            "IsAddModelClass": null,
            "GroupIndex": 0,
            "IsFilter": null,
            "ID_FilterControlType": null,
            "ID_PropertyModel": null,
            "PropertyModel": null,
            "SummaryType": null
        },
        {
            "ID_PropertyType": 5,
            "Precision": null,
            "$DataSource": null,
            "DisplayProperty": null,
            "Oid": "168A3EDC-BAF1-4D0B-A7FD-4AB95169BF58",
            "Code": null,
            "Name": "DateCanceled",
            "IsActive": true,
            "Comment": null,
            "Caption": null,
            "ID_ModelProperty": "0A7A2FCC-BAAF-475C-A084-EBFAE05BD48A",
            "ID_ListView": "AFADE9C7-C210-482D-8B52-7FA9DEC8A45F",
            "ID_CreatedBy": 1,
            "ID_LastModifiedBy": 1,
            "DateCreated": "2020-09-28T01:13:21.530Z",
            "DateModified": null,
            "DataSource": null,
            "Format": null,
            "Width": "150",
            "Fixed": null,
            "VisibleIndex": 1500,
            "IsAllowEdit": null,
            "ID_ControlType": null,
            "ID_ColumnAlignment": null,
            "IsVisible": true,
            "FixedPosition": null,
            "IsRequired": null,
            "ID_SummaryType": null,
            "IsAddModelClass": null,
            "GroupIndex": 0,
            "IsFilter": null,
            "ID_FilterControlType": null,
            "ID_PropertyModel": null,
            "PropertyModel": null,
            "SummaryType": null
        },
        {
            "ID_PropertyType": 2,
            "Precision": null,
            "$DataSource": null,
            "DisplayProperty": "ServingStatus_Name_FilingStatus",
            "Oid": "81C1C195-6985-49EF-A6D0-C925635C42EE",
            "Code": null,
            "Name": "ServingStatus_ID_FilingStatus",
            "IsActive": true,
            "Comment": null,
            "Caption": "Serving Status",
            "ID_ModelProperty": "6251845B-F256-4CAC-9925-BB5842CC8C99",
            "ID_ListView": "AFADE9C7-C210-482D-8B52-7FA9DEC8A45F",
            "ID_CreatedBy": 1,
            "ID_LastModifiedBy": 1,
            "DateCreated": "2020-10-06T13:14:04.723Z",
            "DateModified": null,
            "DataSource": null,
            "Format": null,
            "Width": "96",
            "Fixed": true,
            "VisibleIndex": 1800,
            "IsAllowEdit": null,
            "ID_ControlType": null,
            "ID_ColumnAlignment": null,
            "IsVisible": false,
            "FixedPosition": "right",
            "IsRequired": null,
            "ID_SummaryType": null,
            "IsAddModelClass": null,
            "GroupIndex": 0,
            "IsFilter": null,
            "ID_FilterControlType": null,
            "ID_PropertyModel": null,
            "PropertyModel": null,
            "SummaryType": null
        },
        {
            "ID_PropertyType": 3,
            "Precision": 2,
            "$DataSource": null,
            "DisplayProperty": null,
            "Oid": "C215E8DA-54E1-4098-A693-D9173175A0E0",
            "Code": null,
            "Name": "DiscountRate",
            "IsActive": true,
            "Comment": null,
            "Caption": null,
            "ID_ModelProperty": "FC4169FA-64F7-4DDE-BA0B-70967546FF50",
            "ID_ListView": "AFADE9C7-C210-482D-8B52-7FA9DEC8A45F",
            "ID_CreatedBy": 1,
            "ID_LastModifiedBy": null,
            "DateCreated": "2021-03-03T04:41:25.680Z",
            "DateModified": null,
            "DataSource": null,
            "Format": null,
            "Width": null,
            "Fixed": null,
            "VisibleIndex": 1000,
            "IsAllowEdit": null,
            "ID_ControlType": null,
            "ID_ColumnAlignment": null,
            "IsVisible": true,
            "FixedPosition": null,
            "IsRequired": null,
            "ID_SummaryType": null,
            "IsAddModelClass": null,
            "GroupIndex": null,
            "IsFilter": null,
            "ID_FilterControlType": null,
            "ID_PropertyModel": null,
            "PropertyModel": null,
            "SummaryType": null
        },
        {
            "ID_PropertyType": 3,
            "Precision": 2,
            "$DataSource": null,
            "DisplayProperty": null,
            "Oid": "FFC8AEBE-AB3D-409F-BA1D-AC36F515EF10",
            "Code": null,
            "Name": "DiscountAmount",
            "IsActive": true,
            "Comment": null,
            "Caption": null,
            "ID_ModelProperty": "70DD1906-3D5B-49CC-984A-707CFB864DE2",
            "ID_ListView": "AFADE9C7-C210-482D-8B52-7FA9DEC8A45F",
            "ID_CreatedBy": 1,
            "ID_LastModifiedBy": null,
            "DateCreated": "2021-03-03T04:41:26.000Z",
            "DateModified": null,
            "DataSource": null,
            "Format": null,
            "Width": null,
            "Fixed": null,
            "VisibleIndex": 1000,
            "IsAllowEdit": null,
            "ID_ControlType": null,
            "ID_ColumnAlignment": null,
            "IsVisible": true,
            "FixedPosition": null,
            "IsRequired": null,
            "ID_SummaryType": null,
            "IsAddModelClass": null,
            "GroupIndex": null,
            "IsFilter": null,
            "ID_FilterControlType": null,
            "ID_PropertyModel": null,
            "PropertyModel": null,
            "SummaryType": null
        },
        {
            "ID_PropertyType": 4,
            "Precision": null,
            "$DataSource": null,
            "DisplayProperty": null,
            "Oid": "30CC5959-C5E1-48CC-802F-E13E49BAF1B5",
            "Code": null,
            "Name": "IsComputeDiscountRate",
            "IsActive": true,
            "Comment": null,
            "Caption": null,
            "ID_ModelProperty": "81E7FB15-5E56-49C1-9162-AFAA559A4633",
            "ID_ListView": "AFADE9C7-C210-482D-8B52-7FA9DEC8A45F",
            "ID_CreatedBy": 1,
            "ID_LastModifiedBy": null,
            "DateCreated": "2021-03-03T04:41:26.307Z",
            "DateModified": null,
            "DataSource": null,
            "Format": null,
            "Width": null,
            "Fixed": null,
            "VisibleIndex": 1000,
            "IsAllowEdit": null,
            "ID_ControlType": null,
            "ID_ColumnAlignment": null,
            "IsVisible": true,
            "FixedPosition": null,
            "IsRequired": null,
            "ID_SummaryType": null,
            "IsAddModelClass": null,
            "GroupIndex": null,
            "IsFilter": null,
            "ID_FilterControlType": null,
            "ID_PropertyModel": null,
            "PropertyModel": null,
            "SummaryType": null
        },
        {
            "ID_PropertyType": 3,
            "Precision": 2,
            "$DataSource": null,
            "DisplayProperty": null,
            "Oid": "FD10941F-504A-4AE2-B555-A63643121EC6",
            "Code": null,
            "Name": "SubTotal",
            "IsActive": true,
            "Comment": null,
            "Caption": null,
            "ID_ModelProperty": "D6891167-8941-4C42-8C50-59C59190735C",
            "ID_ListView": "AFADE9C7-C210-482D-8B52-7FA9DEC8A45F",
            "ID_CreatedBy": 1,
            "ID_LastModifiedBy": null,
            "DateCreated": "2021-03-03T04:41:26.620Z",
            "DateModified": null,
            "DataSource": null,
            "Format": null,
            "Width": null,
            "Fixed": null,
            "VisibleIndex": 1000,
            "IsAllowEdit": null,
            "ID_ControlType": null,
            "ID_ColumnAlignment": null,
            "IsVisible": true,
            "FixedPosition": null,
            "IsRequired": null,
            "ID_SummaryType": null,
            "IsAddModelClass": null,
            "GroupIndex": null,
            "IsFilter": null,
            "ID_FilterControlType": null,
            "ID_PropertyModel": null,
            "PropertyModel": null,
            "SummaryType": null
        },
        {
            "ID_PropertyType": 3,
            "Precision": 2,
            "$DataSource": null,
            "DisplayProperty": null,
            "Oid": "FE2F650D-184F-4A28-9944-F990A174774D",
            "Code": null,
            "Name": "TotalAmount",
            "IsActive": true,
            "Comment": null,
            "Caption": null,
            "ID_ModelProperty": "0F81A431-E7B8-468F-97DB-4422B59C9EC7",
            "ID_ListView": "AFADE9C7-C210-482D-8B52-7FA9DEC8A45F",
            "ID_CreatedBy": 1,
            "ID_LastModifiedBy": null,
            "DateCreated": "2021-03-03T04:41:26.930Z",
            "DateModified": null,
            "DataSource": null,
            "Format": null,
            "Width": null,
            "Fixed": null,
            "VisibleIndex": 1000,
            "IsAllowEdit": null,
            "ID_ControlType": null,
            "ID_ColumnAlignment": null,
            "IsVisible": true,
            "FixedPosition": null,
            "IsRequired": null,
            "ID_SummaryType": null,
            "IsAddModelClass": null,
            "GroupIndex": null,
            "IsFilter": null,
            "ID_FilterControlType": null,
            "ID_PropertyModel": null,
            "PropertyModel": null,
            "SummaryType": null
        }
    ]
}