{
    "Oid": "366A431E-2688-4E53-B011-29AC7A76D5FB",
    "Name": "UserRole_Detail_ListView_Detail",
    "ID_Model": "EB992658-1469-4626-AD4F-669AC09F8A78",
    "DataSource": null,
    "Comment": null,
    "ID_DetailView": "4E658FB8-BC3E-4122-B481-5C15B06BFE1A",
    "Model": "UserRole_Detail",
    "PrimaryKey": "ID",
    "Caption": "UserRole_Detail",
    "Details": [
        {
            "ID_PropertyType": 2,
            "Precision": null,
            "$DataSource": null,
            "DisplayProperty": null,
            "Oid": "397A8308-E7F5-4AB7-9880-30D110A54F9F",
            "Code": null,
            "Name": "ID",
            "IsActive": true,
            "Comment": null,
            "Caption": null,
            "ID_ModelProperty": "5A94B7F0-8C91-4628-8C69-D8D5B3E2C747",
            "ID_ListView": "366A431E-2688-4E53-B011-29AC7A76D5FB",
            "ID_CreatedBy": 1,
            "ID_LastModifiedBy": 1,
            "DateCreated": "2020-08-06T13:16:42.777Z",
            "DateModified": null,
            "DataSource": null,
            "Format": null,
            "Width": "81",
            "Fixed": true,
            "VisibleIndex": 0,
            "IsAllowEdit": null,
            "ID_ControlType": null,
            "ID_ColumnAlignment": null,
            "IsVisible": false,
            "FixedPosition": null,
            "IsRequired": null,
            "ID_SummaryType": null,
            "IsAddModelClass": null,
            "GroupIndex": 0,
            "IsFilter": null,
            "ID_FilterControlType": null,
            "ID_PropertyModel": null,
            "PropertyModel": null,
            "SummaryType": null
        },
        {
            "ID_PropertyType": 1,
            "Precision": null,
            "$DataSource": null,
            "DisplayProperty": null,
            "Oid": "E0A0AAB5-52FF-4DA2-97B2-3338E27E2CA0",
            "Code": null,
            "Name": "Code",
            "IsActive": true,
            "Comment": null,
            "Caption": null,
            "ID_ModelProperty": "EE065DB6-0A26-4997-928B-2373BB6532FB",
            "ID_ListView": "366A431E-2688-4E53-B011-29AC7A76D5FB",
            "ID_CreatedBy": 1,
            "ID_LastModifiedBy": 1,
            "DateCreated": "2020-08-06T13:16:42.777Z",
            "DateModified": null,
            "DataSource": null,
            "Format": null,
            "Width": "150",
            "Fixed": null,
            "VisibleIndex": 200,
            "IsAllowEdit": null,
            "ID_ControlType": null,
            "ID_ColumnAlignment": null,
            "IsVisible": false,
            "FixedPosition": null,
            "IsRequired": null,
            "ID_SummaryType": null,
            "IsAddModelClass": null,
            "GroupIndex": 0,
            "IsFilter": null,
            "ID_FilterControlType": null,
            "ID_PropertyModel": null,
            "PropertyModel": null,
            "SummaryType": null
        },
        {
            "ID_PropertyType": 1,
            "Precision": null,
            "$DataSource": null,
            "DisplayProperty": null,
            "Oid": "92BCDDE2-6648-4F16-B3C6-50CC9CE05AA0",
            "Code": null,
            "Name": "Name",
            "IsActive": true,
            "Comment": null,
            "Caption": null,
            "ID_ModelProperty": "93DBD5CB-B389-45B3-867C-17CC7C14B381",
            "ID_ListView": "366A431E-2688-4E53-B011-29AC7A76D5FB",
            "ID_CreatedBy": 1,
            "ID_LastModifiedBy": 1,
            "DateCreated": "2020-08-06T13:16:42.777Z",
            "DateModified": null,
            "DataSource": null,
            "Format": null,
            "Width": "150",
            "Fixed": null,
            "VisibleIndex": 400,
            "IsAllowEdit": null,
            "ID_ControlType": null,
            "ID_ColumnAlignment": null,
            "IsVisible": false,
            "FixedPosition": null,
            "IsRequired": null,
            "ID_SummaryType": null,
            "IsAddModelClass": null,
            "GroupIndex": 0,
            "IsFilter": null,
            "ID_FilterControlType": null,
            "ID_PropertyModel": null,
            "PropertyModel": null,
            "SummaryType": null
        },
        {
            "ID_PropertyType": 4,
            "Precision": null,
            "$DataSource": null,
            "DisplayProperty": null,
            "Oid": "A722A511-231E-4F15-9C68-67F3B95DE5C7",
            "Code": null,
            "Name": "IsActive",
            "IsActive": true,
            "Comment": null,
            "Caption": "Active",
            "ID_ModelProperty": "6B88D6AF-70CA-4C54-BD0F-0C2DD9902154",
            "ID_ListView": "366A431E-2688-4E53-B011-29AC7A76D5FB",
            "ID_CreatedBy": 1,
            "ID_LastModifiedBy": 1,
            "DateCreated": "2020-08-06T13:16:42.777Z",
            "DateModified": null,
            "DataSource": null,
            "Format": null,
            "Width": "122",
            "Fixed": true,
            "VisibleIndex": 500,
            "IsAllowEdit": null,
            "ID_ControlType": null,
            "ID_ColumnAlignment": null,
            "IsVisible": true,
            "FixedPosition": "right",
            "IsRequired": null,
            "ID_SummaryType": null,
            "IsAddModelClass": null,
            "GroupIndex": 0,
            "IsFilter": null,
            "ID_FilterControlType": null,
            "ID_PropertyModel": null,
            "PropertyModel": null,
            "SummaryType": null
        },
        {
            "ID_PropertyType": 2,
            "Precision": null,
            "$DataSource": null,
            "DisplayProperty": null,
            "Oid": "6885386D-794A-4255-89FC-9780FE1E8587",
            "Code": null,
            "Name": "ID_UserRole",
            "IsActive": true,
            "Comment": null,
            "Caption": null,
            "ID_ModelProperty": "925B8E84-1DC1-4AA6-8AFE-985E9DCCD45C",
            "ID_ListView": "366A431E-2688-4E53-B011-29AC7A76D5FB",
            "ID_CreatedBy": 1,
            "ID_LastModifiedBy": 1,
            "DateCreated": "2020-08-06T13:16:42.777Z",
            "DateModified": null,
            "DataSource": null,
            "Format": null,
            "Width": "150",
            "Fixed": null,
            "VisibleIndex": 400,
            "IsAllowEdit": null,
            "ID_ControlType": null,
            "ID_ColumnAlignment": null,
            "IsVisible": false,
            "FixedPosition": null,
            "IsRequired": null,
            "ID_SummaryType": null,
            "IsAddModelClass": null,
            "GroupIndex": 0,
            "IsFilter": null,
            "ID_FilterControlType": null,
            "ID_PropertyModel": null,
            "PropertyModel": null,
            "SummaryType": null
        },
        {
            "ID_PropertyType": 1,
            "Precision": null,
            "$DataSource": null,
            "DisplayProperty": null,
            "Oid": "22DC9957-2E8C-4261-985F-BA8E5F81C560",
            "Code": null,
            "Name": "Comment",
            "IsActive": true,
            "Comment": null,
            "Caption": null,
            "ID_ModelProperty": "960EEE80-0ABC-4D15-8633-E6F1DA7B2496",
            "ID_ListView": "366A431E-2688-4E53-B011-29AC7A76D5FB",
            "ID_CreatedBy": 1,
            "ID_LastModifiedBy": 1,
            "DateCreated": "2020-08-06T13:16:42.777Z",
            "DateModified": null,
            "DataSource": null,
            "Format": null,
            "Width": "150",
            "Fixed": null,
            "VisibleIndex": 500,
            "IsAllowEdit": null,
            "ID_ControlType": null,
            "ID_ColumnAlignment": null,
            "IsVisible": false,
            "FixedPosition": null,
            "IsRequired": null,
            "ID_SummaryType": null,
            "IsAddModelClass": null,
            "GroupIndex": 0,
            "IsFilter": null,
            "ID_FilterControlType": null,
            "ID_PropertyModel": null,
            "PropertyModel": null,
            "SummaryType": null
        },
        {
            "ID_PropertyType": 1,
            "Precision": null,
            "$DataSource": null,
            "DisplayProperty": "ModelName",
            "Oid": "15C868CD-339D-4013-9B32-A272326ED08E",
            "Code": null,
            "Name": "ID_Model",
            "IsActive": true,
            "Comment": null,
            "Caption": "Module",
            "ID_ModelProperty": "4F35ED07-FEA8-494C-B3AA-B06C7687EBC3",
            "ID_ListView": "366A431E-2688-4E53-B011-29AC7A76D5FB",
            "ID_CreatedBy": 1,
            "ID_LastModifiedBy": 1,
            "DateCreated": "2020-08-06T13:58:40.380Z",
            "DateModified": null,
            "DataSource": null,
            "Format": null,
            "Width": "222",
            "Fixed": true,
            "VisibleIndex": 0,
            "IsAllowEdit": null,
            "ID_ControlType": null,
            "ID_ColumnAlignment": null,
            "IsVisible": true,
            "FixedPosition": null,
            "IsRequired": null,
            "ID_SummaryType": null,
            "IsAddModelClass": null,
            "GroupIndex": 0,
            "IsFilter": null,
            "ID_FilterControlType": null,
            "ID_PropertyModel": null,
            "PropertyModel": null,
            "SummaryType": null
        },
        {
            "ID_PropertyType": 4,
            "Precision": null,
            "$DataSource": null,
            "DisplayProperty": null,
            "Oid": "A221B655-6A87-4A3A-BDCC-A48F28B8CFBA",
            "Code": null,
            "Name": "IsView",
            "IsActive": true,
            "Comment": null,
            "Caption": "View",
            "ID_ModelProperty": "04288920-93F1-4A76-A5B7-C4F380592D85",
            "ID_ListView": "366A431E-2688-4E53-B011-29AC7A76D5FB",
            "ID_CreatedBy": 1,
            "ID_LastModifiedBy": 1,
            "DateCreated": "2020-08-06T14:01:00.543Z",
            "DateModified": null,
            "DataSource": null,
            "Format": null,
            "Width": "118",
            "Fixed": null,
            "VisibleIndex": 100,
            "IsAllowEdit": null,
            "ID_ControlType": null,
            "ID_ColumnAlignment": null,
            "IsVisible": true,
            "FixedPosition": null,
            "IsRequired": null,
            "ID_SummaryType": null,
            "IsAddModelClass": null,
            "GroupIndex": 0,
            "IsFilter": null,
            "ID_FilterControlType": null,
            "ID_PropertyModel": null,
            "PropertyModel": null,
            "SummaryType": null
        },
        {
            "ID_PropertyType": 4,
            "Precision": null,
            "$DataSource": null,
            "DisplayProperty": null,
            "Oid": "0CB3EB06-A0AA-4559-BEC6-44B5480ABAED",
            "Code": null,
            "Name": "IsCreate",
            "IsActive": true,
            "Comment": null,
            "Caption": "Create",
            "ID_ModelProperty": "425B7703-7800-4512-B257-6D640BF2538F",
            "ID_ListView": "366A431E-2688-4E53-B011-29AC7A76D5FB",
            "ID_CreatedBy": 1,
            "ID_LastModifiedBy": 1,
            "DateCreated": "2020-08-06T14:39:22.460Z",
            "DateModified": null,
            "DataSource": null,
            "Format": null,
            "Width": "107",
            "Fixed": null,
            "VisibleIndex": 300,
            "IsAllowEdit": null,
            "ID_ControlType": null,
            "ID_ColumnAlignment": null,
            "IsVisible": true,
            "FixedPosition": null,
            "IsRequired": null,
            "ID_SummaryType": null,
            "IsAddModelClass": null,
            "GroupIndex": 0,
            "IsFilter": null,
            "ID_FilterControlType": null,
            "ID_PropertyModel": null,
            "PropertyModel": null,
            "SummaryType": null
        },
        {
            "ID_PropertyType": 4,
            "Precision": null,
            "$DataSource": null,
            "DisplayProperty": null,
            "Oid": "EAD6C24E-4172-4521-87B5-A52286A9DC8E",
            "Code": null,
            "Name": "IsEdit",
            "IsActive": true,
            "Comment": null,
            "Caption": "Edit",
            "ID_ModelProperty": "06C97242-7CA6-40D2-8E2C-570EF421D820",
            "ID_ListView": "366A431E-2688-4E53-B011-29AC7A76D5FB",
            "ID_CreatedBy": 1,
            "ID_LastModifiedBy": 1,
            "DateCreated": "2020-08-06T14:39:37.687Z",
            "DateModified": null,
            "DataSource": null,
            "Format": null,
            "Width": "146",
            "Fixed": null,
            "VisibleIndex": 400,
            "IsAllowEdit": null,
            "ID_ControlType": null,
            "ID_ColumnAlignment": null,
            "IsVisible": true,
            "FixedPosition": null,
            "IsRequired": null,
            "ID_SummaryType": null,
            "IsAddModelClass": null,
            "GroupIndex": 0,
            "IsFilter": null,
            "ID_FilterControlType": null,
            "ID_PropertyModel": null,
            "PropertyModel": null,
            "SummaryType": null
        },
        {
            "ID_PropertyType": 4,
            "Precision": null,
            "$DataSource": null,
            "DisplayProperty": null,
            "Oid": "B767D335-CDDD-4F15-B16C-419FAB150A0C",
            "Code": null,
            "Name": "IsDelete",
            "IsActive": true,
            "Comment": null,
            "Caption": "Delete",
            "ID_ModelProperty": "158B86A9-9257-4768-9DE0-AAAD503BD831",
            "ID_ListView": "366A431E-2688-4E53-B011-29AC7A76D5FB",
            "ID_CreatedBy": 1,
            "ID_LastModifiedBy": 1,
            "DateCreated": "2020-08-06T14:39:55.003Z",
            "DateModified": null,
            "DataSource": null,
            "Format": null,
            "Width": "109",
            "Fixed": null,
            "VisibleIndex": 200,
            "IsAllowEdit": null,
            "ID_ControlType": null,
            "ID_ColumnAlignment": null,
            "IsVisible": true,
            "FixedPosition": null,
            "IsRequired": null,
            "ID_SummaryType": null,
            "IsAddModelClass": null,
            "GroupIndex": 0,
            "IsFilter": null,
            "ID_FilterControlType": null,
            "ID_PropertyModel": null,
            "PropertyModel": null,
            "SummaryType": null
        },
        {
            "ID_PropertyType": 4,
            "Precision": null,
            "$DataSource": null,
            "DisplayProperty": null,
            "Oid": "3706F0A1-F415-44AE-AFE5-473D67AC4643",
            "Code": null,
            "Name": "IsDeny",
            "IsActive": true,
            "Comment": null,
            "Caption": "Deny",
            "ID_ModelProperty": "6AF79258-9BE9-4CBF-850B-8CEB1495B812",
            "ID_ListView": "366A431E-2688-4E53-B011-29AC7A76D5FB",
            "ID_CreatedBy": 1,
            "ID_LastModifiedBy": 1,
            "DateCreated": "2020-08-18T12:10:25.503Z",
            "DateModified": null,
            "DataSource": null,
            "Format": null,
            "Width": "150",
            "Fixed": true,
            "VisibleIndex": 600,
            "IsAllowEdit": null,
            "ID_ControlType": null,
            "ID_ColumnAlignment": null,
            "IsVisible": true,
            "FixedPosition": "right",
            "IsRequired": null,
            "ID_SummaryType": null,
            "IsAddModelClass": null,
            "GroupIndex": 0,
            "IsFilter": null,
            "ID_FilterControlType": null,
            "ID_PropertyModel": null,
            "PropertyModel": null,
            "SummaryType": null
        },
        {
            "ID_PropertyType": 2,
            "Precision": null,
            "$DataSource": null,
            "DisplayProperty": null,
            "Oid": "33E61E30-6875-4CA5-9D68-9DAADBD38AC3",
            "Code": null,
            "Name": "SeqNo",
            "IsActive": true,
            "Comment": null,
            "Caption": "Seq No",
            "ID_ModelProperty": "559EFF90-E02B-4E2E-8BB5-C9F47BB0FDB9",
            "ID_ListView": "366A431E-2688-4E53-B011-29AC7A76D5FB",
            "ID_CreatedBy": 1,
            "ID_LastModifiedBy": 1,
            "DateCreated": "2020-08-19T09:06:06.593Z",
            "DateModified": null,
            "DataSource": null,
            "Format": null,
            "Width": null,
            "Fixed": null,
            "VisibleIndex": 1000,
            "IsAllowEdit": null,
            "ID_ControlType": null,
            "ID_ColumnAlignment": null,
            "IsVisible": true,
            "FixedPosition": null,
            "IsRequired": null,
            "ID_SummaryType": null,
            "IsAddModelClass": null,
            "GroupIndex": null,
            "IsFilter": null,
            "ID_FilterControlType": null,
            "ID_PropertyModel": null,
            "PropertyModel": null,
            "SummaryType": null
        }
    ]
}