{
    "Oid": "E6F1A323-D5D5-4117-94C7-A546B92F0219",
    "Name": "AuditTrailType_ListView",
    "ID_Model": "6AC0FC27-EB39-4F30-965E-27D579FB625F",
    "DataSource": "SELECT * FROM tAuditTrailType",
    "Comment": null,
    "ID_DetailView": "A3ECBA3F-8104-4779-8F43-ED7D23ABD144",
    "Model": "AuditTrailType",
    "PrimaryKey": "ID",
    "Caption": "Audit Trail Type",
    "Details": [
        {
            "ID_PropertyType": 1,
            "Precision": null,
            "$DataSource": null,
            "DisplayProperty": null,
            "Oid": "884A8FF9-609E-4EA5-9CED-35D5D1089388",
            "Code": null,
            "Name": "Name",
            "IsActive": true,
            "Comment": null,
            "Caption": null,
            "ID_ModelProperty": "4A601B43-6175-4BC9-8013-7CCDEC4D3796",
            "ID_ListView": "E6F1A323-D5D5-4117-94C7-A546B92F0219",
            "ID_CreatedBy": 1,
            "ID_LastModifiedBy": 1,
            "DateCreated": "2018-08-29T15:34:23.350Z",
            "DateModified": null,
            "DataSource": null,
            "Format": null,
            "Width": "174",
            "Fixed": null,
            "VisibleIndex": 200,
            "IsAllowEdit": null,
            "ID_ControlType": null,
            "ID_ColumnAlignment": null,
            "IsVisible": true,
            "FixedPosition": null,
            "IsRequired": null,
            "ID_SummaryType": null,
            "IsAddModelClass": null,
            "GroupIndex": 0,
            "IsFilter": true,
            "ID_FilterControlType": null,
            "ID_PropertyModel": null,
            "PropertyModel": null,
            "SummaryType": null
        },
        {
            "ID_PropertyType": 1,
            "Precision": null,
            "$DataSource": null,
            "DisplayProperty": null,
            "Oid": "CC398A8A-7EA9-4863-8EC1-38401782C00C",
            "Code": null,
            "Name": "Code",
            "IsActive": true,
            "Comment": null,
            "Caption": null,
            "ID_ModelProperty": "1D8ABA62-AC4F-4E86-862D-389D5282B1FE",
            "ID_ListView": "E6F1A323-D5D5-4117-94C7-A546B92F0219",
            "ID_CreatedBy": 1,
            "ID_LastModifiedBy": 1,
            "DateCreated": "2018-08-29T15:34:23.350Z",
            "DateModified": null,
            "DataSource": null,
            "Format": null,
            "Width": "105",
            "Fixed": null,
            "VisibleIndex": 100,
            "IsAllowEdit": null,
            "ID_ControlType": null,
            "ID_ColumnAlignment": null,
            "IsVisible": true,
            "FixedPosition": null,
            "IsRequired": null,
            "ID_SummaryType": null,
            "IsAddModelClass": null,
            "GroupIndex": 0,
            "IsFilter": null,
            "ID_FilterControlType": null,
            "ID_PropertyModel": null,
            "PropertyModel": null,
            "SummaryType": null
        },
        {
            "ID_PropertyType": 4,
            "Precision": null,
            "$DataSource": null,
            "DisplayProperty": null,
            "Oid": "5B4B1243-061F-4D3E-AD23-6068C7B6F348",
            "Code": null,
            "Name": "IsActive",
            "IsActive": true,
            "Comment": null,
            "Caption": "Active",
            "ID_ModelProperty": "95FD22D9-A422-4DAE-A772-E25DF845EEE1",
            "ID_ListView": "E6F1A323-D5D5-4117-94C7-A546B92F0219",
            "ID_CreatedBy": 1,
            "ID_LastModifiedBy": 1,
            "DateCreated": "2018-08-29T15:34:23.350Z",
            "DateModified": null,
            "DataSource": null,
            "Format": null,
            "Width": "114",
            "Fixed": null,
            "VisibleIndex": 300,
            "IsAllowEdit": null,
            "ID_ControlType": null,
            "ID_ColumnAlignment": null,
            "IsVisible": true,
            "FixedPosition": null,
            "IsRequired": null,
            "ID_SummaryType": null,
            "IsAddModelClass": null,
            "GroupIndex": 0,
            "IsFilter": true,
            "ID_FilterControlType": null,
            "ID_PropertyModel": null,
            "PropertyModel": null,
            "SummaryType": null
        },
        {
            "ID_PropertyType": 2,
            "Precision": null,
            "$DataSource": null,
            "DisplayProperty": null,
            "Oid": "C99A2881-5515-40DB-9EF7-9C9A53DB16A7",
            "Code": null,
            "Name": "ID",
            "IsActive": true,
            "Comment": null,
            "Caption": null,
            "ID_ModelProperty": "C82D126D-2A0B-471F-8F75-48987677758D",
            "ID_ListView": "E6F1A323-D5D5-4117-94C7-A546B92F0219",
            "ID_CreatedBy": 1,
            "ID_LastModifiedBy": 1,
            "DateCreated": "2018-08-29T15:34:23.350Z",
            "DateModified": null,
            "DataSource": null,
            "Format": null,
            "Width": "80",
            "Fixed": true,
            "VisibleIndex": 0,
            "IsAllowEdit": null,
            "ID_ControlType": null,
            "ID_ColumnAlignment": null,
            "IsVisible": true,
            "FixedPosition": null,
            "IsRequired": null,
            "ID_SummaryType": null,
            "IsAddModelClass": null,
            "GroupIndex": 0,
            "IsFilter": null,
            "ID_FilterControlType": null,
            "ID_PropertyModel": null,
            "PropertyModel": null,
            "SummaryType": null
        },
        {
            "ID_PropertyType": 1,
            "Precision": null,
            "$DataSource": null,
            "DisplayProperty": null,
            "Oid": "4A38CEFA-E816-4955-8501-A09D7579B5B4",
            "Code": null,
            "Name": "Comment",
            "IsActive": true,
            "Comment": null,
            "Caption": null,
            "ID_ModelProperty": "0F2FDEF5-81D7-4B7B-A58F-73D7C8F4E0FD",
            "ID_ListView": "E6F1A323-D5D5-4117-94C7-A546B92F0219",
            "ID_CreatedBy": 1,
            "ID_LastModifiedBy": 1,
            "DateCreated": "2018-08-29T15:34:23.350Z",
            "DateModified": null,
            "DataSource": null,
            "Format": null,
            "Width": "798.99",
            "Fixed": false,
            "VisibleIndex": 400,
            "IsAllowEdit": null,
            "ID_ControlType": null,
            "ID_ColumnAlignment": null,
            "IsVisible": true,
            "FixedPosition": null,
            "IsRequired": null,
            "ID_SummaryType": null,
            "IsAddModelClass": null,
            "GroupIndex": 0,
            "IsFilter": null,
            "ID_FilterControlType": null,
            "ID_PropertyModel": null,
            "PropertyModel": null,
            "SummaryType": null
        }
    ]
}