{
    "Oid": "978EF56E-BCF1-4F5C-A50F-D7D4567D5671",
    "Name": "DocumentSeries_ListView",
    "ID_Model": "69B6A1DD-1233-4267-BD64-0C4D5D8673B3",
    "DataSource": "SELECT * FROM dbo.vDocumentSeries",
    "Comment": null,
    "ID_DetailView": "650B45DA-07D3-4A4E-B5E0-0453462364E4",
    "Model": "DocumentSeries",
    "PrimaryKey": "ID",
    "Caption": "Document Series",
    "Details": [
        {
            "ID_PropertyType": 2,
            "Precision": null,
            "$DataSource": null,
            "DisplayProperty": null,
            "Oid": "914C2E48-E009-4A03-9892-5E6B768EE67C",
            "Code": null,
            "Name": "ID",
            "IsActive": true,
            "Comment": null,
            "Caption": null,
            "ID_ModelProperty": "660C3018-49D2-431D-B9B2-716B0536D42C",
            "ID_ListView": "978EF56E-BCF1-4F5C-A50F-D7D4567D5671",
            "ID_CreatedBy": 1,
            "ID_LastModifiedBy": 1,
            "DateCreated": "2020-07-26T18:56:50.057Z",
            "DateModified": null,
            "DataSource": null,
            "Format": null,
            "Width": "79",
            "Fixed": null,
            "VisibleIndex": 0,
            "IsAllowEdit": null,
            "ID_ControlType": null,
            "ID_ColumnAlignment": null,
            "IsVisible": true,
            "FixedPosition": null,
            "IsRequired": null,
            "ID_SummaryType": null,
            "IsAddModelClass": null,
            "GroupIndex": 0,
            "IsFilter": null,
            "ID_FilterControlType": null,
            "ID_PropertyModel": null,
            "PropertyModel": null,
            "SummaryType": null
        },
        {
            "ID_PropertyType": 1,
            "Precision": null,
            "$DataSource": null,
            "DisplayProperty": null,
            "Oid": "9341EDF0-E9A0-4748-91EF-61510EB13511",
            "Code": null,
            "Name": "Code",
            "IsActive": true,
            "Comment": null,
            "Caption": null,
            "ID_ModelProperty": "F78AA24C-8EE6-49F7-99E7-0FCC125D0039",
            "ID_ListView": "978EF56E-BCF1-4F5C-A50F-D7D4567D5671",
            "ID_CreatedBy": 1,
            "ID_LastModifiedBy": 1,
            "DateCreated": "2020-07-26T18:56:50.057Z",
            "DateModified": null,
            "DataSource": null,
            "Format": null,
            "Width": "150",
            "Fixed": null,
            "VisibleIndex": 100,
            "IsAllowEdit": null,
            "ID_ControlType": null,
            "ID_ColumnAlignment": null,
            "IsVisible": false,
            "FixedPosition": null,
            "IsRequired": null,
            "ID_SummaryType": null,
            "IsAddModelClass": null,
            "GroupIndex": 0,
            "IsFilter": null,
            "ID_FilterControlType": null,
            "ID_PropertyModel": null,
            "PropertyModel": null,
            "SummaryType": null
        },
        {
            "ID_PropertyType": 5,
            "Precision": null,
            "$DataSource": null,
            "DisplayProperty": null,
            "Oid": "0364F9E4-C734-46BF-8A0F-7574F1405A39",
            "Code": null,
            "Name": "DateModified",
            "IsActive": true,
            "Comment": null,
            "Caption": "Date Modified",
            "ID_ModelProperty": "B43D99B3-C543-4A53-85B2-7EB7AC80AD31",
            "ID_ListView": "978EF56E-BCF1-4F5C-A50F-D7D4567D5671",
            "ID_CreatedBy": 1,
            "ID_LastModifiedBy": 1,
            "DateCreated": "2020-07-26T18:56:50.057Z",
            "DateModified": null,
            "DataSource": null,
            "Format": null,
            "Width": "150",
            "Fixed": null,
            "VisibleIndex": 800,
            "IsAllowEdit": null,
            "ID_ControlType": null,
            "ID_ColumnAlignment": null,
            "IsVisible": true,
            "FixedPosition": null,
            "IsRequired": null,
            "ID_SummaryType": null,
            "IsAddModelClass": null,
            "GroupIndex": 0,
            "IsFilter": null,
            "ID_FilterControlType": null,
            "ID_PropertyModel": null,
            "PropertyModel": null,
            "SummaryType": null
        },
        {
            "ID_PropertyType": 1,
            "Precision": null,
            "$DataSource": null,
            "DisplayProperty": null,
            "Oid": "A02C6521-7D3F-4578-AA45-8D4A4732D7E7",
            "Code": null,
            "Name": "Name",
            "IsActive": true,
            "Comment": null,
            "Caption": null,
            "ID_ModelProperty": "15924AFC-EBA9-41DB-A6F6-290671B9DCB4",
            "ID_ListView": "978EF56E-BCF1-4F5C-A50F-D7D4567D5671",
            "ID_CreatedBy": 1,
            "ID_LastModifiedBy": 1,
            "DateCreated": "2020-07-26T18:56:50.057Z",
            "DateModified": null,
            "DataSource": null,
            "Format": null,
            "Width": "187",
            "Fixed": null,
            "VisibleIndex": 100,
            "IsAllowEdit": null,
            "ID_ControlType": null,
            "ID_ColumnAlignment": null,
            "IsVisible": true,
            "FixedPosition": null,
            "IsRequired": null,
            "ID_SummaryType": null,
            "IsAddModelClass": null,
            "GroupIndex": 0,
            "IsFilter": null,
            "ID_FilterControlType": null,
            "ID_PropertyModel": null,
            "PropertyModel": null,
            "SummaryType": null
        },
        {
            "ID_PropertyType": 2,
            "Precision": null,
            "$DataSource": null,
            "DisplayProperty": "CreatedBy",
            "Oid": "2E20C47D-0A7C-4895-830E-9CE8BD4154F5",
            "Code": null,
            "Name": "ID_CreatedBy",
            "IsActive": true,
            "Comment": null,
            "Caption": "Created By",
            "ID_ModelProperty": "BC360E01-A24F-4D8E-B839-2BC25D5E84EF",
            "ID_ListView": "978EF56E-BCF1-4F5C-A50F-D7D4567D5671",
            "ID_CreatedBy": 1,
            "ID_LastModifiedBy": 1,
            "DateCreated": "2020-07-26T18:56:50.057Z",
            "DateModified": null,
            "DataSource": null,
            "Format": null,
            "Width": "182",
            "Fixed": null,
            "VisibleIndex": 700,
            "IsAllowEdit": null,
            "ID_ControlType": null,
            "ID_ColumnAlignment": null,
            "IsVisible": true,
            "FixedPosition": null,
            "IsRequired": null,
            "ID_SummaryType": null,
            "IsAddModelClass": null,
            "GroupIndex": 0,
            "IsFilter": null,
            "ID_FilterControlType": null,
            "ID_PropertyModel": null,
            "PropertyModel": null,
            "SummaryType": null
        },
        {
            "ID_PropertyType": 1,
            "Precision": null,
            "$DataSource": null,
            "DisplayProperty": null,
            "Oid": "96D0E11C-C170-477D-AD97-B5E30C741136",
            "Code": null,
            "Name": "Comment",
            "IsActive": true,
            "Comment": null,
            "Caption": null,
            "ID_ModelProperty": "50AF00F3-B7AE-4756-9545-292CE5529702",
            "ID_ListView": "978EF56E-BCF1-4F5C-A50F-D7D4567D5671",
            "ID_CreatedBy": 1,
            "ID_LastModifiedBy": 1,
            "DateCreated": "2020-07-26T18:56:50.057Z",
            "DateModified": null,
            "DataSource": null,
            "Format": null,
            "Width": "150",
            "Fixed": null,
            "VisibleIndex": 200,
            "IsAllowEdit": null,
            "ID_ControlType": null,
            "ID_ColumnAlignment": null,
            "IsVisible": false,
            "FixedPosition": null,
            "IsRequired": null,
            "ID_SummaryType": null,
            "IsAddModelClass": null,
            "GroupIndex": 0,
            "IsFilter": null,
            "ID_FilterControlType": null,
            "ID_PropertyModel": null,
            "PropertyModel": null,
            "SummaryType": null
        },
        {
            "ID_PropertyType": 5,
            "Precision": null,
            "$DataSource": null,
            "DisplayProperty": null,
            "Oid": "D11DB016-C9AA-4C37-A137-BF8A8B53E8AF",
            "Code": null,
            "Name": "DateCreated",
            "IsActive": true,
            "Comment": null,
            "Caption": "Date Created",
            "ID_ModelProperty": "C863A141-0544-4F5C-A9C7-40506661CAC0",
            "ID_ListView": "978EF56E-BCF1-4F5C-A50F-D7D4567D5671",
            "ID_CreatedBy": 1,
            "ID_LastModifiedBy": 1,
            "DateCreated": "2020-07-26T18:56:50.057Z",
            "DateModified": null,
            "DataSource": null,
            "Format": null,
            "Width": "150",
            "Fixed": null,
            "VisibleIndex": 600,
            "IsAllowEdit": null,
            "ID_ControlType": null,
            "ID_ColumnAlignment": null,
            "IsVisible": true,
            "FixedPosition": null,
            "IsRequired": null,
            "ID_SummaryType": null,
            "IsAddModelClass": null,
            "GroupIndex": 0,
            "IsFilter": null,
            "ID_FilterControlType": null,
            "ID_PropertyModel": null,
            "PropertyModel": null,
            "SummaryType": null
        },
        {
            "ID_PropertyType": 2,
            "Precision": null,
            "$DataSource": null,
            "DisplayProperty": "LastModifiedBy",
            "Oid": "65B295CC-F9DF-4860-BA8B-CE909614DEEC",
            "Code": null,
            "Name": "ID_LastModifiedBy",
            "IsActive": true,
            "Comment": null,
            "Caption": "Last Modified By",
            "ID_ModelProperty": "551B369E-9DEB-4C94-98D9-DCED21886128",
            "ID_ListView": "978EF56E-BCF1-4F5C-A50F-D7D4567D5671",
            "ID_CreatedBy": 1,
            "ID_LastModifiedBy": 1,
            "DateCreated": "2020-07-26T18:56:50.057Z",
            "DateModified": null,
            "DataSource": null,
            "Format": null,
            "Width": "214.32999999999993",
            "Fixed": null,
            "VisibleIndex": 900,
            "IsAllowEdit": null,
            "ID_ControlType": null,
            "ID_ColumnAlignment": null,
            "IsVisible": true,
            "FixedPosition": null,
            "IsRequired": null,
            "ID_SummaryType": null,
            "IsAddModelClass": null,
            "GroupIndex": 0,
            "IsFilter": null,
            "ID_FilterControlType": null,
            "ID_PropertyModel": null,
            "PropertyModel": null,
            "SummaryType": null
        },
        {
            "ID_PropertyType": 4,
            "Precision": null,
            "$DataSource": null,
            "DisplayProperty": null,
            "Oid": "71DE28DF-5249-4DF3-BF3F-E1C97550C7CA",
            "Code": null,
            "Name": "IsActive",
            "IsActive": true,
            "Comment": null,
            "Caption": "Active",
            "ID_ModelProperty": "B3614068-67DF-4591-AA5D-7CBFBB9F51A3",
            "ID_ListView": "978EF56E-BCF1-4F5C-A50F-D7D4567D5671",
            "ID_CreatedBy": 1,
            "ID_LastModifiedBy": 1,
            "DateCreated": "2020-07-26T18:56:50.057Z",
            "DateModified": null,
            "DataSource": null,
            "Format": null,
            "Width": "150",
            "Fixed": null,
            "VisibleIndex": 500,
            "IsAllowEdit": null,
            "ID_ControlType": null,
            "ID_ColumnAlignment": null,
            "IsVisible": false,
            "FixedPosition": null,
            "IsRequired": null,
            "ID_SummaryType": null,
            "IsAddModelClass": null,
            "GroupIndex": 0,
            "IsFilter": null,
            "ID_FilterControlType": null,
            "ID_PropertyModel": null,
            "PropertyModel": null,
            "SummaryType": null
        },
        {
            "ID_PropertyType": 8,
            "Precision": null,
            "$DataSource": null,
            "DisplayProperty": null,
            "Oid": "0B5C077C-CC11-4422-9284-0CFBA87FC1B8",
            "Code": null,
            "Name": "ID_Model",
            "IsActive": true,
            "Comment": null,
            "Caption": null,
            "ID_ModelProperty": "FC72CB3F-0C57-405C-8147-2D6736DA72BB",
            "ID_ListView": "978EF56E-BCF1-4F5C-A50F-D7D4567D5671",
            "ID_CreatedBy": 1,
            "ID_LastModifiedBy": 1,
            "DateCreated": "2020-07-26T18:57:46.947Z",
            "DateModified": null,
            "DataSource": null,
            "Format": null,
            "Width": "150",
            "Fixed": null,
            "VisibleIndex": null,
            "IsAllowEdit": null,
            "ID_ControlType": null,
            "ID_ColumnAlignment": null,
            "IsVisible": false,
            "FixedPosition": null,
            "IsRequired": null,
            "ID_SummaryType": null,
            "IsAddModelClass": null,
            "GroupIndex": 0,
            "IsFilter": null,
            "ID_FilterControlType": null,
            "ID_PropertyModel": null,
            "PropertyModel": null,
            "SummaryType": null
        },
        {
            "ID_PropertyType": 2,
            "Precision": null,
            "$DataSource": null,
            "DisplayProperty": null,
            "Oid": "318AF394-23C3-4116-B910-BEB460AE9008",
            "Code": null,
            "Name": "Counter",
            "IsActive": true,
            "Comment": null,
            "Caption": null,
            "ID_ModelProperty": "2E1A28FE-AF66-455C-9CDA-3B4DA286BB0A",
            "ID_ListView": "978EF56E-BCF1-4F5C-A50F-D7D4567D5671",
            "ID_CreatedBy": 1,
            "ID_LastModifiedBy": 1,
            "DateCreated": "2020-07-26T18:58:04.420Z",
            "DateModified": null,
            "DataSource": null,
            "Format": null,
            "Width": "91",
            "Fixed": null,
            "VisibleIndex": 300,
            "IsAllowEdit": null,
            "ID_ControlType": null,
            "ID_ColumnAlignment": null,
            "IsVisible": true,
            "FixedPosition": null,
            "IsRequired": null,
            "ID_SummaryType": null,
            "IsAddModelClass": null,
            "GroupIndex": 0,
            "IsFilter": null,
            "ID_FilterControlType": null,
            "ID_PropertyModel": null,
            "PropertyModel": null,
            "SummaryType": null
        },
        {
            "ID_PropertyType": 1,
            "Precision": null,
            "$DataSource": null,
            "DisplayProperty": null,
            "Oid": "C82CA74E-FE43-4FE6-A944-2B99D515AD80",
            "Code": null,
            "Name": "Prefix",
            "IsActive": true,
            "Comment": null,
            "Caption": null,
            "ID_ModelProperty": "70A0563B-F789-411B-9CCF-FAE91728C304",
            "ID_ListView": "978EF56E-BCF1-4F5C-A50F-D7D4567D5671",
            "ID_CreatedBy": 1,
            "ID_LastModifiedBy": 1,
            "DateCreated": "2020-07-26T18:58:15.083Z",
            "DateModified": null,
            "DataSource": null,
            "Format": null,
            "Width": "96",
            "Fixed": null,
            "VisibleIndex": 200,
            "IsAllowEdit": null,
            "ID_ControlType": null,
            "ID_ColumnAlignment": null,
            "IsVisible": true,
            "FixedPosition": null,
            "IsRequired": null,
            "ID_SummaryType": null,
            "IsAddModelClass": null,
            "GroupIndex": 0,
            "IsFilter": null,
            "ID_FilterControlType": null,
            "ID_PropertyModel": null,
            "PropertyModel": null,
            "SummaryType": null
        },
        {
            "ID_PropertyType": 4,
            "Precision": null,
            "$DataSource": null,
            "DisplayProperty": null,
            "Oid": "E1E3EF5C-556C-458A-9D3F-213180363E47",
            "Code": null,
            "Name": "IsAppendCurrentDate",
            "IsActive": true,
            "Comment": null,
            "Caption": null,
            "ID_ModelProperty": "3B3B0DE4-49B9-4861-B787-DBE120A12495",
            "ID_ListView": "978EF56E-BCF1-4F5C-A50F-D7D4567D5671",
            "ID_CreatedBy": 1,
            "ID_LastModifiedBy": 1,
            "DateCreated": "2020-07-26T18:59:08.857Z",
            "DateModified": null,
            "DataSource": null,
            "Format": null,
            "Width": "130",
            "Fixed": null,
            "VisibleIndex": 400,
            "IsAllowEdit": null,
            "ID_ControlType": null,
            "ID_ColumnAlignment": null,
            "IsVisible": true,
            "FixedPosition": null,
            "IsRequired": null,
            "ID_SummaryType": null,
            "IsAddModelClass": null,
            "GroupIndex": 0,
            "IsFilter": null,
            "ID_FilterControlType": null,
            "ID_PropertyModel": null,
            "PropertyModel": null,
            "SummaryType": null
        },
        {
            "ID_PropertyType": 2,
            "Precision": null,
            "$DataSource": null,
            "DisplayProperty": null,
            "Oid": "A3B45307-0D9F-4C62-816A-820165B48979",
            "Code": null,
            "Name": "DigitCount",
            "IsActive": true,
            "Comment": null,
            "Caption": null,
            "ID_ModelProperty": "291E415B-5110-4F7B-A75F-1F5EEFC227A4",
            "ID_ListView": "978EF56E-BCF1-4F5C-A50F-D7D4567D5671",
            "ID_CreatedBy": 1,
            "ID_LastModifiedBy": 1,
            "DateCreated": "2020-08-12T14:15:41.980Z",
            "DateModified": null,
            "DataSource": null,
            "Format": null,
            "Width": "78",
            "Fixed": null,
            "VisibleIndex": 500,
            "IsAllowEdit": null,
            "ID_ControlType": null,
            "ID_ColumnAlignment": null,
            "IsVisible": true,
            "FixedPosition": null,
            "IsRequired": null,
            "ID_SummaryType": null,
            "IsAddModelClass": null,
            "GroupIndex": 0,
            "IsFilter": null,
            "ID_FilterControlType": null,
            "ID_PropertyModel": null,
            "PropertyModel": null,
            "SummaryType": null
        },
        {
            "ID_PropertyType": 2,
            "Precision": null,
            "$DataSource": null,
            "DisplayProperty": null,
            "Oid": "E6AFC24D-E8AD-416F-AF18-90BE0EFA9A1E",
            "Code": null,
            "Name": "ID_Company",
            "IsActive": true,
            "Comment": null,
            "Caption": null,
            "ID_ModelProperty": "E4F3C091-42AC-45F0-9A78-C6539B596C12",
            "ID_ListView": "978EF56E-BCF1-4F5C-A50F-D7D4567D5671",
            "ID_CreatedBy": 1,
            "ID_LastModifiedBy": null,
            "DateCreated": "2021-01-14T17:30:35.440Z",
            "DateModified": null,
            "DataSource": null,
            "Format": null,
            "Width": null,
            "Fixed": null,
            "VisibleIndex": 1000,
            "IsAllowEdit": null,
            "ID_ControlType": null,
            "ID_ColumnAlignment": null,
            "IsVisible": true,
            "FixedPosition": null,
            "IsRequired": null,
            "ID_SummaryType": null,
            "IsAddModelClass": null,
            "GroupIndex": null,
            "IsFilter": null,
            "ID_FilterControlType": null,
            "ID_PropertyModel": null,
            "PropertyModel": null,
            "SummaryType": null
        }
    ]
}