{
    "Oid": "CD0CED64-E799-42E6-835F-B0796A8A985F",
    "Name": "Model_ListView",
    "ID_Model": "669EE4AC-077D-438A-A410-B323B74173C4",
    "DataSource": "SELECT * FROM _vModel",
    "Comment": null,
    "ID_DetailView": "2E2DC8B6-98D2-4734-969D-82A1D94653B8",
    "Model": "Model",
    "PrimaryKey": "Oid",
    "Caption": "Model",
    "Details": [
        {
            "ID_PropertyType": 1,
            "Precision": null,
            "$DataSource": null,
            "DisplayProperty": null,
            "Oid": "D872BB88-B76F-4093-9506-0A8B8068B85E",
            "Code": null,
            "Name": "TableName",
            "IsActive": true,
            "Comment": null,
            "Caption": "Table Name",
            "ID_ModelProperty": "F7C67947-9807-44CB-BDE1-6529E3A0E984",
            "ID_ListView": "CD0CED64-E799-42E6-835F-B0796A8A985F",
            "ID_CreatedBy": 1,
            "ID_LastModifiedBy": 1,
            "DateCreated": "2017-12-19T16:55:25.157Z",
            "DateModified": null,
            "DataSource": null,
            "Format": null,
            "Width": "190",
            "Fixed": null,
            "VisibleIndex": 100,
            "IsAllowEdit": null,
            "ID_ControlType": null,
            "ID_ColumnAlignment": null,
            "IsVisible": true,
            "FixedPosition": null,
            "IsRequired": null,
            "ID_SummaryType": null,
            "IsAddModelClass": null,
            "GroupIndex": null,
            "IsFilter": null,
            "ID_FilterControlType": null,
            "ID_PropertyModel": null,
            "PropertyModel": null,
            "SummaryType": null
        },
        {
            "ID_PropertyType": 1,
            "Precision": null,
            "$DataSource": null,
            "DisplayProperty": null,
            "Oid": "305641B8-54D1-4264-AFE5-0F8713A022E7",
            "Code": null,
            "Name": "DisplayName",
            "IsActive": true,
            "Comment": null,
            "Caption": "Display Name",
            "ID_ModelProperty": "6B5984A7-3A67-4CF6-9688-D841369E4F98",
            "ID_ListView": "CD0CED64-E799-42E6-835F-B0796A8A985F",
            "ID_CreatedBy": 1,
            "ID_LastModifiedBy": 1,
            "DateCreated": "2017-12-19T16:55:25.157Z",
            "DateModified": null,
            "DataSource": null,
            "Format": null,
            "Width": "122",
            "Fixed": null,
            "VisibleIndex": 900,
            "IsAllowEdit": null,
            "ID_ControlType": null,
            "ID_ColumnAlignment": null,
            "IsVisible": true,
            "FixedPosition": null,
            "IsRequired": null,
            "ID_SummaryType": null,
            "IsAddModelClass": null,
            "GroupIndex": null,
            "IsFilter": null,
            "ID_FilterControlType": null,
            "ID_PropertyModel": null,
            "PropertyModel": null,
            "SummaryType": null
        },
        {
            "ID_PropertyType": 1,
            "Precision": null,
            "$DataSource": null,
            "DisplayProperty": null,
            "Oid": "03DB6899-2EDD-402F-817B-1AC620E44761",
            "Code": null,
            "Name": "Color2",
            "IsActive": true,
            "Comment": null,
            "Caption": "Color B",
            "ID_ModelProperty": "467D27B0-FA1E-416C-94AF-3BD0E51CE7CF",
            "ID_ListView": "CD0CED64-E799-42E6-835F-B0796A8A985F",
            "ID_CreatedBy": 1,
            "ID_LastModifiedBy": 1,
            "DateCreated": "2017-12-19T16:55:25.157Z",
            "DateModified": null,
            "DataSource": null,
            "Format": null,
            "Width": "78",
            "Fixed": null,
            "VisibleIndex": 1100,
            "IsAllowEdit": null,
            "ID_ControlType": null,
            "ID_ColumnAlignment": null,
            "IsVisible": true,
            "FixedPosition": null,
            "IsRequired": null,
            "ID_SummaryType": null,
            "IsAddModelClass": null,
            "GroupIndex": null,
            "IsFilter": null,
            "ID_FilterControlType": null,
            "ID_PropertyModel": null,
            "PropertyModel": null,
            "SummaryType": null
        },
        {
            "ID_PropertyType": 1,
            "Precision": null,
            "$DataSource": null,
            "DisplayProperty": null,
            "Oid": "96329EC2-7A06-44C0-979D-4B97F14FCF95",
            "Code": null,
            "Name": "Color3",
            "IsActive": true,
            "Comment": null,
            "Caption": "Color C",
            "ID_ModelProperty": "022BD424-B546-404D-9A8F-08376769C47D",
            "ID_ListView": "CD0CED64-E799-42E6-835F-B0796A8A985F",
            "ID_CreatedBy": 1,
            "ID_LastModifiedBy": 1,
            "DateCreated": "2017-12-19T16:55:25.157Z",
            "DateModified": null,
            "DataSource": null,
            "Format": null,
            "Width": "78",
            "Fixed": null,
            "VisibleIndex": 1200,
            "IsAllowEdit": null,
            "ID_ControlType": null,
            "ID_ColumnAlignment": null,
            "IsVisible": true,
            "FixedPosition": null,
            "IsRequired": null,
            "ID_SummaryType": null,
            "IsAddModelClass": null,
            "GroupIndex": null,
            "IsFilter": null,
            "ID_FilterControlType": null,
            "ID_PropertyModel": null,
            "PropertyModel": null,
            "SummaryType": null
        },
        {
            "ID_PropertyType": 5,
            "Precision": null,
            "$DataSource": null,
            "DisplayProperty": null,
            "Oid": "85BCBF49-9570-4222-AA89-51C627CEBCCF",
            "Code": null,
            "Name": "DateModified",
            "IsActive": true,
            "Comment": null,
            "Caption": "Date Modified",
            "ID_ModelProperty": "4FB88408-B8DF-41C5-B112-8C668672D935",
            "ID_ListView": "CD0CED64-E799-42E6-835F-B0796A8A985F",
            "ID_CreatedBy": 1,
            "ID_LastModifiedBy": 1,
            "DateCreated": "2017-12-19T16:55:25.157Z",
            "DateModified": null,
            "DataSource": null,
            "Format": null,
            "Width": "111",
            "Fixed": null,
            "VisibleIndex": 1600,
            "IsAllowEdit": null,
            "ID_ControlType": null,
            "ID_ColumnAlignment": null,
            "IsVisible": true,
            "FixedPosition": null,
            "IsRequired": null,
            "ID_SummaryType": null,
            "IsAddModelClass": null,
            "GroupIndex": null,
            "IsFilter": null,
            "ID_FilterControlType": null,
            "ID_PropertyModel": null,
            "PropertyModel": null,
            "SummaryType": null
        },
        {
            "ID_PropertyType": 5,
            "Precision": null,
            "$DataSource": null,
            "DisplayProperty": null,
            "Oid": "EDC632B8-CF54-4DDF-935A-5335A178D388",
            "Code": null,
            "Name": "DateCreated",
            "IsActive": true,
            "Comment": null,
            "Caption": "Date Created",
            "ID_ModelProperty": "97CB09C0-6B31-4724-880D-9A91165DB3A9",
            "ID_ListView": "CD0CED64-E799-42E6-835F-B0796A8A985F",
            "ID_CreatedBy": 1,
            "ID_LastModifiedBy": 1,
            "DateCreated": "2017-12-19T16:55:25.157Z",
            "DateModified": null,
            "DataSource": null,
            "Format": null,
            "Width": "104",
            "Fixed": null,
            "VisibleIndex": 1700,
            "IsAllowEdit": null,
            "ID_ControlType": null,
            "ID_ColumnAlignment": null,
            "IsVisible": true,
            "FixedPosition": null,
            "IsRequired": null,
            "ID_SummaryType": null,
            "IsAddModelClass": null,
            "GroupIndex": null,
            "IsFilter": null,
            "ID_FilterControlType": null,
            "ID_PropertyModel": null,
            "PropertyModel": null,
            "SummaryType": null
        },
        {
            "ID_PropertyType": 2,
            "Precision": null,
            "$DataSource": null,
            "DisplayProperty": "CreatedBy",
            "Oid": "4A6EE544-8EB0-4B8E-9F47-5BA0C060341D",
            "Code": null,
            "Name": "ID_CreatedBy",
            "IsActive": true,
            "Comment": null,
            "Caption": "Created By",
            "ID_ModelProperty": "5364D321-F339-4D18-963D-588AC7D0F6A4",
            "ID_ListView": "CD0CED64-E799-42E6-835F-B0796A8A985F",
            "ID_CreatedBy": 1,
            "ID_LastModifiedBy": 1,
            "DateCreated": "2017-12-19T16:55:25.157Z",
            "DateModified": null,
            "DataSource": null,
            "Format": null,
            "Width": "91",
            "Fixed": null,
            "VisibleIndex": 1500,
            "IsAllowEdit": null,
            "ID_ControlType": null,
            "ID_ColumnAlignment": null,
            "IsVisible": true,
            "FixedPosition": null,
            "IsRequired": null,
            "ID_SummaryType": null,
            "IsAddModelClass": null,
            "GroupIndex": null,
            "IsFilter": null,
            "ID_FilterControlType": null,
            "ID_PropertyModel": null,
            "PropertyModel": null,
            "SummaryType": null
        },
        {
            "ID_PropertyType": 4,
            "Precision": null,
            "$DataSource": null,
            "DisplayProperty": null,
            "Oid": "B42BF0A4-29C8-438D-B1B6-73DA05D77CEF",
            "Code": null,
            "Name": "IsActive",
            "IsActive": true,
            "Comment": null,
            "Caption": "Active",
            "ID_ModelProperty": "1F3CF8D2-D2B1-453F-83BF-78211E8FD596",
            "ID_ListView": "CD0CED64-E799-42E6-835F-B0796A8A985F",
            "ID_CreatedBy": 1,
            "ID_LastModifiedBy": 1,
            "DateCreated": "2017-12-19T16:55:25.157Z",
            "DateModified": null,
            "DataSource": null,
            "Format": null,
            "Width": "87",
            "Fixed": null,
            "VisibleIndex": 200,
            "IsAllowEdit": null,
            "ID_ControlType": null,
            "ID_ColumnAlignment": null,
            "IsVisible": true,
            "FixedPosition": null,
            "IsRequired": null,
            "ID_SummaryType": null,
            "IsAddModelClass": null,
            "GroupIndex": null,
            "IsFilter": null,
            "ID_FilterControlType": null,
            "ID_PropertyModel": null,
            "PropertyModel": null,
            "SummaryType": null
        },
        {
            "ID_PropertyType": 1,
            "Precision": null,
            "$DataSource": null,
            "DisplayProperty": null,
            "Oid": "22E549D8-2B80-4C3C-BA75-7FFE19353F80",
            "Code": null,
            "Name": "Color1",
            "IsActive": true,
            "Comment": null,
            "Caption": "Color A",
            "ID_ModelProperty": "E2C53058-9A7D-4435-98B8-499C079EAF78",
            "ID_ListView": "CD0CED64-E799-42E6-835F-B0796A8A985F",
            "ID_CreatedBy": 1,
            "ID_LastModifiedBy": 1,
            "DateCreated": "2017-12-19T16:55:25.157Z",
            "DateModified": null,
            "DataSource": null,
            "Format": null,
            "Width": "79",
            "Fixed": null,
            "VisibleIndex": 1000,
            "IsAllowEdit": null,
            "ID_ControlType": null,
            "ID_ColumnAlignment": null,
            "IsVisible": true,
            "FixedPosition": null,
            "IsRequired": null,
            "ID_SummaryType": null,
            "IsAddModelClass": null,
            "GroupIndex": null,
            "IsFilter": null,
            "ID_FilterControlType": null,
            "ID_PropertyModel": null,
            "PropertyModel": null,
            "SummaryType": null
        },
        {
            "ID_PropertyType": 4,
            "Precision": null,
            "$DataSource": null,
            "DisplayProperty": null,
            "Oid": "6E7E2CD4-B91F-4BD5-A538-89BC7AD3C697",
            "Code": null,
            "Name": "IsReadOnly",
            "IsActive": true,
            "Comment": null,
            "Caption": "Read Only",
            "ID_ModelProperty": "3F6C939D-6B42-4B9E-99EF-51FC31DB4DB8",
            "ID_ListView": "CD0CED64-E799-42E6-835F-B0796A8A985F",
            "ID_CreatedBy": 1,
            "ID_LastModifiedBy": 1,
            "DateCreated": "2017-12-19T16:55:25.157Z",
            "DateModified": null,
            "DataSource": null,
            "Format": null,
            "Width": "113",
            "Fixed": null,
            "VisibleIndex": 1300,
            "IsAllowEdit": null,
            "ID_ControlType": null,
            "ID_ColumnAlignment": null,
            "IsVisible": true,
            "FixedPosition": null,
            "IsRequired": null,
            "ID_SummaryType": null,
            "IsAddModelClass": null,
            "GroupIndex": null,
            "IsFilter": null,
            "ID_FilterControlType": null,
            "ID_PropertyModel": null,
            "PropertyModel": null,
            "SummaryType": null
        },
        {
            "ID_PropertyType": 1,
            "Precision": null,
            "$DataSource": null,
            "DisplayProperty": null,
            "Oid": "D652DE9F-DFBC-4DD5-9519-945205EBBF33",
            "Code": null,
            "Name": "Comment",
            "IsActive": true,
            "Comment": null,
            "Caption": null,
            "ID_ModelProperty": "82FB5518-ACC5-4D60-BEAC-3B7241330EDB",
            "ID_ListView": "CD0CED64-E799-42E6-835F-B0796A8A985F",
            "ID_CreatedBy": 1,
            "ID_LastModifiedBy": 1,
            "DateCreated": "2017-12-19T16:55:25.157Z",
            "DateModified": null,
            "DataSource": null,
            "Format": null,
            "Width": "93",
            "Fixed": null,
            "VisibleIndex": 1400,
            "IsAllowEdit": null,
            "ID_ControlType": null,
            "ID_ColumnAlignment": null,
            "IsVisible": true,
            "FixedPosition": null,
            "IsRequired": null,
            "ID_SummaryType": null,
            "IsAddModelClass": null,
            "GroupIndex": null,
            "IsFilter": null,
            "ID_FilterControlType": null,
            "ID_PropertyModel": null,
            "PropertyModel": null,
            "SummaryType": null
        },
        {
            "ID_PropertyType": 1,
            "Precision": null,
            "$DataSource": null,
            "DisplayProperty": null,
            "Oid": "F5FDF305-E8D6-4F3F-A2E1-D32802957FC5",
            "Code": null,
            "Name": "Name",
            "IsActive": true,
            "Comment": null,
            "Caption": null,
            "ID_ModelProperty": "D1B70FED-09B6-4EB2-8C67-5B8C88304B91",
            "ID_ListView": "CD0CED64-E799-42E6-835F-B0796A8A985F",
            "ID_CreatedBy": 1,
            "ID_LastModifiedBy": 1,
            "DateCreated": "2017-12-19T16:55:25.157Z",
            "DateModified": null,
            "DataSource": null,
            "Format": null,
            "Width": "175",
            "Fixed": true,
            "VisibleIndex": 600,
            "IsAllowEdit": true,
            "ID_ControlType": null,
            "ID_ColumnAlignment": null,
            "IsVisible": true,
            "FixedPosition": "left",
            "IsRequired": null,
            "ID_SummaryType": null,
            "IsAddModelClass": null,
            "GroupIndex": null,
            "IsFilter": true,
            "ID_FilterControlType": 1,
            "ID_PropertyModel": null,
            "PropertyModel": null,
            "SummaryType": null
        },
        {
            "ID_PropertyType": 8,
            "Precision": null,
            "$DataSource": null,
            "DisplayProperty": null,
            "Oid": "1802D9BF-C270-4BFA-B4DD-E085E92AC6ED",
            "Code": null,
            "Name": "Oid",
            "IsActive": true,
            "Comment": null,
            "Caption": null,
            "ID_ModelProperty": "11A48C8D-2C69-43A9-BA76-E5AD3B645B79",
            "ID_ListView": "CD0CED64-E799-42E6-835F-B0796A8A985F",
            "ID_CreatedBy": 1,
            "ID_LastModifiedBy": 1,
            "DateCreated": "2017-12-19T16:55:25.157Z",
            "DateModified": null,
            "DataSource": null,
            "Format": null,
            "Width": "60",
            "Fixed": true,
            "VisibleIndex": 400,
            "IsAllowEdit": null,
            "ID_ControlType": null,
            "ID_ColumnAlignment": null,
            "IsVisible": true,
            "FixedPosition": "left",
            "IsRequired": null,
            "ID_SummaryType": null,
            "IsAddModelClass": null,
            "GroupIndex": null,
            "IsFilter": null,
            "ID_FilterControlType": null,
            "ID_PropertyModel": null,
            "PropertyModel": null,
            "SummaryType": null
        },
        {
            "ID_PropertyType": 2,
            "Precision": null,
            "$DataSource": null,
            "DisplayProperty": "LastModifiedBy",
            "Oid": "4AFB1027-F718-4362-A852-E0E67923ED47",
            "Code": null,
            "Name": "ID_LastModifiedBy",
            "IsActive": true,
            "Comment": null,
            "Caption": "Last Modified By",
            "ID_ModelProperty": "038A6E4D-07B6-49A6-A044-BE84605CAFCC",
            "ID_ListView": "CD0CED64-E799-42E6-835F-B0796A8A985F",
            "ID_CreatedBy": 1,
            "ID_LastModifiedBy": 1,
            "DateCreated": "2017-12-19T16:55:25.157Z",
            "DateModified": null,
            "DataSource": null,
            "Format": null,
            "Width": "135",
            "Fixed": null,
            "VisibleIndex": 1800,
            "IsAllowEdit": null,
            "ID_ControlType": null,
            "ID_ColumnAlignment": null,
            "IsVisible": true,
            "FixedPosition": null,
            "IsRequired": null,
            "ID_SummaryType": null,
            "IsAddModelClass": null,
            "GroupIndex": null,
            "IsFilter": null,
            "ID_FilterControlType": null,
            "ID_PropertyModel": null,
            "PropertyModel": null,
            "SummaryType": null
        },
        {
            "ID_PropertyType": 8,
            "Precision": null,
            "$DataSource": null,
            "DisplayProperty": "DetailView",
            "Oid": "C972A311-0C95-4B27-9F4A-22D12E110090",
            "Code": null,
            "Name": "ID_DetailView",
            "IsActive": true,
            "Comment": null,
            "Caption": "DetailView",
            "ID_ModelProperty": "5A132B69-C5CD-4FFD-9774-500E1CF23D7D",
            "ID_ListView": "CD0CED64-E799-42E6-835F-B0796A8A985F",
            "ID_CreatedBy": 1,
            "ID_LastModifiedBy": 1,
            "DateCreated": "2017-12-27T08:34:55.787Z",
            "DateModified": null,
            "DataSource": null,
            "Format": null,
            "Width": "282",
            "Fixed": null,
            "VisibleIndex": 700,
            "IsAllowEdit": null,
            "ID_ControlType": null,
            "ID_ColumnAlignment": null,
            "IsVisible": true,
            "FixedPosition": null,
            "IsRequired": null,
            "ID_SummaryType": null,
            "IsAddModelClass": null,
            "GroupIndex": null,
            "IsFilter": null,
            "ID_FilterControlType": null,
            "ID_PropertyModel": "7FFF8508-94EC-4276-BB32-E4B353146F79",
            "PropertyModel": "DetailView",
            "SummaryType": null
        },
        {
            "ID_PropertyType": 1,
            "Precision": null,
            "$DataSource": null,
            "DisplayProperty": null,
            "Oid": "AAA066C0-3A73-4F3B-B9D2-480EE849EEE2",
            "Code": null,
            "Name": "Caption",
            "IsActive": true,
            "Comment": null,
            "Caption": null,
            "ID_ModelProperty": "1F7759E2-ED51-401F-AAD7-4DCFCDB1E217",
            "ID_ListView": "CD0CED64-E799-42E6-835F-B0796A8A985F",
            "ID_CreatedBy": 1,
            "ID_LastModifiedBy": 1,
            "DateCreated": "2017-12-27T09:16:21.433Z",
            "DateModified": null,
            "DataSource": null,
            "Format": null,
            "Width": "152",
            "Fixed": null,
            "VisibleIndex": 0,
            "IsAllowEdit": true,
            "ID_ControlType": null,
            "ID_ColumnAlignment": null,
            "IsVisible": true,
            "FixedPosition": null,
            "IsRequired": null,
            "ID_SummaryType": null,
            "IsAddModelClass": null,
            "GroupIndex": null,
            "IsFilter": null,
            "ID_FilterControlType": null,
            "ID_PropertyModel": null,
            "PropertyModel": null,
            "SummaryType": null
        },
        {
            "ID_PropertyType": 1,
            "Precision": null,
            "$DataSource": null,
            "DisplayProperty": null,
            "Oid": "5F9947D1-3990-4E26-823F-2977FE658350",
            "Code": null,
            "Name": "ViewSource",
            "IsActive": true,
            "Comment": null,
            "Caption": "View Source",
            "ID_ModelProperty": "DD2C9D82-792E-4491-BBAC-D8756D9CF86F",
            "ID_ListView": "CD0CED64-E799-42E6-835F-B0796A8A985F",
            "ID_CreatedBy": 1,
            "ID_LastModifiedBy": 1,
            "DateCreated": "2018-01-03T09:40:42.070Z",
            "DateModified": null,
            "DataSource": null,
            "Format": null,
            "Width": "126",
            "Fixed": null,
            "VisibleIndex": 800,
            "IsAllowEdit": null,
            "ID_ControlType": null,
            "ID_ColumnAlignment": null,
            "IsVisible": true,
            "FixedPosition": null,
            "IsRequired": null,
            "ID_SummaryType": null,
            "IsAddModelClass": null,
            "GroupIndex": null,
            "IsFilter": null,
            "ID_FilterControlType": null,
            "ID_PropertyModel": null,
            "PropertyModel": null,
            "SummaryType": null
        },
        {
            "ID_PropertyType": 1,
            "Precision": null,
            "$DataSource": null,
            "DisplayProperty": null,
            "Oid": "763DB571-A190-4FDD-B3FF-0DE742E8CB49",
            "Code": null,
            "Name": "ControllerPath",
            "IsActive": true,
            "Comment": null,
            "Caption": "Controller Path",
            "ID_ModelProperty": "85C92223-A0E2-4268-AE98-7DD6DDFECB31",
            "ID_ListView": "CD0CED64-E799-42E6-835F-B0796A8A985F",
            "ID_CreatedBy": 1,
            "ID_LastModifiedBy": 1,
            "DateCreated": "2018-01-18T10:15:25.893Z",
            "DateModified": null,
            "DataSource": null,
            "Format": null,
            "Width": "155",
            "Fixed": null,
            "VisibleIndex": 300,
            "IsAllowEdit": null,
            "ID_ControlType": null,
            "ID_ColumnAlignment": null,
            "IsVisible": true,
            "FixedPosition": null,
            "IsRequired": null,
            "ID_SummaryType": null,
            "IsAddModelClass": null,
            "GroupIndex": null,
            "IsFilter": null,
            "ID_FilterControlType": null,
            "ID_PropertyModel": null,
            "PropertyModel": null,
            "SummaryType": null
        },
        {
            "ID_PropertyType": 1,
            "Precision": null,
            "$DataSource": null,
            "DisplayProperty": null,
            "Oid": "DEEC5F1B-C0C3-46A4-A865-F4B597DD103C",
            "Code": null,
            "Name": "Icon",
            "IsActive": true,
            "Comment": null,
            "Caption": null,
            "ID_ModelProperty": "5DE5B82A-ADE5-4B47-B192-EE9175DCF572",
            "ID_ListView": "CD0CED64-E799-42E6-835F-B0796A8A985F",
            "ID_CreatedBy": 1,
            "ID_LastModifiedBy": 1,
            "DateCreated": "2018-01-18T11:30:55.140Z",
            "DateModified": null,
            "DataSource": null,
            "Format": null,
            "Width": "117",
            "Fixed": null,
            "VisibleIndex": 500,
            "IsAllowEdit": null,
            "ID_ControlType": null,
            "ID_ColumnAlignment": null,
            "IsVisible": true,
            "FixedPosition": null,
            "IsRequired": null,
            "ID_SummaryType": null,
            "IsAddModelClass": null,
            "GroupIndex": null,
            "IsFilter": null,
            "ID_FilterControlType": null,
            "ID_PropertyModel": null,
            "PropertyModel": null,
            "SummaryType": null
        },
        {
            "ID_PropertyType": 4,
            "Precision": null,
            "$DataSource": null,
            "DisplayProperty": null,
            "Oid": "29892B41-B0D7-48EA-9525-8FB62EA5DD62",
            "Code": null,
            "Name": "IsLoadData",
            "IsActive": true,
            "Comment": null,
            "Caption": null,
            "ID_ModelProperty": "4E23A0FB-E062-4608-8958-76C7187339D5",
            "ID_ListView": "CD0CED64-E799-42E6-835F-B0796A8A985F",
            "ID_CreatedBy": 1,
            "ID_LastModifiedBy": null,
            "DateCreated": "2018-02-17T11:34:41.903Z",
            "DateModified": null,
            "DataSource": null,
            "Format": null,
            "Width": null,
            "Fixed": null,
            "VisibleIndex": null,
            "IsAllowEdit": null,
            "ID_ControlType": null,
            "ID_ColumnAlignment": null,
            "IsVisible": false,
            "FixedPosition": null,
            "IsRequired": null,
            "ID_SummaryType": null,
            "IsAddModelClass": null,
            "GroupIndex": null,
            "IsFilter": null,
            "ID_FilterControlType": null,
            "ID_PropertyModel": null,
            "PropertyModel": null,
            "SummaryType": null
        },
        {
            "ID_PropertyType": 4,
            "Precision": null,
            "$DataSource": null,
            "DisplayProperty": null,
            "Oid": "1AD0AB81-487D-4B03-AC77-6016422A97F0",
            "Code": null,
            "Name": "IsEnableAuditTrail",
            "IsActive": true,
            "Comment": null,
            "Caption": null,
            "ID_ModelProperty": "6F9A0780-7606-4098-A85D-2BF43B5773BE",
            "ID_ListView": "CD0CED64-E799-42E6-835F-B0796A8A985F",
            "ID_CreatedBy": 1,
            "ID_LastModifiedBy": null,
            "DateCreated": "2018-07-18T16:17:10.947Z",
            "DateModified": null,
            "DataSource": null,
            "Format": null,
            "Width": null,
            "Fixed": null,
            "VisibleIndex": null,
            "IsAllowEdit": null,
            "ID_ControlType": null,
            "ID_ColumnAlignment": null,
            "IsVisible": false,
            "FixedPosition": null,
            "IsRequired": null,
            "ID_SummaryType": null,
            "IsAddModelClass": null,
            "GroupIndex": null,
            "IsFilter": null,
            "ID_FilterControlType": null,
            "ID_PropertyModel": null,
            "PropertyModel": null,
            "SummaryType": null
        },
        {
            "ID_PropertyType": 4,
            "Precision": null,
            "$DataSource": null,
            "DisplayProperty": null,
            "Oid": "E5B822E6-5A62-40CB-8537-F0EB7C9CBB46",
            "Code": null,
            "Name": "IsEnableComment",
            "IsActive": true,
            "Comment": null,
            "Caption": null,
            "ID_ModelProperty": "E45860BA-1403-468C-A5D5-15D5B6008758",
            "ID_ListView": "CD0CED64-E799-42E6-835F-B0796A8A985F",
            "ID_CreatedBy": 1,
            "ID_LastModifiedBy": null,
            "DateCreated": "2018-07-18T16:17:57.327Z",
            "DateModified": null,
            "DataSource": null,
            "Format": null,
            "Width": null,
            "Fixed": null,
            "VisibleIndex": null,
            "IsAllowEdit": null,
            "ID_ControlType": null,
            "ID_ColumnAlignment": null,
            "IsVisible": false,
            "FixedPosition": null,
            "IsRequired": null,
            "ID_SummaryType": null,
            "IsAddModelClass": null,
            "GroupIndex": null,
            "IsFilter": null,
            "ID_FilterControlType": null,
            "ID_PropertyModel": null,
            "PropertyModel": null,
            "SummaryType": null
        },
        {
            "ID_PropertyType": 4,
            "Precision": null,
            "$DataSource": null,
            "DisplayProperty": null,
            "Oid": "C4D98A04-B0C5-448B-A6CF-B73E203D860E",
            "Code": null,
            "Name": "IsEnableFileAttachment",
            "IsActive": true,
            "Comment": null,
            "Caption": null,
            "ID_ModelProperty": "865BFA1C-825B-4E1C-8657-4D12593C5B95",
            "ID_ListView": "CD0CED64-E799-42E6-835F-B0796A8A985F",
            "ID_CreatedBy": 1,
            "ID_LastModifiedBy": null,
            "DateCreated": "2018-07-18T16:18:10.720Z",
            "DateModified": null,
            "DataSource": null,
            "Format": null,
            "Width": null,
            "Fixed": null,
            "VisibleIndex": null,
            "IsAllowEdit": null,
            "ID_ControlType": null,
            "ID_ColumnAlignment": null,
            "IsVisible": false,
            "FixedPosition": null,
            "IsRequired": null,
            "ID_SummaryType": null,
            "IsAddModelClass": null,
            "GroupIndex": null,
            "IsFilter": null,
            "ID_FilterControlType": null,
            "ID_PropertyModel": null,
            "PropertyModel": null,
            "SummaryType": null
        },
        {
            "ID_PropertyType": 4,
            "Precision": null,
            "$DataSource": null,
            "DisplayProperty": null,
            "Oid": "7AA13670-2545-43C2-8D38-E46DE8D4E299",
            "Code": null,
            "Name": "IsSearchEnabled",
            "IsActive": true,
            "Comment": null,
            "Caption": null,
            "ID_ModelProperty": "01CDAB12-65EE-4AD9-B864-4986CDC715E9",
            "ID_ListView": "CD0CED64-E799-42E6-835F-B0796A8A985F",
            "ID_CreatedBy": 1,
            "ID_LastModifiedBy": null,
            "DateCreated": "2018-09-04T17:07:57.213Z",
            "DateModified": null,
            "DataSource": null,
            "Format": null,
            "Width": null,
            "Fixed": null,
            "VisibleIndex": null,
            "IsAllowEdit": null,
            "ID_ControlType": null,
            "ID_ColumnAlignment": null,
            "IsVisible": false,
            "FixedPosition": null,
            "IsRequired": null,
            "ID_SummaryType": null,
            "IsAddModelClass": null,
            "GroupIndex": null,
            "IsFilter": null,
            "ID_FilterControlType": null,
            "ID_PropertyModel": null,
            "PropertyModel": null,
            "SummaryType": null
        }
    ]
}