{
    "Oid": "ACC0AEF5-0A90-4D41-873E-C8AAC2549A6B",
    "Code": null,
    "Name": "PropertyType_DetailView",
    "IsActive": true,
    "Comment": null,
    "ID_CreatedBy": 1,
    "ID_LastModifiedBy": null,
    "DateCreated": "2018-01-04T18:23:51.257Z",
    "DateModified": null,
    "ID_Model": "B8FC3C30-6F07-419A-B236-15D592070102",
    "ModelName": "PropertyType",
    "Caption": "Property Type",
    "Details": [
        {
            "SeqNo": 1000,
            "ID_PropertyType": null,
            "ValueExpr": "ID",
            "GroupIndex": 10,
            "DataSourceKey": null,
            "DataSource": null,
            "DisplayProperty": null,
            "Oid": "370C87BB-CDC8-4C61-96AD-8ABBC2C879EA",
            "Code": null,
            "Name": "GeneralTab",
            "IsActive": true,
            "Comment": null,
            "Caption": "Status",
            "ID_ModelProperty": null,
            "ID_DetailView": "ACC0AEF5-0A90-4D41-873E-C8AAC2549A6B",
            "ID_Tab": null,
            "ID_Section": null,
            "ID_ControlType": 12,
            "Format": null,
            "ID_CreatedBy": 1,
            "ID_LastModifiedBy": null,
            "DateCreated": "2018-01-04T18:23:51.450Z",
            "DateModified": null,
            "IsLoadData": null,
            "ColCount": null,
            "ColSpan": null,
            "IsDisabled": null,
            "Height": null,
            "ID_ListView": null,
            "IsReadOnly": null,
            "ID_LabelLocation": null,
            "IsShowLabel": null,
            "IsRequired": null,
            "DisplayExpr": null,
            "ID_LookUp_ListView": null,
            "LookUp_ListView_Caption": null,
            "LookUp_ListView_DataSource": null,
            "SearchExpr": null,
            "Precision": null,
            "ID_Parent_Grid": null,
            "IsShowClearButton": null,
            "IsSearchEnabled": null,
            "InputMask": null,
            "ID_PropertyModel": null,
            "PropertyName": null,
            "PropertyModel": null,
            "ID_PropertyModel_DetailView": null,
            "ID_PropertyModel_DetailView_Height": null,
            "ID_PropertyModel_DetailView_Width": null,
            "PropertyModel_PrimaryKey": null,
            "PropertyModel_Caption": null,
            "ID_PropertyModel_ID_DetailView": null,
            "LookUpDataSource": null,
            "LookUp_ListView_PK": null,
            "LookUp_ListView_Model": null,
            "ID_ModelProperty_Key": null,
            "ModelProperty_Key": null,
            "IsAllowAdd": null,
            "ListViewDetailName": null
        },
        {
            "SeqNo": 1000,
            "ID_PropertyType": null,
            "ValueExpr": "ID",
            "GroupIndex": 10,
            "DataSourceKey": null,
            "DataSource": null,
            "DisplayProperty": null,
            "Oid": "475A8766-F865-4693-9035-5274C5712559",
            "Code": null,
            "Name": "CommentTab",
            "IsActive": true,
            "Comment": null,
            "Caption": "Comment",
            "ID_ModelProperty": null,
            "ID_DetailView": "ACC0AEF5-0A90-4D41-873E-C8AAC2549A6B",
            "ID_Tab": null,
            "ID_Section": null,
            "ID_ControlType": 12,
            "Format": null,
            "ID_CreatedBy": 1,
            "ID_LastModifiedBy": null,
            "DateCreated": "2018-01-04T18:23:51.533Z",
            "DateModified": null,
            "IsLoadData": null,
            "ColCount": null,
            "ColSpan": null,
            "IsDisabled": null,
            "Height": null,
            "ID_ListView": null,
            "IsReadOnly": null,
            "ID_LabelLocation": null,
            "IsShowLabel": null,
            "IsRequired": null,
            "DisplayExpr": null,
            "ID_LookUp_ListView": null,
            "LookUp_ListView_Caption": null,
            "LookUp_ListView_DataSource": null,
            "SearchExpr": null,
            "Precision": null,
            "ID_Parent_Grid": null,
            "IsShowClearButton": null,
            "IsSearchEnabled": null,
            "InputMask": null,
            "ID_PropertyModel": null,
            "PropertyName": null,
            "PropertyModel": null,
            "ID_PropertyModel_DetailView": null,
            "ID_PropertyModel_DetailView_Height": null,
            "ID_PropertyModel_DetailView_Width": null,
            "PropertyModel_PrimaryKey": null,
            "PropertyModel_Caption": null,
            "ID_PropertyModel_ID_DetailView": null,
            "LookUpDataSource": null,
            "LookUp_ListView_PK": null,
            "LookUp_ListView_Model": null,
            "ID_ModelProperty_Key": null,
            "ModelProperty_Key": null,
            "IsAllowAdd": null,
            "ListViewDetailName": null
        },
        {
            "SeqNo": 1000,
            "ID_PropertyType": 4,
            "ValueExpr": "ID",
            "GroupIndex": -1,
            "DataSourceKey": null,
            "DataSource": null,
            "DisplayProperty": null,
            "Oid": "29CE8A46-709A-46A8-869E-81E72F1D8425",
            "Code": null,
            "Name": "IsActive",
            "IsActive": true,
            "Comment": null,
            "Caption": "Active",
            "ID_ModelProperty": "C16370D7-43A1-43B0-A641-CB1AF4041CF1",
            "ID_DetailView": "ACC0AEF5-0A90-4D41-873E-C8AAC2549A6B",
            "ID_Tab": "370C87BB-CDC8-4C61-96AD-8ABBC2C879EA",
            "ID_Section": null,
            "ID_ControlType": 4,
            "Format": null,
            "ID_CreatedBy": 1,
            "ID_LastModifiedBy": null,
            "DateCreated": "2018-01-04T18:23:51.717Z",
            "DateModified": null,
            "IsLoadData": null,
            "ColCount": null,
            "ColSpan": null,
            "IsDisabled": null,
            "Height": null,
            "ID_ListView": null,
            "IsReadOnly": null,
            "ID_LabelLocation": 2,
            "IsShowLabel": null,
            "IsRequired": null,
            "DisplayExpr": null,
            "ID_LookUp_ListView": null,
            "LookUp_ListView_Caption": null,
            "LookUp_ListView_DataSource": null,
            "SearchExpr": null,
            "Precision": null,
            "ID_Parent_Grid": null,
            "IsShowClearButton": null,
            "IsSearchEnabled": null,
            "InputMask": null,
            "ID_PropertyModel": null,
            "PropertyName": "IsActive",
            "PropertyModel": null,
            "ID_PropertyModel_DetailView": null,
            "ID_PropertyModel_DetailView_Height": null,
            "ID_PropertyModel_DetailView_Width": null,
            "PropertyModel_PrimaryKey": null,
            "PropertyModel_Caption": null,
            "ID_PropertyModel_ID_DetailView": null,
            "LookUpDataSource": null,
            "LookUp_ListView_PK": null,
            "LookUp_ListView_Model": null,
            "ID_ModelProperty_Key": null,
            "ModelProperty_Key": null,
            "IsAllowAdd": null,
            "ListViewDetailName": null
        },
        {
            "SeqNo": 1000,
            "ID_PropertyType": 1,
            "ValueExpr": "ID",
            "GroupIndex": -1,
            "DataSourceKey": null,
            "DataSource": null,
            "DisplayProperty": null,
            "Oid": "F555223F-E1A2-4DE5-8710-863F1FF02AED",
            "Code": null,
            "Name": "Comment",
            "IsActive": true,
            "Comment": null,
            "Caption": null,
            "ID_ModelProperty": "9E8685EA-C8F3-4592-AED1-9FBCB3340EB5",
            "ID_DetailView": "ACC0AEF5-0A90-4D41-873E-C8AAC2549A6B",
            "ID_Tab": "475A8766-F865-4693-9035-5274C5712559",
            "ID_Section": null,
            "ID_ControlType": 2,
            "Format": null,
            "ID_CreatedBy": 1,
            "ID_LastModifiedBy": null,
            "DateCreated": "2018-01-04T18:23:51.717Z",
            "DateModified": null,
            "IsLoadData": null,
            "ColCount": null,
            "ColSpan": 3,
            "IsDisabled": null,
            "Height": 250,
            "ID_ListView": null,
            "IsReadOnly": null,
            "ID_LabelLocation": 2,
            "IsShowLabel": null,
            "IsRequired": null,
            "DisplayExpr": null,
            "ID_LookUp_ListView": null,
            "LookUp_ListView_Caption": null,
            "LookUp_ListView_DataSource": null,
            "SearchExpr": null,
            "Precision": null,
            "ID_Parent_Grid": null,
            "IsShowClearButton": null,
            "IsSearchEnabled": null,
            "InputMask": null,
            "ID_PropertyModel": null,
            "PropertyName": "Comment",
            "PropertyModel": null,
            "ID_PropertyModel_DetailView": null,
            "ID_PropertyModel_DetailView_Height": null,
            "ID_PropertyModel_DetailView_Width": null,
            "PropertyModel_PrimaryKey": null,
            "PropertyModel_Caption": null,
            "ID_PropertyModel_ID_DetailView": null,
            "LookUpDataSource": null,
            "LookUp_ListView_PK": null,
            "LookUp_ListView_Model": null,
            "ID_ModelProperty_Key": null,
            "ModelProperty_Key": null,
            "IsAllowAdd": null,
            "ListViewDetailName": null
        },
        {
            "SeqNo": 1000,
            "ID_PropertyType": 1,
            "ValueExpr": "ID",
            "GroupIndex": -1,
            "DataSourceKey": null,
            "DataSource": null,
            "DisplayProperty": null,
            "Oid": "690C752C-DAB0-4EC7-8304-E0393A19A3E6",
            "Code": null,
            "Name": "Name",
            "IsActive": true,
            "Comment": null,
            "Caption": null,
            "ID_ModelProperty": "FFE2B689-7D50-4D05-A87F-49C2D9E7641E",
            "ID_DetailView": "ACC0AEF5-0A90-4D41-873E-C8AAC2549A6B",
            "ID_Tab": "370C87BB-CDC8-4C61-96AD-8ABBC2C879EA",
            "ID_Section": null,
            "ID_ControlType": null,
            "Format": null,
            "ID_CreatedBy": 1,
            "ID_LastModifiedBy": null,
            "DateCreated": "2018-01-04T18:23:51.717Z",
            "DateModified": null,
            "IsLoadData": null,
            "ColCount": null,
            "ColSpan": null,
            "IsDisabled": null,
            "Height": null,
            "ID_ListView": null,
            "IsReadOnly": null,
            "ID_LabelLocation": 2,
            "IsShowLabel": null,
            "IsRequired": null,
            "DisplayExpr": null,
            "ID_LookUp_ListView": null,
            "LookUp_ListView_Caption": null,
            "LookUp_ListView_DataSource": null,
            "SearchExpr": null,
            "Precision": null,
            "ID_Parent_Grid": null,
            "IsShowClearButton": null,
            "IsSearchEnabled": null,
            "InputMask": null,
            "ID_PropertyModel": null,
            "PropertyName": "Name",
            "PropertyModel": null,
            "ID_PropertyModel_DetailView": null,
            "ID_PropertyModel_DetailView_Height": null,
            "ID_PropertyModel_DetailView_Width": null,
            "PropertyModel_PrimaryKey": null,
            "PropertyModel_Caption": null,
            "ID_PropertyModel_ID_DetailView": null,
            "LookUpDataSource": null,
            "LookUp_ListView_PK": null,
            "LookUp_ListView_Model": null,
            "ID_ModelProperty_Key": null,
            "ModelProperty_Key": null,
            "IsAllowAdd": null,
            "ListViewDetailName": null
        }
    ]
}