{
    "Oid": "9B8C92D7-3B17-4A6E-9569-F398F6AC2738",
    "Name": "PaymentMethod_ListView",
    "ID_Model": "BE3FFC78-53DC-4A24-AF80-DCA1FFCAB62B",
    "DataSource": "SELECT * FROM dbo.vPaymentMethod",
    "Comment": null,
    "ID_DetailView": "1CAE9EF9-672F-4596-90FA-AC5AEBFE8EAE",
    "Model": "PaymentMethod",
    "PrimaryKey": "ID",
    "Caption": "PaymentMethod",
    "Details": [
        {
            "ID_PropertyType": 5,
            "Precision": null,
            "$DataSource": null,
            "DisplayProperty": null,
            "Oid": "730C7AEA-8E55-4254-B84F-1F0CA3C77809",
            "Code": null,
            "Name": "DateCreated",
            "IsActive": true,
            "Comment": null,
            "Caption": "Date Created",
            "ID_ModelProperty": "FC974072-1DB8-44BF-8564-2C7280765FA8",
            "ID_ListView": "9B8C92D7-3B17-4A6E-9569-F398F6AC2738",
            "ID_CreatedBy": 1,
            "ID_LastModifiedBy": null,
            "DateCreated": "2020-12-17T21:38:19.810Z",
            "DateModified": null,
            "DataSource": null,
            "Format": null,
            "Width": null,
            "Fixed": null,
            "VisibleIndex": 400,
            "IsAllowEdit": null,
            "ID_ControlType": null,
            "ID_ColumnAlignment": null,
            "IsVisible": true,
            "FixedPosition": null,
            "IsRequired": null,
            "ID_SummaryType": null,
            "IsAddModelClass": null,
            "GroupIndex": null,
            "IsFilter": null,
            "ID_FilterControlType": null,
            "ID_PropertyModel": null,
            "PropertyModel": null,
            "SummaryType": null
        },
        {
            "ID_PropertyType": 2,
            "Precision": null,
            "$DataSource": null,
            "DisplayProperty": null,
            "Oid": "A5132CF8-1223-4149-9DCB-41EA4402E2FA",
            "Code": null,
            "Name": "ID_Company",
            "IsActive": true,
            "Comment": null,
            "Caption": null,
            "ID_ModelProperty": "C987F0B0-CA21-4D13-ADC6-EDB0E1D02691",
            "ID_ListView": "9B8C92D7-3B17-4A6E-9569-F398F6AC2738",
            "ID_CreatedBy": 1,
            "ID_LastModifiedBy": null,
            "DateCreated": "2020-12-17T21:38:19.810Z",
            "DateModified": null,
            "DataSource": null,
            "Format": null,
            "Width": null,
            "Fixed": null,
            "VisibleIndex": 1000,
            "IsAllowEdit": null,
            "ID_ControlType": null,
            "ID_ColumnAlignment": null,
            "IsVisible": true,
            "FixedPosition": null,
            "IsRequired": null,
            "ID_SummaryType": null,
            "IsAddModelClass": null,
            "GroupIndex": null,
            "IsFilter": null,
            "ID_FilterControlType": null,
            "ID_PropertyModel": null,
            "PropertyModel": null,
            "SummaryType": null
        },
        {
            "ID_PropertyType": 1,
            "Precision": null,
            "$DataSource": null,
            "DisplayProperty": null,
            "Oid": "7C5E58EF-76A7-48E4-97C7-6F979A901C84",
            "Code": null,
            "Name": "Name",
            "IsActive": true,
            "Comment": null,
            "Caption": null,
            "ID_ModelProperty": "88106712-4667-40B1-B41B-416C587DB480",
            "ID_ListView": "9B8C92D7-3B17-4A6E-9569-F398F6AC2738",
            "ID_CreatedBy": 1,
            "ID_LastModifiedBy": null,
            "DateCreated": "2020-12-17T21:38:19.810Z",
            "DateModified": null,
            "DataSource": null,
            "Format": null,
            "Width": null,
            "Fixed": null,
            "VisibleIndex": 600,
            "IsAllowEdit": null,
            "ID_ControlType": null,
            "ID_ColumnAlignment": null,
            "IsVisible": true,
            "FixedPosition": null,
            "IsRequired": null,
            "ID_SummaryType": null,
            "IsAddModelClass": null,
            "GroupIndex": null,
            "IsFilter": null,
            "ID_FilterControlType": null,
            "ID_PropertyModel": null,
            "PropertyModel": null,
            "SummaryType": null
        },
        {
            "ID_PropertyType": 4,
            "Precision": null,
            "$DataSource": null,
            "DisplayProperty": null,
            "Oid": "0DEA571F-D654-487B-AF98-7FC8407B1E5B",
            "Code": null,
            "Name": "IsActive",
            "IsActive": true,
            "Comment": null,
            "Caption": "Active",
            "ID_ModelProperty": "E1D3CBD2-DB29-49F5-B000-9F27728BECD6",
            "ID_ListView": "9B8C92D7-3B17-4A6E-9569-F398F6AC2738",
            "ID_CreatedBy": 1,
            "ID_LastModifiedBy": null,
            "DateCreated": "2020-12-17T21:38:19.810Z",
            "DateModified": null,
            "DataSource": null,
            "Format": null,
            "Width": null,
            "Fixed": null,
            "VisibleIndex": 800,
            "IsAllowEdit": null,
            "ID_ControlType": null,
            "ID_ColumnAlignment": null,
            "IsVisible": true,
            "FixedPosition": null,
            "IsRequired": null,
            "ID_SummaryType": null,
            "IsAddModelClass": null,
            "GroupIndex": null,
            "IsFilter": null,
            "ID_FilterControlType": null,
            "ID_PropertyModel": null,
            "PropertyModel": null,
            "SummaryType": null
        },
        {
            "ID_PropertyType": 1,
            "Precision": null,
            "$DataSource": null,
            "DisplayProperty": null,
            "Oid": "F068A845-50E1-496A-9854-8E2DA33D2229",
            "Code": null,
            "Name": "Comment",
            "IsActive": true,
            "Comment": null,
            "Caption": null,
            "ID_ModelProperty": "7C4AB4E9-3CEF-4F26-8D7C-1E052D6774E3",
            "ID_ListView": "9B8C92D7-3B17-4A6E-9569-F398F6AC2738",
            "ID_CreatedBy": 1,
            "ID_LastModifiedBy": null,
            "DateCreated": "2020-12-17T21:38:19.810Z",
            "DateModified": null,
            "DataSource": null,
            "Format": null,
            "Width": null,
            "Fixed": null,
            "VisibleIndex": 200,
            "IsAllowEdit": null,
            "ID_ControlType": null,
            "ID_ColumnAlignment": null,
            "IsVisible": true,
            "FixedPosition": null,
            "IsRequired": null,
            "ID_SummaryType": null,
            "IsAddModelClass": null,
            "GroupIndex": null,
            "IsFilter": null,
            "ID_FilterControlType": null,
            "ID_PropertyModel": null,
            "PropertyModel": null,
            "SummaryType": null
        },
        {
            "ID_PropertyType": 5,
            "Precision": null,
            "$DataSource": null,
            "DisplayProperty": null,
            "Oid": "8D873EAC-1A8D-45BE-B32C-9D958210815B",
            "Code": null,
            "Name": "DateModified",
            "IsActive": true,
            "Comment": null,
            "Caption": "Date Modified",
            "ID_ModelProperty": "6747AC06-C545-417A-9E89-AFBAA97F173C",
            "ID_ListView": "9B8C92D7-3B17-4A6E-9569-F398F6AC2738",
            "ID_CreatedBy": 1,
            "ID_LastModifiedBy": null,
            "DateCreated": "2020-12-17T21:38:19.810Z",
            "DateModified": null,
            "DataSource": null,
            "Format": null,
            "Width": null,
            "Fixed": null,
            "VisibleIndex": 900,
            "IsAllowEdit": null,
            "ID_ControlType": null,
            "ID_ColumnAlignment": null,
            "IsVisible": true,
            "FixedPosition": null,
            "IsRequired": null,
            "ID_SummaryType": null,
            "IsAddModelClass": null,
            "GroupIndex": null,
            "IsFilter": null,
            "ID_FilterControlType": null,
            "ID_PropertyModel": null,
            "PropertyModel": null,
            "SummaryType": null
        },
        {
            "ID_PropertyType": 2,
            "Precision": null,
            "$DataSource": null,
            "DisplayProperty": null,
            "Oid": "AE78CB97-48C9-4CF4-A7D7-9FF19AE97CA3",
            "Code": null,
            "Name": "ID",
            "IsActive": true,
            "Comment": null,
            "Caption": null,
            "ID_ModelProperty": "09D602F3-DA46-461C-856C-4C2EB40709F2",
            "ID_ListView": "9B8C92D7-3B17-4A6E-9569-F398F6AC2738",
            "ID_CreatedBy": 1,
            "ID_LastModifiedBy": null,
            "DateCreated": "2020-12-17T21:38:19.810Z",
            "DateModified": null,
            "DataSource": null,
            "Format": null,
            "Width": null,
            "Fixed": null,
            "VisibleIndex": 700,
            "IsAllowEdit": null,
            "ID_ControlType": null,
            "ID_ColumnAlignment": null,
            "IsVisible": true,
            "FixedPosition": null,
            "IsRequired": null,
            "ID_SummaryType": null,
            "IsAddModelClass": null,
            "GroupIndex": null,
            "IsFilter": null,
            "ID_FilterControlType": null,
            "ID_PropertyModel": null,
            "PropertyModel": null,
            "SummaryType": null
        },
        {
            "ID_PropertyType": 2,
            "Precision": null,
            "$DataSource": null,
            "DisplayProperty": "LastModifiedBy",
            "Oid": "9ED39F93-85EC-4AC5-B168-D9CF332ECA5A",
            "Code": null,
            "Name": "ID_LastModifiedBy",
            "IsActive": true,
            "Comment": null,
            "Caption": "Last Modified By",
            "ID_ModelProperty": "9A5B73B2-A835-41A0-A521-319D8A56CDA1",
            "ID_ListView": "9B8C92D7-3B17-4A6E-9569-F398F6AC2738",
            "ID_CreatedBy": 1,
            "ID_LastModifiedBy": null,
            "DateCreated": "2020-12-17T21:38:19.810Z",
            "DateModified": null,
            "DataSource": null,
            "Format": null,
            "Width": null,
            "Fixed": null,
            "VisibleIndex": 500,
            "IsAllowEdit": null,
            "ID_ControlType": null,
            "ID_ColumnAlignment": null,
            "IsVisible": true,
            "FixedPosition": null,
            "IsRequired": null,
            "ID_SummaryType": null,
            "IsAddModelClass": null,
            "GroupIndex": null,
            "IsFilter": null,
            "ID_FilterControlType": null,
            "ID_PropertyModel": null,
            "PropertyModel": null,
            "SummaryType": null
        },
        {
            "ID_PropertyType": 1,
            "Precision": null,
            "$DataSource": null,
            "DisplayProperty": null,
            "Oid": "A163C0CE-93C2-4677-98E7-EB46286B8FC9",
            "Code": null,
            "Name": "Code",
            "IsActive": true,
            "Comment": null,
            "Caption": null,
            "ID_ModelProperty": "09CA7CF5-A59A-4188-BAEE-23DB86E7466C",
            "ID_ListView": "9B8C92D7-3B17-4A6E-9569-F398F6AC2738",
            "ID_CreatedBy": 1,
            "ID_LastModifiedBy": null,
            "DateCreated": "2020-12-17T21:38:19.810Z",
            "DateModified": null,
            "DataSource": null,
            "Format": null,
            "Width": null,
            "Fixed": null,
            "VisibleIndex": 300,
            "IsAllowEdit": null,
            "ID_ControlType": null,
            "ID_ColumnAlignment": null,
            "IsVisible": true,
            "FixedPosition": null,
            "IsRequired": null,
            "ID_SummaryType": null,
            "IsAddModelClass": null,
            "GroupIndex": null,
            "IsFilter": null,
            "ID_FilterControlType": null,
            "ID_PropertyModel": null,
            "PropertyModel": null,
            "SummaryType": null
        },
        {
            "ID_PropertyType": 2,
            "Precision": null,
            "$DataSource": null,
            "DisplayProperty": "CreatedBy",
            "Oid": "D0D26710-D651-426B-ADE3-ED3C9BD4755F",
            "Code": null,
            "Name": "ID_CreatedBy",
            "IsActive": true,
            "Comment": null,
            "Caption": "Created By",
            "ID_ModelProperty": "E00B3E39-33B6-45FD-9739-0E25CF3A0F57",
            "ID_ListView": "9B8C92D7-3B17-4A6E-9569-F398F6AC2738",
            "ID_CreatedBy": 1,
            "ID_LastModifiedBy": null,
            "DateCreated": "2020-12-17T21:38:19.810Z",
            "DateModified": null,
            "DataSource": null,
            "Format": null,
            "Width": null,
            "Fixed": null,
            "VisibleIndex": 100,
            "IsAllowEdit": null,
            "ID_ControlType": null,
            "ID_ColumnAlignment": null,
            "IsVisible": true,
            "FixedPosition": null,
            "IsRequired": null,
            "ID_SummaryType": null,
            "IsAddModelClass": null,
            "GroupIndex": null,
            "IsFilter": null,
            "ID_FilterControlType": null,
            "ID_PropertyModel": null,
            "PropertyModel": null,
            "SummaryType": null
        }
    ]
}