{
    "Oid": "3178205E-1163-4CEE-AB67-EB380848EB72",
    "Name": "AuditTrail_Detail_ListView_Detail",
    "ID_Model": "9130B122-A74E-47AF-9F4B-6459D704AF46",
    "DataSource": null,
    "Comment": null,
    "ID_DetailView": "C6A9C377-3570-4053-858D-1A3651A1BBA5",
    "Model": "AuditTrail_Detail",
    "PrimaryKey": "ID",
    "Caption": "AuditTrail_Detail",
    "Details": [
        {
            "ID_PropertyType": 2,
            "Precision": null,
            "$DataSource": null,
            "DisplayProperty": null,
            "Oid": "3CD62A5E-320C-414C-8B05-28DACD3981E2",
            "Code": null,
            "Name": "ID_AuditTrail",
            "IsActive": true,
            "Comment": null,
            "Caption": null,
            "ID_ModelProperty": "4BC85FD8-F5CC-42CD-BA6D-B6DADF480C86",
            "ID_ListView": "3178205E-1163-4CEE-AB67-EB380848EB72",
            "ID_CreatedBy": 1,
            "ID_LastModifiedBy": 1,
            "DateCreated": "2018-02-10T22:40:11.000Z",
            "DateModified": null,
            "DataSource": null,
            "Format": null,
            "Width": null,
            "Fixed": null,
            "VisibleIndex": 0,
            "IsAllowEdit": null,
            "ID_ControlType": null,
            "ID_ColumnAlignment": null,
            "IsVisible": false,
            "FixedPosition": null,
            "IsRequired": null,
            "ID_SummaryType": null,
            "IsAddModelClass": null,
            "GroupIndex": null,
            "IsFilter": null,
            "ID_FilterControlType": null,
            "ID_PropertyModel": null,
            "PropertyModel": null,
            "SummaryType": null
        },
        {
            "ID_PropertyType": 1,
            "Precision": null,
            "$DataSource": null,
            "DisplayProperty": null,
            "Oid": "6FD73850-B159-442C-B57C-5AE9028B8DDD",
            "Code": null,
            "Name": "Comment",
            "IsActive": true,
            "Comment": null,
            "Caption": null,
            "ID_ModelProperty": "31740883-7EC5-45AE-9846-DA7E7E037046",
            "ID_ListView": "3178205E-1163-4CEE-AB67-EB380848EB72",
            "ID_CreatedBy": 1,
            "ID_LastModifiedBy": 1,
            "DateCreated": "2018-02-10T22:40:11.000Z",
            "DateModified": null,
            "DataSource": null,
            "Format": null,
            "Width": null,
            "Fixed": null,
            "VisibleIndex": 100,
            "IsAllowEdit": null,
            "ID_ControlType": null,
            "ID_ColumnAlignment": null,
            "IsVisible": false,
            "FixedPosition": null,
            "IsRequired": null,
            "ID_SummaryType": null,
            "IsAddModelClass": null,
            "GroupIndex": null,
            "IsFilter": null,
            "ID_FilterControlType": null,
            "ID_PropertyModel": null,
            "PropertyModel": null,
            "SummaryType": null
        },
        {
            "ID_PropertyType": 1,
            "Precision": null,
            "$DataSource": null,
            "DisplayProperty": null,
            "Oid": "40207967-9C8A-412D-A893-6D028DBC644A",
            "Code": null,
            "Name": "Name",
            "IsActive": true,
            "Comment": null,
            "Caption": null,
            "ID_ModelProperty": "CB05CD55-AB0D-4976-8CDC-63C830E06DB9",
            "ID_ListView": "3178205E-1163-4CEE-AB67-EB380848EB72",
            "ID_CreatedBy": 1,
            "ID_LastModifiedBy": 1,
            "DateCreated": "2018-02-10T22:40:11.000Z",
            "DateModified": null,
            "DataSource": null,
            "Format": null,
            "Width": "174",
            "Fixed": true,
            "VisibleIndex": 300,
            "IsAllowEdit": null,
            "ID_ControlType": null,
            "ID_ColumnAlignment": null,
            "IsVisible": true,
            "FixedPosition": "left",
            "IsRequired": null,
            "ID_SummaryType": null,
            "IsAddModelClass": null,
            "GroupIndex": null,
            "IsFilter": null,
            "ID_FilterControlType": null,
            "ID_PropertyModel": null,
            "PropertyModel": null,
            "SummaryType": null
        },
        {
            "ID_PropertyType": 2,
            "Precision": null,
            "$DataSource": null,
            "DisplayProperty": null,
            "Oid": "11E11E1C-A166-4A44-8B09-87D631DAD634",
            "Code": null,
            "Name": "ID",
            "IsActive": true,
            "Comment": null,
            "Caption": null,
            "ID_ModelProperty": "72B91D91-AB11-4903-ABF0-A1664D82093F",
            "ID_ListView": "3178205E-1163-4CEE-AB67-EB380848EB72",
            "ID_CreatedBy": 1,
            "ID_LastModifiedBy": 1,
            "DateCreated": "2018-02-10T22:40:11.000Z",
            "DateModified": null,
            "DataSource": null,
            "Format": null,
            "Width": "60",
            "Fixed": true,
            "VisibleIndex": 200,
            "IsAllowEdit": null,
            "ID_ControlType": null,
            "ID_ColumnAlignment": null,
            "IsVisible": true,
            "FixedPosition": "left",
            "IsRequired": null,
            "ID_SummaryType": null,
            "IsAddModelClass": null,
            "GroupIndex": null,
            "IsFilter": null,
            "ID_FilterControlType": null,
            "ID_PropertyModel": null,
            "PropertyModel": null,
            "SummaryType": null
        },
        {
            "ID_PropertyType": 1,
            "Precision": null,
            "$DataSource": null,
            "DisplayProperty": null,
            "Oid": "FCAA5D52-2FAF-463B-AD82-A00E7D4D1D94",
            "Code": null,
            "Name": "Code",
            "IsActive": true,
            "Comment": null,
            "Caption": null,
            "ID_ModelProperty": "902767C2-7E9D-491E-89B6-3782E95F7C11",
            "ID_ListView": "3178205E-1163-4CEE-AB67-EB380848EB72",
            "ID_CreatedBy": 1,
            "ID_LastModifiedBy": 1,
            "DateCreated": "2018-02-10T22:40:11.000Z",
            "DateModified": null,
            "DataSource": null,
            "Format": null,
            "Width": null,
            "Fixed": null,
            "VisibleIndex": 400,
            "IsAllowEdit": null,
            "ID_ControlType": null,
            "ID_ColumnAlignment": null,
            "IsVisible": false,
            "FixedPosition": null,
            "IsRequired": null,
            "ID_SummaryType": null,
            "IsAddModelClass": null,
            "GroupIndex": null,
            "IsFilter": null,
            "ID_FilterControlType": null,
            "ID_PropertyModel": null,
            "PropertyModel": null,
            "SummaryType": null
        },
        {
            "ID_PropertyType": 2,
            "Precision": null,
            "$DataSource": null,
            "DisplayProperty": null,
            "Oid": "B435DE5A-BDC3-4D15-AD6C-AC21B1FD4992",
            "Code": null,
            "Name": "ID_CurrentObject",
            "IsActive": true,
            "Comment": null,
            "Caption": null,
            "ID_ModelProperty": "EDA9847A-802F-4D4A-A128-C83B22DADDF8",
            "ID_ListView": "3178205E-1163-4CEE-AB67-EB380848EB72",
            "ID_CreatedBy": 1,
            "ID_LastModifiedBy": 1,
            "DateCreated": "2018-02-10T22:40:11.000Z",
            "DateModified": null,
            "DataSource": null,
            "Format": null,
            "Width": null,
            "Fixed": null,
            "VisibleIndex": 500,
            "IsAllowEdit": null,
            "ID_ControlType": null,
            "ID_ColumnAlignment": null,
            "IsVisible": false,
            "FixedPosition": null,
            "IsRequired": null,
            "ID_SummaryType": null,
            "IsAddModelClass": null,
            "GroupIndex": null,
            "IsFilter": null,
            "ID_FilterControlType": null,
            "ID_PropertyModel": null,
            "PropertyModel": null,
            "SummaryType": null
        },
        {
            "ID_PropertyType": 1,
            "Precision": null,
            "$DataSource": null,
            "DisplayProperty": null,
            "Oid": "ECD1B1ED-C915-4514-8D2A-AE1B6F64E835",
            "Code": null,
            "Name": "OldValue",
            "IsActive": true,
            "Comment": null,
            "Caption": "Old Value",
            "ID_ModelProperty": "50FBC53C-A53E-46BA-B048-6E76D365D65A",
            "ID_ListView": "3178205E-1163-4CEE-AB67-EB380848EB72",
            "ID_CreatedBy": 1,
            "ID_LastModifiedBy": 1,
            "DateCreated": "2018-02-10T22:40:11.000Z",
            "DateModified": null,
            "DataSource": null,
            "Format": null,
            "Width": "155",
            "Fixed": null,
            "VisibleIndex": 800,
            "IsAllowEdit": null,
            "ID_ControlType": null,
            "ID_ColumnAlignment": null,
            "IsVisible": true,
            "FixedPosition": null,
            "IsRequired": null,
            "ID_SummaryType": null,
            "IsAddModelClass": null,
            "GroupIndex": null,
            "IsFilter": null,
            "ID_FilterControlType": null,
            "ID_PropertyModel": null,
            "PropertyModel": null,
            "SummaryType": null
        },
        {
            "ID_PropertyType": 1,
            "Precision": null,
            "$DataSource": null,
            "DisplayProperty": null,
            "Oid": "0F6D121B-892F-4109-AB0E-C0E3A280C88A",
            "Code": null,
            "Name": "NewValue",
            "IsActive": true,
            "Comment": null,
            "Caption": "New Value",
            "ID_ModelProperty": "E8678533-3354-4B38-AC01-820914422FD7",
            "ID_ListView": "3178205E-1163-4CEE-AB67-EB380848EB72",
            "ID_CreatedBy": 1,
            "ID_LastModifiedBy": 1,
            "DateCreated": "2018-02-10T22:40:11.000Z",
            "DateModified": null,
            "DataSource": null,
            "Format": null,
            "Width": "86",
            "Fixed": null,
            "VisibleIndex": 900,
            "IsAllowEdit": null,
            "ID_ControlType": null,
            "ID_ColumnAlignment": null,
            "IsVisible": true,
            "FixedPosition": null,
            "IsRequired": null,
            "ID_SummaryType": null,
            "IsAddModelClass": null,
            "GroupIndex": null,
            "IsFilter": null,
            "ID_FilterControlType": null,
            "ID_PropertyModel": null,
            "PropertyModel": null,
            "SummaryType": null
        },
        {
            "ID_PropertyType": 2,
            "Precision": null,
            "$DataSource": null,
            "DisplayProperty": null,
            "Oid": "14D7EBF1-B8AF-4F93-AE7E-CBF06BBD5756",
            "Code": null,
            "Name": "ID_Model",
            "IsActive": true,
            "Comment": null,
            "Caption": null,
            "ID_ModelProperty": "8524ED89-405B-476A-B647-BCD8B2722E03",
            "ID_ListView": "3178205E-1163-4CEE-AB67-EB380848EB72",
            "ID_CreatedBy": 1,
            "ID_LastModifiedBy": 1,
            "DateCreated": "2018-02-10T22:40:11.000Z",
            "DateModified": null,
            "DataSource": null,
            "Format": null,
            "Width": null,
            "Fixed": null,
            "VisibleIndex": 1000,
            "IsAllowEdit": null,
            "ID_ControlType": null,
            "ID_ColumnAlignment": null,
            "IsVisible": false,
            "FixedPosition": null,
            "IsRequired": null,
            "ID_SummaryType": null,
            "IsAddModelClass": null,
            "GroupIndex": null,
            "IsFilter": null,
            "ID_FilterControlType": null,
            "ID_PropertyModel": null,
            "PropertyModel": null,
            "SummaryType": null
        },
        {
            "ID_PropertyType": 4,
            "Precision": null,
            "$DataSource": null,
            "DisplayProperty": null,
            "Oid": "639D47FD-8C9A-4B7A-93C3-E070EC358A3C",
            "Code": null,
            "Name": "IsActive",
            "IsActive": true,
            "Comment": null,
            "Caption": "Active",
            "ID_ModelProperty": "8BE33F72-8331-4F0B-9119-5A9C899C5A7A",
            "ID_ListView": "3178205E-1163-4CEE-AB67-EB380848EB72",
            "ID_CreatedBy": 1,
            "ID_LastModifiedBy": 1,
            "DateCreated": "2018-02-10T22:40:11.000Z",
            "DateModified": null,
            "DataSource": null,
            "Format": null,
            "Width": null,
            "Fixed": null,
            "VisibleIndex": 1100,
            "IsAllowEdit": null,
            "ID_ControlType": null,
            "ID_ColumnAlignment": null,
            "IsVisible": false,
            "FixedPosition": null,
            "IsRequired": null,
            "ID_SummaryType": null,
            "IsAddModelClass": null,
            "GroupIndex": null,
            "IsFilter": null,
            "ID_FilterControlType": null,
            "ID_PropertyModel": null,
            "PropertyModel": null,
            "SummaryType": null
        },
        {
            "ID_PropertyType": 1,
            "Precision": null,
            "$DataSource": null,
            "DisplayProperty": null,
            "Oid": "63ADDCE2-8DDF-4E68-B1AE-FE9835230069",
            "Code": null,
            "Name": "ModelProperty",
            "IsActive": true,
            "Comment": null,
            "Caption": "Model Property",
            "ID_ModelProperty": "696E1F88-435E-4BD9-A2CA-54EA7260F1E6",
            "ID_ListView": "3178205E-1163-4CEE-AB67-EB380848EB72",
            "ID_CreatedBy": 1,
            "ID_LastModifiedBy": 1,
            "DateCreated": "2018-08-27T21:21:33.080Z",
            "DateModified": null,
            "DataSource": null,
            "Format": null,
            "Width": "125",
            "Fixed": null,
            "VisibleIndex": 600,
            "IsAllowEdit": null,
            "ID_ControlType": null,
            "ID_ColumnAlignment": null,
            "IsVisible": true,
            "FixedPosition": null,
            "IsRequired": null,
            "ID_SummaryType": null,
            "IsAddModelClass": null,
            "GroupIndex": null,
            "IsFilter": null,
            "ID_FilterControlType": null,
            "ID_PropertyModel": null,
            "PropertyModel": null,
            "SummaryType": null
        },
        {
            "ID_PropertyType": 2,
            "Precision": null,
            "$DataSource": null,
            "DisplayProperty": "AuditTrailType",
            "Oid": "D7DE5B01-A1CA-47DA-BD0B-7F0EE43C7986",
            "Code": null,
            "Name": "ID_AuditTrailType",
            "IsActive": true,
            "Comment": null,
            "Caption": "Type",
            "ID_ModelProperty": "DE842EF6-87F8-4093-BF86-BF4FD3DDBB12",
            "ID_ListView": "3178205E-1163-4CEE-AB67-EB380848EB72",
            "ID_CreatedBy": 1,
            "ID_LastModifiedBy": 1,
            "DateCreated": "2018-08-27T22:13:44.680Z",
            "DateModified": null,
            "DataSource": null,
            "Format": null,
            "Width": "124",
            "Fixed": null,
            "VisibleIndex": 700,
            "IsAllowEdit": null,
            "ID_ControlType": null,
            "ID_ColumnAlignment": null,
            "IsVisible": true,
            "FixedPosition": null,
            "IsRequired": null,
            "ID_SummaryType": null,
            "IsAddModelClass": null,
            "GroupIndex": null,
            "IsFilter": null,
            "ID_FilterControlType": null,
            "ID_PropertyModel": null,
            "PropertyModel": null,
            "SummaryType": null
        }
    ]
}