{
    "Oid": "EE7223E0-3D44-433D-8CB2-96C731EE88DA",
    "Name": "AppSetting_ListView",
    "ID_Model": "59F8DED7-C597-48E1-9AD1-D2FC18337F12",
    "DataSource": "SELECT * FROM vAppSetting ORDER BY ID",
    "Comment": null,
    "ID_DetailView": "581E635C-448A-49D8-9718-B450572AA547",
    "Model": "AppSetting",
    "PrimaryKey": "ID",
    "Caption": "App Setting",
    "Details": [
        {
            "ID_PropertyType": 2,
            "Precision": null,
            "$DataSource": null,
            "DisplayProperty": null,
            "Oid": "AA690A24-8B1C-4D15-9A55-00C2CBB92101",
            "Code": null,
            "Name": "ID",
            "IsActive": true,
            "Comment": null,
            "Caption": null,
            "ID_ModelProperty": "272C82C7-E774-4FD7-AE3B-124BA4A5766E",
            "ID_ListView": "EE7223E0-3D44-433D-8CB2-96C731EE88DA",
            "ID_CreatedBy": 1,
            "ID_LastModifiedBy": 1,
            "DateCreated": "2018-05-29T13:13:33.780Z",
            "DateModified": null,
            "DataSource": null,
            "Format": null,
            "Width": "80",
            "Fixed": true,
            "VisibleIndex": 0,
            "IsAllowEdit": null,
            "ID_ControlType": null,
            "ID_ColumnAlignment": null,
            "IsVisible": true,
            "FixedPosition": "left",
            "IsRequired": null,
            "ID_SummaryType": null,
            "IsAddModelClass": null,
            "GroupIndex": null,
            "IsFilter": null,
            "ID_FilterControlType": null,
            "ID_PropertyModel": null,
            "PropertyModel": null,
            "SummaryType": null
        },
        {
            "ID_PropertyType": 5,
            "Precision": null,
            "$DataSource": null,
            "DisplayProperty": null,
            "Oid": "48D82676-CE1F-485F-8839-372DE5A1AFCC",
            "Code": null,
            "Name": "DateCreated",
            "IsActive": true,
            "Comment": null,
            "Caption": "Date Created",
            "ID_ModelProperty": "116CF36D-5D66-4FAE-AEF4-44ACC792925C",
            "ID_ListView": "EE7223E0-3D44-433D-8CB2-96C731EE88DA",
            "ID_CreatedBy": 1,
            "ID_LastModifiedBy": 1,
            "DateCreated": "2018-05-29T13:13:33.780Z",
            "DateModified": null,
            "DataSource": null,
            "Format": null,
            "Width": null,
            "Fixed": null,
            "VisibleIndex": 700,
            "IsAllowEdit": null,
            "ID_ControlType": null,
            "ID_ColumnAlignment": null,
            "IsVisible": false,
            "FixedPosition": null,
            "IsRequired": null,
            "ID_SummaryType": null,
            "IsAddModelClass": null,
            "GroupIndex": null,
            "IsFilter": null,
            "ID_FilterControlType": null,
            "ID_PropertyModel": null,
            "PropertyModel": null,
            "SummaryType": null
        },
        {
            "ID_PropertyType": 5,
            "Precision": null,
            "$DataSource": null,
            "DisplayProperty": null,
            "Oid": "66A34BBB-A295-4C34-83BA-3C2523BE6789",
            "Code": null,
            "Name": "DateTimeValue",
            "IsActive": true,
            "Comment": null,
            "Caption": null,
            "ID_ModelProperty": "984AD806-01F3-44B2-B579-91632444852C",
            "ID_ListView": "EE7223E0-3D44-433D-8CB2-96C731EE88DA",
            "ID_CreatedBy": 1,
            "ID_LastModifiedBy": 1,
            "DateCreated": "2018-05-29T13:13:33.780Z",
            "DateModified": null,
            "DataSource": null,
            "Format": null,
            "Width": null,
            "Fixed": null,
            "VisibleIndex": 800,
            "IsAllowEdit": null,
            "ID_ControlType": null,
            "ID_ColumnAlignment": null,
            "IsVisible": false,
            "FixedPosition": null,
            "IsRequired": null,
            "ID_SummaryType": null,
            "IsAddModelClass": null,
            "GroupIndex": null,
            "IsFilter": null,
            "ID_FilterControlType": null,
            "ID_PropertyModel": null,
            "PropertyModel": null,
            "SummaryType": null
        },
        {
            "ID_PropertyType": 1,
            "Precision": null,
            "$DataSource": null,
            "DisplayProperty": null,
            "Oid": "C70CA32B-B744-477D-B321-448C1248A487",
            "Code": null,
            "Name": "ImageValue",
            "IsActive": true,
            "Comment": null,
            "Caption": "Image",
            "ID_ModelProperty": "E49E299E-8740-484E-8EB0-B10C431CC396",
            "ID_ListView": "EE7223E0-3D44-433D-8CB2-96C731EE88DA",
            "ID_CreatedBy": 1,
            "ID_LastModifiedBy": 1,
            "DateCreated": "2018-05-29T13:13:33.780Z",
            "DateModified": null,
            "DataSource": null,
            "Format": null,
            "Width": "157",
            "Fixed": null,
            "VisibleIndex": 1200,
            "IsAllowEdit": null,
            "ID_ControlType": 15,
            "ID_ColumnAlignment": null,
            "IsVisible": false,
            "FixedPosition": null,
            "IsRequired": null,
            "ID_SummaryType": null,
            "IsAddModelClass": null,
            "GroupIndex": null,
            "IsFilter": null,
            "ID_FilterControlType": null,
            "ID_PropertyModel": null,
            "PropertyModel": null,
            "SummaryType": null
        },
        {
            "ID_PropertyType": 2,
            "Precision": null,
            "$DataSource": null,
            "DisplayProperty": "Type",
            "Oid": "C6F60A02-7461-487B-9B9B-50B2FDDB8FC4",
            "Code": null,
            "Name": "ID_PropertyType",
            "IsActive": true,
            "Comment": null,
            "Caption": "Type",
            "ID_ModelProperty": "0A51AE6D-05A6-4216-8734-BEBFAA573E16",
            "ID_ListView": "EE7223E0-3D44-433D-8CB2-96C731EE88DA",
            "ID_CreatedBy": 1,
            "ID_LastModifiedBy": 1,
            "DateCreated": "2018-05-29T13:13:33.780Z",
            "DateModified": null,
            "DataSource": null,
            "Format": null,
            "Width": "113",
            "Fixed": null,
            "VisibleIndex": 400,
            "IsAllowEdit": null,
            "ID_ControlType": null,
            "ID_ColumnAlignment": null,
            "IsVisible": true,
            "FixedPosition": null,
            "IsRequired": null,
            "ID_SummaryType": null,
            "IsAddModelClass": null,
            "GroupIndex": null,
            "IsFilter": null,
            "ID_FilterControlType": null,
            "ID_PropertyModel": null,
            "PropertyModel": null,
            "SummaryType": null
        },
        {
            "ID_PropertyType": 2,
            "Precision": null,
            "$DataSource": null,
            "DisplayProperty": "LastModifiedBy",
            "Oid": "5DFAABE4-61C0-49CE-AB50-522EE70D7264",
            "Code": null,
            "Name": "ID_LastModifiedBy",
            "IsActive": true,
            "Comment": null,
            "Caption": "Last Modified By",
            "ID_ModelProperty": "D44C5CE2-CC6A-4676-AE3F-E689DA7B4F16",
            "ID_ListView": "EE7223E0-3D44-433D-8CB2-96C731EE88DA",
            "ID_CreatedBy": 1,
            "ID_LastModifiedBy": 1,
            "DateCreated": "2018-05-29T13:13:33.780Z",
            "DateModified": null,
            "DataSource": null,
            "Format": null,
            "Width": null,
            "Fixed": null,
            "VisibleIndex": 900,
            "IsAllowEdit": null,
            "ID_ControlType": null,
            "ID_ColumnAlignment": null,
            "IsVisible": false,
            "FixedPosition": null,
            "IsRequired": null,
            "ID_SummaryType": null,
            "IsAddModelClass": null,
            "GroupIndex": null,
            "IsFilter": null,
            "ID_FilterControlType": null,
            "ID_PropertyModel": null,
            "PropertyModel": null,
            "SummaryType": null
        },
        {
            "ID_PropertyType": 1,
            "Precision": null,
            "$DataSource": null,
            "DisplayProperty": null,
            "Oid": "0B6C3819-C452-4212-A183-544098F0F33C",
            "Code": null,
            "Name": "Name",
            "IsActive": true,
            "Comment": null,
            "Caption": null,
            "ID_ModelProperty": "CAB16B26-9650-4DCF-AA0B-E11AA008DEBA",
            "ID_ListView": "EE7223E0-3D44-433D-8CB2-96C731EE88DA",
            "ID_CreatedBy": 1,
            "ID_LastModifiedBy": 1,
            "DateCreated": "2018-05-29T13:13:33.780Z",
            "DateModified": null,
            "DataSource": null,
            "Format": null,
            "Width": "185",
            "Fixed": null,
            "VisibleIndex": 300,
            "IsAllowEdit": true,
            "ID_ControlType": null,
            "ID_ColumnAlignment": null,
            "IsVisible": true,
            "FixedPosition": null,
            "IsRequired": null,
            "ID_SummaryType": null,
            "IsAddModelClass": null,
            "GroupIndex": null,
            "IsFilter": null,
            "ID_FilterControlType": null,
            "ID_PropertyModel": null,
            "PropertyModel": null,
            "SummaryType": null
        },
        {
            "ID_PropertyType": 2,
            "Precision": null,
            "$DataSource": null,
            "DisplayProperty": null,
            "Oid": "26533D24-3BA4-4ACB-8166-89A3AD8AD699",
            "Code": null,
            "Name": "IntValue",
            "IsActive": true,
            "Comment": null,
            "Caption": null,
            "ID_ModelProperty": "A285558A-234B-4D25-9E5C-D476599BD22B",
            "ID_ListView": "EE7223E0-3D44-433D-8CB2-96C731EE88DA",
            "ID_CreatedBy": 1,
            "ID_LastModifiedBy": 1,
            "DateCreated": "2018-05-29T13:13:33.780Z",
            "DateModified": null,
            "DataSource": null,
            "Format": null,
            "Width": null,
            "Fixed": null,
            "VisibleIndex": 1000,
            "IsAllowEdit": null,
            "ID_ControlType": null,
            "ID_ColumnAlignment": null,
            "IsVisible": false,
            "FixedPosition": null,
            "IsRequired": null,
            "ID_SummaryType": null,
            "IsAddModelClass": null,
            "GroupIndex": null,
            "IsFilter": null,
            "ID_FilterControlType": null,
            "ID_PropertyModel": null,
            "PropertyModel": null,
            "SummaryType": null
        },
        {
            "ID_PropertyType": 3,
            "Precision": 2,
            "$DataSource": null,
            "DisplayProperty": null,
            "Oid": "90845D12-1F4A-4B63-8378-9A68AC07D91B",
            "Code": null,
            "Name": "DecimalValue",
            "IsActive": true,
            "Comment": null,
            "Caption": null,
            "ID_ModelProperty": "9761F677-1AA9-4A19-AAA8-123ABCF15E1C",
            "ID_ListView": "EE7223E0-3D44-433D-8CB2-96C731EE88DA",
            "ID_CreatedBy": 1,
            "ID_LastModifiedBy": 1,
            "DateCreated": "2018-05-29T13:13:33.780Z",
            "DateModified": null,
            "DataSource": null,
            "Format": null,
            "Width": null,
            "Fixed": null,
            "VisibleIndex": 1100,
            "IsAllowEdit": null,
            "ID_ControlType": null,
            "ID_ColumnAlignment": null,
            "IsVisible": false,
            "FixedPosition": null,
            "IsRequired": null,
            "ID_SummaryType": null,
            "IsAddModelClass": null,
            "GroupIndex": null,
            "IsFilter": null,
            "ID_FilterControlType": null,
            "ID_PropertyModel": null,
            "PropertyModel": null,
            "SummaryType": null
        },
        {
            "ID_PropertyType": 2,
            "Precision": null,
            "$DataSource": null,
            "DisplayProperty": "CreatedBy",
            "Oid": "BBF43DFF-114D-4C2E-8AF9-AB52486AE791",
            "Code": null,
            "Name": "ID_CreatedBy",
            "IsActive": true,
            "Comment": null,
            "Caption": "Created By",
            "ID_ModelProperty": "EB881FED-FF73-48BB-8611-78A7CFBA0427",
            "ID_ListView": "EE7223E0-3D44-433D-8CB2-96C731EE88DA",
            "ID_CreatedBy": 1,
            "ID_LastModifiedBy": 1,
            "DateCreated": "2018-05-29T13:13:33.780Z",
            "DateModified": null,
            "DataSource": null,
            "Format": null,
            "Width": "193",
            "Fixed": null,
            "VisibleIndex": 1300,
            "IsAllowEdit": null,
            "ID_ControlType": null,
            "ID_ColumnAlignment": null,
            "IsVisible": true,
            "FixedPosition": null,
            "IsRequired": null,
            "ID_SummaryType": null,
            "IsAddModelClass": null,
            "GroupIndex": null,
            "IsFilter": null,
            "ID_FilterControlType": null,
            "ID_PropertyModel": null,
            "PropertyModel": null,
            "SummaryType": null
        },
        {
            "ID_PropertyType": 1,
            "Precision": null,
            "$DataSource": null,
            "DisplayProperty": null,
            "Oid": "7E85DAE2-70FD-4618-99CA-B2EA4D894C7D",
            "Code": null,
            "Name": "StringValue",
            "IsActive": true,
            "Comment": null,
            "Caption": null,
            "ID_ModelProperty": "9279EF64-30EE-41D8-AB81-76519FE1CF95",
            "ID_ListView": "EE7223E0-3D44-433D-8CB2-96C731EE88DA",
            "ID_CreatedBy": 1,
            "ID_LastModifiedBy": 1,
            "DateCreated": "2018-05-29T13:13:33.780Z",
            "DateModified": null,
            "DataSource": null,
            "Format": null,
            "Width": null,
            "Fixed": null,
            "VisibleIndex": 1400,
            "IsAllowEdit": null,
            "ID_ControlType": null,
            "ID_ColumnAlignment": null,
            "IsVisible": false,
            "FixedPosition": null,
            "IsRequired": null,
            "ID_SummaryType": null,
            "IsAddModelClass": null,
            "GroupIndex": null,
            "IsFilter": null,
            "ID_FilterControlType": null,
            "ID_PropertyModel": null,
            "PropertyModel": null,
            "SummaryType": null
        },
        {
            "ID_PropertyType": 1,
            "Precision": null,
            "$DataSource": null,
            "DisplayProperty": null,
            "Oid": "76117F62-9494-41F9-BB91-B7B00289CA41",
            "Code": null,
            "Name": "Code",
            "IsActive": true,
            "Comment": null,
            "Caption": null,
            "ID_ModelProperty": "4CE4CB3B-83BE-4F46-AD6A-80A2CFF778C8",
            "ID_ListView": "EE7223E0-3D44-433D-8CB2-96C731EE88DA",
            "ID_CreatedBy": 1,
            "ID_LastModifiedBy": 1,
            "DateCreated": "2018-05-29T13:13:33.780Z",
            "DateModified": null,
            "DataSource": null,
            "Format": null,
            "Width": "103",
            "Fixed": null,
            "VisibleIndex": 200,
            "IsAllowEdit": true,
            "ID_ControlType": null,
            "ID_ColumnAlignment": null,
            "IsVisible": true,
            "FixedPosition": null,
            "IsRequired": null,
            "ID_SummaryType": null,
            "IsAddModelClass": null,
            "GroupIndex": null,
            "IsFilter": null,
            "ID_FilterControlType": null,
            "ID_PropertyModel": null,
            "PropertyModel": null,
            "SummaryType": null
        },
        {
            "ID_PropertyType": 1,
            "Precision": null,
            "$DataSource": null,
            "DisplayProperty": null,
            "Oid": "FEB4F44C-19E3-4ACB-9630-DB8BBDDAE3F2",
            "Code": null,
            "Name": "Comment",
            "IsActive": true,
            "Comment": null,
            "Caption": null,
            "ID_ModelProperty": "0D7A774D-DA4E-43CC-9623-F149265B85CD",
            "ID_ListView": "EE7223E0-3D44-433D-8CB2-96C731EE88DA",
            "ID_CreatedBy": 1,
            "ID_LastModifiedBy": 1,
            "DateCreated": "2018-05-29T13:13:33.780Z",
            "DateModified": null,
            "DataSource": null,
            "Format": null,
            "Width": "207",
            "Fixed": null,
            "VisibleIndex": 1500,
            "IsAllowEdit": null,
            "ID_ControlType": null,
            "ID_ColumnAlignment": null,
            "IsVisible": true,
            "FixedPosition": null,
            "IsRequired": null,
            "ID_SummaryType": null,
            "IsAddModelClass": null,
            "GroupIndex": null,
            "IsFilter": null,
            "ID_FilterControlType": null,
            "ID_PropertyModel": null,
            "PropertyModel": null,
            "SummaryType": null
        },
        {
            "ID_PropertyType": 4,
            "Precision": null,
            "$DataSource": null,
            "DisplayProperty": null,
            "Oid": "1971011C-A9CF-4162-B1E3-DEB5E5FC0DAA",
            "Code": null,
            "Name": "BoolValue",
            "IsActive": true,
            "Comment": null,
            "Caption": null,
            "ID_ModelProperty": "7AC1C9C1-D4B2-4096-AEDC-6E6D5D00C7C3",
            "ID_ListView": "EE7223E0-3D44-433D-8CB2-96C731EE88DA",
            "ID_CreatedBy": 1,
            "ID_LastModifiedBy": 1,
            "DateCreated": "2018-05-29T13:13:33.780Z",
            "DateModified": null,
            "DataSource": null,
            "Format": null,
            "Width": null,
            "Fixed": null,
            "VisibleIndex": 1600,
            "IsAllowEdit": null,
            "ID_ControlType": null,
            "ID_ColumnAlignment": null,
            "IsVisible": false,
            "FixedPosition": null,
            "IsRequired": null,
            "ID_SummaryType": null,
            "IsAddModelClass": null,
            "GroupIndex": null,
            "IsFilter": null,
            "ID_FilterControlType": null,
            "ID_PropertyModel": null,
            "PropertyModel": null,
            "SummaryType": null
        },
        {
            "ID_PropertyType": 5,
            "Precision": null,
            "$DataSource": null,
            "DisplayProperty": null,
            "Oid": "D5A7A290-B423-4E5B-BF9B-E54B2E029E14",
            "Code": null,
            "Name": "DateModified",
            "IsActive": true,
            "Comment": null,
            "Caption": "Date Modified",
            "ID_ModelProperty": "6FA3EE97-96C8-4A48-B281-53C8B27C7E92",
            "ID_ListView": "EE7223E0-3D44-433D-8CB2-96C731EE88DA",
            "ID_CreatedBy": 1,
            "ID_LastModifiedBy": 1,
            "DateCreated": "2018-05-29T13:13:33.780Z",
            "DateModified": null,
            "DataSource": null,
            "Format": null,
            "Width": null,
            "Fixed": null,
            "VisibleIndex": 1700,
            "IsAllowEdit": null,
            "ID_ControlType": null,
            "ID_ColumnAlignment": null,
            "IsVisible": false,
            "FixedPosition": null,
            "IsRequired": null,
            "ID_SummaryType": null,
            "IsAddModelClass": null,
            "GroupIndex": null,
            "IsFilter": null,
            "ID_FilterControlType": null,
            "ID_PropertyModel": null,
            "PropertyModel": null,
            "SummaryType": null
        },
        {
            "ID_PropertyType": 1,
            "Precision": null,
            "$DataSource": null,
            "DisplayProperty": null,
            "Oid": "30C127ED-0DF0-4BB8-A8AE-B5AA435CB942",
            "Code": null,
            "Name": "ColorValue",
            "IsActive": true,
            "Comment": null,
            "Caption": null,
            "ID_ModelProperty": "5CB4FE8A-FD7B-4EF0-BFD8-D090D4E7C24D",
            "ID_ListView": "EE7223E0-3D44-433D-8CB2-96C731EE88DA",
            "ID_CreatedBy": 1,
            "ID_LastModifiedBy": 1,
            "DateCreated": "2018-06-07T13:18:29.100Z",
            "DateModified": null,
            "DataSource": null,
            "Format": null,
            "Width": null,
            "Fixed": null,
            "VisibleIndex": 100,
            "IsAllowEdit": null,
            "ID_ControlType": null,
            "ID_ColumnAlignment": null,
            "IsVisible": false,
            "FixedPosition": null,
            "IsRequired": null,
            "ID_SummaryType": null,
            "IsAddModelClass": null,
            "GroupIndex": null,
            "IsFilter": null,
            "ID_FilterControlType": null,
            "ID_PropertyModel": null,
            "PropertyModel": null,
            "SummaryType": null
        }
    ]
}