{
    "Oid": "0230CC88-77EC-4FA4-960E-68756E94433D",
    "Name": "Tooth_ListView",
    "ID_Model": "5E78413A-25FE-4E88-9045-4CA20010C5A0",
    "DataSource": "SELECT * FROM dbo.vTooth",
    "Comment": null,
    "ID_DetailView": "515C8DC7-1FE7-4BCE-87CF-F19EF66CD772",
    "Model": "Tooth",
    "PrimaryKey": "ID",
    "Caption": "Tooth",
    "Details": [
        {
            "ID_PropertyType": 4,
            "Precision": null,
            "$DataSource": null,
            "DisplayProperty": null,
            "Oid": "ED5C5EC7-0225-45EB-85D9-00CD76BBF4CB",
            "Code": null,
            "Name": "IsActive",
            "IsActive": true,
            "Comment": null,
            "Caption": "Active",
            "ID_ModelProperty": "69214C5E-54C6-48E7-85E8-7744227CA95F",
            "ID_ListView": "0230CC88-77EC-4FA4-960E-68756E94433D",
            "ID_CreatedBy": 1,
            "ID_LastModifiedBy": 1,
            "DateCreated": "2020-08-28T02:36:09.430Z",
            "DateModified": null,
            "DataSource": null,
            "Format": null,
            "Width": "216",
            "Fixed": null,
            "VisibleIndex": 900,
            "IsAllowEdit": null,
            "ID_ControlType": null,
            "ID_ColumnAlignment": null,
            "IsVisible": false,
            "FixedPosition": null,
            "IsRequired": null,
            "ID_SummaryType": null,
            "IsAddModelClass": null,
            "GroupIndex": 0,
            "IsFilter": null,
            "ID_FilterControlType": null,
            "ID_PropertyModel": null,
            "PropertyModel": null,
            "SummaryType": null
        },
        {
            "ID_PropertyType": 1,
            "Precision": null,
            "$DataSource": null,
            "DisplayProperty": null,
            "Oid": "6944C7E8-9EAD-4497-A9EE-035F66963E34",
            "Code": null,
            "Name": "Name",
            "IsActive": true,
            "Comment": null,
            "Caption": null,
            "ID_ModelProperty": "625A539D-89DC-4D5F-B4F6-95CF233FFEC3",
            "ID_ListView": "0230CC88-77EC-4FA4-960E-68756E94433D",
            "ID_CreatedBy": 1,
            "ID_LastModifiedBy": 1,
            "DateCreated": "2020-08-28T02:36:09.430Z",
            "DateModified": null,
            "DataSource": null,
            "Format": null,
            "Width": "150",
            "Fixed": null,
            "VisibleIndex": 1000,
            "IsAllowEdit": null,
            "ID_ControlType": null,
            "ID_ColumnAlignment": null,
            "IsVisible": false,
            "FixedPosition": null,
            "IsRequired": null,
            "ID_SummaryType": null,
            "IsAddModelClass": null,
            "GroupIndex": 0,
            "IsFilter": null,
            "ID_FilterControlType": null,
            "ID_PropertyModel": null,
            "PropertyModel": null,
            "SummaryType": null
        },
        {
            "ID_PropertyType": 2,
            "Precision": null,
            "$DataSource": null,
            "DisplayProperty": null,
            "Oid": "116807C9-1767-49E9-888E-0D321EE4DE28",
            "Code": null,
            "Name": "ToothNumber",
            "IsActive": true,
            "Comment": null,
            "Caption": null,
            "ID_ModelProperty": "D4A9C765-4097-4190-978C-7454B81D78F7",
            "ID_ListView": "0230CC88-77EC-4FA4-960E-68756E94433D",
            "ID_CreatedBy": 1,
            "ID_LastModifiedBy": 1,
            "DateCreated": "2020-08-28T02:36:09.430Z",
            "DateModified": null,
            "DataSource": null,
            "Format": null,
            "Width": "112",
            "Fixed": null,
            "VisibleIndex": 200,
            "IsAllowEdit": null,
            "ID_ControlType": null,
            "ID_ColumnAlignment": null,
            "IsVisible": true,
            "FixedPosition": null,
            "IsRequired": null,
            "ID_SummaryType": null,
            "IsAddModelClass": null,
            "GroupIndex": 0,
            "IsFilter": true,
            "ID_FilterControlType": 3,
            "ID_PropertyModel": null,
            "PropertyModel": null,
            "SummaryType": null
        },
        {
            "ID_PropertyType": 2,
            "Precision": null,
            "$DataSource": null,
            "DisplayProperty": "Middle_Name_ToothSurface",
            "Oid": "109D490F-A063-4648-B716-1DD42A8B34AB",
            "Code": null,
            "Name": "Middle_ID_ToothSurface",
            "IsActive": true,
            "Comment": null,
            "Caption": "Middle ToothSurface",
            "ID_ModelProperty": "7DF1DB03-1AEB-46F2-AF70-BA2012208D00",
            "ID_ListView": "0230CC88-77EC-4FA4-960E-68756E94433D",
            "ID_CreatedBy": 1,
            "ID_LastModifiedBy": 1,
            "DateCreated": "2020-08-28T02:36:09.430Z",
            "DateModified": null,
            "DataSource": null,
            "Format": null,
            "Width": "150",
            "Fixed": null,
            "VisibleIndex": 600,
            "IsAllowEdit": null,
            "ID_ControlType": null,
            "ID_ColumnAlignment": null,
            "IsVisible": true,
            "FixedPosition": null,
            "IsRequired": null,
            "ID_SummaryType": null,
            "IsAddModelClass": null,
            "GroupIndex": 0,
            "IsFilter": null,
            "ID_FilterControlType": null,
            "ID_PropertyModel": null,
            "PropertyModel": null,
            "SummaryType": null
        },
        {
            "ID_PropertyType": 1,
            "Precision": null,
            "$DataSource": null,
            "DisplayProperty": null,
            "Oid": "18C3C165-1F20-4271-85C6-26AE879CD399",
            "Code": null,
            "Name": "Comment",
            "IsActive": true,
            "Comment": null,
            "Caption": null,
            "ID_ModelProperty": "CC843AF2-02D7-40D8-A4FA-77D4D85C8885",
            "ID_ListView": "0230CC88-77EC-4FA4-960E-68756E94433D",
            "ID_CreatedBy": 1,
            "ID_LastModifiedBy": 1,
            "DateCreated": "2020-08-28T02:36:09.430Z",
            "DateModified": null,
            "DataSource": null,
            "Format": null,
            "Width": "150",
            "Fixed": null,
            "VisibleIndex": 1400,
            "IsAllowEdit": null,
            "ID_ControlType": null,
            "ID_ColumnAlignment": null,
            "IsVisible": true,
            "FixedPosition": null,
            "IsRequired": null,
            "ID_SummaryType": null,
            "IsAddModelClass": null,
            "GroupIndex": 0,
            "IsFilter": null,
            "ID_FilterControlType": null,
            "ID_PropertyModel": null,
            "PropertyModel": null,
            "SummaryType": null
        },
        {
            "ID_PropertyType": 2,
            "Precision": null,
            "$DataSource": null,
            "DisplayProperty": "CreatedBy",
            "Oid": "2497AA61-93A2-4A23-B5D4-38A97CCC469A",
            "Code": null,
            "Name": "ID_CreatedBy",
            "IsActive": true,
            "Comment": null,
            "Caption": "Created By",
            "ID_ModelProperty": "FA4310A7-C4D5-40F6-B599-01F81B1D0CD3",
            "ID_ListView": "0230CC88-77EC-4FA4-960E-68756E94433D",
            "ID_CreatedBy": 1,
            "ID_LastModifiedBy": 1,
            "DateCreated": "2020-08-28T02:36:09.430Z",
            "DateModified": null,
            "DataSource": null,
            "Format": null,
            "Width": "150",
            "Fixed": null,
            "VisibleIndex": 1100,
            "IsAllowEdit": null,
            "ID_ControlType": null,
            "ID_ColumnAlignment": null,
            "IsVisible": true,
            "FixedPosition": null,
            "IsRequired": null,
            "ID_SummaryType": null,
            "IsAddModelClass": null,
            "GroupIndex": 0,
            "IsFilter": null,
            "ID_FilterControlType": null,
            "ID_PropertyModel": null,
            "PropertyModel": null,
            "SummaryType": null
        },
        {
            "ID_PropertyType": 2,
            "Precision": null,
            "$DataSource": null,
            "DisplayProperty": "Right_Name_ToothSurface",
            "Oid": "558D1C47-6FED-4308-AD99-4363F319902D",
            "Code": null,
            "Name": "Right_ID_ToothSurface",
            "IsActive": true,
            "Comment": null,
            "Caption": "Right ToothSurface",
            "ID_ModelProperty": "2C0403FE-6FB9-4809-97B8-4121D7910DDE",
            "ID_ListView": "0230CC88-77EC-4FA4-960E-68756E94433D",
            "ID_CreatedBy": 1,
            "ID_LastModifiedBy": 1,
            "DateCreated": "2020-08-28T02:36:09.430Z",
            "DateModified": null,
            "DataSource": null,
            "Format": null,
            "Width": "150",
            "Fixed": null,
            "VisibleIndex": 800,
            "IsAllowEdit": null,
            "ID_ControlType": null,
            "ID_ColumnAlignment": null,
            "IsVisible": true,
            "FixedPosition": null,
            "IsRequired": null,
            "ID_SummaryType": null,
            "IsAddModelClass": null,
            "GroupIndex": 0,
            "IsFilter": null,
            "ID_FilterControlType": null,
            "ID_PropertyModel": null,
            "PropertyModel": null,
            "SummaryType": null
        },
        {
            "ID_PropertyType": 1,
            "Precision": null,
            "$DataSource": null,
            "DisplayProperty": null,
            "Oid": "F290A2EE-43D4-43B6-99BF-4E24D5B0E02E",
            "Code": null,
            "Name": "Location",
            "IsActive": true,
            "Comment": null,
            "Caption": null,
            "ID_ModelProperty": "31FF105D-321A-446F-AC9C-A5BFDB58D643",
            "ID_ListView": "0230CC88-77EC-4FA4-960E-68756E94433D",
            "ID_CreatedBy": 1,
            "ID_LastModifiedBy": 1,
            "DateCreated": "2020-08-28T02:36:09.430Z",
            "DateModified": null,
            "DataSource": null,
            "Format": null,
            "Width": "97",
            "Fixed": null,
            "VisibleIndex": 300,
            "IsAllowEdit": null,
            "ID_ControlType": null,
            "ID_ColumnAlignment": null,
            "IsVisible": true,
            "FixedPosition": null,
            "IsRequired": null,
            "ID_SummaryType": null,
            "IsAddModelClass": null,
            "GroupIndex": 0,
            "IsFilter": true,
            "ID_FilterControlType": 1,
            "ID_PropertyModel": null,
            "PropertyModel": null,
            "SummaryType": null
        },
        {
            "ID_PropertyType": 2,
            "Precision": null,
            "$DataSource": null,
            "DisplayProperty": "Left_Name_ToothSurface",
            "Oid": "7F06ED8C-FE3D-44A4-B3C6-5104D34B647D",
            "Code": null,
            "Name": "Left_ID_ToothSurface",
            "IsActive": true,
            "Comment": null,
            "Caption": "Left ToothSurface",
            "ID_ModelProperty": "7833079A-B836-4327-A407-202C8650636D",
            "ID_ListView": "0230CC88-77EC-4FA4-960E-68756E94433D",
            "ID_CreatedBy": 1,
            "ID_LastModifiedBy": 1,
            "DateCreated": "2020-08-28T02:36:09.430Z",
            "DateModified": null,
            "DataSource": null,
            "Format": null,
            "Width": "150",
            "Fixed": null,
            "VisibleIndex": 400,
            "IsAllowEdit": null,
            "ID_ControlType": null,
            "ID_ColumnAlignment": null,
            "IsVisible": true,
            "FixedPosition": null,
            "IsRequired": null,
            "ID_SummaryType": null,
            "IsAddModelClass": null,
            "GroupIndex": 0,
            "IsFilter": null,
            "ID_FilterControlType": null,
            "ID_PropertyModel": null,
            "PropertyModel": null,
            "SummaryType": null
        },
        {
            "ID_PropertyType": 2,
            "Precision": null,
            "$DataSource": null,
            "DisplayProperty": null,
            "Oid": "FF16D491-6FBB-4370-A82C-5BA9C157963B",
            "Code": null,
            "Name": "ID",
            "IsActive": true,
            "Comment": null,
            "Caption": null,
            "ID_ModelProperty": "9551B52E-B1E7-482A-AACF-E63AF66A5030",
            "ID_ListView": "0230CC88-77EC-4FA4-960E-68756E94433D",
            "ID_CreatedBy": 1,
            "ID_LastModifiedBy": 1,
            "DateCreated": "2020-08-28T02:36:09.430Z",
            "DateModified": null,
            "DataSource": null,
            "Format": null,
            "Width": "53",
            "Fixed": null,
            "VisibleIndex": 0,
            "IsAllowEdit": null,
            "ID_ControlType": null,
            "ID_ColumnAlignment": null,
            "IsVisible": true,
            "FixedPosition": null,
            "IsRequired": null,
            "ID_SummaryType": null,
            "IsAddModelClass": null,
            "GroupIndex": 0,
            "IsFilter": null,
            "ID_FilterControlType": null,
            "ID_PropertyModel": null,
            "PropertyModel": null,
            "SummaryType": null
        },
        {
            "ID_PropertyType": 5,
            "Precision": null,
            "$DataSource": null,
            "DisplayProperty": null,
            "Oid": "8F62F14D-4836-4830-B452-681664B2DCC2",
            "Code": null,
            "Name": "DateModified",
            "IsActive": true,
            "Comment": null,
            "Caption": "Date Modified",
            "ID_ModelProperty": "637A959D-F094-4091-B653-6E9EEE5B9918",
            "ID_ListView": "0230CC88-77EC-4FA4-960E-68756E94433D",
            "ID_CreatedBy": 1,
            "ID_LastModifiedBy": 1,
            "DateCreated": "2020-08-28T02:36:09.430Z",
            "DateModified": null,
            "DataSource": null,
            "Format": null,
            "Width": "150",
            "Fixed": null,
            "VisibleIndex": 1200,
            "IsAllowEdit": null,
            "ID_ControlType": null,
            "ID_ColumnAlignment": null,
            "IsVisible": true,
            "FixedPosition": null,
            "IsRequired": null,
            "ID_SummaryType": null,
            "IsAddModelClass": null,
            "GroupIndex": 0,
            "IsFilter": null,
            "ID_FilterControlType": null,
            "ID_PropertyModel": null,
            "PropertyModel": null,
            "SummaryType": null
        },
        {
            "ID_PropertyType": 2,
            "Precision": null,
            "$DataSource": null,
            "DisplayProperty": "Top_Name_ToothSurface",
            "Oid": "7982AA07-DE17-4833-A526-79EA1A41C26F",
            "Code": null,
            "Name": "Top_ID_ToothSurface",
            "IsActive": true,
            "Comment": null,
            "Caption": "Top ToothSurface",
            "ID_ModelProperty": "8E173AC6-FFD2-4DC4-A104-21B2B1A69DAF",
            "ID_ListView": "0230CC88-77EC-4FA4-960E-68756E94433D",
            "ID_CreatedBy": 1,
            "ID_LastModifiedBy": 1,
            "DateCreated": "2020-08-28T02:36:09.430Z",
            "DateModified": null,
            "DataSource": null,
            "Format": null,
            "Width": "150",
            "Fixed": null,
            "VisibleIndex": 500,
            "IsAllowEdit": null,
            "ID_ControlType": null,
            "ID_ColumnAlignment": null,
            "IsVisible": true,
            "FixedPosition": null,
            "IsRequired": null,
            "ID_SummaryType": null,
            "IsAddModelClass": null,
            "GroupIndex": 0,
            "IsFilter": null,
            "ID_FilterControlType": null,
            "ID_PropertyModel": null,
            "PropertyModel": null,
            "SummaryType": null
        },
        {
            "ID_PropertyType": 2,
            "Precision": null,
            "$DataSource": null,
            "DisplayProperty": "Bottom_Name_ToothSurface",
            "Oid": "DC71C844-0487-428C-B28B-91EA991C6C23",
            "Code": null,
            "Name": "Bottom_ID_ToothSurface",
            "IsActive": true,
            "Comment": null,
            "Caption": "Bottom ToothSurface",
            "ID_ModelProperty": "7AD77385-0FA5-439D-BFAE-234DCD2B4CDD",
            "ID_ListView": "0230CC88-77EC-4FA4-960E-68756E94433D",
            "ID_CreatedBy": 1,
            "ID_LastModifiedBy": 1,
            "DateCreated": "2020-08-28T02:36:09.430Z",
            "DateModified": null,
            "DataSource": null,
            "Format": null,
            "Width": "150",
            "Fixed": null,
            "VisibleIndex": 700,
            "IsAllowEdit": null,
            "ID_ControlType": null,
            "ID_ColumnAlignment": null,
            "IsVisible": true,
            "FixedPosition": null,
            "IsRequired": null,
            "ID_SummaryType": null,
            "IsAddModelClass": null,
            "GroupIndex": 0,
            "IsFilter": null,
            "ID_FilterControlType": null,
            "ID_PropertyModel": null,
            "PropertyModel": null,
            "SummaryType": null
        },
        {
            "ID_PropertyType": 1,
            "Precision": null,
            "$DataSource": null,
            "DisplayProperty": null,
            "Oid": "71F21905-CA2B-437A-859A-B021C17EDCBD",
            "Code": null,
            "Name": "Code",
            "IsActive": true,
            "Comment": null,
            "Caption": null,
            "ID_ModelProperty": "2010C6F7-C754-4A59-986C-C0CD518534F8",
            "ID_ListView": "0230CC88-77EC-4FA4-960E-68756E94433D",
            "ID_CreatedBy": 1,
            "ID_LastModifiedBy": 1,
            "DateCreated": "2020-08-28T02:36:09.430Z",
            "DateModified": null,
            "DataSource": null,
            "Format": null,
            "Width": "150",
            "Fixed": null,
            "VisibleIndex": 1600,
            "IsAllowEdit": null,
            "ID_ControlType": null,
            "ID_ColumnAlignment": null,
            "IsVisible": false,
            "FixedPosition": null,
            "IsRequired": null,
            "ID_SummaryType": null,
            "IsAddModelClass": null,
            "GroupIndex": 0,
            "IsFilter": null,
            "ID_FilterControlType": null,
            "ID_PropertyModel": null,
            "PropertyModel": null,
            "SummaryType": null
        },
        {
            "ID_PropertyType": 5,
            "Precision": null,
            "$DataSource": null,
            "DisplayProperty": null,
            "Oid": "393DAD30-AFAE-4244-A2EB-DB555A4746F9",
            "Code": null,
            "Name": "DateCreated",
            "IsActive": true,
            "Comment": null,
            "Caption": "Date Created",
            "ID_ModelProperty": "F4FC1B8E-029C-4146-9FDA-BCE8F0D61C92",
            "ID_ListView": "0230CC88-77EC-4FA4-960E-68756E94433D",
            "ID_CreatedBy": 1,
            "ID_LastModifiedBy": 1,
            "DateCreated": "2020-08-28T02:36:09.430Z",
            "DateModified": null,
            "DataSource": null,
            "Format": null,
            "Width": "150",
            "Fixed": null,
            "VisibleIndex": 1000,
            "IsAllowEdit": null,
            "ID_ControlType": null,
            "ID_ColumnAlignment": null,
            "IsVisible": true,
            "FixedPosition": null,
            "IsRequired": null,
            "ID_SummaryType": null,
            "IsAddModelClass": null,
            "GroupIndex": 0,
            "IsFilter": null,
            "ID_FilterControlType": null,
            "ID_PropertyModel": null,
            "PropertyModel": null,
            "SummaryType": null
        },
        {
            "ID_PropertyType": 2,
            "Precision": null,
            "$DataSource": null,
            "DisplayProperty": "LastModifiedBy",
            "Oid": "3C6CCBE2-EC87-4206-8AE3-FA4F7D4AF1CD",
            "Code": null,
            "Name": "ID_LastModifiedBy",
            "IsActive": true,
            "Comment": null,
            "Caption": "Last Modified By",
            "ID_ModelProperty": "12DD80CC-9BB2-40C1-AE49-AA19F2B47BDC",
            "ID_ListView": "0230CC88-77EC-4FA4-960E-68756E94433D",
            "ID_CreatedBy": 1,
            "ID_LastModifiedBy": 1,
            "DateCreated": "2020-08-28T02:36:09.430Z",
            "DateModified": null,
            "DataSource": null,
            "Format": null,
            "Width": "150",
            "Fixed": null,
            "VisibleIndex": 1300,
            "IsAllowEdit": null,
            "ID_ControlType": null,
            "ID_ColumnAlignment": null,
            "IsVisible": true,
            "FixedPosition": null,
            "IsRequired": null,
            "ID_SummaryType": null,
            "IsAddModelClass": null,
            "GroupIndex": 0,
            "IsFilter": null,
            "ID_FilterControlType": null,
            "ID_PropertyModel": null,
            "PropertyModel": null,
            "SummaryType": null
        },
        {
            "ID_PropertyType": 2,
            "Precision": null,
            "$DataSource": "SELECT ID, Name FROM tDentition",
            "DisplayProperty": "Name_Dentition",
            "Oid": "CDC98B91-E3C7-4E4B-8111-7CC94C3F05DE",
            "Code": null,
            "Name": "ID_Dentition",
            "IsActive": true,
            "Comment": null,
            "Caption": "Dentition",
            "ID_ModelProperty": "5644F320-807F-4867-B4EC-85B47F62EB24",
            "ID_ListView": "0230CC88-77EC-4FA4-960E-68756E94433D",
            "ID_CreatedBy": 1,
            "ID_LastModifiedBy": 1,
            "DateCreated": "2020-09-01T16:31:09.093Z",
            "DateModified": null,
            "DataSource": "oN42o4NqBOpMdRf/FTkHErkoYxVatGWdicumC3Bxwa8=",
            "Format": null,
            "Width": "95",
            "Fixed": null,
            "VisibleIndex": 100,
            "IsAllowEdit": null,
            "ID_ControlType": null,
            "ID_ColumnAlignment": null,
            "IsVisible": true,
            "FixedPosition": null,
            "IsRequired": null,
            "ID_SummaryType": null,
            "IsAddModelClass": null,
            "GroupIndex": 0,
            "IsFilter": true,
            "ID_FilterControlType": 19,
            "ID_PropertyModel": null,
            "PropertyModel": null,
            "SummaryType": null
        },
        {
            "ID_PropertyType": 2,
            "Precision": null,
            "$DataSource": null,
            "DisplayProperty": null,
            "Oid": "61870C9E-AC4C-4B91-8E5A-814D2AF5E182",
            "Code": null,
            "Name": "ID_TeethQuandrant",
            "IsActive": true,
            "Comment": null,
            "Caption": "TeethQuandrant",
            "ID_ModelProperty": "E1B36390-1FE7-4ECE-8CBC-C1E3EBD4C3C7",
            "ID_ListView": "0230CC88-77EC-4FA4-960E-68756E94433D",
            "ID_CreatedBy": 1,
            "ID_LastModifiedBy": 1,
            "DateCreated": "2020-09-07T17:14:27.450Z",
            "DateModified": null,
            "DataSource": null,
            "Format": null,
            "Width": "150",
            "Fixed": null,
            "VisibleIndex": 900,
            "IsAllowEdit": null,
            "ID_ControlType": null,
            "ID_ColumnAlignment": null,
            "IsVisible": true,
            "FixedPosition": null,
            "IsRequired": null,
            "ID_SummaryType": null,
            "IsAddModelClass": null,
            "GroupIndex": 0,
            "IsFilter": null,
            "ID_FilterControlType": null,
            "ID_PropertyModel": null,
            "PropertyModel": null,
            "SummaryType": null
        }
    ]
}