{
    "Oid": "354B51A1-688E-4380-8072-3318EA9A22BC",
    "Name": "User_ListView",
    "ID_Model": "EBD8FB35-ACFA-45CD-83FE-5C7A8B4590BC",
    "DataSource": "SELECT * FROM vUser",
    "Comment": null,
    "ID_DetailView": "F9D1615E-6908-4D41-BA85-141DB9C2005C",
    "Model": "User",
    "PrimaryKey": "ID",
    "Caption": "User",
    "Details": [
        {
            "ID_PropertyType": 1,
            "Precision": null,
            "$DataSource": null,
            "DisplayProperty": null,
            "Oid": "39AE396A-F33C-41E3-A8AA-33C01D055853",
            "Code": null,
            "Name": "Code",
            "IsActive": true,
            "Comment": null,
            "Caption": null,
            "ID_ModelProperty": "AE475DE0-63FB-4423-9DD9-5DFE67D8EC86",
            "ID_ListView": "354B51A1-688E-4380-8072-3318EA9A22BC",
            "ID_CreatedBy": 1,
            "ID_LastModifiedBy": 1,
            "DateCreated": "2018-01-18T11:59:35.397Z",
            "DateModified": null,
            "DataSource": null,
            "Format": null,
            "Width": "186",
            "Fixed": null,
            "VisibleIndex": 200,
            "IsAllowEdit": null,
            "ID_ControlType": null,
            "ID_ColumnAlignment": null,
            "IsVisible": true,
            "FixedPosition": null,
            "IsRequired": null,
            "ID_SummaryType": null,
            "IsAddModelClass": null,
            "GroupIndex": 0,
            "IsFilter": null,
            "ID_FilterControlType": null,
            "ID_PropertyModel": null,
            "PropertyModel": null,
            "SummaryType": null
        },
        {
            "ID_PropertyType": 1,
            "Precision": null,
            "$DataSource": null,
            "DisplayProperty": null,
            "Oid": "9FFFB50E-C34C-46F1-A777-626F0724EFD7",
            "Code": null,
            "Name": "Comment",
            "IsActive": true,
            "Comment": null,
            "Caption": null,
            "ID_ModelProperty": "FE2B4CBB-E970-47BB-910E-A32410ACC708",
            "ID_ListView": "354B51A1-688E-4380-8072-3318EA9A22BC",
            "ID_CreatedBy": 1,
            "ID_LastModifiedBy": 1,
            "DateCreated": "2018-01-18T11:59:35.397Z",
            "DateModified": null,
            "DataSource": null,
            "Format": null,
            "Width": "268",
            "Fixed": null,
            "VisibleIndex": 700,
            "IsAllowEdit": null,
            "ID_ControlType": null,
            "ID_ColumnAlignment": null,
            "IsVisible": true,
            "FixedPosition": null,
            "IsRequired": null,
            "ID_SummaryType": null,
            "IsAddModelClass": null,
            "GroupIndex": 0,
            "IsFilter": null,
            "ID_FilterControlType": null,
            "ID_PropertyModel": null,
            "PropertyModel": null,
            "SummaryType": null
        },
        {
            "ID_PropertyType": 2,
            "Precision": null,
            "$DataSource": null,
            "DisplayProperty": "CreatedBy",
            "Oid": "ECD808C5-6AD1-41B4-B258-683017908B59",
            "Code": null,
            "Name": "ID_CreatedBy",
            "IsActive": true,
            "Comment": null,
            "Caption": "Created By",
            "ID_ModelProperty": "BAC9AB51-78FE-4293-BD94-B08DD4656D9B",
            "ID_ListView": "354B51A1-688E-4380-8072-3318EA9A22BC",
            "ID_CreatedBy": 1,
            "ID_LastModifiedBy": 1,
            "DateCreated": "2018-01-18T11:59:35.397Z",
            "DateModified": null,
            "DataSource": null,
            "Format": null,
            "Width": "123",
            "Fixed": null,
            "VisibleIndex": 800,
            "IsAllowEdit": null,
            "ID_ControlType": null,
            "ID_ColumnAlignment": null,
            "IsVisible": true,
            "FixedPosition": null,
            "IsRequired": null,
            "ID_SummaryType": null,
            "IsAddModelClass": null,
            "GroupIndex": 0,
            "IsFilter": null,
            "ID_FilterControlType": null,
            "ID_PropertyModel": null,
            "PropertyModel": null,
            "SummaryType": null
        },
        {
            "ID_PropertyType": 4,
            "Precision": null,
            "$DataSource": null,
            "DisplayProperty": null,
            "Oid": "A5E40F78-690A-4FEA-9BC6-6980D3DC38AF",
            "Code": null,
            "Name": "IsActive",
            "IsActive": true,
            "Comment": null,
            "Caption": "Active",
            "ID_ModelProperty": "343AA126-DD19-46DC-B1F3-50485A52D19D",
            "ID_ListView": "354B51A1-688E-4380-8072-3318EA9A22BC",
            "ID_CreatedBy": 1,
            "ID_LastModifiedBy": 1,
            "DateCreated": "2018-01-18T11:59:35.397Z",
            "DateModified": null,
            "DataSource": null,
            "Format": null,
            "Width": "112",
            "Fixed": null,
            "VisibleIndex": 500,
            "IsAllowEdit": true,
            "ID_ControlType": null,
            "ID_ColumnAlignment": null,
            "IsVisible": true,
            "FixedPosition": null,
            "IsRequired": null,
            "ID_SummaryType": null,
            "IsAddModelClass": null,
            "GroupIndex": 0,
            "IsFilter": true,
            "ID_FilterControlType": null,
            "ID_PropertyModel": null,
            "PropertyModel": null,
            "SummaryType": null
        },
        {
            "ID_PropertyType": 5,
            "Precision": null,
            "$DataSource": null,
            "DisplayProperty": null,
            "Oid": "4EF9F0F2-B5D3-41AA-BD81-7D2AB63AD928",
            "Code": null,
            "Name": "DateModified",
            "IsActive": true,
            "Comment": null,
            "Caption": "Date Modified",
            "ID_ModelProperty": "B7F5FFB1-8D6A-4A05-914F-072D39E2002F",
            "ID_ListView": "354B51A1-688E-4380-8072-3318EA9A22BC",
            "ID_CreatedBy": 1,
            "ID_LastModifiedBy": 1,
            "DateCreated": "2018-01-18T11:59:35.397Z",
            "DateModified": null,
            "DataSource": null,
            "Format": null,
            "Width": "143",
            "Fixed": null,
            "VisibleIndex": 1100,
            "IsAllowEdit": null,
            "ID_ControlType": null,
            "ID_ColumnAlignment": null,
            "IsVisible": true,
            "FixedPosition": null,
            "IsRequired": null,
            "ID_SummaryType": null,
            "IsAddModelClass": null,
            "GroupIndex": 0,
            "IsFilter": null,
            "ID_FilterControlType": null,
            "ID_PropertyModel": null,
            "PropertyModel": null,
            "SummaryType": null
        },
        {
            "ID_PropertyType": 2,
            "Precision": null,
            "$DataSource": null,
            "DisplayProperty": "LastModifiedBy",
            "Oid": "B9EA82E9-EE4C-4A7D-8BBD-7E3A78008F7A",
            "Code": null,
            "Name": "ID_LastModifiedBy",
            "IsActive": true,
            "Comment": null,
            "Caption": "Last Modified By",
            "ID_ModelProperty": "C52A8B77-8560-49B6-8FBE-DDBD9777518D",
            "ID_ListView": "354B51A1-688E-4380-8072-3318EA9A22BC",
            "ID_CreatedBy": 1,
            "ID_LastModifiedBy": 1,
            "DateCreated": "2018-01-18T11:59:35.397Z",
            "DateModified": null,
            "DataSource": null,
            "Format": null,
            "Width": "156",
            "Fixed": null,
            "VisibleIndex": 900,
            "IsAllowEdit": null,
            "ID_ControlType": null,
            "ID_ColumnAlignment": null,
            "IsVisible": true,
            "FixedPosition": null,
            "IsRequired": null,
            "ID_SummaryType": null,
            "IsAddModelClass": null,
            "GroupIndex": 0,
            "IsFilter": null,
            "ID_FilterControlType": null,
            "ID_PropertyModel": null,
            "PropertyModel": null,
            "SummaryType": null
        },
        {
            "ID_PropertyType": 1,
            "Precision": null,
            "$DataSource": null,
            "DisplayProperty": null,
            "Oid": "DB5124C1-8D05-4EC0-BAC4-C9E177F5957B",
            "Code": null,
            "Name": "Name",
            "IsActive": true,
            "Comment": null,
            "Caption": "Name",
            "ID_ModelProperty": "2CC4F7E6-2879-4C18-BE0A-3035A798DD26",
            "ID_ListView": "354B51A1-688E-4380-8072-3318EA9A22BC",
            "ID_CreatedBy": 1,
            "ID_LastModifiedBy": 1,
            "DateCreated": "2018-01-18T11:59:35.397Z",
            "DateModified": null,
            "DataSource": null,
            "Format": null,
            "Width": "211",
            "Fixed": null,
            "VisibleIndex": 400,
            "IsAllowEdit": null,
            "ID_ControlType": null,
            "ID_ColumnAlignment": null,
            "IsVisible": false,
            "FixedPosition": null,
            "IsRequired": null,
            "ID_SummaryType": null,
            "IsAddModelClass": null,
            "GroupIndex": 0,
            "IsFilter": null,
            "ID_FilterControlType": null,
            "ID_PropertyModel": null,
            "PropertyModel": null,
            "SummaryType": null
        },
        {
            "ID_PropertyType": 5,
            "Precision": null,
            "$DataSource": null,
            "DisplayProperty": null,
            "Oid": "048C5FCA-9270-4D4D-9B0C-D19E540A4E6D",
            "Code": null,
            "Name": "DateCreated",
            "IsActive": true,
            "Comment": null,
            "Caption": "Date Created",
            "ID_ModelProperty": "623890B0-AAA5-4308-A397-D45ADF5A6903",
            "ID_ListView": "354B51A1-688E-4380-8072-3318EA9A22BC",
            "ID_CreatedBy": 1,
            "ID_LastModifiedBy": 1,
            "DateCreated": "2018-01-18T11:59:35.397Z",
            "DateModified": null,
            "DataSource": null,
            "Format": null,
            "Width": "136",
            "Fixed": null,
            "VisibleIndex": 1000,
            "IsAllowEdit": null,
            "ID_ControlType": null,
            "ID_ColumnAlignment": null,
            "IsVisible": true,
            "FixedPosition": null,
            "IsRequired": null,
            "ID_SummaryType": null,
            "IsAddModelClass": null,
            "GroupIndex": 0,
            "IsFilter": null,
            "ID_FilterControlType": null,
            "ID_PropertyModel": null,
            "PropertyModel": null,
            "SummaryType": null
        },
        {
            "ID_PropertyType": 2,
            "Precision": null,
            "$DataSource": null,
            "DisplayProperty": null,
            "Oid": "922EC994-3CEB-4331-86A3-DED17EA1103F",
            "Code": null,
            "Name": "ID",
            "IsActive": true,
            "Comment": null,
            "Caption": null,
            "ID_ModelProperty": "D80607EF-2C17-4EF3-A01A-F518FDF3334D",
            "ID_ListView": "354B51A1-688E-4380-8072-3318EA9A22BC",
            "ID_CreatedBy": 1,
            "ID_LastModifiedBy": 1,
            "DateCreated": "2018-01-18T11:59:35.397Z",
            "DateModified": null,
            "DataSource": null,
            "Format": null,
            "Width": "80",
            "Fixed": true,
            "VisibleIndex": 0,
            "IsAllowEdit": null,
            "ID_ControlType": null,
            "ID_ColumnAlignment": null,
            "IsVisible": true,
            "FixedPosition": null,
            "IsRequired": null,
            "ID_SummaryType": null,
            "IsAddModelClass": null,
            "GroupIndex": 0,
            "IsFilter": null,
            "ID_FilterControlType": null,
            "ID_PropertyModel": null,
            "PropertyModel": null,
            "SummaryType": null
        },
        {
            "ID_PropertyType": 2,
            "Precision": null,
            "$DataSource": null,
            "DisplayProperty": "Employee",
            "Oid": "84068980-A64B-4BE7-99D4-FCF569D70FD5",
            "Code": null,
            "Name": "ID_Employee",
            "IsActive": true,
            "Comment": null,
            "Caption": "Employee",
            "ID_ModelProperty": "3B3CB082-5A9E-47CE-9FD8-45C746692AC5",
            "ID_ListView": "354B51A1-688E-4380-8072-3318EA9A22BC",
            "ID_CreatedBy": 1,
            "ID_LastModifiedBy": 1,
            "DateCreated": "2018-01-18T11:59:35.397Z",
            "DateModified": null,
            "DataSource": null,
            "Format": null,
            "Width": "140",
            "Fixed": true,
            "VisibleIndex": 100,
            "IsAllowEdit": null,
            "ID_ControlType": null,
            "ID_ColumnAlignment": null,
            "IsVisible": true,
            "FixedPosition": null,
            "IsRequired": null,
            "ID_SummaryType": null,
            "IsAddModelClass": null,
            "GroupIndex": 0,
            "IsFilter": true,
            "ID_FilterControlType": 1,
            "ID_PropertyModel": null,
            "PropertyModel": null,
            "SummaryType": null
        },
        {
            "ID_PropertyType": 1,
            "Precision": null,
            "$DataSource": null,
            "DisplayProperty": null,
            "Oid": "21447C11-EF2D-4DC5-8B96-E9BC5E3359C4",
            "Code": null,
            "Name": "Username",
            "IsActive": true,
            "Comment": null,
            "Caption": null,
            "ID_ModelProperty": "30FCC985-5BFB-4D7D-8310-29E0D4DD9185",
            "ID_ListView": "354B51A1-688E-4380-8072-3318EA9A22BC",
            "ID_CreatedBy": 1,
            "ID_LastModifiedBy": 1,
            "DateCreated": "2018-02-15T15:17:10.377Z",
            "DateModified": null,
            "DataSource": null,
            "Format": null,
            "Width": "141",
            "Fixed": null,
            "VisibleIndex": 300,
            "IsAllowEdit": true,
            "ID_ControlType": null,
            "ID_ColumnAlignment": null,
            "IsVisible": true,
            "FixedPosition": null,
            "IsRequired": null,
            "ID_SummaryType": null,
            "IsAddModelClass": null,
            "GroupIndex": 0,
            "IsFilter": true,
            "ID_FilterControlType": null,
            "ID_PropertyModel": null,
            "PropertyModel": null,
            "SummaryType": null
        },
        {
            "ID_PropertyType": 2,
            "Precision": null,
            "$DataSource": "SELECT * FROM tUserGroup",
            "DisplayProperty": "UserGroup",
            "Oid": "77D4D48F-0106-4896-A042-5AEB2320599E",
            "Code": null,
            "Name": "ID_UserGroup",
            "IsActive": true,
            "Comment": null,
            "Caption": "User Group",
            "ID_ModelProperty": "B26E14C7-93B7-4374-9A66-0100C063408D",
            "ID_ListView": "354B51A1-688E-4380-8072-3318EA9A22BC",
            "ID_CreatedBy": 1,
            "ID_LastModifiedBy": 1,
            "DateCreated": "2018-02-19T08:40:15.900Z",
            "DateModified": null,
            "DataSource": "Wn9rXVTgUNe+nYkJrS3493X103T4IaNKdlQjRfZM7Og=",
            "Format": null,
            "Width": "191",
            "Fixed": null,
            "VisibleIndex": 400,
            "IsAllowEdit": null,
            "ID_ControlType": null,
            "ID_ColumnAlignment": null,
            "IsVisible": true,
            "FixedPosition": null,
            "IsRequired": null,
            "ID_SummaryType": null,
            "IsAddModelClass": null,
            "GroupIndex": 0,
            "IsFilter": false,
            "ID_FilterControlType": 18,
            "ID_PropertyModel": null,
            "PropertyModel": null,
            "SummaryType": null
        },
        {
            "ID_PropertyType": 1,
            "Precision": null,
            "$DataSource": null,
            "DisplayProperty": null,
            "Oid": "3A7F8455-18B8-4AA2-8FE7-D40DB2028442",
            "Code": null,
            "Name": "Password",
            "IsActive": true,
            "Comment": null,
            "Caption": null,
            "ID_ModelProperty": "05C5C2F8-AB6D-4E6B-BA0D-4D181233F6D6",
            "ID_ListView": "354B51A1-688E-4380-8072-3318EA9A22BC",
            "ID_CreatedBy": 1,
            "ID_LastModifiedBy": 1,
            "DateCreated": "2018-03-11T12:46:29.000Z",
            "DateModified": null,
            "DataSource": null,
            "Format": null,
            "Width": "150",
            "Fixed": null,
            "VisibleIndex": 100,
            "IsAllowEdit": null,
            "ID_ControlType": null,
            "ID_ColumnAlignment": null,
            "IsVisible": false,
            "FixedPosition": null,
            "IsRequired": null,
            "ID_SummaryType": null,
            "IsAddModelClass": null,
            "GroupIndex": 0,
            "IsFilter": null,
            "ID_FilterControlType": null,
            "ID_PropertyModel": null,
            "PropertyModel": null,
            "SummaryType": null
        },
        {
            "ID_PropertyType": 4,
            "Precision": null,
            "$DataSource": null,
            "DisplayProperty": null,
            "Oid": "FFC2E9F0-B4CA-4A46-9099-CE4F86215FB2",
            "Code": null,
            "Name": "IsRequiredPasswordChangedOnLogin",
            "IsActive": true,
            "Comment": null,
            "Caption": "Require Password Changed on Login",
            "ID_ModelProperty": "FD363AED-D9E1-4868-B631-C2EA7729DB3A",
            "ID_ListView": "354B51A1-688E-4380-8072-3318EA9A22BC",
            "ID_CreatedBy": 1,
            "ID_LastModifiedBy": 1,
            "DateCreated": "2018-06-25T10:12:16.400Z",
            "DateModified": null,
            "DataSource": null,
            "Format": null,
            "Width": "150",
            "Fixed": null,
            "VisibleIndex": 600,
            "IsAllowEdit": null,
            "ID_ControlType": null,
            "ID_ColumnAlignment": null,
            "IsVisible": true,
            "FixedPosition": null,
            "IsRequired": null,
            "ID_SummaryType": null,
            "IsAddModelClass": null,
            "GroupIndex": 0,
            "IsFilter": null,
            "ID_FilterControlType": null,
            "ID_PropertyModel": null,
            "PropertyModel": null,
            "SummaryType": null
        },
        {
            "ID_PropertyType": 2,
            "Precision": null,
            "$DataSource": null,
            "DisplayProperty": null,
            "Oid": "CB81761B-B022-4480-82A0-317237FD908B",
            "Code": null,
            "Name": "ID_Patient",
            "IsActive": true,
            "Comment": null,
            "Caption": null,
            "ID_ModelProperty": "CC66E787-4B07-4ABC-9769-31269039A792",
            "ID_ListView": "354B51A1-688E-4380-8072-3318EA9A22BC",
            "ID_CreatedBy": 1,
            "ID_LastModifiedBy": null,
            "DateCreated": "2020-09-17T23:44:52.150Z",
            "DateModified": null,
            "DataSource": null,
            "Format": null,
            "Width": null,
            "Fixed": null,
            "VisibleIndex": 1000,
            "IsAllowEdit": null,
            "ID_ControlType": null,
            "ID_ColumnAlignment": null,
            "IsVisible": true,
            "FixedPosition": null,
            "IsRequired": null,
            "ID_SummaryType": null,
            "IsAddModelClass": null,
            "GroupIndex": null,
            "IsFilter": null,
            "ID_FilterControlType": null,
            "ID_PropertyModel": null,
            "PropertyModel": null,
            "SummaryType": null
        }
    ]
}