{
    "Oid": "CDB8DFE4-062A-492C-AF18-5FD03549FA6B",
    "Name": "ToothStatus_ListView",
    "ID_Model": "ED9DD4D5-18EC-4CCA-81DC-3C5A1CE002E8",
    "DataSource": "SELECT * FROM dbo.vToothStatus",
    "Comment": null,
    "ID_DetailView": "3AFB8350-9B16-48E0-8815-D3E8F927952B",
    "Model": "ToothStatus",
    "PrimaryKey": "ID",
    "Caption": "ToothStatus",
    "Details": [
        {
            "ID_PropertyType": 1,
            "Precision": null,
            "$DataSource": null,
            "DisplayProperty": null,
            "Oid": "D72A8B58-C8C4-407D-925F-40605F027BF0",
            "Code": null,
            "Name": "Name",
            "IsActive": true,
            "Comment": null,
            "Caption": null,
            "ID_ModelProperty": "EFBCA83D-BB02-49E4-AA74-57A0097CCEAB",
            "ID_ListView": "CDB8DFE4-062A-492C-AF18-5FD03549FA6B",
            "ID_CreatedBy": 1,
            "ID_LastModifiedBy": 1,
            "DateCreated": "2020-08-28T05:06:15.603Z",
            "DateModified": null,
            "DataSource": null,
            "Format": null,
            "Width": "258",
            "Fixed": null,
            "VisibleIndex": 200,
            "IsAllowEdit": null,
            "ID_ControlType": null,
            "ID_ColumnAlignment": null,
            "IsVisible": true,
            "FixedPosition": null,
            "IsRequired": null,
            "ID_SummaryType": null,
            "IsAddModelClass": null,
            "GroupIndex": 0,
            "IsFilter": null,
            "ID_FilterControlType": null,
            "ID_PropertyModel": null,
            "PropertyModel": null,
            "SummaryType": null
        },
        {
            "ID_PropertyType": 4,
            "Precision": null,
            "$DataSource": null,
            "DisplayProperty": null,
            "Oid": "ABFA8DF6-E322-4A92-B882-54E57F11B643",
            "Code": null,
            "Name": "IsActive",
            "IsActive": true,
            "Comment": null,
            "Caption": "Active",
            "ID_ModelProperty": "84C74E28-E3C4-4E78-A145-0442ACFCC60B",
            "ID_ListView": "CDB8DFE4-062A-492C-AF18-5FD03549FA6B",
            "ID_CreatedBy": 1,
            "ID_LastModifiedBy": 1,
            "DateCreated": "2020-08-28T05:06:15.603Z",
            "DateModified": null,
            "DataSource": null,
            "Format": null,
            "Width": "150",
            "Fixed": null,
            "VisibleIndex": 100,
            "IsAllowEdit": null,
            "ID_ControlType": null,
            "ID_ColumnAlignment": null,
            "IsVisible": false,
            "FixedPosition": null,
            "IsRequired": null,
            "ID_SummaryType": null,
            "IsAddModelClass": null,
            "GroupIndex": 0,
            "IsFilter": null,
            "ID_FilterControlType": null,
            "ID_PropertyModel": null,
            "PropertyModel": null,
            "SummaryType": null
        },
        {
            "ID_PropertyType": 5,
            "Precision": null,
            "$DataSource": null,
            "DisplayProperty": null,
            "Oid": "230F9F87-5821-4A63-8202-5B5912A861BA",
            "Code": null,
            "Name": "DateCreated",
            "IsActive": true,
            "Comment": null,
            "Caption": "Date Created",
            "ID_ModelProperty": "4097CE2B-4305-428C-A491-C7DAF0F703F1",
            "ID_ListView": "CDB8DFE4-062A-492C-AF18-5FD03549FA6B",
            "ID_CreatedBy": 1,
            "ID_LastModifiedBy": 1,
            "DateCreated": "2020-08-28T05:06:15.603Z",
            "DateModified": null,
            "DataSource": null,
            "Format": null,
            "Width": "150",
            "Fixed": null,
            "VisibleIndex": 500,
            "IsAllowEdit": null,
            "ID_ControlType": null,
            "ID_ColumnAlignment": null,
            "IsVisible": true,
            "FixedPosition": null,
            "IsRequired": null,
            "ID_SummaryType": null,
            "IsAddModelClass": null,
            "GroupIndex": 0,
            "IsFilter": null,
            "ID_FilterControlType": null,
            "ID_PropertyModel": null,
            "PropertyModel": null,
            "SummaryType": null
        },
        {
            "ID_PropertyType": 2,
            "Precision": null,
            "$DataSource": null,
            "DisplayProperty": null,
            "Oid": "B0402F76-1D43-4D83-9D65-5F76E834EE49",
            "Code": null,
            "Name": "ID",
            "IsActive": true,
            "Comment": null,
            "Caption": null,
            "ID_ModelProperty": "64296FA3-D129-4166-8F11-820C7396D9CE",
            "ID_ListView": "CDB8DFE4-062A-492C-AF18-5FD03549FA6B",
            "ID_CreatedBy": 1,
            "ID_LastModifiedBy": 1,
            "DateCreated": "2020-08-28T05:06:15.603Z",
            "DateModified": null,
            "DataSource": null,
            "Format": null,
            "Width": "76",
            "Fixed": null,
            "VisibleIndex": 0,
            "IsAllowEdit": null,
            "ID_ControlType": null,
            "ID_ColumnAlignment": null,
            "IsVisible": true,
            "FixedPosition": null,
            "IsRequired": null,
            "ID_SummaryType": null,
            "IsAddModelClass": null,
            "GroupIndex": 0,
            "IsFilter": null,
            "ID_FilterControlType": null,
            "ID_PropertyModel": null,
            "PropertyModel": null,
            "SummaryType": null
        },
        {
            "ID_PropertyType": 5,
            "Precision": null,
            "$DataSource": null,
            "DisplayProperty": null,
            "Oid": "7A51FC13-BB6F-4ACF-AD5D-84834854DA85",
            "Code": null,
            "Name": "DateModified",
            "IsActive": true,
            "Comment": null,
            "Caption": "Date Modified",
            "ID_ModelProperty": "F9985CCB-E431-48F0-95D8-4BA165A51E06",
            "ID_ListView": "CDB8DFE4-062A-492C-AF18-5FD03549FA6B",
            "ID_CreatedBy": 1,
            "ID_LastModifiedBy": 1,
            "DateCreated": "2020-08-28T05:06:15.603Z",
            "DateModified": null,
            "DataSource": null,
            "Format": null,
            "Width": "150",
            "Fixed": null,
            "VisibleIndex": 700,
            "IsAllowEdit": null,
            "ID_ControlType": null,
            "ID_ColumnAlignment": null,
            "IsVisible": true,
            "FixedPosition": null,
            "IsRequired": null,
            "ID_SummaryType": null,
            "IsAddModelClass": null,
            "GroupIndex": 0,
            "IsFilter": null,
            "ID_FilterControlType": null,
            "ID_PropertyModel": null,
            "PropertyModel": null,
            "SummaryType": null
        },
        {
            "ID_PropertyType": 1,
            "Precision": null,
            "$DataSource": null,
            "DisplayProperty": null,
            "Oid": "6708691A-B1FC-4CD8-A0A9-8510A63DEE0F",
            "Code": null,
            "Name": "Comment",
            "IsActive": true,
            "Comment": null,
            "Caption": null,
            "ID_ModelProperty": "AFFFF4A4-1659-4B08-9005-8D273D10A3EC",
            "ID_ListView": "CDB8DFE4-062A-492C-AF18-5FD03549FA6B",
            "ID_CreatedBy": 1,
            "ID_LastModifiedBy": 1,
            "DateCreated": "2020-08-28T05:06:15.603Z",
            "DateModified": null,
            "DataSource": null,
            "Format": null,
            "Width": "329",
            "Fixed": null,
            "VisibleIndex": 400,
            "IsAllowEdit": null,
            "ID_ControlType": null,
            "ID_ColumnAlignment": null,
            "IsVisible": true,
            "FixedPosition": null,
            "IsRequired": null,
            "ID_SummaryType": null,
            "IsAddModelClass": null,
            "GroupIndex": 0,
            "IsFilter": null,
            "ID_FilterControlType": null,
            "ID_PropertyModel": null,
            "PropertyModel": null,
            "SummaryType": null
        },
        {
            "ID_PropertyType": 2,
            "Precision": null,
            "$DataSource": null,
            "DisplayProperty": "LastModifiedBy",
            "Oid": "F2A60335-F04A-4A5C-AEB2-86E15128A7CC",
            "Code": null,
            "Name": "ID_LastModifiedBy",
            "IsActive": true,
            "Comment": null,
            "Caption": "Last Modified By",
            "ID_ModelProperty": "04360BCC-C357-4BE4-9536-CEA4CD19AABE",
            "ID_ListView": "CDB8DFE4-062A-492C-AF18-5FD03549FA6B",
            "ID_CreatedBy": 1,
            "ID_LastModifiedBy": 1,
            "DateCreated": "2020-08-28T05:06:15.603Z",
            "DateModified": null,
            "DataSource": null,
            "Format": null,
            "Width": "150",
            "Fixed": null,
            "VisibleIndex": 800,
            "IsAllowEdit": null,
            "ID_ControlType": null,
            "ID_ColumnAlignment": null,
            "IsVisible": true,
            "FixedPosition": null,
            "IsRequired": null,
            "ID_SummaryType": null,
            "IsAddModelClass": null,
            "GroupIndex": 0,
            "IsFilter": null,
            "ID_FilterControlType": null,
            "ID_PropertyModel": null,
            "PropertyModel": null,
            "SummaryType": null
        },
        {
            "ID_PropertyType": 2,
            "Precision": null,
            "$DataSource": null,
            "DisplayProperty": "CreatedBy",
            "Oid": "4F0C0EA7-335A-45B1-93F5-8833213884D0",
            "Code": null,
            "Name": "ID_CreatedBy",
            "IsActive": true,
            "Comment": null,
            "Caption": "Created By",
            "ID_ModelProperty": "97BA7D5B-612E-4DE5-A885-CD423442B029",
            "ID_ListView": "CDB8DFE4-062A-492C-AF18-5FD03549FA6B",
            "ID_CreatedBy": 1,
            "ID_LastModifiedBy": 1,
            "DateCreated": "2020-08-28T05:06:15.603Z",
            "DateModified": null,
            "DataSource": null,
            "Format": null,
            "Width": "150",
            "Fixed": null,
            "VisibleIndex": 600,
            "IsAllowEdit": null,
            "ID_ControlType": null,
            "ID_ColumnAlignment": null,
            "IsVisible": true,
            "FixedPosition": null,
            "IsRequired": null,
            "ID_SummaryType": null,
            "IsAddModelClass": null,
            "GroupIndex": 0,
            "IsFilter": null,
            "ID_FilterControlType": null,
            "ID_PropertyModel": null,
            "PropertyModel": null,
            "SummaryType": null
        },
        {
            "ID_PropertyType": 1,
            "Precision": null,
            "$DataSource": null,
            "DisplayProperty": null,
            "Oid": "E8E48886-866D-4A5C-A5DB-8FD98FBB3539",
            "Code": null,
            "Name": "Code",
            "IsActive": true,
            "Comment": null,
            "Caption": null,
            "ID_ModelProperty": "31B62550-5555-4F93-97A0-D80CAEF12EA4",
            "ID_ListView": "CDB8DFE4-062A-492C-AF18-5FD03549FA6B",
            "ID_CreatedBy": 1,
            "ID_LastModifiedBy": 1,
            "DateCreated": "2020-08-28T05:06:15.603Z",
            "DateModified": null,
            "DataSource": null,
            "Format": null,
            "Width": "114",
            "Fixed": null,
            "VisibleIndex": 100,
            "IsAllowEdit": null,
            "ID_ControlType": null,
            "ID_ColumnAlignment": null,
            "IsVisible": true,
            "FixedPosition": null,
            "IsRequired": null,
            "ID_SummaryType": null,
            "IsAddModelClass": null,
            "GroupIndex": 0,
            "IsFilter": null,
            "ID_FilterControlType": null,
            "ID_PropertyModel": null,
            "PropertyModel": null,
            "SummaryType": null
        },
        {
            "ID_PropertyType": 2,
            "Precision": null,
            "$DataSource": null,
            "DisplayProperty": null,
            "Oid": "7F2D470C-9CDC-4382-A116-FE41A872E5B0",
            "Code": null,
            "Name": "ID_Company",
            "IsActive": true,
            "Comment": null,
            "Caption": null,
            "ID_ModelProperty": "61B62B80-08B4-49EA-88DE-B27071670C4E",
            "ID_ListView": "CDB8DFE4-062A-492C-AF18-5FD03549FA6B",
            "ID_CreatedBy": 1,
            "ID_LastModifiedBy": 1,
            "DateCreated": "2020-08-28T05:06:15.603Z",
            "DateModified": null,
            "DataSource": null,
            "Format": null,
            "Width": "150",
            "Fixed": null,
            "VisibleIndex": 400,
            "IsAllowEdit": null,
            "ID_ControlType": null,
            "ID_ColumnAlignment": null,
            "IsVisible": false,
            "FixedPosition": null,
            "IsRequired": null,
            "ID_SummaryType": null,
            "IsAddModelClass": null,
            "GroupIndex": 0,
            "IsFilter": null,
            "ID_FilterControlType": null,
            "ID_PropertyModel": null,
            "PropertyModel": null,
            "SummaryType": null
        },
        {
            "ID_PropertyType": 2,
            "Precision": null,
            "$DataSource": null,
            "DisplayProperty": "Name_ToothStatusType",
            "Oid": "9F17E391-E557-461C-999C-79CA5C797AB5",
            "Code": null,
            "Name": "ID_ToothStatusType",
            "IsActive": true,
            "Comment": null,
            "Caption": "Type",
            "ID_ModelProperty": "5D244FBD-3E69-4A54-A729-689BB6A74625",
            "ID_ListView": "CDB8DFE4-062A-492C-AF18-5FD03549FA6B",
            "ID_CreatedBy": 1,
            "ID_LastModifiedBy": 1,
            "DateCreated": "2020-09-06T23:07:30.723Z",
            "DateModified": null,
            "DataSource": null,
            "Format": null,
            "Width": "113",
            "Fixed": null,
            "VisibleIndex": 300,
            "IsAllowEdit": null,
            "ID_ControlType": null,
            "ID_ColumnAlignment": null,
            "IsVisible": true,
            "FixedPosition": null,
            "IsRequired": null,
            "ID_SummaryType": null,
            "IsAddModelClass": null,
            "GroupIndex": 0,
            "IsFilter": null,
            "ID_FilterControlType": null,
            "ID_PropertyModel": null,
            "PropertyModel": null,
            "SummaryType": null
        }
    ]
}